samples/acq3464.csv

#Digilent WaveForms Oscilloscope Acquisition
#Device Name: Discovery2
#Serial Number: SN:210321AD996C
#Date Time: 2025-12-07 12:58:45.330
#Sample rate: 5e+07Hz
#Samples: 8192
#Trigger: Source: Channel 1 Type: Edge Condition: Rising Level: 0 V Hyst.: Auto HoldOff: 0 s
#Channel 1: Range: 500 mV/div Offset: 0 V Sample Mode: Average
#Channel 2: Range: 500 mV/div Offset: 0 V Sample Mode: Average
#Wavegen Channel 1: Running
#Mode: Custom
#Type: noisy
#Frequency: 117 kHz
#Period: 8.547008547 us
#Amplitude: 1 V
#Offset: 0 V
#Phase: 0 °

Time (s),Channel 1 (V),Channel 2 (V)
-0.00012898687500000002,-0.5165757233475569,0.0033396886307441374
-0.000128966875,-0.5102082916996377,0.004018567810406142
-0.00012894687499999998,-0.5075272678478764,0.0036791282205757576
-0.000128926875,-0.4984788123482074,0.004018567810406142
-0.000128906875,-0.4750198536453789,0.004018567810406142
-0.000128886875,-0.4475393591649227,0.004018567810406142
-0.000128866875,-0.4348044958690832,0.004697446990067529
-0.000128846875,-0.4448583353131526,0.00435800740023699
-0.000128826875,-0.42642629633235296,0.005376326169728453
-0.000128806875,-0.42206963257325625,0.0043580074002368355
-0.000128786875,-0.4160373289068146,0.00639464493922007
-0.000128766875,-0.4002863137777666,0.00435800740023699
-0.000128746875,-0.40866451331449105,0.004697446990067529
-0.000128726875,-0.38788657846339164,0.0063946449392205335
-0.000128706875,-0.35873044407559057,0.0053763261697289165
-0.000128686875,-0.3413037890392037,0.007412963708712151
-0.00012866687500000002,-0.3550440362794176,0.005715765759561154
-0.000128646875,-0.3299094376692453,0.008091842888374464
-0.00012862687499999998,-0.30745586291080657,0.006394644939222232
-0.000128606875,-0.2997479193370074,0.00775240329854408
-0.000128586875,-0.2642243533013119,0.008431282478204849
-0.00012856687500000002,-0.24445180239463501,0.008770722068035542
-0.000128546875,-0.24277616248727138,0.008091842888374464
-0.00012852687499999998,-0.2152956680068048,0.008431282478205158
-0.000128506875,-0.2176415638770872,0.008431282478205158
-0.000128486875,-0.21898207580296308,0.008431282478205158
-0.000128466875,-0.1861395336190032,0.009449601247696776
-0.000128446875,-0.1874800455448648,0.008770722068035851
-0.00012842687499999998,-0.17273441436021178,0.009449601247696622
-0.000128406875,-0.1603346790458585,0.008770722068036314
-0.000128386875,-0.14558904786122348,0.009789040837527933
-0.000128366875,-0.11341676164020154,0.010467920017189011
-0.000128346875,-0.09833600247408045,0.010128480427358163
-0.000128326875,-0.1080547139366764,0.009110161657867008
-0.000128306875,-0.07487704377123566,0.010807359607019704
-0.000128286875,-0.07219601991948385,0.010128480427358626
-0.000128266875,-0.06314756441982142,0.010807359607019704
-0.00012824687500000002,-0.055104492864565494,0.011825678376511167
-0.000128226875,-0.04169937360579295,0.0114862387866814
-0.00012820687499999999,-0.003829911699767161,0.012165117966340934
-0.000128186875,0.011585975447798831,0.010128480427358626
-0.000128166875,0.013931871318081678,0.011486238786680782
-0.00012814687500000002,0.04241774974293294,0.013862315915494094
-0.000128126875,0.04610415753911929,0.011146799196850707
-0.00012810687499999998,0.061184916705246326,0.01318343673583456
-0.000128086875,0.07894669972310003,0.012843997146004328
-0.000128066875,0.0920166910003902,0.013183436735834868
-0.00012804687500000001,0.11044872998117561,0.013183436735834868
-0.000128026875,0.12318359327701936,0.013183436735834868
-0.00012800687499999998,0.114805393740317,0.013183436735833942
-0.000127986875,0.14329127216517298,0.012165117966343559
-0.000127966875,0.15602613546099414,0.013862315915496255
-0.000127946875,0.15368023959071128,0.012504557556174098
-0.000127926875,0.2009332849778668,0.014880634684988335
-0.000127906875,0.22104096386599636,0.014880634684988335
-0.000127886875,0.21903019597719378,0.014541195095157796
-0.000127866875,0.22573275560657333,0.014880634684988335
-0.000127846875,0.23913787486533244,0.015220074274818874
-0.00012782687500000002,0.2682940092531264,0.015220074274819029
-0.000127806875,0.2860557922710169,0.015559513864649722
-0.00012778687499999999,0.30582834317771174,0.01589895345448165
-0.000127766875,0.32359012619555955,0.01725671181380319
-0.000127746875,0.3054932151962347,0.016238393044311572
-0.00012772687500000002,0.3095147509738524,0.01691727222397188
-0.000127706875,0.3359898615099174,0.016577832634141802
-0.00012768687499999998,0.3671567637865483,0.016917272223972806
-0.000127666875,0.3691675316753587,0.017256711813803498
-0.000127646875,0.3634703559903861,0.017935590993464576
-0.00012762687500000001,0.37721060323060795,0.017256711813803807
-0.000127606875,0.4006695619334596,0.017935590993464576
-0.00012758687499999998,0.4070369935814072,0.017256711813804115
-0.000127566875,0.4445713275059172,0.018275030583295118
-0.000127546875,0.447922607320607,0.017935590993464576
-0.000127526875,0.462668238505242,0.017935590993464576
-0.000127506875,0.4750679738196066,0.01827503058329527
-0.000127486875,0.4881379650968968,0.019632788942617427
-0.000127466875,0.49852693252245167,0.01827503058329589
-0.000127446875,0.5115969237997419,0.019632788942618044
-0.000127426875,0.5203102513179353,0.018953909762956966
-0.00012740687500000002,0.5434340820392882,0.019632788942617427
-0.000127386875,0.5554986893721979,0.01997222853244874
-0.000127366875,0.541758442131963,0.019632788942618353
-0.000127346875,0.5404179302060871,0.02031166812227943
-0.000127326875,0.5571743292795359,0.02031166812227943
-0.00012730687500000002,0.5578445852424814,0.019972228532449048
-0.000127286875,0.5692389366124323,0.019632788942618044
-0.00012726687499999998,0.6121353182405045,0.019972228532449666
-0.000127246875,0.6379401728136054,0.020990547301941127
-0.000127226875,0.6406211966653559,0.021669426481601896
-0.00012720687500000002,0.6305673572212923,0.020990547301941435
-0.000127186875,0.6704475870161097,0.020990547301940818
-0.00012716687499999998,0.6640801553682012,0.020990547301941127
-0.000127146875,0.6694422030717152,0.021329986891771822
-0.000127126875,0.6975929535151094,0.0220088660714329
-0.000127106875,0.7106629447923994,0.022687745251093978
-0.000127086875,0.7019496172742081,0.022687745251094286
-0.000127066875,0.7009442333298012,0.02200886607143321
-0.000127046875,0.7063062810333095,0.022008866071433517
-0.000127026875,0.7123385846997511,0.023366624430755673
-0.000127006875,0.7361326713840486,0.022348305661264056
-0.000126986875,0.7579159901795434,0.022687745251094134
-0.000126966875,0.7368029273469977,0.022348305661263595
-0.000126946875,0.7461865108281412,0.022687745251094748
-0.000126926875,0.7636131658645281,0.02370606402058637
-0.000126906875,0.7776885410862252,0.02370606402058637
-0.00012688687500000002,0.7984664759372988,0.02370606402058637
-0.000126866875,0.7961205800670338,0.024384943200247755
-0.00012684687499999998,0.8105310832702055,0.02472438279007752
-0.000126826875,0.809525699325796,0.023706064020585907
-0.000126806875,0.8028231396964194,0.02268774525109475
-0.00012678687500000002,0.8473951612317703,0.024724382790076594
-0.000126766875,0.845384393342996,0.02404550361041706
-0.00012674687499999998,0.8547679768241472,0.02404550361041737
-0.000126726875,0.8718595038790574,0.024384943200247755
-0.000126706875,0.8721946318605265,0.024384943200247755
-0.000126686875,0.8614705364535191,0.02574270155956991
-0.000126666875,0.8614705364535142,0.02404550361041706
-0.00012664687499999998,0.8705189919531796,0.024384943200248373
-0.000126626875,0.8691784800273056,0.02506382237990899
-0.000126606875,0.8721946318605265,0.024724382790078447
-0.000126586875,0.8809079593787199,0.024384943200247908
-0.000126566875,0.8996751263409992,0.024384943200248373
-0.000126546875,0.9083884538591885,0.02574270155956991
-0.000126526875,0.9067128139518482,0.024384943200248373
-0.000126506875,0.9097289657850691,0.02574270155957053
-0.000126486875,0.9194476772476694,0.025403261969739986
-0.00012646687500000002,0.9013507662483573,0.024724382790079064
-0.000126446875,0.919782805229143,0.02404550361041706
-0.00012642687499999999,0.9295015166917341,0.025403261969738907
-0.000126406875,0.9144207575256369,0.024384943200247755
-0.000126386875,0.9398904841172793,0.02540326196973937
-0.00012636687500000002,0.9284961327473508,0.025403261969739833
-0.000126346875,0.9569820111722165,0.026082141149401224
-0.00012632687499999998,0.9687114905236212,0.026082141149400297
-0.000126306875,0.9522902194316532,0.02506382237990945
-0.000126286875,0.9620089308942535,0.02574270155957053
-0.00012626687500000001,0.9640196987830665,0.026761020329061684
-0.000126246875,0.9563117552092782,0.025403261969739833
-0.00012622687499999998,0.9700520024495239,0.02404550361041922
-0.000126206875,0.9824517377638616,0.026421580739231454
-0.000126186875,0.9630143148386608,0.025403261969739833
-0.000126166875,0.9841273776712066,0.027100459918892532
-0.000126146875,0.9794355859306393,0.02608214114940107
-0.000126126875,0.9596630350239785,0.02574270155957068
-0.000126106875,0.9844625056526822,0.025742701559570376
-0.000126086875,0.9777599460233026,0.025403261969739833
-0.000126066875,0.9663655946533574,0.025742701559570376
-0.00012604687500000002,0.9680412345606962,0.026421580739231298
-0.000126026875,0.9566468831907474,0.025403261969739833
-0.00012600687499999999,0.9546361153019524,0.025403261969740142
-0.000125986875,0.9764194340974262,0.02574270155957053
-0.000125966875,0.9717276423568604,0.02608214114940107
-0.00012594687500000002,0.9787653299677036,0.025742701559570837
-0.000125926875,0.9425715079690439,0.025063822379909142
-0.00012590687499999998,0.968041234560706,0.026082141149400297
-0.000125886875,0.9770896900603596,0.025063822379909294
-0.000125866875,0.9667007226348213,0.025403261969739833
-0.00012584687500000001,0.9328527965064699,0.02438494320024868
-0.000125826875,0.9465930437466735,0.02404550361041706
-0.00012580687499999998,0.9492740675984347,0.024724382790078138
-0.000125786875,0.9583225230980936,0.024384943200248064
-0.000125766875,0.9596630350239695,0.025063822379909142
-0.000125746875,0.9479335556725553,0.02540326196973968
-0.000125726875,0.9281610047658713,0.024724382790078447
-0.000125706875,0.9375445882470027,0.02506382237990899
-0.000125686875,0.9298366446732109,0.024384943200248064
-0.000125666875,0.9167666533959209,0.025063822379909142
-0.000125646875,0.9231340850438314,0.0247243827900786
-0.000125626875,0.8979994864336526,0.02404550361041706
-0.000125606875,0.9047020460630322,0.02404550361041706
-0.000125586875,0.8886159029525257,0.023366624430755982
-0.000125566875,0.9144207575256369,0.02404550361041706
-0.000125546875,0.914755885507106,0.023366624430755982
-0.00012552687500000002,0.9026912781742283,0.02370606402058606
-0.000125506875,0.8926374387301435,0.02404550361041706
-0.00012548687499999998,0.8792323194713804,0.023366624430755056
-0.000125466875,0.8815782153416564,0.02268774525109444
-0.000125446875,0.868843352045841,0.02302718484092483
-0.00012542687500000002,0.8765512956196182,0.022687745251094595
-0.000125406875,0.8809079593787239,0.02302718484092498
-0.00012538687499999998,0.8735351437863914,0.023366624430755364
-0.000125366875,0.8608002804905645,0.023027184840925134
-0.000125346875,0.8353305538989221,0.023366624430755673
-0.000125326875,0.8239362025289768,0.022008866071433517
-0.000125306875,0.811871595196083,0.021329986891771513
-0.000125286875,0.7853964846600336,0.021669426481602052
-0.000125266875,0.7877423805303133,0.02200886607143321
-0.000125246875,0.8048339075852312,0.022687745251094286
-0.000125226875,0.7957854520855687,0.02200886607143321
-0.000125206875,0.7880775085117715,0.022008866071432747
-0.000125186875,0.7810398209009229,0.021669426481602205
-0.000125166875,0.755570094309263,0.020311668122279584
-0.000125146875,0.7425001030319729,0.020651107712110126
-0.000125126875,0.7532241984389801,0.020990547301940665
-0.00012510687500000002,0.7461865108281398,0.02031166812228005
-0.000125086875,0.7153547365329733,0.01997222853244874
-0.00012506687499999998,0.727084215884392,0.020990547301940818
-0.000125046875,0.7260788319399797,0.02099054730194097
-0.000125026875,0.7133439686441643,0.02132998689177136
-0.00012500687500000002,0.6895498819598719,0.019972228532449975
-0.000124986875,0.6985983374595167,0.02031166812227943
-0.00012496687499999998,0.6811716824230949,0.019972228532448122
-0.000124946875,0.6513452920723694,0.01929334935278766
-0.000124926875,0.6513452920723694,0.01997222853244874
-0.000124906875,0.6392806847394916,0.01997222853244874
-0.000124886875,0.6174973659439872,0.019632788942618044
-0.00012486687499999998,0.6104596783331278,0.017935590993465193
-0.000124846875,0.6020814787964116,0.01861447017312612
-0.000124826875,0.6118001902590119,0.018953909762956658
-0.000124806875,0.5870007196303075,0.018953909762956658
-0.000124786875,0.5752712402788766,0.01895390976295681
-0.000124766875,0.5749361122974076,0.0192933493527872
-0.000124746875,0.5444394659837146,0.01725671181380365
-0.000124726875,0.5400828022246179,0.01827503058329527
-0.000124706875,0.523996659114107,0.01827503058329527
-0.00012468687500000002,0.5012079563742196,0.016917272223973732
-0.000124666875,0.514613075632964,0.017935590993464576
-0.00012464687499999999,0.5045592361888676,0.01793559099346365
-0.000124626875,0.4797597655601744,0.016917272223972497
-0.000124606875,0.46233311052378756,0.017596151403633575
-0.00012458687500000002,0.4492631192464954,0.015559513864651575
-0.000124566875,0.4442361995244466,0.016577832634141802
-0.00012454687499999998,0.4154151931181028,0.015898953454480724
-0.000124526875,0.4170908330254407,0.016238393044310958
-0.000124506875,0.4033505857852126,0.015898953454480415
-0.00012448687500000001,0.3899454665264596,0.014880634684989262
-0.000124466875,0.3963128981743609,0.015559513864649722
-0.00012444687499999998,0.3574380523239338,0.01420175550532664
-0.000124426875,0.34872472480574646,0.013862315915496873
-0.000124406875,0.3534165165463122,0.015220074274819029
-0.000124386875,0.33364396563964244,0.014201755505327412
-0.000124366875,0.315211926658823,0.014880634684987255
-0.000124346875,0.29711501565950643,0.01250455755617456
-0.000124326875,0.2927583519003826,0.01318343673583456
-0.000124306875,0.255559145957326,0.01250455755617348
-0.000124286875,0.2619265776052366,0.013522876325665099
-0.00012426687500000002,0.24684581843914227,0.012504557556174406
-0.000124246875,0.24215402669856073,0.013183436735834868
-0.00012422687499999999,0.2230517317548081,0.01182567837651271
-0.000124206875,0.20964661249605507,0.01250455755617348
-0.000124186875,0.19758200516317184,0.01250455755617348
-0.00012416687500000002,0.17278253453447326,0.012843997146003865
-0.000124146875,0.17110689462710504,0.01250455755617348
-0.00012412687499999998,0.1761338143490923,0.011486238786681091
-0.000124106875,0.12150795336966304,0.011146799196850707
-0.000124086875,0.09804899466684523,0.011146799196850707
-0.00012406687500000001,0.08598438733395682,0.011486238786681091
-0.000124046875,0.09905437861124194,0.010807359607020013
-0.00012402687499999998,0.07827644376015308,0.011486238786680782
-0.000124006875,0.0752602919269181,0.01080735960701955
-0.000123986875,0.04107723781708233,0.009789040837527933
-0.000123966875,0.03370442222476481,0.009449601247697394
-0.000123946875,0.014937255262490137,0.00944960124769724
-0.000123926875,-0.02393759058791134,0.00877072206803616
-0.000123906875,-0.024272718569400133,0.008770722068035851
-0.000123886875,-0.028629382328496853,0.008770722068035851
-0.000123866875,-0.027959126365558896,0.010467920017188548
-0.000123846875,-0.07119063597508268,0.008770722068035851
-0.000123826875,-0.08493088321531081,0.008770722068035851
-0.000123806875,-0.06750422817893538,0.008431282478205158
-0.000123786875,-0.11006548182549561,0.008431282478205158
-0.000123766875,-0.09531985064086056,0.008091842888374619
-0.00012374687500000002,-0.10436830614051217,0.008091842888374464
-0.000123726875,-0.1338595685098039,0.007073524118882384
-0.00012370687499999998,-0.13285418456541234,0.0077524032985431535
-0.000123686875,-0.15028083960179558,0.007073524118882539
-0.000123666875,-0.1596644230829227,0.007412963708712923
-0.00012364687500000002,-0.18680978958190186,0.005036886579900384
-0.000123626875,-0.21563079598827178,0.007073524118882384
-0.00012360687499999998,-0.24043026661696856,0.005715765759559301
-0.000123586875,-0.21965233176591187,0.005376326169729225
-0.000123566875,-0.24277616248727138,0.006055205349390303
-0.000123546875,-0.2665702491715688,0.0046974469900681465
-0.000123526875,-0.2729376808194931,0.0043580074002368355
-0.000123506875,-0.30443971107757706,0.0046974469900673745
-0.000123486875,-0.3154989344660791,0.004358007400236681
-0.000123466875,-0.3295743096877762,0.004018567810406142
-0.000123446875,-0.33057969363218315,0.0026608094510839854
-0.000123426875,-0.3426443009650688,0.00469744699006722
-0.000123406875,-0.3349363573912823,0.004018567810406142
-0.000123386875,-0.37113017938995846,0.0030002490409140616
-0.000123366875,-0.39324862616691103,0.0030002490409140616
-0.000123346875,-0.41436168899945663,0.0030002490409140616
-0.00012332687500000002,-0.4200588646844363,0.003339688630744446
-0.000123306875,-0.4096698972588984,0.003339688630744755
-0.00012328687499999999,-0.4240804004620756,0.0033396886307435203
-0.000123266875,-0.429107320184108,0.001981930271421981
-0.000123246875,-0.46664165410863356,0.00028473232226928504
-0.00012322687500000002,-0.46898754997893244,-0.006843499064169568
-0.000123206875,-0.48708446097826763,-0.014311170040451309
-0.00012318687499999998,-0.5008247082185106,-0.018723884708250017
-0.000123166875,-0.510208291699632,-0.018384445118418243
-0.000123146875,-0.4978085563852798,-0.015329488809943389
-0.00012312687500000001,-0.5098731637181575,-0.012613972091300312
-0.000123106875,-0.5524344173647481,-0.013292851270959229
-0.00012308687499999998,-0.5742177361602291,-0.014650609630283546
-0.000123066875,-0.5604774889200093,-0.016347807579435932
-0.000123046875,-0.564834152679106,-0.01736612634892755
-0.000123026875,-0.6003577187148177,-0.016008367989605393
-0.000123006875,-0.6033738705480587,-0.015329488809943543
-0.000122986875,-0.6094061742144975,-0.01566892839977393
-0.000122966875,-0.6358812847505559,-0.016347807579435623
-0.000122946875,-0.6234815494362038,-0.016687247169266162
-0.000122926875,-0.6378920526393699,-0.015668928399774545
-0.00012290687500000002,-0.6606807553792565,-0.015329488809943698
-0.000122886875,-0.6754263865639191,-0.018723884708250326
-0.00012286687499999999,-0.6864856099523818,-0.018723884708250635
-0.000122846875,-0.6660428030827834,-0.019063324298081018
-0.000122826875,-0.6948638094891155,-0.01940276388791156
-0.00012280687500000002,-0.6965394493964727,-0.017705565938759788
-0.000122786875,-0.7106148246181778,-0.01736612634892755
-0.00012276687499999998,-0.7236848158954717,-0.018384445118419322
-0.000122746875,-0.7213389200252066,-0.01804500552859002
-0.000122726875,-0.7578678700053252,-0.02042108265740379
-0.00012270687500000001,-0.7632299177088264,-0.02109996183706456
-0.000122686875,-0.7793160608193496,-0.019402763887911713
-0.00012266687499999998,-0.7632299177088316,-0.018723884708250326
-0.000122646875,-0.7635650456903159,-0.018723884708250788
-0.000122626875,-0.7974129718186826,-0.019742203477742404
-0.000122606875,-0.8131639869477245,-0.02076052224723402
-0.000122586875,-0.8067965552998216,-0.02109996183706533
-0.000122566875,-0.8141693708921358,-0.02143940142689572
-0.000122546875,-0.8342770497802895,-0.020421082657404253
-0.000122526875,-0.8396390974837931,-0.021439401426895873
-0.000122506875,-0.8188611626327165,-0.020081643067573717
-0.00012248687500000002,-0.8439957612428689,-0.021439401426894638
-0.000122466875,-0.8476821690390522,-0.021439401426895873
-0.00012244687499999999,-0.8463416571131881,-0.021439401426896026
-0.000122426875,-0.8734870236121753,-0.021778841016726568
-0.000122406875,-0.877173431408334,-0.021099961837065487
-0.00012238687500000002,-0.8657790800383957,-0.02177884101672595
-0.000122366875,-0.8758329194824592,-0.021439401426895873
