samples/acq3505.csv

#Digilent WaveForms Oscilloscope Acquisition
#Device Name: Discovery2
#Serial Number: SN:210321AD996C
#Date Time: 2025-12-07 12:58:46.637
#Sample rate: 5e+07Hz
#Samples: 8192
#Trigger: Source: Channel 1 Type: Edge Condition: Rising Level: 0 V Hyst.: Auto HoldOff: 0 s
#Channel 1: Range: 500 mV/div Offset: 0 V Sample Mode: Average
#Channel 2: Range: 500 mV/div Offset: 0 V Sample Mode: Average
#Wavegen Channel 1: Running
#Mode: Custom
#Type: noisy
#Frequency: 117 kHz
#Period: 8.547008547 us
#Amplitude: 1 V
#Offset: 0 V
#Phase: 0 °

Time (s),Channel 1 (V),Channel 2 (V)
-0.00012898761904761905,-0.5470723696612421,-0.0034491031658691156
-0.00012896761904761906,-0.5293105866433861,-0.0034491031658691156
-0.00012894761904761904,-0.5239485389398603,-0.0024307843963773438
-0.00012892761904761905,-0.49814368436676065,-0.0031096635760381134
-0.00012890761904761904,-0.4736793417194954,-0.0024307843963764174
-0.00012888761904761905,-0.45826345457192236,-0.0010730260370542608
-0.00012886761904761906,-0.44988525503519794,-0.001751905216715339
-0.00012884761904761907,-0.43882603164672285,-0.0017519052167156478
-0.00012882761904761905,-0.41436168899946624,-0.0014124656268849544
-0.00012880761904761904,-0.4190534807400255,-0.0007335864472238759
-0.00012878761904761905,-0.40028631377776275,-0.0014124656268849544
-0.00012876761904761906,-0.4177129688141496,-0.0027702239862071112
-0.00012874761904761907,-0.3872163225004944,-0.0010730260370558045
-0.00012872761904761905,-0.3637573637976275,-5.470726756218023e-05
-0.00012870761904761903,-0.3513576284832404,-5.470726756156279e-05
-0.00012868761904761904,-0.31918534226223133,0.0006241719120993613
-0.00012866761904761905,-0.3151638064846054,0.0009636115019297461
-0.00012864761904761906,-0.3037694551146635,-5.470726756125405e-05
-0.00012862761904761905,-0.27896998448593746,0.0009636115019299004
-0.00012860761904761903,-0.2759538326527165,-0.0003941468573922563
-0.00012858761904761904,-0.27729434457858054,0.00028473232226882203
-0.00012856761904761905,-0.25249487394987613,0.0009636115019299004
-0.00012854761904761906,-0.2471328262463725,0.0013030510917604395
-0.00012852761904761904,-0.21697130791414831,0.0009636115019299004
-0.00012850761904761906,-0.2082579803959549,0.001981930271421518
-0.00012848761904761904,-0.1995446528777514,0.0006241719120995156
-0.00012846761904761905,-0.1948528611371857,0.0013030510917605939
-0.00012844761904761906,-0.1854692776560543,0.001642490681591133
-0.00012842761904761904,-0.1918367093039623,0.0009636115019300548
-0.00012840761904761905,-0.18915568545221045,0.0013030510917605939
-0.00012838761904761904,-0.1362054643800825,0.0023213698612523656
-0.00012836761904761905,-0.12447598502866822,0.0016424906815912875
-0.00012834761904761906,-0.0923036988076463,0.0013030510917607483
-0.00012832761904761907,-0.11107086576988592,0.0016424906815909787
-0.00012830761904761905,-0.10939522586255734,0.0002847323222685133
-0.00012828761904761903,-0.0926388267890798,-5.47072675600192e-05
-0.00012826761904761904,-0.0695149960677247,0.002321369861252057
-0.00012824761904761905,-0.05610987680897167,0.0009636115019305178
-0.00012822761904761906,-0.05476936488309027,0.0006241719120995157
-0.00012820761904761905,-0.021926822699114237,0.0009636115019299004
-0.00012818761904761903,0.0048834158184415145,-0.0003941468573916389
-0.00012816761904761904,0.03269903828034873,0.0009636115019289743
-0.00012814761904761905,0.02096955892893449,-0.0010730260370542608
-0.00012812761904761906,0.03806108598385238,-0.0010730260370542608
-0.00012810761904761905,0.058168764872008,-0.0010730260370542608
-0.00012808761904761903,0.08095746761192626,-0.0003941468573941086
-0.00012806761904761904,0.10005976255564628,-0.0017519052167162652
-0.00012804761904761905,0.09335720292626673,-0.003109663576038422
-0.00012802761904761906,0.1305564088693233,-0.0017519052167162652
-0.00012800761904761904,0.14128050427635377,-0.0020913448065461872
-0.00012798761904761905,0.14429665610957457,-0.0017519052167156478
-0.00012796761904761904,0.159712543257168,-0.002091344806547268
-0.00012794761904761905,0.1892038056264381,-0.004127982345530502
-0.00012792761904761906,0.17512843040474102,-0.0027702239862083455
-0.00012790761904761907,0.19959277305195888,-0.0031096635760381134
-0.00012788761904761905,0.21634917212543767,-0.0034491031658691156
-0.00012786761904761903,0.2441647945873798,-0.004467421935359961
-0.00012784761904761904,0.24885658632794336,-0.003109663576038422
-0.00012782761904761905,0.2639373454940474,-0.003109663576038422
-0.00012780761904761907,0.2636022175125854,-0.004127982345529576
-0.00012778761904761905,0.28438015236367126,-0.003788542755699809
-0.00012776761904761903,0.2947691197892173,-0.004806861525191581
-0.00012774761904761904,0.2981203996039164,-0.0044674219353619685
-0.00012772761904761905,0.3219144862882139,-0.006164619884514664
-0.00012770761904761906,0.325600894084371,-0.00378854275570197
-0.00012768761904761905,0.3560975403980652,-0.003788542755699809
-0.00012766761904761903,0.38089701102677415,-0.004806861525191272
-0.00012764761904761904,0.3735241954344641,-0.004127982345530502
-0.00012762761904761905,0.3825726509341265,-0.004127982345530502
-0.00012760761904761906,0.40703699358136197,-0.004806861525191581
-0.00012758761904761904,0.4378687678765316,-0.0054857407048528135
-0.00012756761904761905,0.43451748806184326,-0.00446742193536166
-0.00012754761904761904,0.4368633839321292,-0.0037885427556991914
-0.00012752761904761905,0.4445713275059157,-0.002430784396377035
-0.00012750761904761906,0.4589818307090818,-0.0037885427556991914
-0.00012748761904761907,0.4874677091339385,-0.003788542755699809
-0.00012746761904761905,0.48545694124514965,-0.002430784396377035
-0.00012744761904761903,0.5002025724297999,-0.0027702239862074196
-0.00012742761904761905,0.509586155910927,-0.002430784396377035
-0.00012740761904761906,0.5266776829658449,-0.002091344806546496
-0.00012738761904761907,0.5370666503913863,-0.001412465626885572
-0.00012736761904761905,0.5642120168903954,-0.0017519052167156478
-0.00012734761904761903,0.5662227847792123,-0.001073026037053952
-0.00012732761904761904,0.5685686806494954,-0.0007335864472240303
-0.00012730761904761905,0.5715848324827162,-0.0017519052167156478
-0.00012728761904761906,0.5977248150372847,0.0006241719120970456
-0.00012726761904761905,0.6205135177772093,0.0013030510917605939
-0.00012724761904761903,0.6396158127209544,0.0030002490409131353
-0.00012722761904761904,0.6446427324429856,0.001981930271421981
-0.00012720761904761905,0.6422968365727028,0.001981930271421981
-0.00012718761904761906,0.6402860686838889,0.004018567810405216
-0.00012716761904761904,0.6617342594979194,0.004018567810405525
-0.00012714761904761905,0.6771501466454855,0.0026608094510839854
-0.00012712761904761904,0.6687719471087784,0.001642490681588972
-0.00012710761904761905,0.7002739773668624,-0.0034491031658691156
-0.00012708761904761906,0.6996037214039245,-0.006504059474343968
-0.00012706761904761907,0.6959173136077671,-0.005146301115023818
-0.00012704761904761905,0.701614489292739,-0.0027702239862077284
-0.00012702761904761904,0.7136790966256382,-0.0010730260370541065
-0.00012700761904761905,0.7368029273469977,-0.0007335864472235673
-0.00012698761904761906,0.763278037883047,-0.0024307843963762635
-0.00012696761904761907,0.7394839511987724,-0.003788542755698574
-0.00012694761904761905,0.7616023979757134,-0.0027702239862077284
-0.00012692761904761903,0.7683049576051313,-0.0014124656268852632
-0.00012690761904761904,0.8071798034555197,-0.0017519052167154934
-0.00012688761904761905,0.8172336428995844,-0.0014124656268851088
-0.00012686761904761906,0.8085203153813996,-0.0014124656268849544
-0.00012684761904761905,0.8202497947328112,-0.0010730260370542608
-0.00012682761904761903,0.8202497947327941,-5.4707267563415105e-05
-0.00012680761904761904,0.8014826277705576,-0.0014124656268844913
-0.00012678761904761905,0.840357473620959,-0.00039414685739287377
-0.00012676761904761906,0.8292982502324827,-0.0017519052167150303
-0.00012674761904761904,0.8447141373800577,-0.0017519052167156478
-0.00012672761904761906,0.8644866882867275,-0.0007335864472240304
-0.00012670761904761904,0.8658272002126174,-0.0010730260370534891
-0.00012668761904761905,0.8755459116752178,0.0006241719120992069
-0.00012666761904761906,0.8936428226745426,0.0009636115019297461
-0.00012664761904761904,0.8725297598420073,-0.0007335864472231042
-0.00012662761904761905,0.8983346144151186,0.0002847323222685133
-0.00012660761904761904,0.9006805102853995,0.0006241719120990525
-0.00012658761904761905,0.8939779506560199,0.0002847323222685133
-0.00012656761904761906,0.893642822674551,0.0016424906815906701
-0.00012654761904761907,0.8929725667116131,0.0019819302714216723
-0.00012652761904761905,0.9124099896368222,-5.470726756218023e-05
-0.00012650761904761903,0.9385499721914192,0.0013030510917599765
-0.00012648761904761904,0.9439120198949247,0.0006241719120990525
-0.00012646761904761905,0.9532956033760519,0.00028473232226866764
-0.00012644761904761906,0.9599981630054326,0.0013030510917596677
-0.00012642761904761905,0.9589927790610313,0.0026608094510833682
-0.00012640761904761903,0.9499443235613383,0.0019819302714216723
-0.00012638761904761904,0.9207881891735504,0.001642490681591133
-0.00012636761904761905,0.9207881891735504,0.0013030510917605939
-0.00012634761904761906,0.9378797162284683,0.0013030510917605939
-0.00012632761904761905,0.9341933084323156,0.0023213698612526744
-0.00012630761904761903,0.9556414992463131,-5.470726756156279e-05
-0.00012628761904761904,0.9261502368770593,0.00062417191209967
-0.00012626761904761905,0.9321825405435008,0.0016424906815912875
-0.00012624761904761906,0.9499443235613567,0.0016424906815912875
-0.00012622761904761904,0.9462579157652137,0.0019819302714221354
-0.00012620761904761905,0.966700722634812,0.00232136986125252
-0.00012618761904761904,0.9539658593390034,0.002321369861252829
-0.00012616761904761905,0.9737384102456731,0.0026608094510833682
-0.00012614761904761906,0.9532956033760654,0.002321369861252829
-0.00012612761904761907,0.9412309960431784,0.00198193027142229
-0.00012610761904761905,0.9720627703383274,0.0023213698612526744
-0.00012608761904761903,0.9794355859306486,0.003000249040912827
-0.00012606761904761904,0.9797707139121175,0.0016424906815912875
-0.00012604761904761906,0.9616738029127926,0.0019819302714218267
-0.00012602761904761907,0.9626791868571909,0.0009636115019308266
-0.00012600761904761905,0.9583225230980931,0.0009636115019299004
-0.00012598761904761903,0.9599981630054399,0.00130305109176152
-0.00012596761904761904,0.9613386749313126,0.002321369861252057
-0.00012594761904761905,0.95564149924634,0.0009636115019299004
-0.00012592761904761906,0.9519550914501829,0.0016424906815906701
-0.00012590761904761905,0.9713925143753892,0.0023213698612526744
-0.00012588761904761903,0.9693817464865719,0.002660809451082442
-0.00012586761904761904,0.9667007226348131,0.0016424906815914418
-0.00012584761904761905,0.9486038116354882,0.001981930271421981
-0.00012582761904761906,0.9559766272278059,0.0026608094510830595
-0.00012580761904761904,0.9660304666718759,0.0026608094510830595
-0.00012578761904761905,0.9502794515428411,0.00198193027142229
-0.00012576761904761904,0.9646899547459908,0.0013030510917607483
-0.00012574761904761905,0.9301717726546861,0.0016424906815912875
-0.00012572761904761906,0.916766653395927,0.000963611501930209
-0.00012570761904761907,0.918442293303265,0.0009636115019299004
-0.00012568761904761905,0.9107343497294765,0.0016424906815912875
-0.00012566761904761903,0.9271556208214623,0.0009636115019299004
-0.00012564761904761905,0.9254799809141182,0.0009636115019299004
-0.00012562761904761906,0.9083884538592003,0.0013030510917604395
-0.00012560761904761907,0.9217935731179456,0.0013030510917605939
-0.00012558761904761905,0.9261502368770566,0.0016424906815912875
-0.00012556761904761903,0.906377685970375,0.0016424906815903613
-0.00012554761904761904,0.903361534137155,0.0006241719120993613
-0.00012552761904761905,0.9020210222112791,0.0009636115019299004
-0.00012550761904761906,0.8949833346004338,0.0009636115019299004
-0.00012548761904761905,0.8842592391934152,0.0009636115019299004
-0.00012546761904761903,0.876551295619617,0.0019819302714216723
-0.00012544761904761904,0.8675028401199562,0.0016424906815905157
-0.00012542761904761905,0.8621407924164526,-5.470726756218023e-05
-0.00012540761904761906,0.8591246405832317,-0.00039414685739271943
-0.00012538761904761904,0.8641515603052673,-0.0007335864472235673
-0.00012536761904761905,0.8473951612318185,-0.0007335864472235673
-0.00012534761904761904,0.8430384974726971,0.0002847323222675871
-0.00012532761904761905,0.8101959552887373,-0.0017519052167156478
-0.00012530761904761906,0.8128769791404891,-0.0007335864472240304
-0.00012528761904761907,0.8031582676778944,-0.0007335864472235673
-0.00012526761904761905,0.8085203153813917,0.0002847323222685133
-0.00012524761904761904,0.8101959552887283,-0.0020913448065461872
-0.00012522761904761905,0.7904234043820586,-0.0017519052167156478
-0.00012520761904761906,0.7931044282338104,-0.0003941468573934912
-0.00012518761904761907,0.7763480291603703,-0.0020913448065447977
-0.00012516761904761905,0.7512134305501703,-0.0020913448065463416
-0.00012514761904761903,0.7361326713840588,-0.001751905216716574
-0.00012512761904761904,0.7354624154211241,-0.002770223986207574
-0.00012510761904761905,0.7421649750505007,-0.0024307843963771894
-0.00012508761904761906,0.7485324066984115,-0.002430784396377035
-0.00012506761904761905,0.724738320014109,-0.002430784396377035
-0.00012504761904761903,0.7187060163476454,-0.0027702239862074196
-0.00012502761904761904,0.6975929535151111,-0.0024307843963776526
-0.00012500761904761905,0.7012793613112698,-0.003788542755699809
-0.00012498761904761906,0.682177066367538,-0.00344910316586927
-0.00012496761904761905,0.6630747714237889,-0.003788542755699809
-0.00012494761904761906,0.6426319645541813,-0.0027702239862081915
-0.00012492761904761904,0.6436373484985785,-0.004806861525191427
-0.00012490761904761905,0.6416265806097645,-0.003788542755699809
-0.00012488761904761906,0.6282214613510054,-0.003788542755699809
-0.00012486761904761904,0.6372699168506475,-0.003788542755700581
-0.00012484761904761905,0.5970545590743702,-0.005485740704853277
-0.00012482761904761904,0.6027517347593341,-0.003449103165870042
-0.00012480761904761905,0.5779522641306297,-0.005485740704853277
-0.00012478761904761906,0.5796279040379746,-0.0065040594743448945
-0.00012476761904761907,0.5588499691869081,-0.005146301115023818
-0.00012474761904761905,0.5451097219466549,-0.005146301115022583
-0.00012472761904761903,0.5380720343357782,-0.005485740704853277
-0.00012470761904761904,0.5105915398553366,-0.00548574070485374
-0.00012468761904761905,0.5152833315959001,-0.0065040594743448945
-0.00012466761904761906,0.5223210192067476,-0.005825180294684588
-0.00012464761904761905,0.4841164293192731,-0.00582518029468397
-0.00012462761904761903,0.4837813013378028,-0.007182938654005818
-0.00012460761904761904,0.48244078941191937,-0.006164619884514973
-0.00012458761904761905,0.46467900639406357,-0.006843499064176051
-0.00012456761904761906,0.44624696741326975,-0.00718293865400659
-0.00012454761904761905,0.4519441430982366,-0.006504059474345358
-0.00012452761904761903,0.4221177527474495,-0.007861817833668749
-0.00012450761904761904,0.38424829084147843,-0.00854069701332921
-0.00012448761904761905,0.39798853808170653,-0.007861817833668131
-0.00012446761904761906,0.3932967463411408,-0.007522378243837592
-0.00012444761904761904,0.38558880276734003,-0.007522378243837438
-0.00012442761904761905,0.3664865078236169,-0.007522378243837438
-0.00012440761904761904,0.3467139569169144,-0.008201257423498979
-0.00012438761904761905,0.3135362867514856,-0.008540697013329518
-0.00012436761904761906,0.3058283431776991,-0.009219576192990598
-0.00012434761904761907,0.30750398308503973,-0.008201257423499751
-0.00012432761904761905,0.3105201349182634,-0.0095590157828216
-0.00012430761904761903,0.2736560569566548,-0.009898455372652602
-0.00012428761904761904,0.26896426521609124,-0.010237894962482987
-0.00012426761904761906,0.22372198771777912,-0.009559015782821909
-0.00012424761904761907,0.20931148451459902,-0.010237894962482369
-0.00012422761904761905,0.206965588644302,-0.01057733455231368
-0.00012420761904761903,0.2183599400142357,-0.009898455372651367
-0.00012418761904761904,0.19992790103344174,-0.008880136603161603
-0.00012416761904761905,0.18116073407117894,-0.011935092911636453
-0.00012414761904761906,0.16675023086801943,-0.0109167741421453
-0.00012412761904761905,0.15937741527568547,-0.011935092911636453
-0.00012410761904761903,0.11312975383293111,-0.011595653321807613
-0.00012408761904761904,0.09737873870389324,-0.013632290860789304
-0.00012406761904761905,0.09067617907451367,-0.012274532501467147
-0.00012404761904761906,0.09302207494479652,-0.012953411681128226
-0.00012402761904761904,0.07727105981574342,-0.011935092911636608
-0.00012400761904761905,0.06621183642727216,-0.012274532501466992
-0.00012398761904761904,0.049120309372330195,-0.012953411681128998
-0.00012396761904761905,0.024320838743625797,-0.013971730450620615
-0.00012394761904761906,0.021639814891873967,-0.013971730450620615
-0.00012392761904761907,-0.018240414902917536,-0.013971730450620615
-0.00012390761904761905,-0.004165039681250312,-0.014311170040451309
-0.00012388761904761904,-0.02795912636556438,-0.014311170040451926
-0.00012386761904761905,-0.03432655801347208,-0.014990049220112696
-0.00012384761904761906,-0.06750422817890094,-0.015668928399773775
-0.00012382761904761907,-0.06147192451247715,-0.014990049220113313
-0.00012380761904761905,-0.0805742194562121,-0.014311170040451309
-0.00012378761904761903,-0.08090934743770838,-0.014990049220112696
-0.00012376761904761904,-0.11073573778843387,-0.014990049220112696
-0.00012374761904761905,-0.11073573778843387,-0.014990049220112696
-0.00012372761904761906,-0.13855136025034642,-0.015668928399773466
-0.00012370761904761905,-0.1348649524542113,-0.016008367989604776
-0.00012368761904761903,-0.14357827997243763,-0.01566892839977501
-0.00012366761904761904,-0.17541543821198222,-0.016687247169266162
-0.00012364761904761905,-0.18882055747074133,-0.016687247169266162
-0.00012362761904761906,-0.21697130791413552,-0.016687247169266162
-0.00012360761904761904,-0.2364087308393579,-0.01838444511841963
-0.00012358761904761905,-0.2266900193767575,-0.01838444511841963
-0.00012356761904761904,-0.2384194987281934,-0.01804500552858894
-0.00012354761904761905,-0.2839969042079744,-0.01804500552858894
-0.00012352761904761906,-0.27427819274537407,-0.017366126348927858
-0.00012350761904761907,-0.3010884312628757,-0.019063324298079474
-0.00012348761904761905,-0.3098017587810975,-0.019402763887911713
-0.00012346761904761904,-0.3325904615210063,-0.019063324298081635
-0.00012344761904761905,-0.35001711655739315,-0.02042108265740379
-0.00012342761904761906,-0.3285689257433786,-0.01770556593875948
-0.00012340761904761907,-0.33292558950246354,-0.018384445118419013
-0.00012338761904761905,-0.3691194115011336,-0.019063324298081018
-0.00012336761904761903,-0.3935837541483875,-0.020760522247234178
-0.00012334761904761904,-0.40162682570364217,-0.02042108265740364
-0.00012332761904761905,-0.40799425735154987,-0.020081643067573252
-0.00012330761904761906,-0.4270965522952758,-0.0200816430675731
-0.00012328761904761905,-0.4455285912760954,-0.019742203477742404
-0.00012326761904761903,-0.4374855197208588,-0.020421082657403482
-0.00012324761904761904,-0.46228499034955667,-0.020081643067573252
-0.00012322761904761905,-0.472673957775095,-0.02042108265740379
-0.00012320761904761906,-0.48507369308944714,-0.02245772019638703
-0.00012318761904761905,-0.48105215731182327,-0.020760522247234486
-0.00012316761904761906,-0.5065218839034656,-0.022118280606556642
-0.00012314761904761904,-0.5085326517922982,-0.021439401426895564
-0.00012312761904761905,-0.5222728990325264,-0.020760522247234486
-0.00012310761904761906,-0.5601423609385209,-0.022118280606556642
-0.00012308761904761904,-0.5474074976427141,-0.021099961837065796
