samples/acq3470.csv

#Digilent WaveForms Oscilloscope Acquisition
#Device Name: Discovery2
#Serial Number: SN:210321AD996C
#Date Time: 2025-12-07 12:58:45.514
#Sample rate: 5e+07Hz
#Samples: 8192
#Trigger: Source: Channel 1 Type: Edge Condition: Rising Level: 0 V Hyst.: Auto HoldOff: 0 s
#Channel 1: Range: 500 mV/div Offset: 0 V Sample Mode: Average
#Channel 2: Range: 500 mV/div Offset: 0 V Sample Mode: Average
#Wavegen Channel 1: Running
#Mode: Custom
#Type: noisy
#Frequency: 117 kHz
#Period: 8.547008547 us
#Amplitude: 1 V
#Offset: 0 V
#Phase: 0 °

Time (s),Channel 1 (V),Channel 2 (V)
-0.00012899272727272729,-0.5363482742542298,-0.013632290860789922
-0.00012897272727272727,-0.5319916104951086,-0.013292851270960155
-0.00012895272727272728,-0.5071921398664215,-0.014311170040451154
-0.0001289327272727273,-0.5205972591251746,-0.01397173045062077
-0.00012891272727272727,-0.5118839316069719,-0.013632290860789613
-0.00012889272727272728,-0.4867493329967985,-0.012953411681128535
-0.00012887272727272727,-0.46496601420128153,-0.012953411681128535
-0.00012885272727272728,-0.43916115962816926,-0.012953411681128844
-0.0001288327272727273,-0.41134553716624406,-0.013632290860789922
-0.00012881272727272727,-0.4029673376295094,-0.012953411681127763
-0.00012879272727272728,-0.3888919624078123,-0.011256213731975067
-0.00012877272727272726,-0.3905676023151613,-0.011935092911635527
-0.00012875272727272727,-0.3942540101113174,-0.010916774142144373
-0.00012873272727272728,-0.3919081142410345,-0.010916774142144373
-0.00012871272727272727,-0.37515171516754836,-0.010916774142144064
-0.00012869272727272728,-0.34264430096507764,-0.010577334552314143
-0.0001286727272727273,-0.35437378031648653,-0.011595653321805297
-0.00012865272727272727,-0.32923918170630356,-0.010577334552313371
-0.00012863272727272728,-0.32153123813251705,-0.009898455372652293
-0.00012861272727272727,-0.2829915202635576,-0.0095590157828216
-0.00012859272727272728,-0.2726025528380179,-0.009559015782821291
-0.00012857272727272729,-0.25919743357925873,-0.008880136603160213
-0.00012855272727272727,-0.26589999320860636,-0.009559015782821291
-0.00012853272727272728,-0.22736027533969136,-0.009219576192990906
-0.0001285127272727273,-0.2156307959882771,-0.009898455372651984
-0.00012849272727272727,-0.2032310606739118,-0.008201257423498825
-0.00012847272727272728,-0.1985392689333461,-0.008201257423498825
-0.00012845272727272727,-0.1941826051742136,-0.009559015782820365
-0.00012843272727272728,-0.15698339923116508,-0.008201257423498516
-0.0001284127272727273,-0.13754597630596432,-0.007522378243837438
-0.00012839272727272727,-0.12816239282482317,-0.007182938654007053
-0.00012837272727272728,-0.11609778549193997,-0.007861817833668131
-0.00012835272727272726,-0.11743829741780427,-0.00684349906417636
-0.00012833272727272727,-0.10403317815903784,-0.007182938654006436
-0.00012831272727272728,-0.07454191578976777,-0.006504059474345358
-0.00012829272727272727,-0.07621755569709879,-0.0071829386540052005
-0.00012827272727272728,-0.06013141258659361,-0.0054857407048535855
-0.0001282527272727273,-0.056780132771905356,-0.0061646198845143555
-0.00012823272727272727,-0.046726293327820766,-0.005146301115022583
-0.00012821272727272728,-0.026618614439682067,-0.005146301115022583
-0.00012819272727272727,-0.004835295644166629,-0.005485740704852659
-0.00012817272727272728,0.019293919021594472,-0.004806861525190964
-0.00012815272727272729,0.031693654335946675,-0.0027702239862077284
-0.00012813272727272727,0.028007246539809093,-0.00446742193536027
-0.00012811272727272728,0.053141845149971036,-0.0034491031658691156
-0.00012809272727272726,0.07727105981575973,-0.0024307843963779613
-0.00012807272727272727,0.0896707951301005,-0.0034491031658688068
-0.00012805272727272728,0.07693593183427933,-0.0027702239862077284
-0.00012803272727272727,0.11044872998122224,-0.003109663576037496
-0.00012801272727272728,0.143291272165178,-0.0020913448065466504
-0.0001279927272727273,0.16708535884947545,-0.0027702239862077284
-0.00012797272727272727,0.14295614418370706,-0.002430784396376726
-0.00012795272727272728,0.16272869509037677,-0.0017519052167156478
-0.00012793272727272726,0.19020918957083877,-0.0007335864472248022
-0.00012791272727272728,0.18283637397854094,-0.002091344806546496
-0.00012789272727272729,0.21869506799572158,-0.002430784396377035
-0.00012787272727272727,0.22238147579187836,-0.0014124656268858806
-0.00012785272727272728,0.21835994001425246,-0.002430784396377035
-0.0001278327272727273,0.256564529901716,-0.0003941468573938002
-0.00012781272727272727,0.26661836934581856,0.0006241719120993613
-0.00012779272727272728,0.291417839974523,0.0009636115019299004
-0.00012777272727272727,0.32023884638088557,0.001303051091760285
-0.00012775272727272728,0.33934114132461035,0.000963611501929746
-0.0001277327272727273,0.3430275491207691,0.0006241719120992069
-0.00012771272727272727,0.3731890674529919,0.0023213698612523656
-0.00012769272727272728,0.3755349633232748,0.0016424906815912875
-0.00012767272727272726,0.3882698266190993,0.0016424906815906701
-0.00012765272727272727,0.38558880276735036,0.0009636115019303634
-0.00012763272727272728,0.38927521056350917,0.001981930271421981
-0.00012761272727272727,0.40201007385934345,0.002321369861251131
-0.00012759272727272728,0.4100531454146044,0.0006241719120999787
-0.0001275727272727273,0.43016082430273395,0.0023213698612519025
-0.00012755272727272727,0.4428956875985783,0.0033396886307449094
-0.00012753272727272728,0.4609925985979031,0.003679128220575449
-0.00012751272727272727,0.4603223426349947,0.0033396886307453725
-0.00012749272727272728,0.49316488481894655,0.0040185678104062966
-0.00012747272727272729,0.5082456439850506,0.0043580074002368355
-0.00012745272727272727,0.5270128109473177,0.004018567810406451
-0.00012743272727272728,0.522321019206754,0.0043580074002368355
-0.0001274127272727273,0.5310343467249474,0.0046974469900673745
-0.00012739272727272727,0.5447745939651752,0.004358007400237453
-0.00012737272727272728,0.5216507632438158,0.00571576575955961
-0.00012735272727272727,0.5598553531312949,0.0053763261697289165
-0.00012733272727272728,0.5578445852424824,0.0053763261697289165
-0.0001273127272727273,0.5588499691868892,0.0053763261697289165
-0.00012729272727272727,0.5906871274264587,0.00571576575955961
-0.00012727272727272728,0.5950437911855554,0.00571576575955961
-0.00012725272727272726,0.6077786544813757,0.006055205349390303
-0.00012723272727272727,0.6004058388890714,0.006055205349390149
-0.00012721272727272729,0.622189157684555,0.00571576575955961
-0.00012719272727272727,0.6580478517017541,0.0070735241188820755
-0.00012717272727272728,0.6603937475720506,0.006734084529052
-0.0001271527272727273,0.6929011617745268,0.007412963708712769
-0.00012713272727272727,0.6868688581081002,0.007412963708712769
-0.00012711272727272728,0.6935714177374798,0.006734084529051691
-0.00012709272727272727,0.6925660337930782,0.007412963708712769
-0.00012707272727272728,0.698933465440997,0.007073524118882384
-0.0001270527272727273,0.7233978080882324,0.007073524118882384
-0.00012703272727272727,0.7448459989022532,0.00775240329854408
-0.00012701272727272728,0.7371380553284668,0.008431282478205158
-0.00012699272727272726,0.7545647103648576,0.007412963708713078
-0.00012697272727272727,0.7502080466057629,0.007412963708712923
-0.00012695272727272728,0.7502080466057629,0.007073524118882384
-0.00012693272727272727,0.7763480291603694,0.008091842888375082
-0.00012691272727272728,0.792099044289414,0.008770722068035542
-0.0001268927272727273,0.8135472351034189,0.008091842888374773
-0.00012687272727272727,0.8252767144548434,0.008431282478205158
-0.00012685272727272728,0.8148877470293051,0.008431282478205158
-0.00012683272727272727,0.7991367319002716,0.007412963708713386
-0.00012681272727272728,0.8162282589551939,0.00775240329854408
-0.00012679272727272729,0.8433736254541813,0.008431282478205158
-0.00012677272727272727,0.8343251699545211,0.009110161657866853
-0.00012675272727272728,0.8413628575653664,0.00944960124769724
-0.0001267327272727273,0.8423682415097734,0.00877072206803616
-0.00012671272727272727,0.8349954259174643,0.009449601247697085
-0.00012669272727272728,0.8601300245276378,0.009110161657866545
-0.00012667272727272727,0.8534274648982777,0.0080918428883757
-0.00012665272727272728,0.8782269355269733,0.00944960124769724
-0.0001266327272727273,0.8835889832304769,0.00944960124769724
-0.00012661272727272727,0.8926374387301529,0.009789040837527779
-0.00012659272727272728,0.9134153735812296,0.00944960124769724
-0.00012657272727272726,0.891967182767229,0.009449601247697548
-0.00012655272727272727,0.9181071653218023,0.009789040837528087
-0.00012653272727272728,0.9288312607288095,0.010128480427358626
-0.00012651272727272727,0.9191125492662118,0.010467920017189011
-0.00012649272727272728,0.9268204928399879,0.010128480427358009
-0.0001264727272727273,0.9117397336738907,0.008770722068036469
-0.00012645272727272727,0.907383069914798,0.010467920017189165
-0.00012643272727272728,0.9355338203581922,0.010128480427358626
-0.00012641272727272727,0.9241394689882347,0.010128480427358318
-0.00012639272727272728,0.9164315254144647,0.009789040837527933
-0.0001263727272727273,0.9449174038393279,0.009789040837527933
-0.00012635272727272727,0.9408958680617077,0.009449601247698475
-0.00012633272727272728,0.9512848354872413,0.010807359607020013
-0.00012631272727272726,0.9559766272278177,0.010128480427359862
-0.00012629272727272727,0.9653602107089496,0.011486238786681245
-0.00012627272727272728,0.9757491781344878,0.011146799196850707
-0.00012625272727272727,0.9723978983197986,0.011486238786680474
-0.00012623272727272728,0.9747437941900787,0.010467920017189937
-0.0001262127272727273,0.9707222584124526,0.011825678376511476
-0.00012619272727272727,0.9636845708015969,0.009789040837528087
-0.00012617272727272728,0.9586576510795621,0.010128480427358626
-0.00012615272727272726,0.9419012520061081,0.00978904083752855
-0.00012613272727272728,0.9445822758578599,0.010467920017188857
-0.00012611272727272729,0.9472632997096118,0.00944960124769724
-0.00012609272727272727,0.9449174038393345,0.010128480427358626
-0.00012607272727272728,0.9522902194316487,0.010128480427358626
-0.0001260527272727273,0.9680412345606906,0.011146799196850243
-0.00012603272727272727,0.9730681542827289,0.012843997146003401
-0.00012601272727272728,0.9599981630054387,0.011146799196850707
-0.00012599272727272727,0.9506145795243025,0.0114862387866814
-0.00012597272727272728,0.949944323561368,0.011486238786681245
-0.0001259527272727273,0.9569820111722165,0.011146799196850707
-0.00012593272727272727,0.94759842769108,0.010128480427358626
-0.00012591272727272728,0.9459227877837352,0.010128480427358626
-0.00012589272727272726,0.9378797162284862,0.010467920017188702
-0.00012587272727272727,0.9489389396169629,0.00978904083752886
-0.00012585272727272728,0.9610035469498461,0.011825678376512093
-0.00012583272727272727,0.948603811635476,0.00978904083752855
-0.00012581272727272728,0.935198692376723,0.010467920017189011
-0.0001257927272727273,0.935198692376723,0.009789040837528242
-0.00012577272727272727,0.9375445882470057,0.011486238786681091
-0.00012575272727272728,0.9348635643952539,0.010807359607020013
-0.00012573272727272727,0.933523052469375,0.01046792001718932
-0.00012571272727272728,0.9308420286176242,0.010467920017189011
-0.00012569272727272729,0.9305069006361552,0.009789040837527933
-0.00012567272727272727,0.9083884538592163,0.010467920017189937
-0.00012565272727272728,0.9345284364137848,0.011146799196850707
-0.00012563272727272726,0.9137505015626941,0.009789040837528242
-0.00012561272727272727,0.908723581840667,0.010128480427358626
-0.00012559272727272728,0.9204530611920813,0.010128480427358626
-0.00012557272727272727,0.9047020460630117,0.00978904083752855
-0.00012555272727272728,0.8822484713046022,0.010467920017188857
-0.0001255327272727273,0.8862700070822299,0.00944960124769724
-0.00012551272727272727,0.8852646231378188,0.009449601247697394
-0.00012549272727272728,0.8768864236010943,0.009789040837527933
-0.00012547272727272726,0.881913343323109,0.010467920017187776
-0.00012545272727272727,0.8574490006758864,0.008770722068036623
-0.00012543272727272729,0.8611354084720452,0.01046792001718932
-0.00012541272727272727,0.8597948965461518,0.010467920017189629
-0.00012539272727272728,0.8413628575653664,0.010807359607020013
-0.0001253727272727273,0.8447141373800562,0.009789040837528396
-0.00012535272727272727,0.8215903066586816,0.008770722068035851
-0.00012533272727272728,0.8081851873999225,0.008770722068035851
-0.00012531272727272727,0.7964557080485082,0.009789040837527933
-0.00012529272727272728,0.8021528837334766,0.009789040837527779
-0.0001252727272727273,0.7988016039187869,0.00944960124769724
-0.00012525272727272727,0.7803695649379928,0.008431282478205467
-0.00012523272727272728,0.7981313479558486,0.009110161657866545
-0.00012521272727272726,0.7683049576051005,0.008431282478205467
-0.00012519272727272727,0.7733318773271359,0.008770722068036006
-0.00012517272727272728,0.7800344369565155,0.009110161657866545
-0.00012515272727272727,0.7656239337533078,0.008431282478204849
-0.00012513272727272728,0.7270842158843911,0.008091842888374773
-0.0001251127272727273,0.7230626801067651,0.008770722068035542
-0.00012509272727272727,0.7354624154211166,0.008091842888374001
-0.00012507272727272728,0.7254085759770472,0.007073524118882384
-0.00012505272727272727,0.7046306411259373,0.008770722068033998
-0.00012503272727272728,0.6784906585713772,0.006734084529052463
-0.00012501272727272729,0.6969226975521711,0.008431282478205158
-0.00012499272727272727,0.6915606498486462,0.007412963708713695
-0.00012497272727272728,0.6707827149975789,0.008091842888374464
-0.0001249527272727273,0.6637450273867304,0.008091842888374464
-0.00012493272727272727,0.6305673572212855,0.0053763261697296885
-0.00012491272727272728,0.6355942769433202,0.007073524118882384
-0.00012489272727272727,0.6231945416289575,0.006055205349390612
-0.00012487272727272728,0.617832493925453,0.006394644939220997
-0.0001248527272727273,0.6107948063146045,0.006394644939220997
-0.00012483272727272727,0.6128055742034126,0.006394644939220842
-0.00012481272727272728,0.5980599430187775,0.006055205349390303
-0.00012479272727272726,0.598059943018747,0.006394644939220379
-0.00012477272727272727,0.5645471448718609,0.005715765759558992
-0.00012475272727272729,0.5565040733166053,0.0043580074002368355
-0.00012473272727272727,0.5464502338725257,0.005376326169728299
-0.00012471272727272728,0.5400828022246114,0.004697446990067838
-0.0001246927272727273,0.5256722990214518,0.005376326169728608
-0.00012467272727272727,0.5209805072808776,0.004697446990067838
-0.00012465272727272728,0.5213156352623466,0.0053763261697289165
-0.00012463272727272727,0.4841164293192615,0.004358007400235909
-0.00012461272727272728,0.47138156602343595,0.0033396886307446006
-0.0001245927272727273,0.4489279912650144,0.0030002490409140616
-0.00012457272727272727,0.43887415182093,0.0043580074002368355
-0.00012455272727272728,0.41575032109957044,0.0043580074002368355
-0.00012453272727272726,0.39463725826702406,0.0019819302714232157
-0.00012451272727272727,0.4043559697296186,0.003339688630744292
-0.00012449272727272728,0.40133981789639783,0.0023213698612526744
-0.00012447272727272727,0.38692931469320935,0.0019819302714232157
-0.00012445272727272728,0.3695026596568239,0.003339688630743983
-0.0001244327272727273,0.3550921564536644,0.0016424906815920592
-0.00012441272727272727,0.3292873018805294,0.001981930271421518
-0.00012439272727272728,0.3175578225291152,0.0009636115019299004
-0.00012437272727272727,0.31990371839939663,0.0013030510917609026
-0.00012435272727272728,0.317222694547641,0.0016424906815914418
-0.00012433272727272729,0.3061634711591647,0.001981930271421981
-0.00012431272727272727,0.2837098964007235,0.00028473232226882203
-0.00012429272727272728,0.27332092897518995,0.0006241719120992069
-0.0001242727272727273,0.2522078661426443,0.001303051091760285
-0.00012425272727272727,0.21802481203278165,-0.0010730260370544152
-0.00012423272727272728,0.2143384042366229,-0.0014124656268849544
-0.00012421272727272727,0.20361430882959577,-0.001412465626884337
-0.00012419272727272728,0.1871930377376265,-0.0007335864472229498
-0.0001241727272727273,0.19423072534847505,0.0006241719120992069
-0.00012415272727272727,0.16775561481239984,-0.001073026037054724
-0.00012413272727272728,0.13725896849872282,-0.0020913448065463416
-0.00012411272727272726,0.1174864175920301,-0.002430784396377035
-0.00012409272727272727,0.10207053044445635,-0.002430784396376726
-0.00012407272727272728,0.08497900338953845,-0.0017519052167156478
-0.00012405272727272727,0.09168156301889728,-0.0037885427556985742
-0.00012403272727272728,0.06554158046431804,-0.0024307843963779613
-0.0001240127272727273,0.04174749378003141,-0.00446742193536027
-0.00012399272727272727,0.05213646120556471,-0.0037885427556999633
-0.00012397272727272728,0.05448235707584756,-0.004127982345530502
-0.00012395272727272727,0.04241774974294452,-0.004806861525190964
-0.00012393272727272728,0.026666734613890967,-0.0037885427557001177
-0.00012391272727272729,-0.014554007106793363,-0.0044674219353611965
-0.00012389272727272727,-0.027288870402622768,-0.005146301115022583
-0.00012387272727272728,-0.029969894254373377,-0.005146301115022583
-0.00012385272727272726,-0.06348269240129956,-0.005485740704852968
-0.00012383272727272727,-0.07789319560445922,-0.0051463011150230465
-0.00012381272727272728,-0.07822832358592818,-0.006164619884514664
-0.00012379272727272727,-0.07454191578979794,-0.00582518029468397
-0.00012377272727272728,-0.10771958595522099,-0.005825180294684279
-0.0001237527272727273,-0.12816239282482866,-0.006504059474345358
-0.00012373272727272727,-0.14123238410213057,-0.006504059474345821
-0.00012371272727272728,-0.15396724739795173,-0.007522378243837438
-0.00012369272727272726,-0.1720641583972909,-0.007861817833667822
-0.00012367272727272728,-0.1787667180266726,-0.007522378243837129
-0.00012365272727272729,-0.19016106939661787,-0.006843499064176051
-0.00012363272727272727,-0.22166309965474112,-0.007861817833669058
-0.00012361272727272728,-0.24914359413518486,-0.008880136603160213
-0.0001235927272727273,-0.24813821019077792,-0.009219576192990752
-0.00012357272727272727,-0.24009513863553203,-0.008201257423499288
-0.00012355272727272728,-0.27025665696774004,-0.009219576192990906
-0.00012353272727272727,-0.28299152026358443,-0.009219576192991833
-0.00012351272727272728,-0.3020938152073005,-0.010237894962482215
-0.0001234927272727273,-0.28667792805972747,-0.008540697013329518
-0.00012347272727272727,-0.2957263835594071,-0.00921957619299137
-0.00012345272727272728,-0.32454738996573923,-0.010237894962482987
-0.00012343272727272726,-0.3570548041682541,-0.010237894962482678
-0.00012341272727272727,-0.3671086436123162,-0.009898455372652756
-0.00012339272727272728,-0.36141146792734363,-0.010916774142144373
-0.00012337272727272727,-0.3872163225004743,-0.009898455372653528
-0.00012335272727272728,-0.39559452203720635,-0.011256213731974912
-0.0001233327272727273,-0.4207291206473683,-0.010916774142144528
-0.00012331272727272727,-0.4113455371662491,-0.010577334552313526
-0.00012329272727272728,-0.42240476055472537,-0.010237894962482987
-0.00012327272727272727,-0.4334639839432168,-0.010577334552313989
-0.00012325272727272728,-0.44452320733169887,-0.010916774142144219
-0.00012323272727272729,-0.4683172940159963,-0.01057733455231368
-0.00012321272727272727,-0.48641420501534427,-0.011935092911636762
-0.00012319272727272728,-0.5028354761073167,-0.012274532501467147
-0.0001231727272727273,-0.5008247082185029,-0.01091677414214499
-0.00012315272727272727,-0.5249539228842889,-0.011935092911637071
-0.00012313272727272728,-0.5460669857168347,-0.013292851270959229
-0.00012311272727272727,-0.5524344173647594,-0.012613972091297533
-0.00012309272727272728,-0.5648341526791194,-0.012274532501467301
-0.0001230727272727273,-0.5943254150483894,-0.012613972091297842
-0.00012305272727272727,-0.5836013196413871,-0.013632290860789768
-0.00012303272727272728,-0.6050495104554017,-0.013292851270959229
