samples/acq3518.csv

#Digilent WaveForms Oscilloscope Acquisition
#Device Name: Discovery2
#Serial Number: SN:210321AD996C
#Date Time: 2025-12-07 12:58:47.056
#Sample rate: 5e+07Hz
#Samples: 8192
#Trigger: Source: Channel 1 Type: Edge Condition: Rising Level: 0 V Hyst.: Auto HoldOff: 0 s
#Channel 1: Range: 500 mV/div Offset: 0 V Sample Mode: Average
#Channel 2: Range: 500 mV/div Offset: 0 V Sample Mode: Average
#Wavegen Channel 1: Running
#Mode: Custom
#Type: noisy
#Frequency: 117 kHz
#Period: 8.547008547 us
#Amplitude: 1 V
#Offset: 0 V
#Phase: 0 °

Time (s),Channel 1 (V),Channel 2 (V)
-0.0001289989147286822,-0.535342890309841,-0.0065040594743456664
-0.00012897891472868217,-0.5149000834402054,-0.006164619884514664
-0.00012895891472868216,-0.525959306828685,-0.005825180294684896
-0.00012893891472868217,-0.5239485389398734,-0.006843499064175588
-0.00012891891472868218,-0.5269646907730942,-0.00582518029468397
-0.0001288989147286822,-0.4877547169412237,-0.00582518029468397
-0.00012887891472868217,-0.4636255022754285,-0.006843499064176051
-0.00012885891472868218,-0.44083679953553795,-0.005485740704853894
-0.00012883891472868217,-0.4287721922026284,-0.004467421935361351
-0.00012881891472868218,-0.40564836148126887,-0.00480686152519189
-0.00012879891472868219,-0.40631861744420683,-0.005146301115022429
-0.00012877891472868217,-0.3955945220371914,-0.004806861525191581
-0.00012875891472868218,-0.3878865784634049,-0.004127982345530502
-0.00012873891472868216,-0.4056483614812564,-0.004127982345530811
-0.00012871891472868217,-0.37816786700080013,-0.00480686152519189
-0.00012869891472868218,-0.3607412119644133,-0.003788542755700272
-0.0001286789147286822,-0.3486766046315276,-0.0041279823455301935
-0.00012865891472868218,-0.33996327711331925,-0.003788542755699809
-0.00012863891472868216,-0.33627686931712136,-0.0037885427556988826
-0.00012861891472868217,-0.2950561275964559,-0.002770223986208037
-0.00012859891472868218,-0.29539125557792467,-0.0034491031658688068
-0.0001285789147286822,-0.2565164097275411,-0.002430784396377961
-0.00012855891472868217,-0.24378154643167876,-0.002430784396377035
-0.00012853891472868216,-0.2404302666169628,-0.0014124656268852632
-0.00012851891472868217,-0.21328490011798376,-0.0017519052167159566
-0.00012849891472868218,-0.20423644461832133,-0.002430784396377035
-0.0001284789147286822,-0.20725259645154215,-0.0014124656268854176
-0.00012845891472868217,-0.18379363774870436,-0.0017519052167156478
-0.00012843891472868216,-0.16971826252697253,-0.0010730260370542608
-0.00012841891472868217,-0.1385513602503699,-0.0010730260370542608
-0.00012839891472868218,-0.13452982447274217,-0.0010730260370542608
-0.0001283789147286822,-0.12682188089895566,-5.470726756264346e-05
-0.00012835891472868217,-0.11207624971431346,0.000624171912098435
-0.00012833891472868218,-0.11877880934368995,-0.0010730260370534891
-0.00012831891472868216,-0.08392549927089275,-0.0003941468573924107
-0.00012829891472868217,-0.06046654056806427,0.0006241719120992069
-0.00012827891472868218,-0.06582858827156793,0.00028473232226866764
-0.0001282589147286822,-0.046726293327847286,0.0006241719120988981
-0.00012823891472868218,-0.048066805253706435,-5.470726756218023e-05
-0.00012821891472868216,-0.02996989425435753,0.0013030510917599765
-0.00012819891472868217,-0.012543239217978579,0.0006241719120992069
-0.00012817891472868218,0.00019162407784259657,0.0009636115019297461
-0.0001281589147286822,0.024991094706541504,0.0009636115019299004
-0.00012813891472868218,0.033369294243292325,0.003679128220575449
-0.00012811891472868216,0.06654696440873595,0.0019819302714225986
-0.00012809891472868217,0.06621183642727872,0.0026608094510833682
-0.00012807891472868218,0.09168156301892105,0.0026608094510833682
-0.0001280589147286822,0.07056850018638505,0.0016424906815922136
-0.00012803891472868217,0.08833028320422975,0.0023213698612526744
-0.00012801891472868216,0.12586461712880623,0.0033396886307453725
-0.00012799891472868217,0.16306382307184208,0.004018567810405833
-0.00012797891472868218,0.15468562353511764,0.003339688630744755
-0.0001279589147286822,0.14362640014664133,0.0036791282205752944
-0.00012793891472868217,0.19289021342259546,0.0023213698612537547
-0.00012791891472868218,0.18618765379321897,0.004697446990066448
-0.00012789891472868216,0.2019386689222707,0.005036886579897297
-0.00012787891472868217,0.2143384042366229,0.0030002490409140616
-0.00012785891472868219,0.2093114845145882,0.00367912822057514
-0.0001278389147286822,0.24181889871706205,0.005036886579896988
-0.00012781891472868218,0.26561298540139994,0.0053763261697289165
-0.00012779891472868216,0.2810288725490055,0.004018567810407686
-0.00012777891472868217,0.3091796229923869,0.00571576575955961
-0.00012775891472868218,0.33464934958402925,0.006734084529051228
-0.0001277389147286822,0.33196832573229024,0.005715765759560536
-0.00012771891472868218,0.3574380523239417,0.006394644939220997
-0.00012769891472868216,0.3778808591935523,0.006734084529051382
-0.00012767891472868217,0.3708431715827164,0.0063946449392213054
-0.00012765891472868218,0.39162110643379305,0.007073524118882384
-0.0001276389147286822,0.37151342754566347,0.006394644939221614
-0.00012761891472868217,0.3943021302855461,0.006055205349390303
-0.00012759891472868216,0.3963128981743813,0.006394644939221923
-0.00012757891472868217,0.4187664729327983,0.007412963708713232
-0.00012755891472868218,0.43116620824715046,0.007752403298543771
-0.0001275389147286822,0.4673600302458001,0.008431282478204849
-0.00012751891472868217,0.4750679738196066,0.008431282478205158
-0.00012749891472868218,0.47406258987519967,0.008770722068035697
-0.00012747891472868216,0.5018782123371425,0.00877072206803616
-0.00012745891472868218,0.5139428196700258,0.00944960124769724
-0.00012743891472868219,0.5169589715032465,0.00944960124769724
-0.0001274189147286822,0.5203102513179363,0.00944960124769724
-0.00012739891472868218,0.5511420256130992,0.009789040837527933
-0.00012737891472868216,0.5290235788361354,0.009789040837527779
-0.00012735891472868217,0.5263425549843835,0.00944960124769724
-0.00012733891472868218,0.5444394659837084,0.010807359607019396
-0.0001273189147286822,0.5524825375389685,0.008770722068037704
-0.00012729891472868218,0.5672281687236176,0.009789040837527933
-0.00012727891472868216,0.6010760948520076,0.009789040837528242
-0.00012725891472868217,0.6097894223701987,0.010128480427358472
-0.00012723891472868218,0.6131407021848869,0.009789040837528087
-0.0001272189147286822,0.6034219907222925,0.010128480427358318
-0.00012719891472868217,0.6235296696104315,0.01046792001718932
-0.00012717891472868216,0.6580478517017547,0.011146799196851015
-0.00012715891472868217,0.6610640035349851,0.0114862387866814
-0.00012713891472868218,0.6851932182007515,0.0114862387866814
-0.0001271189147286822,0.7002739773668555,0.0114862387866814
-0.00012709891472868217,0.7069765369962451,0.012165117966342787
-0.00012707891472868218,0.6895498819598581,0.011825678376512248
-0.00012705891472868217,0.7059711530518454,0.012504557556173171
-0.00012703891472868218,0.7230626801067633,0.011825678376512093
-0.00012701891472868219,0.7401542071616812,0.012165117966342632
-0.00012699891472868217,0.740824463124641,0.010807359607020476
-0.00012697891472868218,0.770985981456849,0.011825678376512093
-0.00012695891472868216,0.7602618860498392,0.013183436735835023
-0.00012693891472868217,0.7656239337533429,0.013522876325665562
-0.00012691891472868218,0.7766831571418192,0.0138623159154961
-0.0001268989147286822,0.7984664759372979,0.013862315915496255
-0.00012687891472868218,0.8068446754740459,0.013183436735834868
-0.00012685891472868216,0.8024880117149482,0.01454119509515795
-0.00012683891472868217,0.803493395659355,0.014880634684988799
-0.00012681891472868218,0.8041636516222926,0.015898953454479954
-0.0001267989147286822,0.8269523543621731,0.015559513864650031
-0.00012677891472868218,0.8463897772874034,0.014541195095157642
-0.00012675891472868216,0.8416979855468328,0.015559513864649722
-0.00012673891472868217,0.8386818337136233,0.015559513864649413
-0.00012671891472868218,0.8604651525091069,0.014880634684988335
-0.0001266989147286822,0.8504113130650375,0.014541195095157796
-0.00012667891472868217,0.8567787447129465,0.016577832634141802
-0.00012665891472868216,0.8732000158049336,0.015559513864649105
-0.00012663891472868217,0.8728648878234722,0.014880634684988799
-0.00012661891472868218,0.8892861589154522,0.015898953454480415
-0.0001265989147286822,0.9000102543224594,0.016577832634141493
-0.00012657891472868217,0.9020210222112791,0.01623839304431111
-0.00012655891472868218,0.9020210222112791,0.01623839304431111
-0.00012653891472868216,0.9174369093588587,0.01657783263414134
-0.00012651891472868217,0.9164315254144517,0.015559513864649722
-0.00012649891472868218,0.912409989636824,0.017935590993463497
-0.0001264789147286822,0.8979994864336627,0.016238393044312655
-0.00012645891472868218,0.8973292304707112,0.015559513864649722
-0.00012643891472868216,0.911739733673896,0.016917272223972497
-0.00012641891472868217,0.9251448529326491,0.016917272223972497
-0.00012639891472868218,0.9261502368770561,0.016577832634141955
-0.0001263789147286822,0.9442471478763731,0.01691727222397219
-0.00012635891472868218,0.9372094602655379,0.01725671181380319
-0.00012633891472868216,0.9492740675984341,0.017596151403633267
-0.00012631891472868217,0.9576522671351533,0.016917272223972345
-0.00012629891472868218,0.9543009873204635,0.016577832634141802
-0.0001262789147286822,0.9791004579491566,0.01725671181380257
-0.00012625891472868217,0.9750789221715496,0.017596151403633884
-0.00012623891472868216,0.9573171391537045,0.01725671181380257
-0.00012621891472868217,0.9780950740047635,0.016577832634141493
-0.00012619891472868218,0.9596630350239695,0.015898953454480415
-0.0001261789147286822,0.9459227877837414,0.016238393044310958
-0.00012615891472868217,0.9640196987830641,0.017596151403633575
-0.00012613891472868218,0.9549712432834059,0.016917272223972806
-0.00012611891472868216,0.9506145795243088,0.017596151403633884
-0.00012609891472868217,0.96334944282013,0.017596151403633884
-0.00012607891472868219,0.9563117552092815,0.016238393044311728
-0.0001260589147286822,0.9623440588757172,0.017256711813802263
-0.00012603891472868218,0.9700520024495126,0.016917272223972497
-0.00012601891472868216,0.9667007226348086,0.016577832634141802
-0.00012599891472868217,0.9526253474131179,0.016577832634141802
-0.00012597891472868218,0.9422363799875796,0.016238393044311263
-0.0001259589147286822,0.9723978983197691,0.016577832634141493
-0.00012593891472868218,0.9734032822642039,0.016917272223972497
-0.00012591891472868216,0.9539658593390017,0.01623839304431111
-0.00012589891472868217,0.9620089308942434,0.016238393044311263
-0.00012587891472868218,0.9398904841172908,0.016577832634141802
-0.0001258589147286822,0.9318474125620391,0.015898953454481033
-0.00012583891472868217,0.9522902194316487,0.016577832634141802
-0.00012581891472868216,0.9398904841172926,0.016577832634141802
-0.00012579891472868217,0.9419012520061016,0.01657783263414165
-0.00012577891472868218,0.9331879244879082,0.01623839304431111
-0.0001257589147286822,0.9238043410067768,0.01691727222397219
-0.00012573891472868217,0.9288312607288095,0.015898953454480415
-0.00012571891472868218,0.9432417639319757,0.016577832634141493
-0.00012569891472868217,0.9442471478763809,0.01623839304431142
-0.00012567891472868218,0.9251448529326491,0.016917272223972497
-0.00012565891472868219,0.9311771565990907,0.016577832634141955
-0.00012563891472868217,0.9254799809141099,0.015898953454480107
-0.00012561891472868218,0.9070479419333161,0.015220074274819029
-0.00012559891472868216,0.9103992217480171,0.016238393044310802
-0.00012557891472868217,0.9318474125620317,0.015559513864649722
-0.00012555891472868218,0.8896212868969404,0.015898953454480263
-0.0001255389147286822,0.8926374387301407,0.015220074274819646
-0.00012551891472868218,0.8859348791007609,0.014541195095157642
-0.00012549891472868216,0.8715243758976045,0.014880634684989262
-0.00012547891472868217,0.8892861589154433,0.015898953454480107
-0.00012545891472868218,0.8698487359902515,0.015220074274819338
-0.0001254389147286822,0.8457195213244871,0.01454119509515826
-0.00012541891472868217,0.865827200212613,0.014541195095157642
-0.00012539891472868216,0.8587895126017463,0.014880634684988335
-0.00012537891472868217,0.8423682415097735,0.01488063468498849
-0.00012535891472868218,0.8416979855468356,0.015220074274819029
-0.0001253389147286822,0.8152228750107863,0.014201755505327412
-0.00012531891472868217,0.8014826277705399,0.014201755505326949
-0.00012529891472868218,0.798466475937319,0.01352287632566587
-0.00012527891472868217,0.7974610919929039,0.012843997146004791
-0.00012525891472868218,0.7833857167712068,0.014201755505326949
-0.00012523891472868219,0.7756777731974204,0.012843997146004791
-0.00012521891472868217,0.7783587970491629,0.011825678376512093
-0.00012519891472868218,0.7629429099015899,0.011825678376512093
-0.00012517891472868216,0.767969829623633,0.012843997146004173
-0.00012515891472868217,0.7817100768638612,0.012843997146004173
-0.00012513891472868218,0.737473183309956,0.011825678376512556
-0.0001251189147286822,0.7187060163476817,0.011825678376512093
-0.00012509891472868218,0.7207167842364794,0.01046792001718932
-0.00012507891472868216,0.731440879643472,0.012165117966342787
-0.00012505891472868217,0.7099926888294675,0.012165117966342478
-0.00012503891472868218,0.7106629447924051,0.011486238786681709
-0.0001250189147286822,0.6888796259969318,0.011146799196851015
-0.00012499891472868218,0.7049657691074303,0.012843997146004173
-0.00012497891472868216,0.6835175782933992,0.011146799196850089
-0.00012495891472868217,0.6761447627010677,0.010467920017188857
-0.00012493891472868218,0.6379401728136042,0.00944960124769724
-0.0001249189147286822,0.6319078691471652,0.009789040837527624
-0.00012489891472868217,0.637605044832135,0.010128480427358626
-0.00012487891472868216,0.6101245503516568,0.01114679919684978
-0.00012485891472868217,0.5997355829261243,0.01012848042735909
-0.00012483891472868218,0.6020814787964072,0.011146799196850707
-0.0001248189147286822,0.5963843031114344,0.009110161657867471
-0.00012479891472868217,0.5920276393523257,0.01012848042735878
-0.00012477891472868218,0.5756063682603533,0.010467920017189165
-0.00012475891472868216,0.5581797132239507,0.010467920017188857
-0.00012473891472868217,0.5575094572610128,0.00944960124769724
-0.00012471891472868218,0.5417584421319708,0.009789040837527779
-0.0001246989147286822,0.5330451146137741,0.008770722068036777
-0.00012467891472868218,0.5213156352623466,0.008091842888374464
-0.00012465891472868216,0.49718642059656526,0.009110161657866236
-0.00012463891472868217,0.49282975683747055,0.008770722068035851
-0.00012461891472868218,0.47004105409758,0.008770722068035851
-0.0001245989147286822,0.45764131878322306,0.007752403298544697
-0.00012457891472868218,0.4435659435615083,0.008431282478205158
-0.00012455891472868216,0.4449064554873495,0.006734084529051691
-0.00012453891472868217,0.4060316096369632,0.006734084529051382
-0.00012451891472868218,0.4006695619334596,0.006055205349390303
-0.0001244989147286822,0.3932967463411454,0.007073524118881458
-0.00012447891472868217,0.3996641779890522,0.006055205349390303
-0.00012445891472868216,0.3819023949711706,0.006055205349390303
-0.00012443891472868217,0.3624649720459729,0.006055205349390458
-0.00012441891472868218,0.3497301087501517,0.006394644939220997
-0.0001243989147286822,0.32124423032528854,0.006055205349390458
-0.00012437891472868217,0.3121957748256051,0.006734084529051228
-0.00012435891472868218,0.30348244730741564,0.005715765759560073
-0.00012433891472868216,0.3091796229923738,0.005036886579899304
-0.00012431891472868217,0.28035861658604166,0.007412963708713078
-0.00012429891472868219,0.2706399051234413,0.004358007400238225
-0.0001242789147286822,0.2636022175125915,0.0043580074002368355
-0.00012425891472868218,0.22405711569922768,0.0053763261697289165
-0.00012423891472868216,0.2190301959771819,0.004358007400237762
-0.00012421891472868217,0.20931148451458592,0.0053763261697289165
-0.00012419891472868218,0.19691174920023374,0.0050368865798983775
-0.0001241789147286822,0.1801553501267868,0.0040185678104070685
-0.00012415891472868218,0.16943125471975937,0.003679128220575449
-0.00012413891472868216,0.15334511160922923,0.003000249040914988
-0.00012411891472868217,0.14027512033192657,0.004018567810405216
-0.00012409891472868218,0.09972463457419865,0.0019819302714229074
-0.0001240789147286822,0.07459003596401827,0.0016424906815915962
-0.00012405891472868217,0.07861157174162497,0.0016424906815912875
-0.00012403891472868216,0.07626567587132338,0.0023213698612523656
-0.00012401891472868217,0.056828252946125375,0.001981930271421981
-0.00012399891472868218,0.04342313368736624,0.001981930271421981
-0.0001239789147286822,0.032028782317420984,0.001981930271421981
-0.00012395891472868217,0.043758261668835376,0.001981930271421981
-0.00012393891472868218,0.021639814891882807,0.00028473232226928504
-0.00012391891472868217,-0.022261950680586267,0.0002847323222685133
-0.00012389891472868218,-0.028629382328496853,0.0002847323222685133
-0.00012387891472868219,-0.031310406180248676,0.0006241719120990525
-0.00012385891472868217,-0.05342885295722121,-0.0010730260370537977
-0.00012383891472868218,-0.07253114790095297,-5.470726756218023e-05
-0.00012381891472868216,-0.08057421945621712,0.00028473232226805024
-0.00012379891472868217,-0.09163344284469344,-0.0007335864472235673
-0.00012377891472868218,-0.10671420201079745,-0.0010730260370541065
-0.0001237589147286822,-0.12514624099158975,-0.0024307843963758003
-0.00012373891472868218,-0.14123238410212477,-0.0010730260370542608
-0.00012371891472868216,-0.14123238410215128,-0.0014124656268855718
-0.00012369891472868217,-0.17038851848994524,-0.002091344806546496
-0.00012367891472868218,-0.18379363774869825,-0.0024307843963768806
-0.0001236589147286822,-0.17843159004520318,-0.0010730260370554958
-0.00012363891472868217,-0.21563079598827178,-0.003109663576038422
-0.00012361891472868216,-0.24043026661698533,-0.0031096635760381134
-0.00012359891472868217,-0.23808437074669578,-0.0027702239862077284
-0.00012357891472868218,-0.22099284369177788,-0.0027702239862077284
-0.0001235589147286822,-0.25517589780161365,-0.004127982345529885
-0.00012353891472868217,-0.27427819274536963,-0.003788542755699809
-0.00012351891472868218,-0.2870130560411908,-0.004467421935360888
-0.00012349891472868217,-0.2950561275964498,-0.005485740704852659
-0.00012347891472868218,-0.28198613631915964,-0.004127982345530502
-0.0001234589147286822,-0.3057802230034571,-0.0037885427556999633
-0.00012343891472868217,-0.3473360927056473,-0.005146301115022738
-0.00012341891472868218,-0.3630871078346893,-0.005485740704853277
-0.00012339891472868216,-0.36710864361232554,-0.005485740704853122
-0.00012337891472868217,-0.3818542747969606,-0.005146301115022583
-0.00012335891472868218,-0.41503194496238943,-0.005146301115022583
-0.0001233389147286822,-0.41436168899946685,-0.0058251802946833525
-0.00012331891472868218,-0.4277668082582315,-0.005146301115022583
-0.00012329891472868216,-0.4059834894627575,-0.005485740704854203
-0.00012327891472868217,-0.42743168027676237,-0.006504059474345358
-0.00012325891472868218,-0.4234101444991346,-0.005825180294684279
-0.0001232389147286822,-0.4535716628313271,-0.006843499064175125
-0.00012321891472868218,-0.4813872852932924,-0.00582518029468397
-0.00012319891472868216,-0.5125541875699151,-0.006843499064176977
-0.00012317891472868217,-0.5055164999590726,-0.007861817833667668
-0.00012315891472868218,-0.5115488036255141,-0.006843499064176051
-0.0001231389147286822,-0.5380239141615514,-0.007182938654006436
-0.00012311891472868217,-0.5554505691979703,-0.006843499064176051
-0.00012309891472868216,-0.5487480095686103,-0.008201257423498825
-0.00012307891472868217,-0.5735474801973066,-0.00820125742349867
-0.00012305891472868218,-0.5809202957896242,-0.007861817833668131
-0.0001230389147286822,-0.5825959356969691,-0.007861817833668131
-0.00012301891472868217,-0.6060548943998106,-0.008880136603160522
