samples/acq3452.csv

#Digilent WaveForms Oscilloscope Acquisition
#Device Name: Discovery2
#Serial Number: SN:210321AD996C
#Date Time: 2025-12-07 12:58:43.536
#Sample rate: 5e+07Hz
#Samples: 8192
#Trigger: Source: Channel 1 Type: Edge Condition: Rising Level: 0 V Hyst.: Auto HoldOff: 0 s
#Channel 1: Range: 500 mV/div Offset: 0 V Sample Mode: Average
#Channel 2: Range: 500 mV/div Offset: 0 V Sample Mode: Average
#Wavegen Channel 1: Running
#Mode: Custom
#Type: noisy
#Frequency: 117 kHz
#Period: 8.547008547 us
#Amplitude: 1 V
#Offset: 0 V
#Phase: 0 °

Time (s),Channel 1 (V),Channel 2 (V)
-0.00012899641025641026,-0.5179162352734277,-0.019402763887911713
-0.00012897641025641027,-0.5078623958293583,-0.019742203477742252
-0.00012895641025641025,-0.5051813719776044,-0.018723884708251096
-0.00012893641025641026,-0.5132244435328561,-0.02042108265740302
-0.00012891641025641025,-0.48406830914503907,-0.019063324298081018
-0.00012889641025641026,-0.46999293392334196,-0.019063324298081018
-0.00012887641025641027,-0.45491217475723794,-0.019742203477742096
-0.00012885641025641028,-0.43882603164672745,-0.019742203477742404
-0.00012883641025641026,-0.42642629633235496,-0.01804500552858894
-0.00012881641025641025,-0.4056483614812632,-0.01838444511841963
-0.00012879641025641026,-0.39324862616691103,-0.01838444511841963
-0.00012877641025641027,-0.40732400138860814,-0.01906332429808071
-0.00012875641025641028,-0.41000502524036514,-0.018723884708250635
-0.00012873641025641026,-0.37213556333435577,-0.01804500552858894
-0.00012871641025641024,-0.3436496849094745,-0.019402763887910478
-0.00012869641025641025,-0.33795250922449305,-0.018045005528588478
-0.00012867641025641026,-0.3128179106143311,-0.01702668675909732
-0.00012865641025641027,-0.319855598225165,-0.017705565938757627
-0.00012863641025641026,-0.30410458309612226,-0.017026686759096857
-0.00012861641025641024,-0.28299152026356733,-0.01736612634892724
-0.00012859641025641025,-0.2833266482450345,-0.017026686759096705
-0.00012857641025641026,-0.2796402404488757,-0.016687247169266162
-0.00012855641025641027,-0.2692512730233374,-0.017026686759096705
-0.00012853641025641026,-0.24009513863551832,-0.017026686759096857
-0.00012851641025641027,-0.214290284062407,-0.0156689283997747
-0.00012849641025641025,-0.1898259414151446,-0.016008367989604623
-0.00012847641025641026,-0.1807774859154822,-0.015668928399774084
-0.00012845641025641027,-0.183793637748703,-0.015668928399774084
-0.00012843641025641025,-0.15731852721263834,-0.015329488809943852
-0.00012841641025641026,-0.14692955978709998,-0.01634780757943547
-0.00012839641025641025,-0.12581649695453637,-0.015329488809943543
-0.00012837641025641026,-0.10738445797374258,-0.015668928399774084
-0.00012835641025641027,-0.09464959467792138,-0.013971730450621387
-0.00012833641025641028,-0.07420678780831721,-0.01566892839977254
-0.00012831641025641026,-0.05879090066071861,-0.013971730450620615
-0.00012829641025641024,-0.07152576395652607,-0.014311170040450382
-0.00012827641025641025,-0.05007757314250887,-0.013292851270959383
-0.00012825641025641026,-0.022932206643533976,-0.013632290860789768
-0.00012823641025641027,-0.032315790124648754,-0.013292851270959537
-0.00012821641025641026,0.010580591503391438,-0.012953411681128535
-0.00012819641025641024,0.031023398373012982,-0.013632290860789304
-0.00012817641025641025,0.03605031809505238,-0.012953411681128381
-0.00012815641025641026,0.05146620524262538,-0.012613972091297842
-0.00012813641025641027,0.058503892853473925,-0.012274532501467301
-0.00012811641025641026,0.08196285155631627,-0.011935092911636453
-0.00012809641025641024,0.09369233090773037,-0.012613972091297533
-0.00012807641025641025,0.0876600272413078,-0.012274532501466684
-0.00012805641025641026,0.12351872125848848,-0.011256213731975067
-0.00012803641025641027,0.13893460840606148,-0.011595653321805606
-0.00012801641025641025,0.12351872125849062,-0.010577334552314452
-0.00012799641025641026,0.1282105129990563,-0.012274532501467147
-0.00012797641025641025,0.13156179281376193,-0.01091677414214391
-0.00012795641025641026,0.1630638230718459,-0.009898455372652293
-0.00012793641025641027,0.17445817444179115,-0.009559015782821754
-0.00012791641025641028,0.19925764507048946,-0.010237894962482369
-0.00012789641025641026,0.2210409638660055,-0.009898455372652293
-0.00012787641025641024,0.2468458184391569,-0.00888013660316083
-0.00012785641025641025,0.2780127207157578,-0.0095590157828216
-0.00012783641025641027,0.2709750331049092,-0.008201257423499442
-0.00012781641025641028,0.26628324136434245,-0.008880136603159595
-0.00012779641025641026,0.2957745037336217,-0.008540697013329518
-0.00012777641025641024,0.3155470546403086,-0.0071829386540079795
-0.00012775641025641025,0.32459551013997257,-0.00854069701332921
-0.00012773641025641026,0.33699524545432474,-0.007861817833668131
-0.00012771641025641027,0.342357293157826,-0.008201257423498516
-0.00012769641025641026,0.3584434362683491,-0.008540697013329518
-0.00012767641025641024,0.3755349633232815,-0.007522378243837747
-0.00012765641025641025,0.3829077789156014,-0.007861817833667668
-0.00012763641025641026,0.39564264221142265,-0.006843499064176051
-0.00012761641025641027,0.4221177527474719,-0.007522378243837129
-0.00012759641025641025,0.42178262476601525,-0.007182938654006127
-0.00012757641025641026,0.42278800871042177,-0.005825180294684588
-0.00012755641025641025,0.4509387591538417,-0.006164619884514201
-0.00012753641025641026,0.4784192536342979,-0.005146301115022583
-0.00012751641025641027,0.4693707981346355,-0.005825180294683661
-0.00012749641025641028,0.4961810366521375,-0.004806861525192816
-0.00012747641025641026,0.509586155910927,-0.005146301115022583
-0.00012745641025641025,0.5179643554476498,-0.0054857407048535855
-0.00012743641025641026,0.5119320517812109,-0.00582518029468397
-0.00012741641025641027,0.5441043380022329,-0.004467421935361814
-0.00012739641025641028,0.535391010484058,-0.0044674219353611965
-0.00012737641025641026,0.5769468801862223,-0.0044674219353611965
-0.00012735641025641024,0.5772820081676836,-0.004127982345530811
-0.00012733641025641025,0.5685686806494948,-0.004467421935361042
-0.00012731641025641026,0.5702443205568397,-0.004127982345530502
-0.00012729641025641027,0.5782873921120916,-0.003449103165869733
-0.00012727641025641026,0.5893466155005802,-0.0034491031658691156
-0.00012725641025641024,0.6154865980551989,-0.003109663576038422
-0.00012723641025641025,0.6446427324429873,-0.0031096635760376502
-0.00012721641025641026,0.6459832443688632,-0.0014124656268849544
-0.00012719641025641027,0.6617342594979052,-0.002091344806546033
-0.00012717641025641025,0.6734637388493417,-0.0020913448065461872
-0.00012715641025641026,0.6949119296633466,-0.0017519052167158022
-0.00012713641025641025,0.6908903938857305,-0.0031096635760376502
-0.00012711641025641026,0.6992685934224551,-0.0014124656268849544
-0.00012709641025641027,0.7193762723105938,-0.0017519052167154934
-0.00012707641025641028,0.7354624154211065,-0.0014124656268852632
-0.00012705641025641026,0.7297652397361459,-0.0010730260370542608
-0.00012703641025641025,0.7173655044217991,-0.0007335864472234129
-0.00012701641025641026,0.7418298470690347,-0.00039414685739287377
-0.00012699641025641027,0.7512134305501661,0.0006241719120987436
-0.00012697641025641028,0.7461865108281379,-0.0007335864472223323
-0.00012695641025641026,0.7793641809935773,0.0009636115019299004
-0.00012693641025641024,0.7907585323635247,0.0006241719120988982
-0.00012691641025641025,0.7874072525488457,0.00028473232226882203
-0.00012689641025641026,0.807850059418444,0.0009636115019295917
-0.00012687641025641027,0.8034933956593586,-0.00039414685739163886
-0.00012685641025641026,0.7954503241040956,0.0013030510917605939
-0.00012683641025641024,0.7957854520855793,-0.0010730260370524086
-0.00012681641025641025,0.8118715951960879,0.0009636115019294373
-0.00012679641025641026,0.8225956906030951,-5.470726756218023e-05
-0.00012677641025641027,0.8175687708810605,-0.00039414685739271943
-0.00012675641025641026,0.84002234563949,0.0002847323222685133
-0.00012673641025641027,0.8440438814171177,0.0009636115019295917
-0.00012671641025641025,0.857449000675877,0.0013030510917604395
-0.00012669641025641026,0.8406926016024282,0.0009636115019299004
-0.00012667641025641027,0.8688433520458224,0.000284732322268822
-0.00012665641025641025,0.8849294951563617,0.0016424906815914418
-0.00012663641025641026,0.9030264061556865,0.001981930271421981
-0.00012661641025641025,0.9157612694515105,0.0016424906815909787
-0.00012659641025641026,0.9090587098221309,0.0009636115019299004
-0.00012657641025641027,0.9000102543224684,0.0009636115019299004
-0.00012655641025641028,0.9083884538591849,0.001303051091760285
-0.00012653641025641026,0.9268204928399948,0.0006241719120992069
-0.00012651641025641024,0.9063776859703894,0.00028473232226882203
-0.00012649641025641025,0.9191125492662059,0.0006241719120995156
-0.00012647641025641026,0.9214584451364876,0.001303051091760285
-0.00012645641025641027,0.9348635643952417,0.0016424906815909787
-0.00012643641025641026,0.9452525318207969,0.0023213698612526744
-0.00012641641025641024,0.9425715079690271,0.0019819302714210547
-0.00012639641025641025,0.92413946898825,0.0009636115019306722
-0.00012637641025641026,0.9422363799875748,0.0026608094510833682
-0.00012635641025641027,0.953965859338989,0.00198193027142229
-0.00012633641025641026,0.9546361153019326,0.0013030510917605939
-0.00012631641025641024,0.9432417639320115,0.0023213698612526744
-0.00012629641025641025,0.9754140501530109,0.0023213698612523656
-0.00012627641025641026,0.9579873951166239,0.0016424906815912875
-0.00012625641025641027,0.9492740675984305,0.0006241719120996701
-0.00012623641025641025,0.970052002449511,0.0023213698612522113
-0.00012621641025641026,0.9663655946533538,0.001303051091761057
-0.00012619641025641025,0.9465930437466673,0.0016424906815912875
-0.00012617641025641026,0.9328527965064392,0.0016424906815912875
-0.00012615641025641027,0.9385499721914118,0.0013030510917607483
-0.00012613641025641028,0.9569820111721997,0.0026608094510821335
-0.00012611641025641026,0.9475984276910808,0.001981930271421981
-0.00012609641025641024,0.9623440588757329,0.000963611501931444
-0.00012607641025641025,0.9737384102456731,0.0026608094510833682
-0.00012605641025641027,0.973403282264204,0.0016424906815917506
-0.00012603641025641028,0.9626791868572016,0.0019819302714216723
-0.00012601641025641026,0.9526253474131179,0.001981930271421981
-0.00012599641025641024,0.9506145795243073,0.0016424906815909787
-0.00012597641025641025,0.9553063712648765,0.0013030510917607483
-0.00012595641025641026,0.9677061065792287,0.0016424906815912875
-0.00012593641025641027,0.947933555672568,0.002321369861252057
-0.00012591641025641026,0.9516199634687105,0.0013030510917605939
-0.00012589641025641024,0.9445822758578718,0.0019819302714210547
-0.00012587641025641025,0.9589927790610253,0.0009636115019292829
-0.00012585641025641026,0.9459227877837352,-0.00039414685739287377
-0.00012583641025641027,0.9489389396169561,0.001642490681590361
-0.00012581641025641025,0.9516199634687138,0.000963611501930209
-0.00012579641025641026,0.958992779061028,0.001642490681590979
-0.00012577641025641025,0.9445822758578563,0.00028473232226866764
-0.00012575641025641026,0.9392202281543526,0.0006241719120992069
-0.00012573641025641027,0.9298366446732211,0.0009636115019297461
-0.00012571641025641028,0.9305069006361546,0.0006241719120995157
-0.00012569641025641026,0.9090587098221309,0.0006241719120992069
-0.00012567641025641025,0.9217935731179463,0.0013030510917590502
-0.00012565641025641026,0.9090587098221309,-0.00039414685739287377
-0.00012563641025641027,0.90604255798891,0.001642490681590361
-0.00012561641025641028,0.9030264061556893,0.0002847323222697482
-0.00012559641025641026,0.9063776859703778,0.0002847323222685133
-0.00012557641025641024,0.8943130786374992,-0.00039414685739256504
-0.00012555641025641025,0.9053723020259622,-5.470726756264331e-05
-0.00012553641025641026,0.8872753910266373,-0.0010730260370542608
-0.00012551641025641027,0.8979994864336398,-5.470726756310641e-05
-0.00012549641025641026,0.8892861589154522,-0.0007335864472235673
-0.00012547641025641024,0.8825835992860626,-0.0003941468573931825
-0.00012545641025641025,0.8748756557122748,-0.0007335864472235673
-0.00012543641025641026,0.8644866882867365,-0.0007335864472235673
-0.00012541641025641027,0.8597948965461707,-0.0003941468573930281
-0.00012539641025641025,0.8292982502324777,-0.00039414685739287377
-0.00012537641025641026,0.8510815690279614,-0.0014124656268844913
-0.00012535641025641025,0.8215903066586864,-0.0020913448065458785
-0.00012533641025641026,0.8185741548254656,-0.0010730260370542608
-0.00012531641025641027,0.8229308185845623,-0.0007335864472237216
-0.00012529641025641028,0.8085203153814048,-0.0003941468573931825
-0.00012527641025641026,0.7924341722708733,-0.0020913448065463416
-0.00012525641025641025,0.7864018686044387,-0.0014124656268851088
-0.00012523641025641026,0.8078500594184533,-0.0017519052167156478
-0.00012521641025641027,0.7944449401596942,-0.0017519052167156478
-0.00012519641025641028,0.7776885410862469,-0.0017519052167156478
-0.00012517641025641026,0.7612672699942442,-0.003109663576038422
-0.00012515641025641024,0.7341219034952312,-0.002770223986208346
-0.00012513641025641025,0.7193762723106095,-0.003449103165868189
-0.00012511641025641026,0.734121903495238,-0.0014124656268858808
-0.00012509641025641027,0.74115959110609,-0.001751905216715339
-0.00012507641025641026,0.7213870401994177,-0.0027702239862077284
-0.00012505641025641024,0.6965875695706978,-0.002091344806546959
-0.00012503641025641025,0.6918957778301377,-0.002770223986207265
-0.00012501641025641026,0.6996037214039241,-0.0017519052167156478
-0.00012499641025641027,0.6908903938857307,-0.0034491031658683436
-0.00012497641025641026,0.6821770663675294,-0.003109663576038422
-0.00012495641025641027,0.6443076044615348,-0.0037885427556995
-0.00012493641025641025,0.6288917173139377,-0.005146301115021657
-0.00012491641025641026,0.6292268452954067,-0.003109663576038422
-0.00012489641025641027,0.6164919819995855,-0.0037885427556995
-0.00012487641025641025,0.6252053095177732,-0.004806861525191272
-0.00012485641025641026,0.6164919819995798,-0.0034491031658691156
-0.00012483641025641025,0.6158217260366373,-0.00480686152519189
-0.00012481641025641026,0.6064381425555059,-0.00480686152519189
-0.00012479641025641027,0.5910222554079329,-0.005485740704852968
-0.00012477641025641028,0.5518122815760732,-0.006504059474344431
-0.00012475641025641026,0.5601904811127658,-0.006164619884514664
-0.00012473641025641024,0.538072034335798,-0.00582518029468397
-0.00012471641025641025,0.5323748586508217,-0.00582518029468397
-0.00012469641025641026,0.5186346114105999,-0.00582518029468397
-0.00012467641025641028,0.5156184595773742,-0.0061646198845143555
-0.00012465641025641026,0.5075753880221123,-0.005485740704853277
-0.00012463641025641024,0.47707874170840797,-0.006843499064175742
-0.00012461641025641025,0.46233311052377507,-0.006504059474345512
-0.00012459641025641026,0.4522792710797057,-0.006843499064176051
-0.00012457641025641027,0.43284184815450494,-0.006504059474345512
-0.00012455641025641026,0.4174259610069161,-0.008201257423498825
-0.00012453641025641024,0.4033505857851946,-0.007861817833667514
-0.00012451641025641025,0.3835780348785294,-0.007182938654007208
-0.00012449641025641026,0.37352419543445997,-0.008201257423498825
-0.00012447641025641027,0.3654811238792045,-0.007861817833668286
-0.00012445641025641025,0.3554272844351233,-0.007522378243836048
-0.00012443641025641026,0.3473842128798715,-0.004467421935362585
-0.00012441641025641025,0.30984987895532534,-0.0024307843963771894
-0.00012439641025641026,0.3101850069367943,-0.0027702239862077284
-0.00012437641025641027,0.3195685904179257,-0.001751905216716111
-0.00012435641025641028,0.2910827119930798,-0.0027702239862068025
-0.00012433641025641026,0.2746614409010664,-0.0014124656268849544
-0.00012431641025641024,0.26963452117902975,-0.0017519052167162652
-0.00012429641025641025,0.2699696491604986,-0.002430784396377035
-0.00012427641025641027,0.24014325880975954,-0.002430784396377035
-0.00012425641025641028,0.24517017853177833,-0.0027702239862074196
-0.00012423641025641026,0.2089763565331168,-0.00480686152519189
-0.00012421641025641024,0.1892038056264564,-0.004127982345530502
-0.00012419641025641025,0.20931148451457618,-0.0041279823455309655
-0.00012417641025641026,0.18786329370056157,-0.005146301115022583
-0.00012415641025641027,0.16507459096068142,-0.005485740704852968
-0.00012413641025641026,0.13725896849872282,-0.00582518029468397
-0.00012411641025641024,0.11413513777735373,-0.005485740704853277
-0.00012409641025641025,0.11514052172174283,-0.005485740704853122
-0.00012407641025641026,0.07693593183427933,-0.005146301115022583
-0.00012405641025641027,0.06520645248286508,-0.005146301115022583
-0.00012403641025641025,0.06353081257550205,-0.00616461988451451
-0.00012401641025641026,0.0370557020394648,-0.0058251802946841244
-0.00012399641025641025,0.050460821298207476,-0.006164619884514973
-0.00012397641025641026,0.027336990576847974,-0.006843499064176051
-0.00012395641025641027,0.024320838743627168,-0.006504059474345512
-0.00012393641025641028,-0.011537855273538573,-0.006164619884514973
-0.00012391641025641026,-0.03198066214318816,-0.006504059474345358
-0.00012389641025641025,-0.014218879125344044,-0.00752237824383682
-0.00012387641025641026,-0.03600219792081773,-0.006843499064176051
-0.00012385641025641027,-0.07454191578975024,-0.00718293865400659
-0.00012383641025641028,-0.07956883551180015,-0.007182938654006744
-0.00012381641025641026,-0.08157960340061951,-0.008201257423498825
-0.00012379641025641024,-0.08995780293737214,-0.008540697013329827
-0.00012377641025641025,-0.11676804145488631,-0.008880136603159904
-0.00012375641025641026,-0.13452982447274217,-0.008201257423498825
-0.00012373641025641027,-0.14257289602799397,-0.00786181783366844
-0.00012371641025641026,-0.13855136025037174,-0.008540697013329518
-0.00012369641025641024,-0.1787667180266668,-0.008880136603159595
-0.00012367641025641025,-0.17809646206374272,-0.008201257423499288
-0.00012365641025641026,-0.20792285241448177,-0.009219576192990906
-0.00012363641025641027,-0.2216630996547099,-0.009559015782821445
-0.00012361641025641025,-0.24478693037608615,-0.0095590157828216
-0.00012359641025641027,-0.23607360285789272,-0.0095590157828216
-0.00012357641025641025,-0.27628896063418623,-0.009898455372653065
-0.00012355641025641026,-0.280310496411814,-0.01159565332180576
-0.00012353641025641027,-0.29472099961498005,-0.010916774142144682
-0.00012351641025641028,-0.29907766337408137,-0.00989845537265322
-0.00012349641025641026,-0.31147739868844315,-0.010237894962482987
-0.00012347641025641025,-0.3309148216136632,-0.009898455372652448
-0.00012345641025641026,-0.35403865233502274,-0.010237894962482987
-0.00012343641025641027,-0.37113017938994064,-0.011935092911635681
-0.00012341641025641028,-0.3560494202238512,-0.011595653321806069
-0.00012339641025641026,-0.377832739019331,-0.01159565332180576
-0.00012337641025641024,-0.3855406825931204,-0.011256213731975993
-0.00012335641025641025,-0.38487042663018917,-0.012274532501467456
-0.00012333641025641026,-0.3989458018518799,-0.012953411681128226
-0.00012331641025641027,-0.4006214417592304,-0.012274532501467764
-0.00012329641025641026,-0.4234101444991328,-0.012613972091297842
-0.00012327641025641024,-0.44050167155405934,-0.013292851270959229
-0.00012325641025641025,-0.44150705549847574,-0.013292851270959383
-0.00012323641025641026,-0.46329037429395936,-0.013632290860789922
-0.00012321641025641027,-0.5058516279405196,-0.013632290860789922
-0.00012319641025641026,-0.4991490683111563,-0.013632290860789922
-0.00012317641025641027,-0.5088677797737566,-0.013292851270959383
-0.00012315641025641025,-0.5239485389398828,-0.014311170040451926
-0.00012313641025641026,-0.5477426256241803,-0.015668928399774084
-0.00012311641025641027,-0.536013146272766,-0.014311170040451926
-0.00012309641025641025,-0.5588018490126736,-0.016008367989604467
