samples/acq3528.csv

#Digilent WaveForms Oscilloscope Acquisition
#Device Name: Discovery2
#Serial Number: SN:210321AD996C
#Date Time: 2025-12-07 12:58:47.389
#Sample rate: 5e+07Hz
#Samples: 8192
#Trigger: Source: Channel 1 Type: Edge Condition: Rising Level: 0 V Hyst.: Auto HoldOff: 0 s
#Channel 1: Range: 500 mV/div Offset: 0 V Sample Mode: Average
#Channel 2: Range: 500 mV/div Offset: 0 V Sample Mode: Average
#Wavegen Channel 1: Running
#Mode: Custom
#Type: noisy
#Frequency: 117 kHz
#Period: 8.547008547 us
#Amplitude: 1 V
#Offset: 0 V
#Phase: 0 °

Time (s),Channel 1 (V),Channel 2 (V)
-0.00012899137931034484,-0.5112136756440451,-0.011935092911636453
-0.00012897137931034482,-0.4951275325335182,-0.012613972091296916
-0.00012895137931034483,-0.4857439490523978,-0.011595653321805606
-0.00012893137931034484,-0.5004895802370262,-0.011256213731975221
-0.00012891137931034482,-0.4730090857565585,-0.011595653321805297
-0.00012889137931034484,-0.4606093504422063,-0.01057733455231368
-0.00012887137931034482,-0.4441880793502295,-0.011595653321805142
-0.00012885137931034483,-0.4559175587016322,-0.010916774142144064
-0.00012883137931034484,-0.4421773114614041,-0.010237894962482987
-0.00012881137931034482,-0.42307501651766277,-0.011256213731974449
-0.00012879137931034483,-0.4210642486288489,-0.009898455372652293
-0.00012877137931034482,-0.40698887340712436,-0.011935092911634292
-0.00012875137931034483,-0.38386504268576455,-0.009559015782822063
-0.00012873137931034484,-0.3600709560014671,-0.01057733455231368
-0.00012871137931034482,-0.35604942022383446,-0.008880136603160522
-0.00012869137931034483,-0.35269814040913144,-0.00921957619299106
-0.00012867137931034484,-0.3201907262066553,-0.009559015782821445
-0.00012865137931034482,-0.3134881665772552,-0.008201257423499442
-0.00012863137931034483,-0.30745586291081356,-0.0095590157828216
-0.00012861137931034482,-0.29103459181881763,-0.007861817833669058
-0.00012859137931034483,-0.2816510083376809,-0.00888013660315975
-0.00012857137931034484,-0.26053794550513526,-0.007861817833668131
-0.00012855137931034482,-0.2545056418386714,-0.00786181783366844
-0.00012853137931034483,-0.23305745102466657,-0.008201257423498825
-0.00012851137931034484,-0.22065771571031437,-0.008201257423498825
-0.00012849137931034483,-0.20993362030328774,-0.007182938654006744
-0.00012847137931034484,-0.19049619737808698,-0.007182938654006744
-0.00012845137931034482,-0.18714491756335544,-0.007861817833666587
-0.00012843137931034483,-0.14290802400946662,-0.0061646198845143555
-0.00012841137931034484,-0.13452982447274217,-0.005485740704853277
-0.00012839137931034482,-0.12782726484335086,-0.005146301115022738
-0.00012837137931034483,-0.10872496989961908,-0.005485740704853277
-0.00012835137931034482,-0.08627139514118704,-0.005146301115022892
-0.00012833137931034483,-0.08593626715971804,-0.005485740704853431
-0.00012831137931034484,-0.08560113917824907,-0.00582518029468397
-0.00012829137931034482,-0.07856345156739093,-0.004806861525193434
-0.00012827137931034483,-0.07152576395652395,-0.006504059474344277
-0.00012825137931034484,-0.023937590587950662,-0.004127982345531583
-0.00012823137931034482,-0.01689990297706387,-0.003788542755699809
-0.00012821137931034483,0.012591359392206222,-0.003788542755699809
-0.00012819137931034482,0.022980326817751712,-0.0037885427557007353
-0.00012817137931034483,0.025661350669516338,-0.004806861525190655
-0.00012815137931034484,0.05649312496466234,-0.0020913448065463416
-0.00012813137931034482,0.056493124964676365,-0.003109663576037496
-0.00012811137931034483,0.07190901211224235,-0.0020913448065463416
-0.00012809137931034482,0.08766002724128905,-0.0024307843963764174
-0.00012807137931034483,0.08497900338955308,-0.0017519052167154934
-0.00012805137931034484,0.117151289610575,-0.0014124656268849544
-0.00012803137931034482,0.12988615290639585,-0.0007335864472244934
-0.00012801137931034483,0.12318359327702134,-0.001751905216715339
-0.00012799137931034484,0.12754025703611804,-0.0010730260370542608
-0.00012797137931034482,0.1573666473868795,-0.0003941468573924107
-0.00012795137931034483,0.17680407031208026,0.0006241719120992069
-0.00012793137931034482,0.18015535012679107,-0.002091344806545107
-0.00012791137931034483,0.20160354094080385,-0.0007335864472232586
-0.00012789137931034484,0.21903019597719073,-5.470726756218023e-05
-0.00012787137931034482,0.24885658632793634,0.0013030510917590502
-0.00012785137931034483,0.24114864275415335,-0.00039414685739287377
-0.00012783137931034484,0.2418188987170913,0.000963611501929283
-0.00012781137931034483,0.2689642652161103,0.000963611501930209
-0.00012779137931034484,0.31085526289973253,0.0016424906815912875
-0.00012777137931034482,0.31822807849204426,0.000963611501930209
-0.00012775137931034483,0.3081742390479791,0.001303051091761057
-0.00012773137931034484,0.3071688551035721,0.0023213698612526744
-0.00012771137931034482,0.33598986150992666,0.003000249040913753
-0.00012769137931034483,0.35643266837953436,0.0023213698612526744
-0.00012767137931034482,0.37285393947152506,0.00198193027142229
-0.00012765137931034483,0.3765403472676879,0.0023213698612526744
-0.00012763137931034484,0.38927521056350917,0.0023213698612526744
-0.00012761137931034482,0.40133981789639633,0.003000249040914679
-0.00012759137931034483,0.3996641779890597,0.0036791282205749856
-0.00012757137931034484,0.4160854490810322,0.0026608094510838314
-0.00012755137931034482,0.4506036311723718,0.0033396886307453725
-0.00012753137931034483,0.4764084857454831,0.004697446990067529
-0.00012751137931034482,0.48177053344898557,0.00469744699006722
-0.00012749137931034483,0.4777489976713668,0.004358007400236527
-0.00012747137931034484,0.4935000128004088,0.003679128220575449
-0.00012745137931034482,0.5028835962815542,0.004018567810406142
-0.00012743137931034483,0.5136076916885566,0.004018567810406142
-0.00012741137931034484,0.5169589715032463,0.00503688657989776
-0.00012739137931034483,0.5276830669102748,0.00571576575955961
-0.00012737137931034484,0.5598553531312966,0.00571576575955961
-0.00012735137931034482,0.5806332879823831,0.005376326169728299
-0.00012733137931034483,0.5809684159638617,0.004697446990067992
-0.00012731137931034484,0.6027517347593454,0.00571576575955961
-0.00012729137931034482,0.593368151278207,0.006055205349390303
-0.00012727137931034483,0.5873358476117654,0.006055205349390303
-0.00012725137931034482,0.6262106934621988,0.0074129637087118425
-0.00012723137931034483,0.6419617085912325,0.006055205349390303
-0.00012721137931034484,0.6392806847394806,0.006055205349390303
-0.00012719137931034482,0.6570424677573491,0.007752403298542845
-0.00012717137931034483,0.662069387479393,0.006734084529051691
-0.00012715137931034484,0.6875391140710239,0.006734084529051691
-0.00012713137931034482,0.6932362897560136,0.005376326169728608
-0.00012711137931034484,0.6996037214039241,0.004697446990067529
-0.00012709137931034482,0.7120034567182841,0.0009636115019271219
-0.00012707137931034483,0.7143493525885716,-0.002091344806545107
-0.00012705137931034484,0.7267490879029237,0.0006241719120992069
-0.00012703137931034482,0.7334516475323162,0.000963611501930209
-0.00012701137931034483,0.7548998383463307,0.0016424906815912875
-0.00012699137931034482,0.7542295823833775,0.0016424906815912875
-0.00012697137931034483,0.737808311291416,0.001642490681591133
-0.00012695137931034484,0.7619375259571824,0.0013030510917605939
-0.00012693137931034482,0.7659590617348209,0.0009636115019299004
-0.00012691137931034483,0.7756777731974324,0.0009636115019303634
-0.00012689137931034484,0.8098608273072526,0.001981930271421518
-0.00012687137931034482,0.7880775085117756,0.00062417191209967
-0.00012685137931034483,0.7900882764005894,0.0016424906815912875
-0.00012683137931034482,0.7967908360299769,0.002321369861252983
-0.00012681137931034483,0.8021528837334841,0.002660809451083214
-0.00012679137931034484,0.8152228750107743,0.0023213698612526744
-0.00012677137931034482,0.8205849227142873,0.003000249040912518
-0.00012675137931034483,0.8282928662880703,0.0013030510917605939
-0.00012673137931034484,0.8236010745475046,0.0006241719120995156
-0.00012671137931034483,0.8500761850835662,0.0023213698612531376
-0.00012669137931034484,0.8551031048056008,0.003339688630744755
-0.00012667137931034482,0.8648218162682159,0.003679128220574214
-0.00012665137931034483,0.8762161676381602,0.0023213698612534464
-0.00012663137931034484,0.8855997511192917,0.004018567810406142
-0.00012661137931034482,0.8953184625818866,0.002321369861252829
-0.00012659137931034483,0.873535143786403,0.0026608094510833682
-0.00012657137931034482,0.8949833346004322,0.002321369861253909
-0.00012655137931034483,0.9003453823039433,0.0036791282205757576
-0.00012653137931034484,0.9221287010994269,0.0043580074002368355
-0.00012651137931034482,0.9016858942298133,0.003000249040914679
-0.00012649137931034483,0.905372302025975,0.003679128220575449
-0.00012647137931034484,0.9154261414700398,0.003679128220575449
-0.00012645137931034482,0.9254799809141248,0.003339688630745527
-0.00012643137931034483,0.9398904841172908,0.005036886579898223
-0.00012641137931034482,0.954971243283374,0.004358007400237144
-0.00012639137931034483,0.9244745969697205,0.00469744699006722
-0.00012637137931034484,0.9455876598022661,0.004018567810406142
-0.00012635137931034482,0.9549712432834039,0.004358007400236218
-0.00012633137931034483,0.9573171391536857,0.003679128220575449
-0.00012631137931034482,0.9452525318208079,0.004697446990066294
-0.00012629137931034483,0.9573171391536862,0.003339688630744755
-0.00012627137931034484,0.9586576510795621,0.003339688630744755
-0.00012625137931034482,0.9512848354872598,0.0033396886307453725
-0.00012623137931034483,0.9717276423568546,0.004018567810405988
-0.00012621137931034484,0.9636845708016029,0.003679128220575603
-0.00012619137931034482,0.945587659802269,0.0033396886307450638
-0.00012617137931034483,0.9519550914501795,0.004018567810406142
-0.00012615137931034482,0.943912019894939,0.0033396886307450638
-0.00012613137931034483,0.9643548267645392,0.0036791282205757576
-0.00012611137931034484,0.968376362542167,0.0043580074002368355
-0.00012609137931034482,0.9697168744680237,0.004018567810406451
-0.00012607137931034483,0.94793355567255,0.0043580074002368355
-0.00012605137931034484,0.9506145795243018,0.005036886579897914
-0.00012603137931034483,0.9546361153019327,0.0033396886307450638
-0.00012601137931034484,0.9549712432834018,0.004018567810406142
-0.00012599137931034482,0.954300987320452,0.00367912822057514
-0.00012597137931034483,0.9415661240246374,0.0033396886307450638
-0.00012595137931034484,0.9435768919134513,0.004018567810406142
-0.00012593137931034482,0.9526253474131149,0.003339688630744446
-0.00012591137931034483,0.9459227877837352,0.0026608094510833682
-0.00012589137931034482,0.9412309960431628,0.0030002490409140616
-0.00012587137931034483,0.936204076321134,0.003000249040914216
-0.00012585137931034484,0.9439120198949205,0.003339688630744755
-0.00012583137931034482,0.9526253474131194,0.0043580074002368355
-0.00012581137931034483,0.9543009873204716,0.004358007400236527
-0.00012579137931034484,0.9720627703383193,0.0036791282205757576
-0.00012577137931034482,0.9382148442099446,0.0036791282205749856
-0.00012575137931034483,0.9368743322840687,0.0026608094510833682
-0.00012573137931034482,0.9392202281543486,0.0026608094510833682
-0.00012571137931034483,0.9348635643952433,0.0026608094510830595
-0.00012569137931034484,0.9117397336738838,0.001981930271421981
-0.00012567137931034482,0.9214584451364808,0.003339688630744446
-0.00012565137931034483,0.9127451176182912,0.0030002490409140616
-0.00012563137931034482,0.9351986923767038,0.004018567810404907
-0.00012561137931034483,0.9140856295441597,0.0026608094510833682
-0.00012559137931034484,0.8963238465263039,0.0026608094510833682
-0.00012557137931034482,0.9120748616553485,0.003000249040913444
-0.00012555137931034483,0.9070479419333084,0.00232136986125252
-0.00012553137931034484,0.8902915428598596,0.001981930271421981
-0.00012551137931034482,0.8953184625818899,0.000624171912100133
-0.00012549137931034483,0.8805728313972547,0.0026608094510833682
-0.00012547137931034482,0.8812430873601893,0.0019819302714225986
-0.00012545137931034483,0.8772215515825561,0.002660809451083214
-0.00012543137931034484,0.8611354084720452,0.0023213698612526744
-0.00012541137931034482,0.8514166970094098,0.0009636115019292829
-0.00012539137931034483,0.8179038988625273,0.0002847323222685133
-0.00012537137931034484,0.8232659465660309,0.0009636115019295917
-0.00012535137931034482,0.8229308185845597,0.002321369861252057
-0.00012533137931034484,0.8128769791404903,0.0009636115019299004
-0.00012531137931034482,0.8225956906030789,0.0006241719120995156
-0.00012529137931034483,0.804833907585221,0.0009636115019295917
-0.00012527137931034484,0.7823803328267994,0.0002847323222685133
-0.00012525137931034482,0.7776885410862442,-0.0010730260370541065
-0.00012523137931034483,0.8051690355667003,-0.0007335864472235673
-0.00012521137931034482,0.802823139696403,0.0013030510917596677
-0.00012519137931034483,0.7880775085117615,0.00028473232226805024
-0.00012517137931034484,0.7589213741239603,-0.0007335864472235673
-0.00012515137931034482,0.7532241984389854,-0.0007335864472241847
-0.00012513137931034483,0.7535593264204504,-0.0014124656268841827
-0.00012511137931034484,0.7451811268837297,0.00028473232226774157
-0.00012509137931034482,0.7414947190875503,-0.0010730260370544152
-0.00012507137931034483,0.7079819209406524,-0.0014124656268849544
-0.00012505137931034482,0.7126737126812102,-0.0007335864472248022
-0.00012503137931034483,0.701614489292746,-0.002091344806546805
-0.00012501137931034484,0.717030376440319,-0.003109663576038422
-0.00012499137931034482,0.7039603851630085,-0.001751905216716574
-0.00012497137931034483,0.6882093700339738,-0.0027702239862077284
-0.00012495137931034484,0.6808365544416561,-0.003109663576038268
-0.00012493137931034483,0.6489993962020851,-0.0037885427556991914
-0.00012491137931034484,0.6483291402391471,-0.002430784396377035
-0.00012489137931034482,0.6362645329062503,-0.002770223986208037
-0.00012487137931034483,0.6272160774065842,-0.0031096635760385766
-0.00012485137931034484,0.6104596783331354,-0.0034491031658691156
-0.00012483137931034482,0.6087840384257844,-0.005146301115021966
-0.00012481137931034483,0.5970545590743702,-0.003788542755699809
-0.00012479137931034482,0.5859953356858603,-0.004806861525192199
-0.00012477137931034483,0.5544933054277877,-0.005146301115022892
-0.00012475137931034484,0.5484610017613463,-0.00582518029468397
-0.00012473137931034482,0.5323748586508035,-0.005825180294684896
-0.00012471137931034483,0.5055646201332963,-0.006843499064176205
-0.00012469137931034484,0.5028835962815457,-0.00718293865400659
-0.00012467137931034482,0.4888082210598408,-0.00684349906417636
-0.00012465137931034483,0.48847309307837183,-0.007522378243837438
-0.00012463137931034482,0.4697059261160801,-0.008201257423496972
-0.00012461137931034483,0.44725235135767,-0.006164619884514664
-0.00012459137931034484,0.4499333752094218,-0.006164619884514664
-0.00012457137931034482,0.44725235135765856,-0.006164619884515282
-0.00012455137931034483,0.424798776599237,-0.007522378243837438
-0.00012453137931034482,0.40133981789636886,-0.008201257423499442
-0.00012451137931034483,0.3695026596568368,-0.008880136603159904
-0.00012449137931034484,0.3835780348785339,-0.008201257423498825
-0.00012447137931034482,0.37419445139738605,-0.0085406970133289
-0.00012445137931034483,0.3607893321386193,-0.007861817833668286
-0.00012443137931034484,0.330627813806425,-0.00820125742349867
-0.00012441137931034482,0.302812191344474,-0.008540697013329827
-0.00012439137931034483,0.30415270327034993,-0.009219576192990906
-0.00012437137931034482,0.2951042477706715,-0.009219576192991215
-0.00012435137931034483,0.28203425649338504,-0.009559015782821137
-0.00012433137931034484,0.27700733677135037,-0.008540697013329518
-0.00012431137931034482,0.2659481133828587,-0.008540697013330444
-0.00012429137931034483,0.2545537620129186,-0.0095590157828216
-0.00012427137931034484,0.2294191634027452,-0.008880136603160522
-0.00012425137931034483,0.23210018725446746,-0.008201257423499288
-0.00012423137931034484,0.18953893360790722,-0.009219576192990906
-0.00012421137931034482,0.17546355838619762,-0.010577334552313371
-0.00012419137931034483,0.16876099875681472,-0.010237894962483295
-0.00012417137931034484,0.15468562353511764,-0.010916774142144373
-0.00012415137931034482,0.15937741527568836,-0.010237894962482678
-0.00012413137931034483,0.16574484692359895,-0.0095590157828216
-0.00012411137931034482,0.13424281666549975,-0.010237894962482678
-0.00012409137931034483,0.13323743272108107,-0.009898455372652448
-0.00012407137931034484,0.10642719420356281,-0.010237894962482987
-0.00012405137931034482,0.09067617907450483,-0.01159565332180576
-0.00012403137931034483,0.08095746761188999,-0.011595653321805914
-0.00012401137931034484,0.03940159790975557,-0.011935092911636299
-0.00012399137931034482,0.023315454799213074,-0.011595653321806532
-0.00012397137931034483,0.011585975447798831,-0.013292851270959229
-0.00012395137931034482,0.013931871318056227,-0.011256213731975993
-0.00012393137931034483,-0.015224263069737112,-0.012274532501467764
-0.00012391137931034484,-0.02728887040262033,-0.013632290860789922
-0.00012389137931034482,-0.02159169471766309,-0.013292851270959537
-0.00012387137931034483,-0.041364245624323816,-0.013632290860789922
-0.00012385137931034482,-0.05577474882750528,-0.014650609630281076
-0.00012383137931034483,-0.0654934602901093,-0.013632290860790076
-0.00012381137931034484,-0.08325524330796516,-0.013971730450620615
-0.00012379137931034482,-0.10671420201082138,-0.013632290860791466
-0.00012377137931034483,-0.12548136897307488,-0.015329488809943543
-0.00012375137931034484,-0.12380572906572998,-0.015668928399774084
-0.00012373137931034482,-0.13017316071366083,-0.014990049220112387
-0.00012371137931034483,-0.16837775060112437,-0.014311170040451309
-0.00012369137931034482,-0.17642082215639782,-0.0156689283997747
-0.00012367137931034483,-0.19217183728544193,-0.01634780757943547
-0.00012365137931034484,-0.2126146441550496,-0.01634780757943547
-0.00012363137931034482,-0.21596592396973086,-0.017366126348926623
-0.00012361137931034483,-0.2049067005812596,-0.01634780757943547
-0.00012359137931034484,-0.23976001065403335,-0.01702668675909655
-0.00012357137931034482,-0.2752835766897758,-0.01770556593875809
-0.00012355137931034484,-0.272602552838024,-0.01736612634892755
-0.00012353137931034482,-0.2994127913555602,-0.018045005528589248
-0.00012351137931034483,-0.30578022300347796,-0.018384445118419322
-0.00012349137931034484,-0.32789866978043053,-0.017705565938758244
-0.00012347137931034482,-0.3165043184104885,-0.01838444511841948
-0.00012345137931034483,-0.3349363573912823,-0.01804500552858894
-0.00012343137931034482,-0.374481459204637,-0.019063324298081327
-0.00012341137931034483,-0.3714653073714259,-0.019402763887911866
-0.00012339137931034484,-0.38989734635221973,-0.019742203477742404
-0.00012337137931034482,-0.38352991470430775,-0.018723884708250326
-0.00012335137931034483,-0.38520555461166056,-0.018723884708250944
-0.00012333137931034484,-0.4043078495553837,-0.020081643067572482
-0.00012331137931034482,-0.4224047605547298,-0.01940276388791202
-0.00012329137931034483,-0.4321234720173302,-0.0200816430675731
-0.00012327137931034482,-0.45323653484987964,-0.020081643067572173
-0.00012325137931034483,-0.44686910320197665,-0.019063324298081327
-0.00012323137931034484,-0.457258070627515,-0.019742203477742404
-0.00012321137931034482,-0.4827277972191814,-0.020760522247234795
-0.00012319137931034483,-0.4964680444594033,-0.021099961837065178
-0.00012317137931034484,-0.5272998187545493,-0.02076052224723464
-0.00012315137931034483,-0.5299808426063114,-0.02177884101672595
-0.00012313137931034484,-0.5189216192178351,-0.02042108265740379
-0.00012311137931034482,-0.5172459793105174,-0.020421082657404718
-0.00012309137931034483,-0.5480777536056605,-0.021439401426895873
-0.00012307137931034484,-0.572542096252896,-0.021439401426895873
