samples/acq3529.csv

#Digilent WaveForms Oscilloscope Acquisition
#Device Name: Discovery2
#Serial Number: SN:210321AD996C
#Date Time: 2025-12-07 12:58:47.424
#Sample rate: 5e+07Hz
#Samples: 8192
#Trigger: Source: Channel 1 Type: Edge Condition: Rising Level: 0 V Hyst.: Auto HoldOff: 0 s
#Channel 1: Range: 500 mV/div Offset: 0 V Sample Mode: Average
#Channel 2: Range: 500 mV/div Offset: 0 V Sample Mode: Average
#Wavegen Channel 1: Running
#Mode: Custom
#Type: noisy
#Frequency: 117 kHz
#Period: 8.547008547 us
#Amplitude: 1 V
#Offset: 0 V
#Phase: 0 °

Time (s),Channel 1 (V),Channel 2 (V)
-0.00012899381443298968,-0.5239485389398671,-0.00548574070485374
-0.0001289738144329897,-0.5132244435328598,-0.006504059474345358
-0.0001289538144329897,-0.5041759880331974,-0.006843499064175897
-0.0001289338144329897,-0.5098731637181633,-0.006164619884515282
-0.0001289138144329897,-0.4790413894230085,-0.005485740704853277
-0.00012889381443298968,-0.464295758238346,-0.004806861525193125
-0.0001288738144329897,-0.44150705549846586,-0.006164619884514664
-0.0001288538144329897,-0.43078296009145856,-0.004127982345531429
-0.0001288338144329897,-0.4311180880729225,-0.004806861525191272
-0.0001288138144329897,-0.4207291206473797,-0.00480686152519189
-0.00012879381443298967,-0.42575604036939785,-0.0037885427557004265
-0.00012877381443298969,-0.4049781055183326,-0.004467421935361351
-0.0001287538144329897,-0.4093347692774293,-0.00480686152519189
-0.0001287338144329897,-0.4049781055183345,-0.005485740704852659
-0.0001287138144329897,-0.3671086436123188,-0.003788542755699809
-0.00012869381443298967,-0.3510225005017954,-0.003788542755699809
-0.00012867381443298968,-0.3453253248168249,-0.003788542755699809
-0.0001286538144329897,-0.34431994087241796,-0.003788542755699809
-0.0001286338144329897,-0.3268932858360311,-0.003788542755699809
-0.0001286138144329897,-0.28567254411531623,-0.0031096635760378046
-0.0001285938144329897,-0.27729434457859564,-0.0017519052167162652
-0.00012857381443298968,-0.2471328262463661,-0.003109663576037496
-0.0001285538144329897,-0.23841949872817267,-0.0010730260370542608
-0.0001285338144329897,-0.23439796295054494,-0.001751905216715339
-0.0001285138144329897,-0.21060387626625648,-0.002091344806546033
-0.0001284938144329897,-0.22199822763618526,-0.0010730260370542608
-0.00012847381443298968,-0.20691746847006173,-0.0014124656268844913
-0.0001284538144329897,-0.17910184600813653,-0.00039414685739287377
-0.0001284338144329897,-0.18044235793401245,-0.0014124656268844913
-0.0001284138144329897,-0.16335083087910293,-0.0003941468573938
-0.0001283938144329897,-0.15832391115705044,0.0009636115019299004
-0.00012837381443298968,-0.13151367263949712,0.0006241719120995156
-0.00012835381443298969,-0.10637907402933196,0.000963611501929746
-0.0001283338144329897,-0.09934138641848662,0.0006241719120993613
-0.0001283138144329897,-0.07990396349329154,0.0009636115019295917
-0.0001282938144329897,-0.06482320432716296,0.001981930271421981
-0.00012827381443298967,-0.06850961212332096,0.0009636115019295917
-0.00012825381443298968,-0.06582858827156336,0.0006241719120999787
-0.0001282338144329897,-0.05041270112399035,0.0023213698612526744
-0.0001282138144329897,-0.02293220664353413,0.001642490681591596
-0.0001281938144329897,-0.002154271792435528,0.0030002490409140616
-0.0001281738144329897,0.01929391902157908,0.002321369861252983
-0.00012815381443298968,0.021639814891882655,0.0023213698612534464
-0.0001281338144329897,0.04342313368736624,0.004018567810406142
-0.0001281138144329897,0.05783363689053231,0.003679128220575603
-0.00012809381443298968,0.06252542863111614,0.0030002490409143704
-0.0001280738144329897,0.0833033634821928,0.003679128220575449
-0.00012805381443298968,0.10944334603678758,0.004358007400237299
-0.0001280338144329897,0.1151405217217602,0.0053763261697289165
-0.0001280138144329897,0.12552948914729853,0.0036791282205762207
-0.0001279938144329897,0.1258646171287721,0.005376326169727373
-0.0001279738144329897,0.14831819188720413,0.0043580074002368355
-0.00012795381443298968,0.15166947170192135,0.004018567810407995
-0.0001279338144329897,0.1801553501267836,0.006055205349390149
-0.0001279138144329897,0.20663046066282084,0.005715765759559764
-0.0001278938144329897,0.22405711569921183,0.0060552053493899945
-0.0001278738144329897,0.21534378818103028,0.006055205349390303
-0.00012785381443298967,0.23109480331010138,0.0057157657595602275
-0.00012783381443298968,0.2552240179758663,0.006394644939221151
-0.0001278138144329897,0.27600195282694295,0.006734084529051691
-0.0001277938144329897,0.29108271199304697,0.006394644939221151
-0.0001277738144329897,0.3138714147329547,0.007073524118882384
-0.00012775381443298967,0.30582834317770136,0.0070735241188820755
-0.00012773381443298968,0.31219577482561134,0.006734084529051691
-0.0001277138144329897,0.31722269454764607,0.006734084529051691
-0.0001276938144329897,0.3504003647130749,0.008091842888373847
-0.00012767381443298969,0.37553496332326947,0.008091842888374464
-0.0001276538144329897,0.3638054839718552,0.008091842888374464
-0.00012763381443298968,0.3604542041571767,0.00809184288837431
-0.0001276138144329897,0.3886049546005709,0.007752403298543771
-0.0001275938144329897,0.4070369935813647,0.007752403298543771
-0.0001275738144329897,0.42077724082159496,0.008770722068034925
-0.0001275538144329897,0.460657470616434,0.008770722068035851
-0.00012753381443298968,0.47272207794931753,0.009110161657866545
-0.0001275138144329897,0.46702490226434745,0.009110161657866545
-0.0001274938144329897,0.4673600302458164,0.010467920017188702
-0.0001274738144329897,0.4831110453748514,0.00911016165786778
-0.0001274538144329897,0.509251027929458,0.010128480427358626
-0.00012743381443298967,0.5119320517812253,0.00978904083752855
-0.00012741381443298968,0.5276830669102728,0.01046792001718932
-0.0001273938144329897,0.5554986893721979,0.01046792001718932
-0.0001273738144329897,0.5484610017613527,0.010128480427358935
-0.0001273538144329897,0.5370666503913958,0.011146799196850707
-0.00012733381443298967,0.5514771535945763,0.010128480427358626
-0.00012731381443298968,0.5601904811127645,0.01012848042735878
-0.0001272938144329897,0.5571743292795436,0.01046792001718932
-0.0001272738144329897,0.5923627673337863,0.010807359607019859
-0.00012725381443298969,0.6164919819995903,0.01080735960702063
-0.0001272338144329897,0.6396158127209393,0.012165117966342169
-0.00012721381443298968,0.6309024852027598,0.0114862387866814
-0.0001271938144329897,0.6473237562947398,0.0114862387866814
-0.0001271738144329897,0.6774852746269477,0.0114862387866814
-0.0001271538144329897,0.6607288755535202,0.011825678376511784
-0.0001271338144329897,0.6885444980154428,0.01250455755617348
-0.00012711381443298968,0.7076467929591803,0.013522876325664944
-0.0001270938144329897,0.704295513144492,0.012843997146004173
-0.0001270738144329897,0.7063062810333058,0.013522876325665253
-0.0001270538144329897,0.7053008970889003,0.012843997146004791
-0.0001270338144329897,0.7012793613112698,0.012843997146004173
-0.00012701381443298967,0.7250734479955981,0.013183436735835795
-0.00012699381443298969,0.747191894772552,0.01420175550532664
-0.0001269738144329897,0.7719913654012563,0.013522876325665562
-0.0001269538144329897,0.7522188144945957,0.013522876325665562
-0.0001269338144329897,0.7696454695309725,0.014201755505326949
-0.00012691381443298967,0.7699805975124578,0.014201755505326331
-0.00012689381443298968,0.7877423805303124,0.013522876325665562
-0.0001268738144329897,0.8028231396964164,0.013522876325665562
-0.0001268538144329897,0.8008123718076026,0.0138623159154961
-0.0001268338144329897,0.8138823630848911,0.014880634684987872
-0.0001268138144329897,0.7994718598817316,0.013862315915496718
-0.00012679381443298968,0.8296333782139543,0.01555951386464895
-0.0001267738144329897,0.8460546493059343,0.013862315915496255
-0.0001267538144329897,0.8520869529723758,0.014541195095157333
-0.0001267338144329897,0.8544328488426605,0.015559513864648796
-0.0001267138144329897,0.8728648878234647,0.015220074274819029
-0.00012669381443298968,0.8587895126017634,0.016238393044310802
-0.0001266738144329897,0.8634813043423291,0.015559513864649722
-0.0001266538144329897,0.86314617636086,0.015559513864649722
-0.0001266338144329897,0.8711892479161117,0.014880634684988953
-0.0001266138144329897,0.8742053997493412,0.014541195095157642
-0.00012659381443298968,0.8698487359902646,0.015898953454480724
-0.00012657381443298969,0.8939779506560251,0.01623839304431065
-0.0001265538144329897,0.9053723020259652,0.015220074274819492
-0.0001265338144329897,0.9150910134885664,0.015559513864649413
-0.0001265138144329897,0.9057074300074396,0.015559513864649722
-0.00012649381443298967,0.9221287010994059,0.015220074274819029
-0.00012647381443298968,0.8990048703780634,0.015220074274819646
-0.0001264538144329897,0.9134153735812296,0.016577832634141802
-0.0001264338144329897,0.9268204928399887,0.016238393044311263
-0.0001264138144329897,0.9227989570623651,0.01725671181380319
-0.0001263938144329897,0.9204530611920824,0.01725671181380319
-0.00012637381443298968,0.9362040763211297,0.01657783263414165
-0.0001263538144329897,0.9345284364137848,0.01623839304431111
-0.0001263338144329897,0.9656953386903997,0.017256711813802728
-0.00012631381443298969,0.9650250827274679,0.01623839304431142
-0.0001262938144329897,0.94793355567255,0.016917272223972497
-0.00012627381443298968,0.9680412345606966,0.016238393044311728
-0.0001262538144329897,0.9653602107089448,0.017596151403633884
-0.0001262338144329897,0.9556414992463445,0.016238393044311728
-0.0001262138144329897,0.9831219937267838,0.01759615140363265
-0.0001261938144329897,0.9646899547460065,0.016917272223972497
-0.00012617381443298968,0.9687114905236553,0.01623839304431111
-0.0001261538144329897,0.9898245533561811,0.01623839304431111
-0.0001261338144329897,0.9673709785977698,0.01623839304431111
-0.0001261138144329897,0.9693817464865726,0.01623839304431111
-0.0001260938144329897,0.9898245533561914,0.016917272223972497
-0.00012607381443298967,0.9667007226348217,0.01759615140363203
-0.00012605381443298968,0.9670358506162872,0.015559513864650031
-0.0001260338144329897,0.9596630350239695,0.01623839304431111
-0.0001260138144329897,0.9556414992463418,0.015220074274819492
-0.0001259938144329897,0.9586576510795621,0.015898953454480415
-0.00012597381443298967,0.9881489134488499,0.016238393044311728
-0.00012595381443298968,0.9928407051894027,0.016917272223972345
-0.0001259338144329897,0.9690466185051052,0.016577832634141802
-0.0001259138144329897,0.9549712432834082,0.016238393044311263
-0.00012589381443298969,0.9764194340974283,0.014880634684989262
-0.0001258738144329897,0.9811112258379939,0.016917272223972497
-0.00012585381443298968,0.9445822758578564,0.016917272223972036
-0.0001258338144329897,0.9395553561358218,0.015898953454480415
-0.0001258138144329897,0.9452525318207944,0.01420175550532772
-0.0001257938144329897,0.9539658593389865,0.016917272223970027
-0.0001257738144329897,0.9569820111722165,0.01623839304431111
-0.00012575381443298968,0.9422363799875733,0.016238393044310493
-0.0001257338144329897,0.9405607400802292,0.015559513864649722
-0.0001257138144329897,0.9492740675984225,0.016577832634141337
-0.0001256938144329897,0.9345284364137982,0.015898953454481033
-0.0001256738144329897,0.9348635643952539,0.015559513864649722
-0.00012565381443298967,0.9221287010994171,0.015559513864650031
-0.00012563381443298968,0.911404605692412,0.015898953454480107
-0.0001256138144329897,0.9053723020259704,0.015220074274819029
-0.0001255938144329897,0.8929725667116238,0.01454119509515826
-0.0001255738144329897,0.8983346144151186,0.015898953454480415
-0.00012555381443298967,0.9150910134885765,0.016238393044310802
-0.00012553381443298968,0.9164315254144415,0.015898953454480415
-0.0001255138144329897,0.8939779506560199,0.015898953454480415
-0.0001254938144329897,0.8906266708413302,0.014880634684988799
-0.00012547381443298969,0.8956535905633569,0.015559513864649568
-0.0001254538144329897,0.8765512956196339,0.015220074274819183
-0.00012543381443298968,0.8574490006758916,0.014201755505327257
-0.0001254138144329897,0.8725297598419955,0.014880634684988335
-0.0001253938144329897,0.8805728313972511,0.015559513864649413
-0.0001253738144329897,0.8621407924164693,0.016238393044310493
-0.0001253538144329897,0.8490708011391565,0.015220074274819029
-0.00012533381443298968,0.8262820983992486,0.013522876325664944
-0.0001253138144329897,0.8185741548254656,0.012843997146004173
-0.0001252938144329897,0.7988016039187958,0.012843997146004173
-0.0001252738144329897,0.783050588789752,0.013522876325664944
-0.0001252538144329897,0.7984664759373177,0.014201755505326949
-0.00012523381443298968,0.7880775085117775,0.014880634684987409
-0.00012521381443298969,0.7910936603449945,0.013862315915496564
-0.0001251938144329897,0.7860667406229599,0.014541195095157642
-0.0001251738144329897,0.7612672699942667,0.013522876325666488
-0.0001251538144329897,0.7572457342166147,0.013862315915496255
-0.00012513381443298967,0.7361326713840791,0.012843997146004482
-0.00012511381443298968,0.7579159901795378,0.013183436735834714
-0.0001250938144329897,0.724738320014109,0.012843997146004173
-0.0001250738144329897,0.7203816562550123,0.013862315915495792
-0.0001250538144329897,0.7227275521252965,0.01420175550532664
-0.0001250338144329897,0.7277544718473288,0.01352287632566587
-0.00012501381443298968,0.6895498819598551,0.011825678376512402
-0.0001249938144329897,0.7002739773668624,0.01250455755617348
-0.0001249738144329897,0.6868688581081033,0.011486238786681863
-0.0001249538144329897,0.6754745067381571,0.012504557556172554
-0.0001249338144329897,0.6493345241835545,0.0114862387866814
-0.00012491381443298968,0.6526858039982413,0.012165117966342323
-0.0001248938144329897,0.6426319645541719,0.011146799196850707
-0.0001248738144329897,0.6181676219069365,0.011146799196850707
-0.0001248538144329897,0.6071083985184542,0.010807359607020322
-0.0001248338144329897,0.6148163420922341,0.01046792001718932
-0.00012481381443298968,0.5957140471484857,0.011486238786681709
-0.00012479381443298969,0.5870007196302871,0.011825678376511013
-0.0001247738144329897,0.5668930407421575,0.00944960124769832
-0.0001247538144329897,0.5635417609274601,0.010807359607018778
-0.0001247338144329897,0.5420935701134327,0.010128480427358626
-0.00012471381443298967,0.5357261384655045,0.00978904083752855
-0.00012469381443298968,0.5196399953549979,0.010467920017188702
-0.0001246738144329897,0.5129374357256183,0.009110161657866545
-0.0001246538144329897,0.501878212337142,0.009110161657866545
-0.0001246338144329897,0.49517565270775443,0.00944960124769724
-0.0001246138144329897,0.4670249022643603,0.00877072206803616
-0.00012459381443298968,0.4495982472279537,0.009449601247696622
-0.0001245738144329897,0.4519441430982366,0.008091842888374464
-0.0001245538144329897,0.4348526160433187,0.007752403298543925
-0.00012453381443298969,0.40703699358137824,0.006394644939221614
-0.0001245138144329897,0.4184313449513235,0.007752403298543771
-0.00012449381443298968,0.38558880276734975,0.007752403298543308
-0.0001244738144329897,0.38793469863763264,0.006734084529051691
-0.0001244538144329897,0.3701729156197767,0.008091842888373847
-0.0001244338144329897,0.3430275491207938,0.006734084529052926
-0.0001244138144329897,0.3383357573802013,0.006734084529051691
-0.00012439381443298968,0.33867088536164053,0.007073524118880532
-0.0001243738144329897,0.3058283431776935,0.005036886579898995
-0.0001243538144329897,0.30113655143712986,0.006734084529050919
-0.0001243338144329897,0.29577450373362657,0.004358007400238997
-0.0001243138144329897,0.2676237532902147,0.0053763261697289165
-0.00012429381443298967,0.2679588812716701,0.005715765759558375
-0.00012427381443298968,0.2528781221055656,0.004358007400237144
-0.0001242538144329897,0.23679197899505464,0.005036886579898223
-0.0001242338144329897,0.23210018725448894,0.004018567810406605
-0.0001242138144329897,0.21098712442193157,0.005036886579898223
-0.00012419381443298967,0.20897635653310614,0.004697446990065985
-0.00012417381443298968,0.1972468771816899,0.0030002490409135984
-0.0001241538144329897,0.18116073407117894,0.001981930271421981
-0.0001241338144329897,0.16708535884948186,0.00232136986125252
-0.00012411381443298969,0.14061024831339844,0.0026608094510833682
-0.0001240938144329897,0.10609206622210939,0.0026608094510833682
-0.00012407381443298968,0.08196285155632343,0.0026608094510833682
-0.0001240538144329897,0.09771386668536541,0.0026608094510833682
-0.0001240338144329897,0.08866541118570301,0.0016424906815917506
-0.0001240138144329897,0.0809574676119159,0.0002847323222697482
-0.0001239938144329897,0.05984440477935365,0.0013030510917605939
-0.00012397381443298968,0.03806108598384766,0.0006241719121004418
-0.0001239538144329897,0.024320838743625797,0.001981930271421981
-0.0001239338144329897,0.02130468691040499,0.001981930271421981
-0.0001239138144329897,-0.022261950680543745,0.0006241719121004418
-0.0001238938144329897,-0.026283486458212938,0.0006241719120992069
-0.00012387381443298967,-0.026953742421175278,0.0002847323222685133
-0.00012385381443298968,-0.05342885295722548,0.0002847323222677415
-0.0001238338144329897,-0.08191473138208863,-0.0014124656268849544
-0.0001238138144329897,-0.07822832358593154,-0.0010730260370545696
-0.0001237938144329897,-0.08727677908559472,-0.0010730260370542608
-0.00012377381443298967,-0.10872496989960567,-0.002091344806546033
-0.00012375381443298968,-0.09397933871499076,-0.0017519052167158022
-0.0001237338144329897,-0.12347060108426083,-0.0020913448065463416
-0.0001237138144329897,-0.1318488006209853,-0.003109663576037959
-0.00012369381443298969,-0.1475998157500413,-0.0020913448065461872
-0.0001236738144329897,-0.15430237537941782,-0.0017519052167158022
-0.00012365381443298968,-0.16837775060114463,-0.0024307843963773438
-0.0001236338144329897,-0.21294977213651875,-0.003109663576038422
-0.0001236138144329897,-0.22769540332115376,-0.003449103165868961
-0.0001235938144329897,-0.23741411478375646,-0.003109663576038731
-0.0001235738144329897,-0.2300412991914444,-0.0027702239862077284
-0.00012355381443298968,-0.2612082014680775,-0.003449103165870042
-0.0001235338144329897,-0.2655648652271722,-0.0044674219353611965
-0.0001235138144329897,-0.2963966395223182,-0.0037885427557001177
-0.0001234938144329897,-0.316169190428993,-0.004806861525190964
-0.0001234738144329897,-0.31449355052166533,-0.005146301115022583
-0.00012345381443298968,-0.34029840509478504,-0.005146301115023201
-0.00012343381443298969,-0.3366119972986337,-0.00582518029468397
-0.0001234138144329897,-0.3493468605944549,-0.00582518029468397
-0.0001233938144329897,-0.37515171516755447,-0.0054857407048535855
-0.0001233738144329897,-0.38621093855605926,-0.00480686152519189
-0.00012335381443298967,-0.41436168899947234,-0.006504059474345975
-0.00012333381443298968,-0.42106424862884917,-0.007182938654006744
-0.0001233138144329897,-0.42173450459178713,-0.007182938654006744
-0.0001232938144329897,-0.41436168899946957,-0.0061646198845151275
-0.0001232738144329897,-0.4311180880729228,-0.00582518029468397
-0.0001232538144329897,-0.443852951368744,-0.007182938654006127
-0.00012323381443298968,-0.4736793417195051,-0.00650405947434613
-0.0001232138144329897,-0.47971164538594674,-0.008201257423498825
-0.0001231938144329897,-0.4924465086817679,-0.008540697013329364
-0.0001231738144329897,-0.501494964181432,-0.007861817833668749
-0.0001231538144329897,-0.4998193242740946,-0.007182938654006744
-0.00012313381443298968,-0.4981436843667665,-0.006504059474346438
-0.0001231138144329897,-0.536683402235699,-0.008880136603160213
-0.0001230938144329897,-0.5715367123084727,-0.008540697013329672
-0.0001230738144329897,-0.5715367123084886,-0.008540697013329518
-0.0001230538144329897,-0.5628233847902911,-0.009219576192990906
-0.00012303381443298968,-0.5869525994560857,-0.00786181783366844
-0.00012301381443298969,-0.6057197664183387,-0.008201257423499133
-0.0001229938144329897,-0.6030387425665881,-0.008880136603159904
-0.0001229738144329897,-0.6285084691582176,-0.010237894962481751
-0.0001229538144329897,-0.6308543650285247,-0.008880136603160213
