samples/acq3498.csv

#Digilent WaveForms Oscilloscope Acquisition
#Device Name: Discovery2
#Serial Number: SN:210321AD996C
#Date Time: 2025-12-07 12:58:46.412
#Sample rate: 5e+07Hz
#Samples: 8192
#Trigger: Source: Channel 1 Type: Edge Condition: Rising Level: 0 V Hyst.: Auto HoldOff: 0 s
#Channel 1: Range: 500 mV/div Offset: 0 V Sample Mode: Average
#Channel 2: Range: 500 mV/div Offset: 0 V Sample Mode: Average
#Wavegen Channel 1: Running
#Mode: Custom
#Type: noisy
#Frequency: 117 kHz
#Period: 8.547008547 us
#Amplitude: 1 V
#Offset: 0 V
#Phase: 0 °

Time (s),Channel 1 (V),Channel 2 (V)
-0.0001289840366972477,-0.5182513632548967,-0.013292851270959229
-0.0001289640366972477,-0.5108785476625832,-0.012953411681127918
-0.0001289440366972477,-0.5189216192178256,-0.012274532501467456
-0.0001289240366972477,-0.4981436843667584,-0.012953411681128226
-0.00012890403669724772,-0.4833980531821206,-0.011595653321806995
-0.0001288840366972477,-0.4535716628313545,-0.010916774142144373
-0.0001288640366972477,-0.4599390944792366,-0.012274532501465603
-0.0001288440366972477,-0.42542091238794727,-0.010577334552313217
-0.0001288240366972477,-0.4247506564250093,-0.0095590157828216
-0.00012880403669724772,-0.3955945220372082,-0.011256213731974295
-0.0001287840366972477,-0.40229708166657757,-0.010916774142144373
-0.0001287640366972477,-0.4100050252403566,-0.010577334552313062
-0.0001287440366972477,-0.39794041790745965,-0.009898455372652602
-0.0001287240366972477,-0.3557142922423684,-0.01057733455231368
-0.00012870403669724772,-0.3379525092245126,-0.009219576192991524
-0.0001286840366972477,-0.3245473899657347,-0.009559015782821137
-0.0001286640366972477,-0.3144935505216699,-0.008540697013329981
-0.0001286440366972477,-0.31683944639193506,-0.009898455372651984
-0.0001286240366972477,-0.28567254411532006,-0.009219576192990906
-0.00012860403669724772,-0.2896940798929478,-0.00752237824383821
-0.00012858403669724773,-0.2836617762265108,-0.009219576192989362
-0.0001285640366972477,-0.27494844870830787,-0.007861817833668131
-0.0001285440366972477,-0.26187845743097826,-0.008201257423498825
-0.0001285240366972477,-0.22501437946940744,-0.008201257423498825
-0.0001285040366972477,-0.2055769565442067,-0.008201257423498825
-0.00012848403669724772,-0.18010722995256712,-0.006504059474346902
-0.0001284640366972477,-0.1874800455448648,-0.007861817833668131
-0.0001284440366972477,-0.17541543821195082,-0.00752237824383682
-0.0001284240366972477,-0.1475998157500314,-0.006843499064175897
-0.0001284040366972477,-0.13251905658392737,-0.006504059474345358
-0.00012838403669724772,-0.10637907402935894,-0.007182938654006127
-0.0001283640366972477,-0.10537369008492778,-0.005146301115022583
-0.0001283440366972477,-0.07889857954885365,-0.004806861525191581
-0.0001283240366972477,-0.06482320432716479,-0.00446742193536166
-0.0001283040366972477,-0.06884474010479252,-0.005485740704853277
-0.00012828403669724772,-0.05778551671631625,-0.004806861525192199
-0.0001282640366972477,-0.03700758186522192,-0.005485740704852968
-0.0001282440366972477,-0.02996989425437658,-0.004806861525192199
-0.0001282240366972477,-0.021591694717624534,-0.004467421935360579
-0.0001282040366972477,0.023650582780687535,-0.003109663576038422
-0.00012818403669724772,0.03236391029888097,-0.003109663576038422
-0.00012816403669724773,0.039066469928261446,-0.0037885427556991914
-0.0001281440366972477,0.046774413502057556,-0.0034491031658691156
-0.0001281240366972477,0.06956311624197306,-0.0037885427556995
-0.0001281040366972477,0.08564925935247672,-0.0034491031658691156
-0.00012808403669724771,0.09067617907451138,-0.002430784396377498
-0.00012806403669724772,0.1091082180552991,-0.0017519052167162654
-0.0001280440366972477,0.13089153685080934,-0.0027702239862077284
-0.0001280240366972477,0.13859948042458442,-0.0020913448065466504
-0.0001280040366972477,0.122178209332615,-0.0024307843963776526
-0.0001279840366972477,0.12888076896199457,-0.003788542755699809
-0.00012796403669724772,0.14027512033193465,-0.002091344806547885
-0.0001279440366972477,0.1741230464603272,-0.0014124656268849544
-0.0001279240366972477,0.18618765379323543,-0.0014124656268858806
-0.0001279040366972477,0.2076358446072459,-0.0024307843963761087
-0.0001278840366972477,0.2200355799215981,-0.00039414685739287377
-0.00012786403669724772,0.2491917143093992,-0.0010730260370539523
-0.0001278440366972477,0.270975033104906,0.0006241719120992069
-0.0001278240366972477,0.26695349732727824,-0.0003941468573924105
-0.0001278040366972477,0.2733209289752067,-0.0010730260370531803
-0.0001277840366972477,0.3101850069367943,0.0013030510917605939
-0.00012776403669724772,0.314541670695891,0.0013030510917605939
-0.0001277440366972477,0.3366601174728523,-5.470726756187151e-05
-0.0001277240366972477,0.32928730188053473,0.0006241719120992069
-0.0001277040366972477,0.35040036471309716,0.0013030510917604395
-0.0001276840366972477,0.36615137984213914,0.0009636115019299004
-0.00012766403669724771,0.38458341882293295,0.001642490681590979
-0.00012764403669724773,0.3865941867117543,0.0016424906815912875
-0.0001276240366972477,0.4214474967845457,0.0016424906815912875
-0.0001276040366972477,0.42345826467335224,0.002321369861252983
-0.0001275840366972477,0.4144098091737062,0.0026608094510833682
-0.0001275640366972477,0.4412200476912122,0.0026608094510833682
-0.00012754403669724772,0.4636736224496357,0.003000249040913753
-0.0001275240366972477,0.4663546463014092,0.0026608094510833682
-0.0001275040366972477,0.4928297568374687,0.003000249040914988
-0.0001274840366972477,0.49081898894866927,0.004018567810406142
-0.0001274640366972477,0.5206453792994084,0.004018567810406142
-0.00012744403669724772,0.5156184595773737,0.0033396886307450638
-0.0001274240366972477,0.5216507632438158,0.003679128220575449
-0.00012740403669724771,0.5427638260763614,0.004018567810405988
-0.0001273840366972477,0.5548284334092703,0.005036886579898069
-0.0001273640366972477,0.5782873921120989,0.004697446990067529
-0.00012734403669724772,0.5692389366124364,0.005376326169728608
-0.0001273240366972477,0.5618661210201185,0.005036886579898223
-0.0001273040366972477,0.5772820081676915,0.005036886579898223
-0.0001272840366972477,0.5772820081677034,0.0057157657595594555
-0.0001272640366972477,0.6034219907222836,0.0053763261697289165
-0.00012724403669724772,0.6332483810730227,0.0057157657595594555
-0.00012722403669724773,0.6412914526282881,0.0060552053493899945
-0.0001272040366972477,0.6613991315164433,0.0053763261697289165
-0.0001271840366972477,0.6546965718870926,0.006394644939222232
-0.0001271640366972477,0.6898850099413206,0.007752403298543462
-0.0001271440366972477,0.6925660337930712,0.007073524118882693
-0.00012712403669724772,0.6939065457189477,0.0053763261697304604
-0.0001271040366972477,0.7083170489221216,0.006734084529051691
-0.0001270840366972477,0.7247383200141132,0.007752403298542536
-0.0001270640366972477,0.7294301117546738,0.006394644939221151
-0.0001270440366972477,0.7227275521252942,0.006734084529051691
-0.00012702403669724772,0.7233978080882318,0.007752403298542845
-0.0001270040366972477,0.7565754782536763,0.008770722068035851
-0.0001269840366972477,0.7451811268837357,0.007412963708713386
-0.0001269640366972477,0.7559052222907531,0.00775240329854408
-0.0001269440366972477,0.788747764474713,0.008431282478205158
-0.00012692403669724772,0.7967908360299684,0.008770722068035697
-0.0001269040366972477,0.8112013392331472,0.00944960124769693
-0.0001268840366972477,0.8168985149181174,0.00877072206803616
-0.0001268640366972477,0.8105310832702002,0.009449601247696776
-0.0001268440366972477,0.796790836029972,0.008431282478205158
-0.00012682403669724772,0.8075149314369794,0.008091842888374619
-0.00012680403669724773,0.8175687708810491,0.009110161657865618
-0.0001267840366972477,0.8199146667513421,0.007752403298543771
-0.0001267640366972477,0.8272874823436782,0.009789040837527933
-0.0001267440366972477,0.8440438814171195,0.009789040837527933
-0.0001267240366972477,0.8467249052688713,0.009789040837527933
-0.00012670403669724772,0.8494059291206232,0.010128480427358318
-0.0001266840366972477,0.8504113130650329,0.009789040837527933
-0.0001266640366972477,0.884594367174887,0.009449601247698475
-0.0001266440366972477,0.88761051900811,0.010807359607020168
-0.0001266240366972477,0.8953184625818965,0.011146799196850707
-0.00012660403669724772,0.9137505015626819,0.011146799196850707
-0.0001265840366972477,0.8919671827672052,0.009110161657866545
-0.0001265640366972477,0.9077181978962637,0.012165117966340316
-0.0001265440366972477,0.9181071653217969,0.009449601247697703
-0.0001265240366972477,0.91710178137739,0.01046792001718932
-0.00012650403669724772,0.9181071653217969,0.01046792001718932
-0.0001264840366972477,0.917436909358862,0.010807359607019859
-0.0001264640366972477,0.9238043410067697,0.010467920017189474
-0.0001264440366972477,0.9382148442099496,0.012504557556172862
-0.0001264240366972477,0.94793355567255,0.011146799196850707
-0.00012640403669724772,0.9311771565991012,0.012165117966342323
-0.00012638403669724773,0.9579873951165995,0.010467920017190864
-0.0001263640366972477,0.9589927790610313,0.0114862387866814
-0.0001263440366972477,0.9566468831907364,0.010807359607019704
-0.0001263240366972477,0.9445822758578587,0.01046792001718932
-0.00012630403669724771,0.9640196987830594,0.011825678376511476
-0.00012628403669724772,0.9710573863939136,0.012165117966342478
-0.0001262640366972477,0.9439120198949205,0.01250455755617348
-0.0001262440366972477,0.9663655946533527,0.011486238786681709
-0.0001262240366972477,0.9670358506162867,0.011825678376512093
-0.0001262040366972477,0.9586576510795659,0.011825678376512093
-0.00012618403669724772,0.9388851001729015,0.011146799196851324
-0.0001261640366972477,0.93251766852497,0.010807359607020013
-0.0001261440366972477,0.9486038116354971,0.011146799196851633
-0.0001261240366972477,0.9583225230980885,0.012165117966342323
-0.0001261040366972477,0.9482686836540192,0.011146799196850707
-0.00012608403669724772,0.9563117552092746,0.011146799196850707
-0.0001260640366972477,0.9744086662086113,0.011825678376512093
-0.0001260440366972477,0.9737384102456734,0.012504557556173171
-0.0001260240366972477,0.9516199634687125,0.011146799196850861
-0.0001260040366972477,0.9559766272278092,0.0114862387866814
-0.00012598403669724772,0.9536307313575263,0.010467920017189783
-0.0001259640366972477,0.956982011172219,0.012504557556173171
-0.0001259440366972477,0.9626791868571918,0.011825678376512093
-0.0001259240366972477,0.949944323561364,0.011486238786681554
-0.0001259040366972477,0.9482686836540192,0.011825678376512093
-0.00012588403669724771,0.9522902194316469,0.011825678376512093
-0.00012586403669724773,0.9620089308942447,0.011825678376512093
-0.0001258440366972477,0.9576522671351548,0.0114862387866814
-0.0001258240366972477,0.9452525318208024,0.011825678376512402
-0.0001258040366972477,0.9512848354872369,0.012165117966342478
-0.0001257840366972477,0.9415661240246409,0.011486238786681709
-0.00012576403669724772,0.9365392043026041,0.0114862387866814
-0.0001257440366972477,0.9331879244879082,0.011825678376512093
-0.0001257240366972477,0.9268204928399902,0.011146799196851015
-0.0001257040366972477,0.9217935731179513,0.011486238786680474
-0.0001256840366972477,0.9073830699147852,0.00944960124769724
-0.00012566403669724772,0.9234692130252962,0.010467920017188857
-0.0001256440366972477,0.9016858942298099,0.010807359607020013
-0.0001256240366972477,0.9073830699147746,0.011146799196853177
-0.0001256040366972477,0.8956535905633639,0.013862315915496564
-0.0001255840366972477,0.8919671827672052,0.014541195095157642
-0.00012556403669724772,0.8859348791007636,0.016577832634140876
-0.0001255440366972477,0.8852646231378284,0.01691727222397219
-0.0001255240366972477,0.8979994864336496,0.01623839304431111
-0.0001255040366972477,0.8876105190081013,0.016577832634141955
-0.0001254840366972477,0.876216167638156,0.016917272223972497
-0.00012546403669724772,0.8819133433231287,0.015898953454480877
-0.00012544403669724773,0.8735351437864106,0.015898953454480415
-0.0001254240366972477,0.8661623281940821,0.014880634684988335
-0.0001254040366972477,0.8353305538989282,0.015220074274818411
-0.0001253840366972477,0.8420331135283047,0.014541195095157642
-0.0001253640366972477,0.837676449769208,0.014201755505327103
-0.00012534403669724772,0.8091905713443558,0.013862315915496564
-0.0001253240366972477,0.8115364672146138,0.012165117966342787
-0.0001253040366972477,0.7994718598817245,0.01182567837651271
-0.0001252840366972477,0.798801603918779,0.012504557556173634
-0.0001252640366972477,0.781374948882392,0.012843997146004173
-0.00012524403669724772,0.7974610919928957,0.013522876325664944
-0.0001252240366972477,0.8075149314369843,0.013522876325665562
-0.0001252040366972477,0.7770182851232909,0.013862315915495946
-0.0001251840366972477,0.7743372612715289,0.01352287632566587
-0.0001251640366972477,0.7492026626613555,0.014201755505326949
-0.00012514403669724772,0.7200465282735543,0.013183436735835332
-0.0001251240366972477,0.7260788319399909,0.012165117966342787
-0.0001251040366972477,0.7381434392728687,0.012165117966342787
-0.0001250840366972477,0.7297652397361394,0.010467920017190092
-0.0001250640366972477,0.7153547365329733,0.012165117966342787
-0.00012504403669724772,0.6815068104046066,0.012165117966342787
-0.00012502403669724773,0.7006091053483141,0.011146799196851633
-0.0001250040366972477,0.6925660337930725,0.010128480427358626
-0.0001249840366972477,0.6898850099412956,0.011146799196849471
-0.0001249640366972477,0.6637450273867271,0.009789040837527933
-0.00012494403669724771,0.635929404924802,0.010128480427358472
-0.00012492403669724772,0.6248701815363181,0.010807359607019396
-0.0001249040366972477,0.6238647975919006,0.009789040837527933
-0.0001248840366972477,0.6211837737401411,0.010467920017188393
-0.0001248640366972477,0.6141460861293001,0.009449601247697703
-0.0001248440366972477,0.6235296696104315,0.01046792001718932
-0.00012482403669724772,0.605097630629646,0.00911016165786778
-0.0001248040366972477,0.6007409668705306,0.009789040837527933
-0.0001247840366972477,0.5638768889089134,0.009449601247696622
-0.0001247640366972477,0.5498015136872207,0.008770722068035851
-0.0001247440366972477,0.545444849928124,0.008770722068035851
-0.00012472403669724772,0.5330451146137719,0.00944960124769693
-0.0001247040366972477,0.5216507632438129,0.007752403298544389
-0.0001246840366972477,0.5152833315959051,0.009110161657865927
-0.0001246640366972477,0.5203102513179242,0.008770722068035234
-0.0001246440366972477,0.4871325811524953,0.007412963708713078
-0.00012462403669724772,0.46937079813463944,0.007412963708713078
-0.00012460403669724773,0.4512738871353148,0.0067340845290523085
-0.0001245840366972477,0.4469172233761996,0.006734084529051691
-0.0001245640366972477,0.4170908330254371,0.00707352411888223
-0.0001245440366972477,0.39530751422995347,0.006734084529051691
-0.00012452403669724771,0.40335058578520894,0.006394644939221151
-0.00012450403669724772,0.3953075142299608,0.006394644939220997
-0.0001244840366972477,0.3748647073603365,0.00571576575955961
-0.0001244640366972477,0.36883240369387293,0.0057157657595586836
-0.0001244440366972477,0.34771934086132916,0.0046974469900673745
-0.0001244240366972477,0.33062781380641904,0.00435800740023699
-0.00012440403669724772,0.3024770633630299,0.0043580074002368355
-0.0001243840366972477,0.30850936702944864,0.00571576575955961
-0.0001243640366972477,0.3048229592332727,0.005376326169728299
-0.0001243440366972477,0.28773143217835784,0.004697446990067066
-0.0001243240366972477,0.2773424647528195,0.003679128220575449
-0.00012430403669724772,0.26829400925315705,0.003679128220575449
-0.0001242840366972477,0.24919171430941248,0.004018567810406142
-0.0001242640366972477,0.22807865147686684,0.003679128220575603
-0.0001242440366972477,0.23612172303209628,0.00367912822057514
-0.0001242240366972477,0.19188482947819113,0.0030002490409140616
-0.00012420403669724772,0.19657662121875683,0.0033396886307446006
-0.0001241840366972477,0.19892251708903708,0.0026608094510835226
-0.0001241640366972477,0.18618765379321592,0.0030002490409140616
-0.0001241440366972477,0.1469776799613165,0.00232136986125252
-0.0001241240366972477,0.1225133373140811,0.001981930271421981
-0.00012410403669724771,0.12318359327701905,0.0026608094510830595
-0.00012408403669724773,0.09034105109307441,0.002321369861252983
-0.0001240640366972477,0.06989824422342758,0.0006241719120992069
-0.0001240440366972477,0.057498508909047175,0.0006241719120988982
-0.0001240240366972477,0.03269903828035696,0.00028473232226882203
-0.0001240040366972477,0.03906646992826465,0.0009636115019295917
-0.00012398403669724772,0.05046082129820763,0.0006241719120995157
-0.0001239640366972477,0.04308800570589712,0.0002847323222685133
-0.0001239440366972477,0.01694802315126652,-0.00039414685739287377
-0.0001239240366972477,-0.025278102513803413,-0.00039414685739271943
-0.0001239040366972477,-0.020586310773237717,-5.470726756218023e-05
-0.00012388403669724772,-0.017235030958547934,-5.470726756218023e-05
-0.0001238640366972477,-0.0641529483642247,-0.0010730260370542608
-0.0001238440366972477,-0.07688781166006022,-0.0014124656268852632
-0.0001238240366972477,-0.08627139514118505,-0.001751905216715339
-0.0001238040366972477,-0.08124447541915036,-0.0010730260370542608
-0.00012378403669724772,-0.10906009788107557,-0.0010730260370542608
-0.0001237640366972477,-0.12179496117692402,-0.0020913448065461872
-0.0001237440366972477,-0.14123238410212477,-0.0017519052167156478
-0.0001237240366972477,-0.1449187918982907,-0.001751905216716111
-0.0001237040366972477,-0.1569833992311739,-0.0027702239862077284
-0.00012368403669724772,-0.186474661600444,-0.0020913448065466504
-0.00012366403669724773,-0.19384747719277157,-0.002770223986207111
-0.0001236440366972477,-0.21931720378443223,-0.0034491031658691156
-0.0001236240366972477,-0.2290359152470495,-0.0031096635760393485
-0.0001236040366972477,-0.24277616248727138,-0.004127982345530502
-0.0001235840366972477,-0.25618128174603044,-0.0034491031658694243
-0.00012356403669724772,-0.2772943445785726,-0.003109663576038731
-0.0001235440366972477,-0.29974791933702355,-0.003788542755699809
-0.0001235240366972477,-0.2977371514481996,-0.0037885427557004265
-0.0001235040366972477,-0.2876833120041434,-0.004467421935361351
-0.0001234840366972477,-0.30645047896640615,-0.00480686152519189
-0.00012346403669724772,-0.3325904615209746,-0.0051463011150222745
-0.0001234440366972477,-0.3697896674640719,-0.00582518029468397
-0.0001234240366972477,-0.36275197985322316,-0.005146301115021348
-0.0001234040366972477,-0.36610325966791774,-0.0037885427557007353
-0.0001233840366972477,-0.3798435069081458,-0.00582518029468397
-0.00012336403669724772,-0.39559452203718776,-0.005485740704853431
-0.0001233440366972477,-0.3882217064448788,-0.005825180294683661
-0.0001233240366972477,-0.3986106738704124,-0.005146301115022892
-0.0001233040366972477,-0.41402656101800733,-0.0054857407048535855
-0.0001232840366972477,-0.43648013577642886,-0.006164619884514664
-0.00012326403669724772,-0.4455285912760913,-0.00752237824383682
-0.00012324403669724773,-0.4669767820901003,-0.005825180294685514
-0.0001232240366972477,-0.48373318116357633,-0.007182938654006744
-0.0001232040366972477,-0.49814368436675044,-0.006164619884516208
-0.0001231840366972477,-0.4998193242740946,-0.007861817833668131
-0.00012316403669724771,-0.5132244435328537,-0.007182938654007053
-0.00012314403669724772,-0.5356780182912712,-0.007182938654006744
-0.0001231240366972477,-0.5480777536056494,-0.008201257423498825
-0.0001231040366972477,-0.5383590421430839,-0.0085406970133289
-0.0001230840366972477,-0.5815905517525595,-0.00786181783366844
-0.0001230640366972477,-0.5748879921231799,-0.008540697013329518
-0.00012304403669724772,-0.5963361829371847,-0.009559015782820673
-0.0001230240366972477,-0.6127574540291916,-0.010237894962482987
-0.0001230040366972477,-0.6228112934732747,-0.008880136603160522
-0.0001229840366972477,-0.6328651329173355,-0.009219576192990906
-0.0001229640366972477,-0.6241518053991421,-0.009219576192990906
