samples/acq3447.csv

#Digilent WaveForms Oscilloscope Acquisition
#Device Name: Discovery2
#Serial Number: SN:210321AD996C
#Date Time: 2025-12-07 12:58:42.409
#Sample rate: 5e+07Hz
#Samples: 8192
#Trigger: Source: Channel 1 Type: Edge Condition: Rising Level: 0 V Hyst.: Auto HoldOff: 0 s
#Channel 1: Range: 500 mV/div Offset: 0 V Sample Mode: Average
#Channel 2: Range: 500 mV/div Offset: 0 V Sample Mode: Average
#Wavegen Channel 1: Running
#Mode: Custom
#Type: noisy
#Frequency: 117 kHz
#Period: 8.547008547 us
#Amplitude: 1 V
#Offset: 0 V
#Phase: 0 °

Time (s),Channel 1 (V),Channel 2 (V)
-0.0001289940594059406,-0.531656482513662,-0.019742203477742404
-0.0001289740594059406,-0.5192567471993098,-0.019063324298081327
-0.0001289540594059406,-0.52662956279162,-0.01940276388791202
-0.0001289340594059406,-0.5155703394031487,-0.02008164306757279
-0.0001289140594059406,-0.5162405953660815,-0.019742203477742713
-0.0001288940594059406,-0.48440343712651457,-0.0200816430675731
-0.0001288740594059406,-0.4579283265904653,-0.01940276388791202
-0.0001288540594059406,-0.4408367995355431,-0.018723884708250944
-0.0001288340594059406,-0.4270965522952932,-0.01804500552858894
-0.0001288140594059406,-0.40531323349980963,-0.019063324298080553
-0.0001287940594059406,-0.41838322477709583,-0.019063324298081018
-0.0001287740594059406,-0.4063186174442126,-0.01838444511841994
-0.0001287540594059406,-0.39090273029664113,-0.017366126348928475
-0.0001287340594059406,-0.39995118579629363,-0.017705565938758244
-0.0001287140594059406,-0.37649222709346514,-0.017705565938758244
-0.0001286940594059406,-0.359400700038525,-0.017705565938757783
-0.0001286740594059406,-0.3510225005018044,-0.016687247169266624
-0.0001286540594059406,-0.34163891702067345,-0.016687247169266162
-0.0001286340594059406,-0.33259046152099836,-0.01634780757943547
-0.0001286140594059406,-0.2933804876891279,-0.01600836798960493
-0.0001285940594059406,-0.2799753684303571,-0.015668928399774393
-0.0001285740594059406,-0.24478693037608615,-0.015329488809943389
-0.0001285540594059406,-0.23875462670964456,-0.01566892839977393
-0.0001285340594059406,-0.24344641845020965,-0.015329488809943389
-0.0001285140594059406,-0.21663617993269135,-0.012613972091299077
-0.0001284940594059406,-0.2129497721365221,-0.005485740704859759
-0.0001284740594059406,-0.2039013166368522,0.0043580074002368355
-0.0001284540594059406,-0.1904961973780931,0.011825678376508698
-0.00012843405940594059,-0.17441005426754766,0.010128480427357546
-0.0001284140594059406,-0.12816239282482866,0.007752403298543771
-0.0001283940594059406,-0.1284975208062975,0.006055205349391847
-0.0001283740594059406,-0.13084341667658173,0.006734084529051691
-0.0001283540594059406,-0.11341676164019483,0.008770722068034925
-0.0001283340594059406,-0.11207624971431163,0.01080735960701816
-0.0001283140594059406,-0.07755806762298995,0.01046792001718932
-0.0001282940594059406,-0.057785516716320214,0.009449601247697703
-0.0001282740594059406,-0.0671691001974481,0.0067340845290515365
-0.0001282540594059406,-0.06985012404919871,0.006394644939221151
-0.0001282340594059406,-0.05610987680897807,0.005376326169729843
-0.0001282140594059406,-0.019245798847361193,0.0053763261697289165
-0.0001281940594059406,0.0011970080222464853,0.0036791282205762207
-0.0001281740594059406,0.003207775911068734,0.004018567810405833
-0.0001281540594059406,0.006894183707231,0.007752403298543771
-0.0001281340594059406,0.02733699057683868,0.009789040837527007
-0.0001281140594059406,0.05180133322409451,0.010807359607020013
-0.0001280940594059406,0.05414722909437736,0.010128480427358935
-0.0001280740594059406,0.08631951531538573,0.009789040837528242
-0.0001280540594059406,0.09369233090773585,0.01046792001718932
-0.0001280340594059406,0.091346435037453,0.009449601247697703
-0.0001280140594059406,0.12653487309172834,0.010128480427359398
-0.0001279940594059406,0.1654097189421298,0.011825678376512093
-0.0001279740594059406,0.16239356710891037,0.010467920017190555
-0.0001279540594059406,0.14965870381308066,0.010128480427358626
-0.0001279340594059406,0.19456585332992377,0.010467920017189165
-0.0001279140594059406,0.19523610929288182,0.010128480427358935
-0.0001278940594059406,0.20528994873695636,0.009789040837527933
-0.0001278740594059406,0.21366814827368083,0.010467920017189011
-0.0001278540594059406,0.20797097258870942,0.010128480427358626
-0.0001278340594059406,0.23947300284679338,0.011825678376511321
-0.0001278140594059406,0.25756991384612427,0.011486238786681709
-0.0001277940594059406,0.27901810466016513,0.012165117966342787
-0.0001277740594059406,0.3061634711591524,0.01114679919685117
-0.00012775405940594059,0.33062781380640943,0.012504557556173326
-0.0001277340594059406,0.3266062780287817,0.012165117966342787
-0.0001277140594059406,0.3530813885648189,0.013183436735833942
-0.0001276940594059406,0.3768754752491513,0.013522876325665562
-0.0001276740594059406,0.39296161835966226,0.01420175550532664
-0.0001276540594059406,0.3996641779890461,0.014201755505326949
-0.0001276340594059406,0.3748647073603365,0.013862315915496255
-0.0001276140594059406,0.3932967463411303,0.013522876325665716
-0.0001275940594059406,0.39262649037820824,0.013522876325665562
-0.0001275740594059406,0.40971801743311836,0.013522876325665562
-0.0001275540594059406,0.42915544035831804,0.014201755505326331
-0.0001275340594059406,0.4663546463014092,0.014541195095157642
-0.0001275140594059406,0.47406258987519573,0.014541195095157642
-0.0001274940594059406,0.4676951582272915,0.014201755505327257
-0.0001274740594059406,0.5002025724297914,0.014201755505326949
-0.0001274540594059406,0.5152833315958953,0.014541195095157488
-0.0001274340594059406,0.5112617958182727,0.014880634684988335
-0.0001274140594059406,0.5199751233364661,0.014201755505327257
-0.0001273940594059406,0.5461151058910385,0.01657783263413964
-0.0001273740594059406,0.5226561471882232,0.015220074274819029
-0.0001273540594059406,0.5236615311326301,0.01454119509515795
-0.00012733405940594059,0.5404179302060923,0.015898953454480263
-0.0001273140594059406,0.5518122815760376,0.015559513864649722
-0.0001272940594059406,0.55683920129807,0.015559513864649722
-0.0001272740594059406,0.589011487519111,0.01623839304431111
-0.0001272540594059406,0.6084489104443117,0.01623839304431111
-0.0001272340594059406,0.6151514700736971,0.01691727222397188
-0.0001272140594059406,0.604427374666691,0.016577832634141802
-0.0001271940594059406,0.6372699168506508,0.016917272223972345
-0.0001271740594059406,0.6627396434423161,0.01691727222397265
-0.0001271540594059406,0.6543614439055953,0.017256711813803036
-0.0001271340594059406,0.6768150186640028,0.01725671181380319
-0.0001271140594059406,0.6952470576448254,0.017596151403633884
-0.0001270940594059406,0.7016144892927361,0.018275030583294962
-0.0001270740594059406,0.6892147539783924,0.018614470173125657
-0.0001270540594059406,0.6989334654409859,0.018953909762956658
-0.0001270340594059406,0.7207167842364597,0.017935590993465502
-0.0001270140594059406,0.7408244631246272,0.016917272223972497
-0.0001269940594059406,0.7425001030319721,0.01793559099346411
-0.0001269740594059406,0.7723264933826984,0.017935590993464576
-0.0001269540594059406,0.7548998383463307,0.018953909762956658
-0.0001269340594059406,0.766629317697745,0.01793559099346504
-0.0001269140594059406,0.7750075172344899,0.01827503058329527
-0.0001268940594059406,0.7998069878631829,0.01827503058329527
-0.0001268740594059406,0.8075149314369773,0.019972228532447196
-0.0001268540594059406,0.8075149314369843,0.019293349352787353
-0.0001268340594059406,0.8055041635481703,0.019293349352787353
-0.0001268140594059406,0.793104428233823,0.019632788942617736
-0.0001267940594059406,0.8168985149181199,0.018953909762956658
-0.0001267740594059406,0.8430384974727002,0.020311668122278814
-0.0001267540594059406,0.8490708011391565,0.01997222853244874
-0.0001267340594059406,0.8430384974727149,0.02031166812227928
-0.0001267140594059406,0.8597948965461534,0.01929334935278828
-0.0001266940594059406,0.8507464410465021,0.01997222853244874
-0.0001266740594059406,0.8685082240643579,0.01997222853244874
-0.00012665405940594059,0.8819133433231294,0.019972228532449357
-0.0001266340594059406,0.8778918075455017,0.021329986891771513
-0.0001266140594059406,0.8758810396566887,0.021329986891771513
-0.0001265940594059406,0.8973292304707112,0.02031166812227943
-0.0001265740594059406,0.9073830699147807,0.021669426481601587
-0.0001265540594059406,0.9057074300074411,0.021329986891771822
-0.0001265340594059406,0.9217935731179578,0.021669426481602205
-0.0001265140594059406,0.9093938378036056,0.020651107712110588
-0.0001264940594059406,0.9127451176182856,0.020990547301940665
-0.0001264740594059406,0.9003453823039391,0.02065110771211028
-0.0001264540594059406,0.8959887185448387,0.02099054730194051
-0.0001264340594059406,0.9127451176182912,0.02031166812227943
-0.0001264140594059406,0.9238043410067676,0.02234830566126267
-0.0001263940594059406,0.9278258767843985,0.020990547301942053
-0.0001263740594059406,0.9519550914501795,0.020651107712110126
-0.0001263540594059406,0.9405607400802344,0.021329986891771204
-0.0001263340594059406,0.960668418968377,0.02031166812227943
-0.0001263140594059406,0.9690466185051014,0.02200886607143213
-0.0001262940594059406,0.9569820111722275,0.0220088660714329
-0.0001262740594059406,0.9730681542827349,0.021329986891771513
-0.0001262540594059406,0.9737384102456728,0.022348305661263133
-0.0001262340594059406,0.9556414992463494,0.021329986891771822
-0.0001262140594059406,0.9764194340974167,0.02200886607143259
-0.0001261940594059406,0.9596630350239848,0.02065110771211136
-0.0001261740594059406,0.9465930437466735,0.021669426481602205
-0.0001261540594059406,0.9640196987830604,0.022008866071432747
-0.0001261340594059406,0.9559766272278165,0.02132998689177213
-0.0001261140594059406,0.9496091955798956,0.0220088660714329
-0.0001260940594059406,0.9777599460232899,0.021669426481602357
-0.0001260740594059406,0.9693817464865744,0.021669426481602205
-0.0001260540594059406,0.9683763625421674,0.022348305661263286
-0.0001260340594059406,0.9744086662086059,0.022348305661263595
-0.0001260140594059406,0.968376362542167,0.020990547301940818
-0.0001259940594059406,0.9640196987830703,0.021669426481601896
-0.00012597405940594059,0.9522902194316601,0.021669426481601896
-0.0001259540594059406,0.9774248180418335,0.020990547301940818
-0.0001259340594059406,0.9744086662086141,0.020651107712110435
-0.0001259140594059406,0.9559766272278092,0.021669426481602205
-0.0001258940594059406,0.9646899547460025,0.020990547301941127
-0.0001258740594059406,0.9408958680617199,0.020990547301940818
-0.0001258540594059406,0.9264853648585256,0.020651107712110126
-0.0001258340594059406,0.9462579157651954,0.021329986891771204
-0.0001258140594059406,0.9372094602655432,0.021669426481602205
-0.0001257940594059406,0.9489389396169521,0.021669426481602205
-0.0001257740594059406,0.9348635643952666,0.020311668122280666
-0.0001257540594059406,0.9365392043025995,0.020651107712110126
-0.0001257340594059406,0.9425715079690411,0.022348305661262825
-0.0001257140594059406,0.9465930437466699,0.02200886607143321
-0.0001256940594059406,0.9452525318207969,0.0220088660714329
-0.0001256740594059406,0.9241394689882513,0.021329986891771822
-0.0001256540594059406,0.919782805229143,0.021669426481602205
-0.0001256340594059406,0.9221287010994258,0.020651107712110588
-0.0001256140594059406,0.9090587098221428,0.021329986891770895
-0.0001255940594059406,0.9154261414700443,0.02031166812227943
-0.0001255740594059406,0.9308420286176173,0.02031166812227943
-0.0001255540594059406,0.9164315254144443,0.02099054730194128
-0.0001255340594059406,0.9000102543224643,0.0220088660714329
-0.0001255140594059406,0.8882807749710554,0.020990547301941744
-0.0001254940594059406,0.8752107836937486,0.021329986891771513
-0.0001254740594059406,0.8886159029525078,0.021669426481602052
-0.0001254540594059406,0.8685082240643843,0.020651107712111053
-0.0001254340594059406,0.848065417194749,0.020651107712110126
-0.0001254140594059406,0.8685082240643567,0.021329986891771204
-0.0001253940594059406,0.8577841286573539,0.020990547301940818
-0.0001253740594059406,0.8487356731576914,0.02031166812227974
-0.0001253540594059406,0.8460546493059368,0.020651107712109817
-0.0001253340594059406,0.8152228750107743,0.019293349352787353
-0.0001253140594059406,0.8148877470293052,0.02031166812227897
-0.0001252940594059406,0.8031582676778962,0.01929334935278828
-0.0001252740594059406,0.7920990442894043,0.019293349352787353
-0.0001252540594059406,0.7756777731974318,0.018275030583296197
-0.0001252340594059406,0.7753426452159476,0.018953909762956658
-0.0001252140594059406,0.7817100768638583,0.0192933493527872
-0.0001251940594059406,0.7659590617348263,0.019632788942617736
-0.0001251740594059406,0.768640085586565,0.018614470173125966
-0.0001251540594059406,0.7830505887897311,0.01963278894261758
-0.0001251340594059406,0.7488675346798781,0.01895390976295635
-0.0001251140594059406,0.7307706236805616,0.01827503058329558
-0.0001250940594059406,0.723732936069708,0.017935590993464885
-0.0001250740594059406,0.717030376440319,0.01725671181380319
-0.0001250540594059406,0.7073116649777186,0.01861447017312535
-0.0001250340594059406,0.7244031920326243,0.017935590993465193
-0.0001250140594059406,0.7026198732371464,0.017596151403633884
-0.0001249940594059406,0.7099926888294639,0.01725671181380334
-0.0001249740594059406,0.6821770663675294,0.01725671181380319
-0.0001249540594059406,0.6781555305899015,0.017935590993464267
-0.0001249340594059406,0.6376050448321718,0.016577832634143037
-0.0001249140594059406,0.6339186370359745,0.016577832634141802
-0.0001248940594059406,0.6382753007950712,0.016917272223972345
-0.00012487405940594059,0.6134758301663507,0.01623839304431034
-0.0001248540594059406,0.5983950710002467,0.014541195095157642
-0.0001248340594059406,0.6148163420922191,0.016238393044309567
-0.0001248140594059406,0.6014112228334688,0.015898953454480415
-0.0001247940594059406,0.5890114875191167,0.016238393044310958
-0.0001247740594059406,0.5722550884456697,0.01555951386465034
-0.0001247540594059406,0.5578445852424819,0.015559513864649722
-0.0001247340594059406,0.5414233141505019,0.014541195095158105
-0.0001247140594059406,0.5394125462616707,0.014201755505327103
-0.0001246940594059406,0.5196399953550099,0.014541195095157488
-0.0001246740594059406,0.5109266678368115,0.013862315915496873
-0.0001246540594059406,0.4978566765595075,0.013862315915496255
-0.0001246340594059406,0.4948405247262867,0.014541195095157333
-0.0001246140594059406,0.470376182079061,0.013522876325666488
-0.0001245940594059406,0.4532846550241131,0.014201755505326949
-0.0001245740594059406,0.4469172233762025,0.012504557556174252
-0.0001245540594059406,0.4432308155800392,0.01250455755617348
-0.0001245340594059406,0.4046910977111067,0.01250455755617348
-0.0001245140594059406,0.40100468991493204,0.012165117966343095
-0.0001244940594059406,0.3932967463411387,0.012843997146004173
-0.0001244740594059406,0.3979885380817044,0.012504557556173634
-0.0001244540594059406,0.3772106032306116,0.011146799196851015
-0.0001244340594059406,0.35777318030541966,0.011825678376511784
-0.0001244140594059406,0.34872472480575256,0.01012848042736017
-0.0001243940594059406,0.32325499821409037,0.010807359607020013
-0.0001243740594059406,0.3125309028070831,0.010128480427358935
-0.0001243540594059406,0.3162173106032353,0.010807359607019396
-0.0001243340594059406,0.3138714147329547,0.00944960124769724
-0.0001243140594059406,0.2726506730122704,0.00944960124769724
-0.0001242940594059406,0.2595806817349556,0.00944960124769724
-0.0001242740594059406,0.26159144962376946,0.009789040837527779
-0.0001242540594059406,0.22975429138423184,0.010128480427358318
-0.0001242340594059406,0.21903019597719073,0.009789040837527933
-0.0001242140594059406,0.2099817404775283,0.009789040837527933
-0.00012419405940594059,0.19791713314462864,0.008770722068035851
-0.0001241740594059406,0.18283637397852462,0.008770722068035851
-0.0001241540594059406,0.18116073407118047,0.008431282478205467
-0.0001241340594059406,0.1566963914239324,0.008431282478205158
-0.0001241140594059406,0.1416156322578284,0.00775240329854408
-0.0001240940594059406,0.1010651465000936,0.008091842888374156
-0.0001240740594059406,0.07459003596399541,0.007412963708713078
-0.0001240540594059406,0.08028721164896803,0.006734084529052
-0.0001240340594059406,0.07626567587133283,0.0063946449392213054
-0.0001240140594059406,0.05816876487201623,0.0070735241188820755
-0.0001239940594059406,0.04208262176150436,0.006734084529052
-0.0001239740594059406,0.03504493415063798,0.005036886579898223
-0.0001239540594059406,0.049120309372335066,0.005715765759559301
-0.0001239340594059406,0.022980326817773046,0.005036886579898841
-0.0001239140594059406,-0.023602462606459894,0.006394644939220997
-0.0001238940594059406,-0.028294254347025587,0.005715765759559919
-0.0001238740594059406,-0.03164553416171903,0.00571576575955961
-0.0001238540594059406,-0.05510449286454751,0.004697446990067992
-0.0001238340594059406,-0.07722293964150068,0.004358007400237144
-0.0001238140594059406,-0.08526601119677993,0.0043580074002368355
-0.0001237940594059406,-0.09129831486322154,0.0040185678104062966
-0.0001237740594059406,-0.11643291347341457,0.0033396886307449094
-0.0001237540594059406,-0.1284975208062978,0.003679128220575449
-0.0001237340594059406,-0.13721084832448727,0.004358007400236218
-0.0001237140594059406,-0.13620546438008782,0.0030002490409140616
-0.0001236940594059406,-0.16603185473082688,0.004358007400236218
-0.0001236740594059406,-0.15966442308293277,0.0030002490409152963
-0.0001236540594059406,-0.17273441436022305,0.003679128220575449
-0.0001236340594059406,-0.21294977213650046,0.0026608094510838314
-0.0001236140594059406,-0.23908975469111093,0.0023213698612526744
-0.0001235940594059406,-0.23707898680229705,0.0019819302714221354
-0.0001235740594059406,-0.22032258772885485,0.0026608094510827507
-0.0001235540594059406,-0.2551758978016292,0.001981930271421981
-0.0001235340594059406,-0.2756187046712369,0.0016424906815914418
-0.0001235140594059406,-0.2870130560411862,0.0013030510917609026
-0.0001234940594059406,-0.3131530385957888,0.0016424906815912875
-0.0001234740594059406,-0.30108843126291107,0.0009636115019305178
-0.0001234540594059406,-0.31080714272550486,0.0006241719120992069
-0.0001234340594059406,-0.33225533353951947,0.001303051091760285
-0.0001234140594059406,-0.36040608398291063,0.00028473232226943943
-0.0001233940594059406,-0.3764922270934545,-0.0007335864472235673
-0.0001233740594059406,-0.3898973463522136,0.0006241719120985896
-0.0001233540594059406,-0.42005886468443965,-0.0007335864472231042
-0.0001233340594059406,-0.4160373289068137,0.00028473232226805013
-0.0001233140594059406,-0.4281019362396896,0.0013030510917596677
-0.0001232940594059406,-0.4126860490921206,-5.470726756218023e-05
-0.0001232740594059406,-0.4287721922026316,-0.00039414685739271943
-0.0001232540594059406,-0.44150705549845426,-0.001412465626884028
-0.0001232340594059406,-0.4683172940159963,-0.0017519052167156478
-0.0001232140594059406,-0.4870844609782591,-0.002430784396376726
-0.0001231940594059406,-0.49177625271883546,-0.0014124656268849544
-0.0001231740594059406,-0.5011598361999668,-0.0014124656268849544
-0.0001231540594059406,-0.4988139403296893,-0.0010730260370545696
-0.0001231340594059406,-0.5272998187545633,-0.002430784396377035
-0.0001231140594059406,-0.5524344173647366,-0.002091344806546496
-0.00012309405940594059,-0.5470723696612544,-0.0020913448065461872
-0.0001230740594059406,-0.5742177361602416,-0.0017519052167156478
-0.0001230540594059406,-0.5661746646049898,-0.003109663576037187
-0.0001230340594059406,-0.5785743999193403,-0.003109663576038422
-0.0001230140594059406,-0.6033738705480446,-0.0024307843963773438
-0.0001229940594059406,-0.6097413021959637,-0.003788542755698574
-0.0001229740594059406,-0.6275030852138334,-0.003788542755699809
-0.0001229540594059406,-0.632865132917337,-0.003109663576038731
-0.0001229340594059406,-0.6399028205281966,-0.00344910316586927
-0.0001229140594059406,-0.6516322998796055,-0.0037885427556996545
