samples/acq3484.csv

#Digilent WaveForms Oscilloscope Acquisition
#Device Name: Discovery2
#Serial Number: SN:210321AD996C
#Date Time: 2025-12-07 12:58:45.964
#Sample rate: 5e+07Hz
#Samples: 8192
#Trigger: Source: Channel 1 Type: Edge Condition: Rising Level: 0 V Hyst.: Auto HoldOff: 0 s
#Channel 1: Range: 500 mV/div Offset: 0 V Sample Mode: Average
#Channel 2: Range: 500 mV/div Offset: 0 V Sample Mode: Average
#Wavegen Channel 1: Running
#Mode: Custom
#Type: noisy
#Frequency: 117 kHz
#Period: 8.547008547 us
#Amplitude: 1 V
#Offset: 0 V
#Phase: 0 °

Time (s),Channel 1 (V),Channel 2 (V)
-0.00012899641025641026,-0.5340023783839459,-0.009219576192990906
-0.00012897641025641027,-0.517245979310497,-0.010577334552313062
-0.00012895641025641025,-0.5025003481258504,-0.010237894962482523
-0.00012893641025641026,-0.5085326517922892,-0.00921957619299137
-0.00012891641025641025,-0.48105215731181533,-0.009219576192990598
-0.00012889641025641026,-0.4636255022754285,-0.008540697013329518
-0.00012887641025641027,-0.44284756742435183,-0.008880136603160059
-0.00012885641025641028,-0.4287721922026517,-0.008201257423499442
-0.00012883641025641026,-0.4311180880729228,-0.007861817833668131
-0.00012881641025641025,-0.4153670729438767,-0.008880136603160367
-0.00012879641025641026,-0.42206963257325625,-0.009219576192990906
-0.00012877641025641027,-0.40497810551833835,-0.008201257423499288
-0.00012875641025641028,-0.38285965874138805,-0.008201257423498825
-0.00012873641025641026,-0.3986106738704171,-0.009219576192990906
-0.00012871641025641024,-0.37113017938993714,-0.007522378243837129
-0.00012869641025641025,-0.35873044407558646,-0.007182938654006744
-0.00012867641025641026,-0.34968198857592814,-0.007182938654006744
-0.00012865641025641027,-0.33795250922451514,-0.006164619884515591
-0.00012863641025641026,-0.32588790189161576,-0.006504059474345358
-0.00012861641025641024,-0.2856725441153137,-0.006164619884515899
-0.00012859641025641025,-0.2786348565044555,-0.007522378243836666
-0.00012857641025641026,-0.25048410606106136,-0.00582518029468397
-0.00012855641025641027,-0.24277616248727488,-0.005485740704853431
-0.00012853641025641026,-0.2364087308393579,-0.006504059474345358
-0.00012851641025641027,-0.21563079598828122,-0.006504059474345358
-0.00012849641025641025,-0.22534950745087107,-0.005485740704853431
-0.00012847641025641026,-0.21328490011798787,-0.00582518029468397
-0.00012845641025641027,-0.18748004554487654,-0.005146301115022892
-0.00012843641025641025,-0.1801072299525252,-0.005485740704852659
-0.00012841641025641026,-0.13888648823184085,-0.004127982345530502
-0.00012839641025641025,-0.15162135152765777,-0.004806861525191581
-0.00012837641025641026,-0.1295029047507052,-0.004127982345530502
-0.00012835641025641027,-0.10503856210346979,-0.0034491031658694243
-0.00012833641025641028,-0.09800087449261331,-0.0037885427556995
-0.00012831641025641026,-0.07956883551180471,-0.0027702239862077284
-0.00012829641025641024,-0.06281243643834697,-0.0024307843963761087
-0.00012827641025641025,-0.061471924512473644,-0.0014124656268851088
-0.00012825641025641026,-0.06582858827156839,-0.0017519052167154934
-0.00012823641025641027,-0.044045269476096674,-0.002091344806546033
-0.00012821641025641026,-0.01723503095854641,-0.002430784396377035
-0.00012819641025641024,-0.0011488878480217352,-0.002091344806545724
-0.00012817641025641025,0.005888799762828637,-0.0014124656268854176
-0.00012815641025641026,0.016948023151304923,-0.002430784396377035
-0.00012813641025641027,0.03873134194678851,-0.0010730260370548782
-0.00012811641025641026,0.05414722909437843,0.0002847323222685133
-0.00012809641025641024,0.05984440477937346,-0.0007335864472220237
-0.00012807641025641025,0.08162772357485844,0.0009636115019300548
-0.00012805641025641026,0.10642719420356281,0.0013030510917605939
-0.00012803641025641027,0.10475155429621792,-5.470726756156294e-05
-0.00012801641025641025,0.119832313462332,-0.0007335864472226411
-0.00012799641025641026,0.12854564098052543,0.0013030510917605939
-0.00012797641025641025,0.1533451116092405,0.00028473232226897637
-0.00012795641025641026,0.15200459968336458,0.0013030510917605939
-0.00012793641025641027,0.19087944553376607,0.0013030510917605939
-0.00012791641025641028,0.21098712442191328,0.0033396886307429027
-0.00012789641025641026,0.22941916340273377,0.0030002490409140616
-0.00012787641025641024,0.221376091847485,0.0026608094510827507
-0.00012785641025641025,0.23277044321742507,0.001981930271421981
-0.00012783641025641027,0.2525429941240948,0.003339688630744138
-0.00012781641025641028,0.275331696863984,0.004018567810405525
-0.00012779641025641026,0.29041245603011556,0.003679128220575449
-0.00012777641025641024,0.3118606468441479,0.0030002490409143704
-0.00012775641025641025,0.3205739743623401,0.003339688630744446
-0.00012773641025641026,0.3266062780287817,0.0026608094510833682
-0.00012771641025641027,0.3199037183994052,0.0036791282205745224
-0.00012769641025641026,0.36548112387920084,0.004697446990067529
-0.00012767641025641024,0.37788085919355074,0.004697446990067529
-0.00012765641025641025,0.3691675316753593,0.00469744699006722
-0.00012763641025641026,0.3648108679162626,0.004018567810406142
-0.00012761641025641027,0.3875995706561531,0.004358007400236681
-0.00012759641025641025,0.3839131628600166,0.005036886579898532
-0.00012757641025641026,0.41373955321074213,0.005715765759559301
-0.00012755641025641025,0.4345174880618552,0.0070735241188820755
-0.00012753641025641026,0.46400875043112527,0.006394644939220997
-0.00012751641025641027,0.46166285456084244,0.00537632616972938
-0.00012749641025641028,0.46434387841259195,0.0053763261697289165
-0.00012747641025641026,0.4804300215231127,0.006394644939220997
-0.00012745641025641025,0.5038889802259573,0.006394644939221923
-0.00012743641025641026,0.5099212838923962,0.007412963708713078
-0.00012741641025641027,0.5186346114105896,0.00639464493922146
-0.00012739641025641028,0.544774593965162,0.007412963708712151
-0.00012737641025641026,0.5441043380022476,0.007412963708713078
-0.00012735641025641024,0.5286884508546846,0.00741296370871246
-0.00012733641025641025,0.5474556178169441,0.006734084529052
-0.00012731641025641026,0.5588499691868892,0.007412963708713078
-0.00012729641025641027,0.5561689453351387,0.008770722068034616
-0.00012727641025641026,0.5853250797229506,0.00944960124769724
-0.00012725641025641024,0.6077786544814082,0.008091842888374773
-0.00012723641025641025,0.6362645329062496,0.008431282478205312
-0.00012721641025641026,0.6168271099810488,0.008770722068035851
-0.00012719641025641027,0.6409563246468153,0.00911016165786639
-0.00012717641025641025,0.6681016911458194,0.009110161657866545
-0.00012715641025641026,0.6540263159241289,0.009110161657866545
-0.00012713641025641025,0.687874242052511,0.010128480427358163
-0.00012711641025641026,0.7019496172742081,0.009110161657866545
-0.00012709641025641027,0.6985983374595183,0.009789040837527624
-0.00012707641025641028,0.7036252571815492,0.009789040837527933
-0.00012705641025641026,0.7032901292000846,0.010128480427358626
-0.00012703641025641025,0.7143493525885765,0.009110161657866853
-0.00012701641025641026,0.7374731833099359,0.009789040837527933
-0.00012699641025641027,0.7498729186242881,0.010467920017189011
-0.00012697641025641028,0.7756777731973934,0.011486238786680474
-0.00012695641025641026,0.7508783025687011,0.010807359607020013
-0.00012693641025641024,0.7800344369565122,0.012504557556172862
-0.00012691641025641025,0.7763480291603613,0.011825678376511784
-0.00012689641025641026,0.7900882764005832,0.011146799196851015
-0.00012687641025641027,0.8058392915296243,0.011486238786681091
-0.00012685641025641026,0.8011474997890707,0.012843997146004173
-0.00012683641025641024,0.8098608273072538,0.011486238786681091
-0.00012681641025641025,0.7941098121782333,0.011146799196851478
-0.00012679641025641026,0.8256118424363172,0.012843997146004173
-0.00012677641025641027,0.845719521324456,0.011486238786682017
-0.00012675641025641026,0.8524220809538477,0.0114862387866814
-0.00012673641025641027,0.8447141373800613,0.012504557556173017
-0.00012671641025641025,0.8691784800273058,0.012165117966342632
-0.00012669641025641026,0.8725297598419955,0.011825678376512093
-0.00012667641025641027,0.8748756557122784,0.011825678376512093
-0.00012665641025641025,0.8691784800273054,0.012165117966342632
-0.00012663641025641026,0.8715243758975882,0.011825678376512093
-0.00012661641025641025,0.8721946318605294,0.012165117966342632
-0.00012659641025641026,0.8785620635084399,0.011825678376512093
-0.00012657641025641027,0.9033615341371443,0.012504557556173171
-0.00012655641025641028,0.9087235818406568,0.014201755505325405
-0.00012653641025641026,0.9154261414700443,0.012843997146004173
-0.00012651641025641024,0.9087235818406629,0.01216511796634433
-0.00012649641025641025,0.9100640937665321,0.013862315915495792
-0.00012647641025641026,0.8966589745077791,0.012843997146004637
-0.00012645641025641027,0.8959887185448353,0.010807359607021866
-0.00012643641025641026,0.9103992217480074,0.01250455755617348
-0.00012641641025641024,0.9174369093588643,0.011825678376513328
-0.00012639641025641025,0.9231340850438405,0.013183436735835023
-0.00012637641025641026,0.9368743322840687,0.013522876325665562
-0.00012635641025641027,0.9201179332106199,0.013183436735835023
-0.00012633641025641026,0.9543009873204635,0.014201755505326949
-0.00012631641025641024,0.9603332909869023,0.012165117966343404
-0.00012629641025641025,0.9543009873204709,0.012843997146004173
-0.00012627641025641026,0.9703871304309818,0.012843997146004173
-0.00012625641025641027,0.9720627703383267,0.014201755505326331
-0.00012623641025641025,0.9573171391536947,0.012504557556173789
-0.00012621641025641026,0.9770896900603554,0.01318343673583456
-0.00012619641025641025,0.960668418968379,0.012843997146004482
-0.00012617641025641026,0.9650250827274757,0.013522876325665562
-0.00012615641025641027,0.975078922171545,0.01420175550532664
-0.00012613641025641028,0.9623440588757342,0.012843997146005409
-0.00012611641025641026,0.9559766272278092,0.014201755505326949
-0.00012609641025641024,0.9780950740047575,0.013183436735834868
-0.00012607641025641025,0.9623440588757226,0.013183436735834868
-0.00012605641025641027,0.971057386393916,0.013862315915495946
-0.00012603641025641028,0.9606684189683864,0.01216511796634433
-0.00012601641025641026,0.9563117552092782,0.013862315915496255
-0.00012599641025641024,0.9596630350239851,0.013522876325666488
-0.00012597641025641025,0.9767545620788969,0.01454119509515687
-0.00012595641025641026,0.9804409698750557,0.012843997146004173
-0.00012593641025641027,0.9636845708016144,0.013862315915495329
-0.00012591641025641026,0.9496091955798956,0.013522876325665562
-0.00012589641025641024,0.9750789221715462,0.01352287632566587
-0.00012587641025641025,0.9713925143753729,0.013862315915495638
-0.00012585641025641026,0.9355338203581922,0.01250455755617348
-0.00012583641025641027,0.9355338203581922,0.012843997146004019
-0.00012581641025641025,0.9385499721914196,0.013183436735835177
-0.00012579641025641026,0.9499443235613596,0.013862315915495946
-0.00012577641025641025,0.952625347413113,0.015220074274818257
-0.00012575641025641026,0.9419012520061056,0.013522876325665562
-0.00012573641025641027,0.9355338203581951,0.012843997146004482
-0.00012571641025641028,0.9452525318207881,0.01318343673583456
-0.00012569641025641026,0.9321825405435008,0.013522876325665562
-0.00012567641025641025,0.9157612694515144,0.013183436735835177
-0.00012565641025641026,0.9167666533959209,0.013522876325665562
-0.00012563641025641027,0.9087235818406654,0.011825678376512865
-0.00012561641025641028,0.9033615341371605,0.011486238786681709
-0.00012559641025641026,0.8946482066189583,0.013183436735834868
-0.00012557641025641024,0.9174369093588625,0.012843997146004791
-0.00012555641025641025,0.9211233171550192,0.013522876325665099
-0.00012553641025641026,0.9204530611920813,0.01250455755617348
-0.00012551641025641027,0.8936428226745753,0.013183436735834251
-0.00012549641025641026,0.8882807749710447,0.013862315915496255
-0.00012547641025641024,0.8966589745077557,0.014201755505325713
-0.00012545641025641025,0.8775566795640213,0.012843997146004328
-0.00012543641025641026,0.8527572089353169,0.013183436735834868
-0.00012541641025641027,0.8678379681014209,0.01182567837651271
-0.00012539641025641025,0.8644866882867365,0.013183436735834868
-0.00012537641025641026,0.8480654171947565,0.012504557556173789
-0.00012535641025641025,0.8423682415097608,0.011825678376511939
-0.00012533641025641026,0.8135472351034286,0.0114862387866814
-0.00012531641025641027,0.8165633869366494,0.011146799196850861
-0.00012529641025641028,0.8051690355667106,0.010807359607020322
-0.00012527641025641026,0.7920990442894043,0.01046792001718932
-0.00012525641025641025,0.8031582676778789,0.010467920017189165
-0.00012523641025641026,0.7884126364932438,0.010128480427358626
-0.00012521641025641027,0.7914287883264647,0.010467920017189165
-0.00012519641025641028,0.7689752135680546,0.011486238786680474
-0.00012517641025641026,0.7559052222907381,0.01046792001718932
-0.00012515641025641024,0.7622726539386333,0.010467920017189011
-0.00012513641025641025,0.7421649750505114,0.010128480427358626
-0.00012511641025641026,0.7589213741239527,0.010128480427358626
-0.00012509641025641027,0.7368029273470178,0.010467920017189011
-0.00012507641025641026,0.7223924241438251,0.0114862387866814
-0.00012505641025641024,0.7227275521252999,0.010467920017188702
-0.00012503641025641025,0.7290949837731893,0.009789040837527161
-0.00012501641025641026,0.6885444980154428,0.008091842888374464
-0.00012499641025641027,0.700273977366857,0.009449601247696622
-0.00012497641025641026,0.6868688581080972,0.009110161657866545
-0.00012495641025641027,0.6855283461822212,0.008770722068036006
-0.00012493641025641025,0.6523506760167769,0.008091842888374928
-0.00012491641025641026,0.6526858039982458,0.009110161657866545
-0.00012489641025641027,0.6429670925356455,0.008431282478205467
-0.00012487641025641025,0.6171622379625052,0.009110161657865927
-0.00012485641025641026,0.589011487519111,0.007752403298543771
-0.00012483641025641025,0.6101245503516584,0.007412963708713078
-0.00012481641025641026,0.5926978953152715,0.007412963708713078
-0.00012479641025641027,0.5853250797229539,0.008091842888374156
-0.00012477641025641028,0.5668930407421652,0.006734084529052926
-0.00012475641025641026,0.5652174008348028,0.005036886579898223
-0.00012473641025641024,0.5437692100207714,0.006734084529051691
-0.00012471641025641025,0.5360612664469814,0.0067340845290515365
-0.00012469641025641026,0.5206453792994153,0.006394644939221151
-0.00012467641025641028,0.5055646201333113,0.006055205349390612
-0.00012465641025641026,0.4958459086706927,0.006055205349390303
-0.00012463641025641024,0.4931648848189174,0.005376326169728608
-0.00012461641025641025,0.46870054217168383,0.005036886579898223
-0.00012459641025641026,0.44825773530207613,0.005036886579898223
-0.00012457641025641027,0.4593169586905524,0.005715765759559301
-0.00012455641025641026,0.4442361995244466,0.005036886579898223
-0.00012453641025641024,0.4120639133034079,0.004358007400238071
-0.00012451641025641025,0.40971801743311487,0.005715765759558529
-0.00012449641025641026,0.38491854680441046,0.003339688630744755
-0.00012447641025641027,0.38592393074881737,0.003339688630744755
-0.00012445641025641025,0.37117829956416604,0.004358007400236372
-0.00012443641025641026,0.3490598527872235,0.003339688630745218
-0.00012441641025641025,0.34537344499105177,0.003339688630745218
-0.00012439641025641026,0.3426924211393,0.0043580074002368355
-0.00012437641025641027,0.32359012619556826,0.003339688630745218
-0.00012435641025641028,0.30683372712211826,0.003339688630744755
-0.00012433641025641026,0.29778527162243645,0.003339688630744755
-0.00012431641025641024,0.2652778574199305,0.003339688630742594
-0.00012429641025641025,0.26494272943846164,0.0009636115019299004
-0.00012427641025641027,0.2612563216423029,0.001642490681590979
-0.00012425641025641028,0.23980813082829633,0.002321369861252057
-0.00012423641025641026,0.23779736293946205,0.0026608094510833682
-0.00012421641025641024,0.2126627643292739,0.0016424906815912875
-0.00012419641025641025,0.20897635653311056,0.0016424906815912875
-0.00012417641025641026,0.19523610929288243,0.0016424906815912875
-0.00012415641025641027,0.1794850941638476,0.000624171912100133
-0.00012413641025641026,0.15166947170189546,-5.470726756218023e-05
-0.00012411641025641024,0.13625358455427977,0.0009636115019292829
-0.00012409641025641025,0.09704361072241617,0.0002847323222677415
-0.00012407641025641026,0.07291439605664973,-0.0014124656268849544
-0.00012405641025641027,0.09469771485213332,-0.00039414685739333705
-0.00012403641025641025,0.07961695568603129,-0.0014124656268844913
-0.00012401641025641026,0.07727105981574951,-0.00039414685739333705
-0.00012399641025641025,0.061184916705219354,-0.0014124656268855718
-0.00012397641025641026,0.037390830020921896,-0.0027702239862077284
-0.00012395641025641027,0.02666673461391459,-0.0014124656268855718
-0.00012393641025641028,0.021639814891877322,-0.0027702239862064937
-0.00012391641025641026,-0.02326733462499076,-0.002430784396377035
-0.00012389641025641025,-0.029634766272901805,-0.0020913448065463416
-0.00012387641025641026,-0.0269537424211512,-0.0020913448065463416
-0.00012385641025641027,-0.04303988553166216,-0.003109663576037959
-0.00012383641025641028,-0.07521217175267678,-0.003109663576038422
-0.00012381641025641026,-0.07688781166005168,-0.003788542755699809
-0.00012379641025641024,-0.07956883551183001,-0.0037885427557004265
-0.00012377641025641025,-0.10738445797374029,-0.004467421935360888
-0.00012375641025641026,-0.1023575382517056,-0.003788542755699809
-0.00012373641025641027,-0.1291677767692117,-0.004806861525190964
-0.00012371641025641026,-0.1348649524542113,-0.0044674219353611965
-0.00012369641025641024,-0.16201031895320936,-0.004806861525193125
-0.00012367641025641025,-0.16033467904587023,-0.00616461988451451
-0.00012365641025641026,-0.17139390243434655,-0.00582518029468397
-0.00012363641025641027,-0.21261464415503087,-0.00582518029468397
-0.00012361641025641025,-0.2236738675435309,-0.005146301115022583
-0.00012359641025641027,-0.23439796295053822,-0.006164619884514201
-0.00012357641025641025,-0.22702514735823656,-0.005485740704854049
-0.00012355641025641026,-0.2585271776163205,-0.007182938654006744
-0.00012353641025641027,-0.266235121190107,-0.0065040594743456664
-0.00012351641025641028,-0.29170484778174127,-0.006843499064175742
-0.00012349641025641026,-0.3131530385957888,-0.006843499064176051
-0.00012347641025641025,-0.3134881665772622,-0.006504059474345821
-0.00012345641025641026,-0.3228717500583936,-0.007522378243837438
-0.00012343641025641027,-0.3305796936321801,-0.007861817833667977
-0.00012341641025641028,-0.3463307087612184,-0.006843499064176977
-0.00012339641025641026,-0.3731409472787632,-0.008540697013329518
-0.00012337641025641024,-0.38989734635224627,-0.007522378243838364
-0.00012335641025641025,-0.41905348074003407,-0.008540697013329364
-0.00012333641025641026,-0.41905348074003407,-0.008201257423498979
-0.00012331641025641027,-0.4267614243138171,-0.008880136603159595
-0.00012329641025641026,-0.41436168899946624,-0.009898455372652293
-0.00012327641025641024,-0.4267614243138357,-0.009559015782820673
-0.00012325641025641025,-0.4394962876096657,-0.008540697013329672
-0.00012323641025641026,-0.4716685738306876,-0.008880136603160213
-0.00012321641025641027,-0.4857439490523847,-0.009559015782821291
-0.00012319641025641026,-0.4927816366632428,-0.0095590157828216
-0.00012317641025641027,-0.5018300921629053,-0.00921957619299106
-0.00012315641025641025,-0.49747342840381537,-0.009219576192990906
-0.00012313641025641026,-0.5078623958293538,-0.009219576192990906
-0.00012311641025641027,-0.5477426256241622,-0.011935092911635218
-0.00012309641025641025,-0.5745528641417156,-0.010916774142144682
-0.00012307641025641026,-0.5852769595487229,-0.01159565332180576
-0.00012305641025641025,-0.5675151765308679,-0.011935092911636453
-0.00012303641025641026,-0.5869525994560686,-0.011935092911636453
