samples/acq3453.csv

#Digilent WaveForms Oscilloscope Acquisition
#Device Name: Discovery2
#Serial Number: SN:210321AD996C
#Date Time: 2025-12-07 12:58:43.783
#Sample rate: 5e+07Hz
#Samples: 8192
#Trigger: Source: Channel 1 Type: Edge Condition: Rising Level: 0 V Hyst.: Auto HoldOff: 0 s
#Channel 1: Range: 500 mV/div Offset: 0 V Sample Mode: Average
#Channel 2: Range: 500 mV/div Offset: 0 V Sample Mode: Average
#Wavegen Channel 1: Running
#Mode: Custom
#Type: noisy
#Frequency: 117 kHz
#Period: 8.547008547 us
#Amplitude: 1 V
#Offset: 0 V
#Phase: 0 °

Time (s),Channel 1 (V),Channel 2 (V)
-0.00012899934426229508,-0.5336672504024768,-0.007182938654006744
-0.0001289793442622951,-0.5092029077552414,-0.005485740704854049
-0.00012895934426229507,-0.5085326517922888,-0.0061646198845143555
-0.00012893934426229508,-0.5014949641814435,-0.0054857407048535855
-0.0001289193442622951,-0.4917762527188443,-0.0048068615251925075
-0.00012889934426229508,-0.480381901348885,-0.0044674219353611965
-0.0001288793442622951,-0.4512257669610839,-0.004127982345530657
-0.0001288593442622951,-0.4626201183310107,-0.0054857407048520416
-0.00012883934426229508,-0.4518960229240089,-0.005146301115022583
-0.0001288193442622951,-0.4311180880729322,-0.005825180294683661
-0.00012879934426229507,-0.41938860872150324,-0.00480686152519189
-0.00012877934426229508,-0.41704271285122035,-0.003109663576039194
-0.0001287593442622951,-0.4120157931291869,-0.004806861525190346
-0.00012873934426229508,-0.37247069131582494,-0.0034491031658691156
-0.0001287193442622951,-0.3493468605944654,-0.0037885427556996545
-0.00012869934426229507,-0.35839531609410924,-0.004127982345530039
-0.00012867934426229508,-0.3315850775766032,-0.0031096635760388854
-0.0001286593442622951,-0.30678560694789786,-0.0034491031658688068
-0.00012863934426229508,-0.30946663079962833,-0.0034491031658691156
-0.00012861934426229509,-0.2883535679670827,-0.0034491031658691156
-0.0001285993442622951,-0.28366177622650957,-0.003109663576038731
-0.00012857934426229508,-0.28299152026356705,-0.0020913448065463416
-0.0001285593442622951,-0.2598676895422075,-0.0017519052167158022
-0.00012853934426229507,-0.2514894900054687,-0.0027702239862077284
-0.00012851934426229508,-0.2250143794694195,-0.0010730260370550326
-0.0001284993442622951,-0.21697130791415564,-0.0020913448065454157
-0.00012847934426229508,-0.18245312582282786,-0.0007335864472235673
-0.0001284593442622951,-0.1861395336189866,-0.0017519052167151846
-0.00012843934426229507,-0.17742620610077398,-0.0020913448065455697
-0.00012841934426229508,-0.14022700015771739,-0.00039414685739287377
-0.0001283993442622951,-0.13687572034302914,-0.00039414685739287377
-0.00012837934426229507,-0.10503856210345866,0.0006241719120992069
-0.00012835934426229509,-0.08124447541916119,-0.0007335864472229499
-0.0001283393442622951,-0.07320140386389855,-0.0003941468573931825
-0.00012831934426229508,-0.07119063597507644,0.0002847323222685133
-0.0001282993442622951,-0.08258498734502172,-0.0007335864472231041
-0.00012827934426229507,-0.07420678780828613,0.0006241719120993613
-0.00012825934426229508,-0.04672629332784241,0.0009636115019297461
-0.0001282393442622951,-0.034996813976421,0.0016424906815906701
-0.00012821934426229508,-0.024272718569398152,0.0016424906815912875
-0.0001281993442622951,0.02532622268801063,0.000963611501930209
-0.0001281793442622951,0.026666734613908494,0.0009636115019299004
-0.00012815934426229508,0.03672057405798363,0.0016424906815912875
-0.0001281393442622951,0.04476364561323911,0.0023213698612523656
-0.00012811934426229507,0.04409338965030451,0.0016424906815912875
-0.00012809934426229508,0.07794131577867132,0.0023213698612523656
-0.0001280793442622951,0.07727105981574905,0.00130305109176152
-0.00012805934426229508,0.10542181025915542,0.001981930271421981
-0.0001280393442622951,0.12519436116582514,0.001981930271421981
-0.00012801934426229507,0.1362535845543078,0.0013030510917612112
-0.00012799934426229508,0.11949718548085891,0.0026608094510833682
-0.0001279793442622951,0.15200459968333502,0.002321369861252983
-0.00012795934426229508,0.16071792720156197,0.001981930271421981
-0.00012793934426229509,0.1868579097561423,0.0026608094510830595
-0.0001279193442622951,0.19188482947818655,0.002321369861252983
-0.00012789934426229508,0.2123276363478081,0.003339688630744755
-0.0001278793442622951,0.24416479458736107,0.003339688630744755
-0.00012785934426229507,0.26594811338286906,0.0043580074002368355
-0.00012783934426229508,0.251537610179703,0.0036791282205757576
-0.0001278193442622951,0.25656452990172884,0.003679128220575449
-0.00012779934426229508,0.27365605695665907,0.003679128220575449
-0.0001277793442622951,0.31387141473293645,0.003679128220575449
-0.00012775934426229507,0.3172226945476458,0.005036886579897451
-0.00012773934426229508,0.3165524385847078,0.003339688630744755
-0.0001277193442622951,0.31387141473295715,0.004358007400235909
-0.00012769934426229507,0.3550921564536578,0.0043580074002368355
-0.00012767934426229508,0.36916753167535493,0.005376326169728453
-0.0001276593442622951,0.3865941867117403,0.0046974469900681465
-0.00012763934426229508,0.3721836835085835,0.004697446990067529
-0.0001276193442622951,0.4150800651366127,0.005715765759559147
-0.00012759934426229507,0.4083775055072467,0.005376326169728762
-0.00012757934426229508,0.402010073859339,0.0050368865798983775
-0.0001275593442622951,0.4449064554873458,0.005376326169728608
-0.00012753934426229508,0.46769515822728575,0.005036886579898223
-0.00012751934426229509,0.4680302862087547,0.00605520534938984
-0.0001274993442622951,0.47037618207903664,0.006394644939220688
-0.00012747934426229508,0.4797597655601744,0.00571576575955961
-0.0001274593442622951,0.5099212838923824,0.006734084529051228
-0.00012743934426229507,0.5216507632438158,0.006394644939220997
-0.00012741934426229508,0.5213156352623467,0.0074129637087126145
-0.0001273993442622951,0.5384071623172567,0.006394644939221923
-0.00012737934426229508,0.553152793501914,0.007412963708713078
-0.0001273593442622951,0.585995335685874,0.008770722068035234
-0.00012733934426229507,0.5819737999082569,0.007752403298544389
-0.00012731934426229508,0.5769468801862223,0.009110161657866545
-0.0001272993442622951,0.5967194310928831,0.0074129637087146216
-0.00012727934426229508,0.5829791838526667,0.008091842888374464
-0.00012725934426229509,0.6054327586110883,0.008770722068035542
-0.0001272393442622951,0.6406211966653251,0.008431282478205467
-0.00012721934426229508,0.6516804200538384,0.010128480427358626
-0.0001271993442622951,0.6429670925356451,0.009449601247697548
-0.00012717934426229507,0.654696571887069,0.008431282478206239
-0.00012715934426229508,0.6731286108678545,0.010807359607018932
-0.0001271393442622951,0.6865337301266159,0.010467920017189629
-0.00012711934426229508,0.688879625996912,0.010128480427358626
-0.0001270993442622951,0.705300897088892,0.010467920017189165
-0.0001270793442622951,0.7240680640511536,0.010128480427358935
-0.00012705934426229508,0.7277544718473311,0.011146799196850707
-0.0001270393442622951,0.7213870401994235,0.010807359607020322
-0.00012701934426229507,0.7374731833099359,0.011146799196850707
-0.00012699934426229508,0.7609321420127644,0.011146799196850707
-0.0001269793442622951,0.7418298470690521,0.011486238786681091
-0.00012695934426229508,0.7488675346798863,0.011146799196850707
-0.0001269393442622951,0.785396484660005,0.011825678376511784
-0.00012691934426229507,0.7709859814568584,0.01216511796634325
-0.00012689934426229508,0.7914287883264567,0.013183436735834405
-0.0001268793442622951,0.8001421158446554,0.013522876325665253
-0.00012685934426229508,0.7840559727341451,0.01250455755617348
-0.00012683934426229509,0.7900882764005867,0.01318343673583456
-0.0001268193442622951,0.7823803328268064,0.012504557556174098
-0.00012679934426229508,0.8088554433628607,0.01250455755617348
-0.0001267793442622951,0.8158931309737093,0.012843997146004019
-0.00012675934426229507,0.8279577383066012,0.014541195095157642
-0.00012673934426229508,0.8400223456394845,0.014541195095157642
-0.0001267193442622951,0.8393520896765522,0.015220074274818411
-0.00012669934426229508,0.845384393342996,0.014880634684988335
-0.0001266793442622951,0.8567787447129412,0.014541195095157796
-0.00012665934426229507,0.8792323194713737,0.01454119509515795
-0.00012663934426229508,0.8691784800273042,0.015220074274819029
-0.0001266193442622951,0.8996751263409675,0.014880634684988644
-0.00012659934426229507,0.9144207575256369,0.015898953454480415
-0.00012657934426229509,0.9026912781742227,0.016238393044310958
-0.0001265593442622951,0.9100640937665315,0.015220074274819955
-0.00012653934426229508,0.9073830699147852,0.014880634684988335
-0.0001265193442622951,0.9147558855071027,0.015220074274818874
-0.00012649934426229507,0.9087235818406614,0.014880634684988644
-0.00012647934426229508,0.9080533258777238,0.015559513864649413
-0.0001264593442622951,0.9231340850438206,0.016577832634140876
-0.00012643934426229508,0.9375445882470069,0.01623839304431111
-0.0001264193442622951,0.9469281717281384,0.015559513864650031
-0.0001263993442622951,0.9224638290809183,0.015898953454480107
-0.00012637934426229508,0.9241394689882417,0.01623839304431111
-0.0001263593442622951,0.949944323561353,0.015898953454480568
-0.00012633934426229507,0.9579873951166239,0.015559513864649722
-0.00012631934426229508,0.941901252006113,0.015898953454480263
-0.0001262993442622951,0.9502794515428262,0.015559513864650031
-0.00012627934426229508,0.9579873951166239,0.015220074274819029
-0.0001262593442622951,0.9382148442099542,0.01623839304431065
-0.00012623934426229507,0.9656953386904139,0.016238393044311572
-0.00012621934426229508,0.9656953386904139,0.017256711813802728
-0.0001261993442622951,0.9583225230980997,0.016917272223972806
-0.00012617934426229508,0.9375445882470069,0.015220074274819029
-0.00012615934426229509,0.9305069006361584,0.015898953454480107
-0.0001261393442622951,0.9546361153019106,0.016238393044310802
-0.00012611934426229508,0.9579873951166239,0.01623839304431111
-0.0001260993442622951,0.9620089308942518,0.015559513864650031
-0.00012607934426229507,0.9650250827274757,0.01623839304431111
-0.00012605934426229508,0.9744086662086071,0.015898953454480568
-0.0001260393442622951,0.9677061065792348,0.015898953454480415
-0.00012601934426229508,0.9489389396169574,0.015559513864649722
-0.0001259993442622951,0.9660304666718753,0.016577832634141337
-0.00012597934426229507,0.9546361153019298,0.01691727222397157
-0.00012595934426229508,0.9486038116354882,0.014880634684988335
-0.0001259393442622951,0.9512848354872389,0.014880634684988335
-0.00012591934426229507,0.9331879244879082,0.014541195095157642
-0.00012589934426229509,0.9382148442099428,0.014880634684988181
-0.0001258793442622951,0.9486038116354788,0.01589895345447949
-0.00012585934426229508,0.9653602107089448,0.015559513864649722
-0.0001258393442622951,0.9509497075057787,0.013862315915497027
-0.00012581934426229507,0.9419012520061182,0.014201755505325868
-0.00012579934426229508,0.9693817464865618,0.011825678376513174
-0.0001257793442622951,0.9435768919134747,0.013862315915494403
-0.00012575934426229508,0.9295015166917479,0.011825678376512093
-0.0001257393442622951,0.9351986923767205,0.01352287632566479
-0.0001257193442622951,0.941230996043162,0.013183436735835177
-0.00012569934426229508,0.9231340850438343,0.01250455755617348
-0.0001256793442622951,0.9107343497294822,0.01250455755617348
-0.00012565934426229507,0.9130802455997604,0.013183436735834868
-0.00012563934426229508,0.9000102543224703,0.012504557556173789
-0.0001256193442622951,0.9144207575256238,0.012843997146003865
-0.00012559934426229508,0.9010156382668717,0.01250455755617348
-0.0001255793442622951,0.9137505015626929,0.01250455755617348
-0.00012555934426229507,0.9197828052291286,0.012504557556173017
-0.00012553934426229508,0.8879456469895756,0.0114862387866814
-0.0001255193442622951,0.8936428226745456,0.011825678376511784
-0.00012549934426229508,0.8906266708413286,0.0114862387866814
-0.00012547934426229509,0.8745405277308177,0.010467920017189783
-0.0001254593442622951,0.8768864236010921,0.010807359607019704
-0.00012543934426229508,0.8688433520458352,0.0114862387866814
-0.0001254193442622951,0.8554382327870761,0.010467920017189783
-0.00012539934426229507,0.8329846580286382,0.010807359607020013
-0.00012537934426229508,0.8168985149181273,0.010467920017189474
-0.0001253593442622951,0.8232659465660276,0.010128480427358935
-0.00012533934426229508,0.7961205800670338,0.010128480427358626
-0.0001253193442622951,0.8269523543621798,0.010807359607019704
-0.0001252993442622951,0.8024880117149695,0.010467920017189629
-0.00012527934426229508,0.7830505887897377,0.010128480427358626
-0.0001252593442622951,0.7770182851232987,0.010467920017189011
-0.00012523934426229507,0.7843911007156142,0.009789040837527933
-0.00012521934426229508,0.8061744195110978,0.009789040837527933
-0.0001251993442622951,0.7817100768638834,0.010128480427358318
-0.00012517934426229508,0.7639482938459973,0.009789040837527933
-0.0001251593442622951,0.7478621507354863,0.009789040837527933
-0.00012513934426229507,0.756240350272203,0.00877072206803616
-0.00012511934426229508,0.7468567667910758,0.00944960124769693
-0.0001250993442622951,0.7455162548651962,0.007073524118884546
-0.00012507934426229508,0.7304354956990842,0.008770722068035851
-0.00012505934426229509,0.7153547365329802,0.008091842888374773
-0.0001250393442622951,0.6949119296633749,0.008091842888374464
-0.00012501934426229508,0.7066414090147759,0.008431282478205158
-0.0001249993442622951,0.6962524415892376,0.00775240329854408
-0.00012497934426229507,0.6925660337930725,0.009110161657866545
-0.00012495934426229508,0.6788257865528443,0.008431282478205467
-0.0001249393442622951,0.6687719471087732,0.007073524118883619
-0.00012491934426229508,0.6339186370359745,0.007412963708713078
-0.0001248993442622951,0.6369347888691954,0.007073524118882539
-0.00012487934426229507,0.6329132530915581,0.006394644939220842
-0.00012485934426229508,0.6131407021848885,0.006055205349390303
-0.0001248393442622951,0.6208486457586715,0.006055205349390303
-0.00012481934426229508,0.6047625026481602,0.00571576575955961
-0.00012479934426229509,0.6010760948520014,0.007073524118881767
-0.0001247793442622951,0.5645471448718977,0.007073524118882384
-0.00012475934426229508,0.542763826076371,0.006055205349390303
-0.0001247393442622951,0.5444394659837158,0.006394644939220842
-0.00012471934426229507,0.5219858912252752,0.005376326169728608
-0.00012469934426229508,0.5005377004112703,0.004697446990067838
-0.0001246793442622951,0.5085807719665123,0.0057157657595586836
-0.00012465934426229508,0.49953231646685314,0.004697446990067529
-0.0001246393442622951,0.48009489354165236,0.004018567810406451
-0.0001246193442622951,0.45227927107973104,0.0030002490409149875
-0.00012459934426229508,0.4465820953947305,0.0043580074002368355
-0.0001245793442622951,0.4472523513576685,0.0040185678104062966
-0.00012455934426229507,0.43518774402478005,0.004018567810406142
-0.00012453934426229508,0.404691097711103,0.003679128220575603
-0.0001245193442622951,0.403015457803745,0.0033396886307450638
-0.00012449934426229508,0.3745295793788674,0.003679128220575449
-0.0001244793442622951,0.3695026596568327,0.004358007400236527
-0.00012445934426229507,0.3738593234159168,0.003000249040913753
-0.00012443934426229508,0.34671395691694185,0.002321369861252983
-0.0001244193442622951,0.32627115004733115,0.004358007400234983
-0.00012439934426229508,0.3001311674927204,0.0030002490409140616
-0.00012437934426229509,0.305493215196224,0.002321369861252983
-0.0001243593442622951,0.28236938447487747,0.0023213698612526744
-0.00012433934426229508,0.2830396404377947,0.0023213698612526744
-0.0001243193442622951,0.2646076014570009,0.0023213698612526744
-0.00012429934426229507,0.2642724734755234,0.0006241719120992069
-0.00012427934426229508,0.25187273816117123,0.0016424906815908243
-0.0001242593442622951,0.2448350505503202,0.0013030510917609026
-0.00012423934426229508,0.23880274688386943,0.0009636115019299004
-0.0001242193442622951,0.18618765379323984,0.0009636115019299004
-0.00012419934426229507,0.19624149323727766,0.000963611501929746
-0.00012417934426229508,0.16943125471975937,0.0006241719120992069
-0.0001241593442622951,0.17010151068269702,0.0009636115019295917
-0.00012413934426229507,0.14831819188720413,0.0002847323222685133
-0.00012411934426229509,0.15267485564630087,-0.0003941468573925651
-0.0001240993442622951,0.13256717675817328,-5.470726756248896e-05
-0.00012407934426229508,0.11849180153645153,0.0002847323222685133
-0.0001240593442622951,0.08833028320424346,-0.0010730260370536435
-0.00012403934426229507,0.06587670844579269,-0.0014124656268848
-0.00012401934426229508,0.05414722909438376,-0.0010730260370544152
-0.0001239993442622951,0.045433901576188956,-0.0014124656268846457
-0.00012397934426229508,0.023985710762156665,-0.002430784396377035
-0.0001239593442622951,0.024320838743625645,-0.0014124656268854176
-0.0001239393442622951,0.0028726479296209417,-0.002430784396376109
-0.00012391934426229508,-0.026283486458212938,-0.002430784396377035
-0.0001238993442622951,-0.023937590587930088,-0.002430784396377035
-0.00012387934426229507,-0.02795912636555859,-0.003788542755699809
-0.00012385934426229508,-0.06750422817889803,-0.004127982345530348
-0.0001238393442622951,-0.05711526075338241,-0.003449103165869733
-0.00012381934426229508,-0.08090934743768124,-0.004127982345530502
-0.0001237993442622951,-0.08895241899293671,-0.0037885427556999633
-0.00012377934426229507,-0.1167680414548819,-0.003788542755699809
-0.00012375934426229508,-0.12481111301013736,-0.003788542755699809
-0.0001237393442622951,-0.1150924015475414,-0.003788542755699809
-0.00012371934426229508,-0.13687572034302609,-0.0044674219353611965
-0.00012369934426229509,-0.14089725612065382,-0.0037885427557001177
-0.0001236793442622951,-0.1740749262860694,-0.005146301115021348
-0.00012365934426229508,-0.19217183728543263,-0.00582518029468397
-0.0001236393442622951,-0.2049067005812538,-0.005146301115022892
-0.00012361934426229507,-0.2256846354323457,-0.00582518029468397
-0.00012359934426229508,-0.22836565928409752,-0.005485740704853431
-0.0001235793442622951,-0.2615433294495125,-0.006164619884514047
-0.00012355934426229508,-0.28232126430062876,-0.007182938654006744
-0.0001235393442622951,-0.28098075237475284,-0.0065040594743456664
-0.0001235193442622951,-0.2947209996149741,-0.007861817833666896
-0.00012349934426229508,-0.32923918170630706,-0.007861817833668131
-0.0001234793442622951,-0.3275635417989629,-0.007522378243837747
-0.00012345934426229507,-0.33259046152099836,-0.007522378243837438
-0.00012343934426229508,-0.3650978757234893,-0.008540697013329055
-0.0001234193442622951,-0.35638454820531457,-0.008201257423499133
-0.00012339934426229508,-0.38352991470430625,-0.008201257423498825
-0.0001233793442622951,-0.38352991470430625,-0.008201257423498825
-0.00012335934426229507,-0.38218940277843233,-0.007861817833668131
-0.00012333934426229508,-0.3878865784634023,-0.007861817833668131
-0.0001233193442622951,-0.40497810551831503,-0.0085406970133289
-0.00012329934426229508,-0.4277668082582315,-0.008540697013329518
-0.00012327934426229509,-0.44016654357258367,-0.009898455372651676
-0.0001232593442622951,-0.43513962385055693,-0.008201257423500368
-0.00012323934426229508,-0.45591755870163847,-0.008540697013329518
-0.0001232193442622951,-0.4666416541086458,-0.008880136603160059
-0.00012319934426229507,-0.49479240455205764,-0.009219576192990906
-0.00012317934426229508,-0.49948419629262336,-0.009898455372651984
-0.0001231593442622951,-0.5165757233475355,-0.010916774142143447
-0.00012313934426229508,-0.536683402235699,-0.01057733455231368
-0.0001231193442622951,-0.519256747199312,-0.009219576192991524
-0.00012309934426229507,-0.5326618664580844,-0.010577334552313834
-0.00012307934426229508,-0.5658395366235134,-0.010916774142144373
-0.0001230593442622951,-0.5795797838637351,-0.00989845537265322
-0.00012303934426229508,-0.5963361829372043,-0.01057733455231368
-0.00012301934426229509,-0.6073954063256806,-0.011256213731974758
