samples/acq3449.csv

#Digilent WaveForms Oscilloscope Acquisition
#Device Name: Discovery2
#Serial Number: SN:210321AD996C
#Date Time: 2025-12-07 12:58:42.887
#Sample rate: 5e+07Hz
#Samples: 8192
#Trigger: Source: Channel 1 Type: Edge Condition: Rising Level: 0 V Hyst.: Auto HoldOff: 0 s
#Channel 1: Range: 500 mV/div Offset: 0 V Sample Mode: Average
#Channel 2: Range: 500 mV/div Offset: 0 V Sample Mode: Average
#Wavegen Channel 1: Running
#Mode: Custom
#Type: noisy
#Frequency: 117 kHz
#Period: 8.547008547 us
#Amplitude: 1 V
#Offset: 0 V
#Phase: 0 °

Time (s),Channel 1 (V),Channel 2 (V)
-0.0001289987786259542,-0.521602643069588,0.0016424906815912875
-0.0001289787786259542,-0.5407049380133199,0.0033396886307439835
-0.0001289587786259542,-0.533667250402471,0.0033396886307449094
-0.0001289387786259542,-0.5209323871066556,0.0036791282205752944
-0.0001289187786259542,-0.5122190595884603,0.0033396886307450638
-0.0001288987786259542,-0.4683172940159963,0.003679128220575449
-0.0001288787786259542,-0.45357166283136124,0.004358007400236527
-0.00012885877862595422,-0.44452320733169626,0.004018567810406451
-0.0001288387786259542,-0.4518960229240089,0.004697446990067529
-0.0001288187786259542,-0.4317883440358702,0.003679128220575912
-0.0001287987786259542,-0.42206963257325625,0.0043580074002368355
-0.0001287787786259542,-0.4006214417592417,0.0043580074002368355
-0.00012875877862595422,-0.4046429775368578,0.00469744699006722
-0.0001287387786259542,-0.40330246561098493,0.0043580074002368355
-0.0001287187786259542,-0.3778327390193426,0.0043580074002368355
-0.0001286987786259542,-0.3406335330762442,0.005376326169729225
-0.0001286787786259542,-0.3114773986884564,0.0060552053493899945
-0.0001286587786259542,-0.2890238239300318,0.006734084529051073
-0.0001286387786259542,-0.30745586291081356,0.006055205349390303
-0.0001286187786259542,-0.2963966395223373,0.005376326169729225
-0.00012859877862595422,-0.2997479193370205,0.00639464493922007
-0.0001285787786259542,-0.2910345918188262,0.006394644939220997
-0.0001285587786259542,-0.26489460926424585,0.006394644939220997
-0.0001285387786259542,-0.24277616248727138,0.007412963708713078
-0.0001285187786259542,-0.2417707785428644,0.007412963708713078
-0.00012849877862595421,-0.20892823635891902,0.007752403298543462
-0.0001284787786259542,-0.2039013166368522,0.008431282478205158
-0.0001284587786259542,-0.1961933730630657,0.008091842888374619
-0.0001284387786259542,-0.18479902169309562,0.00775240329854408
-0.0001284187786259542,-0.1492754556573839,0.008431282478205158
-0.0001283987786259542,-0.14458366391682034,0.008091842888374773
-0.0001283787786259542,-0.13888648823184085,0.008431282478205158
-0.0001283587786259542,-0.1241408570472058,0.008431282478205158
-0.00012833877862595422,-0.12447598502866791,0.008431282478205158
-0.0001283187786259542,-0.11006548182549561,0.007752403298543771
-0.0001282987786259542,-0.07353653184537697,0.008431282478204849
-0.0001282787786259542,-0.065493460290093,0.008431282478205467
-0.0001282587786259542,-0.0473965492907764,0.009110161657866236
-0.0001282387786259542,-0.028964510309982747,0.009110161657866545
-0.0001282187786259542,-0.024607846550867285,0.008770722068035851
-0.0001281987786259542,0.009240079577499526,0.00978904083752747
-0.00012817877862595422,0.030353142410050944,0.009789040837527933
-0.0001281587786259542,0.042082621761489726,0.010807359607020013
-0.0001281387786259542,0.04878518139086929,0.010807359607020013
-0.0001281187786259542,0.03705570203945276,0.0114862387866814
-0.0001280987786259542,0.05582286900171555,0.009789040837528705
-0.00012807877862595421,0.07693593183426012,0.011146799196849471
-0.0001280587786259542,0.08631951531541499,0.0114862387866814
-0.0001280387786259542,0.1057569382406157,0.011825678376511939
-0.0001280187786259542,0.11581077768471142,0.011825678376511939
-0.0001279987786259542,0.14429665610957457,0.0114862387866814
-0.0001279787786259542,0.15669639142392114,0.011825678376511784
-0.0001279587786259542,0.16507459096066068,0.01250455755617348
-0.0001279387786259542,0.1955712372743377,0.013522876325665099
-0.00012791877862595422,0.21433840423660583,0.012843997146004791
-0.0001278987786259542,0.2099817404775242,0.013183436735834868
-0.0001278787786259542,0.21567891616249682,0.013183436735834868
-0.0001278587786259542,0.219700451940129,0.013522876325665562
-0.0001278387786259542,0.22774352349538446,0.0138623159154961
-0.00012781877862595421,0.2354514670691711,0.014880634684987409
-0.0001277987786259542,0.2780127207157578,0.014201755505326949
-0.0001277787786259542,0.29443399180773766,0.014541195095157488
-0.0001277587786259542,0.3041527032703559,0.014201755505327257
-0.0001277387786259542,0.31722269454764607,0.014880634684988335
-0.0001277187786259542,0.31387141473295777,0.014880634684988335
-0.0001276987786259542,0.345373444991053,0.015220074274819029
-0.0001276787786259542,0.3574380523239362,0.015220074274819029
-0.00012765877862595422,0.39597777019285674,0.015898953454479798
-0.0001276387786259542,0.39262649037820047,0.01623839304431111
-0.0001276187786259542,0.3792213711194413,0.01623839304431111
-0.0001275987786259542,0.39329674634114936,0.015898953454480877
-0.0001275787786259542,0.4167557050439672,0.016917272223972032
-0.0001275587786259542,0.4284851843953868,0.016917272223972497
-0.0001275387786259542,0.447922607320607,0.01623839304431111
-0.0001275187786259542,0.45630080685733143,0.017256711813802728
-0.00012749877862595422,0.4673600302458065,0.01725671181380319
-0.0001274787786259542,0.4904838609671866,0.017935590993464576
-0.0001274587786259542,0.5052294921518217,0.017256711813803498
-0.0001274387786259542,0.5162887155403096,0.017935590993464576
-0.0001274187786259542,0.5035538522444885,0.018953909762956196
-0.00012739877862595421,0.5156184595773604,0.017935590993465502
-0.0001273787786259542,0.5410881861690253,0.018614470173125966
-0.0001273587786259542,0.5585148412054123,0.01963278894261758
-0.0001273387786259542,0.5615309930386531,0.01861447017312612
-0.0001273187786259542,0.5853250797229506,0.018953909762956658
-0.0001272987786259542,0.5799630320194494,0.019972228532447813
-0.0001272787786259542,0.5953789191670246,0.019632788942618044
-0.0001272587786259542,0.5980599430187763,0.020311668122279122
-0.00012723877862595422,0.6386104287765055,0.02031166812227943
-0.0001272187786259542,0.6389455567580115,0.01997222853244874
-0.0001271987786259542,0.6365996608877287,0.02031166812227928
-0.0001271787786259542,0.6476588842762168,0.021669426481601743
-0.0001271587786259542,0.6650855393125958,0.020651107712110588
-0.00012713877862595421,0.6603937475720401,0.020651107712110126
-0.0001271187786259542,0.6778204026084307,0.020990547301940818
-0.0001270987786259542,0.6885444980154379,0.02065110771211028
-0.00012707877862595422,0.6872039860895676,0.02099054730194051
-0.0001270587786259542,0.7086521769035907,0.022348305661263595
-0.0001270387786259542,0.7173655044217802,0.022348305661263595
-0.0001270187786259542,0.7210519122179485,0.02302718484092498
-0.0001269987786259542,0.7314408796434868,0.020990547301941744
-0.00012697877862595422,0.7559052222907159,0.022687745251092743
-0.0001269587786259542,0.776012901178886,0.022348305661263595
-0.0001269387786259542,0.7689752135680374,0.022348305661263595
-0.0001269187786259542,0.7756777731974308,0.02200886607143321
-0.0001268987786259542,0.8065095474925629,0.022687745251093978
-0.0001268787786259542,0.8112013392331404,0.023366624430755056
-0.0001268587786259542,0.819579538769873,0.02302718484092498
-0.0001268387786259542,0.8014826277705481,0.02268774525109444
-0.00012681877862595422,0.8085203153813852,0.023706064020585442
-0.0001267987786259542,0.837676449769206,0.02302718484092498
-0.0001267787786259542,0.8296333782139506,0.02302718484092498
-0.0001267587786259542,0.8336549139915764,0.023366624430755673
-0.0001267387786259542,0.8356656818803904,0.02472438279007783
-0.00012671877862595421,0.851416697009426,0.024045503610417678
-0.0001266987786259542,0.8664974561755513,0.024724382790078447
-0.0001266787786259542,0.8651569442496753,0.025403261969739525
-0.0001266587786259542,0.8956535905633581,0.024724382790078447
-0.0001266387786259542,0.8792323194713783,0.024724382790078447
-0.0001266187786259542,0.8782269355269717,0.025403261969739216
-0.0001265987786259542,0.8872753910266373,0.02404550361041706
-0.0001265787786259542,0.8711892479161264,0.023027184840925446
-0.00012655877862595422,0.8852646231378098,0.024724382790076903
-0.0001265387786259542,0.8946482066189583,0.02404550361041706
-0.0001265187786259542,0.9207881891735386,0.02370606402058652
-0.0001264987786259542,0.9341933084323107,0.024384943200248064
-0.0001264787786259542,0.9234692130253084,0.025063822379908833
-0.0001264587786259542,0.9305069006361487,0.025403261969739525
-0.0001264387786259542,0.9455876598022661,0.024724382790078447
-0.0001264187786259542,0.9579873951166182,0.02506382237990899
-0.00012639877862595422,0.9459227877837462,0.023366624430757217
-0.0001263787786259542,0.9154261414700443,0.024724382790078447
-0.0001263587786259542,0.9227989570623618,0.024384943200247908
-0.0001263387786259542,0.9345284364137848,0.02404550361041706
-0.0001263187786259542,0.916766653395929,0.024384943200247602
-0.00012629877862595421,0.9150910134885768,0.02404550361041737
-0.0001262787786259542,0.94022561209876,0.02404550361041706
-0.0001262587786259542,0.9455876598022637,0.025403261969739216
-0.0001262387786259542,0.9519550914501796,0.025063822379909294
-0.0001262187786259542,0.9522902194316486,0.02540326196973968
-0.0001261987786259542,0.95765226713515,0.02438494320024868
-0.0001261787786259542,0.9596630350239695,0.024724382790078447
-0.0001261587786259542,0.9586576510795626,0.02506382237990899
-0.00012613877862595422,0.9576522671351557,0.024724382790078756
-0.0001261187786259542,0.9496091955798956,0.02404550361041706
-0.0001260987786259542,0.9589927790610271,0.02506382237990868
-0.0001260787786259542,0.9650250827274757,0.024724382790078447
-0.0001260587786259542,0.9620089308942549,0.02336662443075629
-0.00012603877862595421,0.974743794190069,0.024045503610416442
-0.0001260187786259542,0.9670358506162905,0.024724382790078447
-0.0001259987786259542,0.9539658593390004,0.024384943200247908
-0.0001259787786259542,0.9583225230980961,0.024045503610417678
-0.0001259587786259542,0.9650250827274757,0.025403261969739833
-0.0001259387786259542,0.9754140501530093,0.02506382237990945
-0.0001259187786259542,0.9677061065792287,0.024724382790078447
-0.0001258987786259542,0.9713925143753875,0.02370606402058683
-0.00012587877862595422,0.9589927790610426,0.02472438279007752
-0.0001258587786259542,0.9656953386904139,0.023366624430755673
-0.0001258387786259542,0.93419330843233,0.02404550361041675
-0.0001258187786259542,0.9506145795243036,0.02404550361041752
-0.0001257987786259542,0.951955091450179,0.02506382237990868
-0.0001257787786259542,0.9630143148386507,0.024384943200248373
-0.0001257587786259542,0.9573171391536857,0.025063822379909142
-0.0001257387786259542,0.9419012520061126,0.023027184840925908
-0.00012571877862595422,0.9274907488029461,0.024045503610416134
-0.0001256987786259542,0.9201179332106122,0.02404550361041706
-0.0001256787786259542,0.9244745969697089,0.023027184840925446
-0.0001256587786259542,0.9244745969697109,0.023366624430755673
-0.0001256387786259542,0.9271556208214626,0.023027184840925134
-0.00012561877862595421,0.9335230524693716,0.02302718484092498
-0.0001255987786259542,0.9191125492662048,0.022687745251094286
-0.0001255787786259542,0.9010156382668799,0.023706064020585907
-0.0001255587786259542,0.897664358452184,0.02370606402058606
-0.0001255387786259542,0.9053723020259704,0.02302718484092498
-0.0001255187786259542,0.884929495156372,0.022687745251094595
-0.0001254987786259542,0.8805728313972547,0.022348305661263595
-0.0001254787786259542,0.8718595038790613,0.022687745251094134
-0.00012545877862595422,0.847395161231833,0.022348305661263904
-0.0001254387786259542,0.8698487359902426,0.0220088660714329
-0.0001254187786259542,0.8829187272675326,0.022687745251093978
-0.0001253987786259542,0.845384393342996,0.020990547301940818
-0.0001253787786259542,0.8624759203979139,0.020990547301940818
-0.00012535877862595421,0.8628110483793905,0.02031166812228005
-0.0001253387786259542,0.8420331135283047,0.020651107712110126
-0.0001253187786259542,0.8286279942695456,0.020651107712110126
-0.00012529877862595422,0.8246064584919136,0.020651107712110126
-0.0001252787786259542,0.819579538769873,0.02031166812227943
-0.0001252587786259542,0.8162282589551846,0.02031166812227943
-0.0001252387786259542,0.783720844752676,0.018614470173125966
-0.0001252187786259542,0.7716562374197927,0.018614470173125966
-0.00012519877862595422,0.7726616213641938,0.018614470173125966
-0.0001251787786259542,0.7672995736606886,0.018614470173125966
-0.0001251587786259542,0.7780236690676958,0.017596151403634346
-0.0001251387786259542,0.746856766791077,0.01691727222397265
-0.0001251187786259542,0.7589213741239549,0.017256711813803036
-0.0001250987786259542,0.7545647103648656,0.01725671181380319
-0.0001250787786259542,0.7381434392728742,0.017596151403633884
-0.0001250587786259542,0.7026198732371625,0.01522007427482011
-0.00012503877862595422,0.6875391140710492,0.015220074274819029
-0.0001250187786259542,0.688879625996912,0.014541195095157642
-0.0001249987786259542,0.6999388493853883,0.014880634684988181
-0.0001249787786259542,0.6801662984787146,0.015898953454480415
-0.0001249587786259542,0.6677665631643624,0.01420175550532772
-0.00012493877862595421,0.6489993962021026,0.014201755505326949
-0.0001249187786259542,0.6406211966653571,0.014201755505326949
-0.0001248987786259542,0.6443076044615159,0.014201755505326949
-0.0001248787786259542,0.6396158127209494,0.012843997146003865
-0.0001248587786259542,0.6386104287765424,0.012165117966342787
-0.0001248387786259542,0.6379401728136047,0.012165117966342787
-0.0001248187786259542,0.6007409668705306,0.011825678376512093
-0.0001247987786259542,0.5926978953152752,0.011825678376512093
-0.00012477877862595422,0.5796279040379873,0.011146799196851324
-0.0001247587786259542,0.5746009843159384,0.011825678376512093
-0.0001247387786259542,0.5477907457984201,0.011146799196851015
-0.0001247187786259542,0.5514771535945607,0.011146799196850707
-0.0001246987786259542,0.5347207545211196,0.011146799196850707
-0.0001246787786259542,0.5420935701134261,0.011486238786681091
-0.0001246587786259542,0.5109266678368036,0.00944960124769724
-0.0001246387786259542,0.49249462885600975,0.010128480427358318
-0.00012461877862595422,0.47741386968990424,0.010467920017189011
-0.0001245987786259542,0.46400875043112527,0.00944960124769724
-0.0001245787786259542,0.4482577353020833,0.010467920017188857
-0.0001245587786259542,0.4532846550241131,0.009789040837527933
-0.0001245387786259542,0.4150800651366496,0.008091842888375236
-0.00012451877862595421,0.40402084174816094,0.008770722068035234
-0.0001244987786259542,0.39262649037820047,0.00944960124769724
-0.0001244787786259542,0.4063667376184285,0.007752403298544543
-0.0001244587786259542,0.3829077789155821,0.007752403298543771
-0.0001244387786259542,0.35308138856485655,0.007752403298543771
-0.0001244187786259542,0.3413519092134341,0.007752403298543771
-0.0001243987786259542,0.3420221651763617,0.007073524118882384
-0.0001243787786259542,0.3423572931578307,0.009110161657865618
-0.00012435877862595422,0.3222496142697013,0.007752403298545006
-0.0001243387786259542,0.2971150156594982,0.006734084529051691
-0.0001243187786259542,0.28270451245633216,0.007412963708712769
-0.0001242987786259542,0.2522078661426347,0.006394644939220997
-0.0001242787786259542,0.246845818439131,0.006055205349390458
-0.00012425877862595421,0.2304245473471561,0.007073524118881458
-0.0001242387786259542,0.23277044321742507,0.006055205349390303
-0.0001242187786259542,0.21098712442194148,0.005715765759559764
-0.0001241987786259542,0.18384175792292895,0.00571576575955961
-0.0001241787786259542,0.17713919829354938,0.00571576575955961
-0.0001241587786259542,0.18116073407117528,0.0060552053493899945
-0.0001241387786259542,0.1533451116092411,0.0053763261697289165
-0.0001241187786259542,0.1520045996833652,0.0060552053493899945
-0.00012409877862595422,0.13826435244314272,0.006394644939220688
-0.0001240787786259542,0.1117892419070689,0.005036886579898223
-0.0001240587786259542,0.08967079513011635,0.005036886579898223
-0.0001240387786259542,0.09704361072241617,0.0046974469900681465
-0.0001240187786259542,0.07291439605666071,0.006055205349389686
-0.0001239987786259542,0.048785181390894286,0.00367912822057761
-0.0001239787786259542,0.019293919021588835,0.003679128220575449
-0.0001239587786259542,0.004548287836953791,0.004018567810405988
-0.00012393877862595422,0.006223927744291215,0.004697446990066911
-0.0001239187786259542,0.008234695633107523,0.005036886579898223
-0.0001238987786259542,0.0011970080222589797,0.005036886579898223
-0.0001238787786259542,-0.0225970786620525,0.00571576575955961
-0.0001238587786259542,-0.01723503095854885,0.005036886579898532
-0.00012383877862595421,-0.03700758186520714,0.005036886579898223
-0.0001238187786259542,-0.04873706121664469,0.004018567810406142
-0.0001237987786259542,-0.08794703504851516,0.0030002490409145248
-0.0001237787786259542,-0.08861729101148025,0.004018567810405988
-0.0001237587786259542,-0.10838984191814996,0.003679128220575449
-0.0001237387786259542,-0.13285418456537423,0.005036886579896988
-0.0001237187786259542,-0.15530775932382826,0.005036886579898223
-0.0001236987786259542,-0.16301570289761477,0.0016424906815928311
-0.00012367877862595422,-0.1760856941749025,-0.0003941468573910214
-0.0001236587786259542,-0.19887439691481526,-0.002430784396377035
-0.0001236387786259542,-0.20356618865538095,-0.0014124656268854176
-0.0001236187786259542,-0.21663617993267917,-0.0014124656268849544
-0.0001235987786259542,-0.21764156387708614,-0.0031096635760376502
-0.00012357877862595421,-0.2504841060610315,-0.0037885427556991914
-0.0001235587786259542,-0.2343979629505431,-0.0027702239862077284
-0.0001235387786259542,-0.25148949000546095,-0.003109663576038268
-0.00012351877862595422,-0.2612082014680647,-0.0024307843963776526
-0.0001234987786259542,-0.29405074365204836,-0.003109663576038422
-0.0001234787786259542,-0.2890238239300159,-0.0034491031658688068
-0.0001234587786259542,-0.30410458309612226,-0.0034491031658691156
-0.0001234387786259542,-0.3278986697804197,-0.0037885427556996545
-0.00012341877862595422,-0.3590655720570313,-0.0034491031658694243
-0.0001233987786259542,-0.3831947867228371,-0.00582518029468397
-0.0001233787786259542,-0.3986106738704101,-0.004806861525192353
-0.0001233587786259542,-0.3986106738704247,-0.0048068615251917355
-0.0001233387786259542,-0.41536707294386604,-0.004467421935361351
-0.0001233187786259542,-0.4327937279802526,-0.005825180294682735
-0.0001232987786259542,-0.43815577568377456,-0.00480686152519189
-0.0001232787786259542,-0.42810193623970516,-0.005485740704852968
-0.00012325877862595422,-0.4411719275169848,-0.005146301115022892
-0.0001232387786259542,-0.46664165410865066,-0.005485740704853277
-0.0001232187786259542,-0.4743495976824372,-0.005485740704853277
-0.0001231987786259542,-0.48641420501532934,-0.006504059474345358
-0.0001231787786259542,-0.5065218839034681,-0.006164619884514819
-0.00012315877862595421,-0.5182513632548861,-0.006164619884514664
-0.0001231387786259542,-0.5242836669213411,-0.006843499064176051
-0.0001231187786259542,-0.527299818754562,-0.006164619884514973
-0.0001230987786259542,-0.5343375063654345,-0.006843499064176669
-0.0001230787786259542,-0.5772338879934638,-0.008201257423498825
-0.0001230587786259542,-0.5896336233078103,-0.007182938654007671
-0.0001230387786259542,-0.5799149118452168,-0.007861817833668131
-0.0001230187786259542,-0.5805851678081547,-0.007861817833668131
-0.00012299877862595422,-0.5926497751410328,-0.006843499064176977
-0.0001229787786259542,-0.6167789898068212,-0.0095590157828216
-0.0001229587786259542,-0.6134277099921315,-0.008201257423499442
-0.0001229387786259542,-0.6368866686949722,-0.008540697013329364
-0.0001229187786259542,-0.6439243563058176,-0.008201257423498979
