samples/acq3443.csv

#Digilent WaveForms Oscilloscope Acquisition
#Device Name: Discovery2
#Serial Number: SN:210321AD996C
#Date Time: 2025-12-07 12:58:41.104
#Sample rate: 5e+07Hz
#Samples: 8192
#Trigger: Source: Channel 1 Type: Edge Condition: Rising Level: 0 V Hyst.: Auto HoldOff: 0 s
#Channel 1: Range: 500 mV/div Offset: 0 V Sample Mode: Average
#Channel 2: Range: 500 mV/div Offset: 0 V Sample Mode: Average
#Wavegen Channel 1: Running
#Mode: Custom
#Type: noisy
#Frequency: 117 kHz
#Period: 8.547008547 us
#Amplitude: 1 V
#Offset: 0 V
#Phase: 0 °

Time (s),Channel 1 (V),Channel 2 (V)
-0.00012899044776119403,-0.5484128815871185,-0.0017519052167156478
-0.00012897044776119401,-0.5306510985692501,-0.0003941468573931825
-0.00012895044776119403,-0.5256241788472046,-0.0007335864472235673
-0.00012893044776119404,-0.4968031724408855,-0.0007335864472235673
-0.00012891044776119405,-0.46127960640517685,-5.470726756279774e-05
-0.00012889044776119403,-0.4498852550351941,0.0013030510917605939
-0.000128870447761194,-0.4405016715540554,-0.0003941468573922563
-0.00012885044776119402,-0.43715039173935616,0.00028473232226897637
-0.00012883044776119403,-0.4130211770735897,0.0013030510917605939
-0.00012881044776119404,-0.41905348074003135,-5.470726756156294e-05
-0.00012879044776119403,-0.4049781055183306,0.0013030510917605939
-0.000128770447761194,-0.4123509211106204,0.000963611501930209
-0.00012875044776119402,-0.3781678670007928,0.0013030510917607483
-0.00012873044776119403,-0.36208172389028187,0.0016424906815912875
-0.00012871044776119404,-0.33962814913186035,0.002660809451082905
-0.00012869044776119402,-0.31516380648459336,0.0016424906815912875
-0.00012867044776119403,-0.29271023172618205,0.0016424906815912875
-0.00012865044776119402,-0.28567254411531806,0.0019819302714218267
-0.00012863044776119403,-0.28131588035622135,0.0016424906815912875
-0.00012861044776119404,-0.27930511246740747,0.002660809451082905
-0.00012859044776119405,-0.2793051124674066,0.0019819302714225986
-0.00012857044776119403,-0.2799753684303449,0.0030002490409140616
-0.00012855044776119402,-0.26355409733833185,0.0023213698612526744
-0.00012853044776119403,-0.2354033468949505,0.0023213698612526744
-0.00012851044776119404,-0.22199822763619137,0.003000249040913753
-0.00012849044776119405,-0.20356618865539985,0.0036791282205748312
-0.00012847044776119403,-0.18479902169311177,0.004018567810406142
-0.000128450447761194,-0.18077748591547915,0.0036791282205748312
-0.00012843044776119402,-0.17742620610079074,0.003000249040914216
-0.00012841044776119403,-0.17709107811932176,0.003339688630744755
-0.00012839044776119404,-0.14089725612068857,0.005036886579896679
-0.00012837044776119403,-0.13218392860245826,0.0043580074002368355
-0.000128350447761194,-0.09498472265937773,0.005036886579897606
-0.00012833044776119402,-0.08727677908559899,0.00435800740023699
-0.00012831044776119403,-0.09666036256673038,0.004697446990067529
-0.00012829044776119404,-0.08023909147475045,0.004697446990067529
-0.00012827044776119402,-0.06247730845687478,0.006055205349390303
-0.00012825044776119404,-0.05309372497574766,0.006055205349390303
-0.00012823044776119402,-0.05175321304985361,0.006394644939221151
-0.00012821044776119403,-0.0225970786620525,0.006734084529051691
-0.00012819044776119404,0.004213159855465765,0.006055205349390612
-0.00012817044776119405,0.031023398372984026,0.0074129637087118425
-0.00012815044776119403,0.02096955892893449,0.007412963708713078
-0.00012813044776119402,0.03940159790975557,0.007412963708711534
-0.00012811044776119403,0.06017953276082278,0.00571576575955961
-0.00012809044776119404,0.09134643503743776,0.007073524118881767
-0.00012807044776119405,0.10073001851857906,0.008770722068034307
-0.00012805044776119403,0.10776770612943934,0.006394644939220997
-0.000128030447761194,0.13457794464697712,0.0077524032985431535
-0.00012801044776119402,0.14262101620222586,0.007073524118882384
-0.00012799044776119403,0.13591845657284632,0.007073524118882384
-0.00012797044776119404,0.15837203133125763,0.007073524118882384
-0.00012795044776119403,0.18987406158937636,0.007073524118882384
-0.000127930447761194,0.17378791847888034,0.007752403298543771
-0.00012791044776119402,0.19825226112611405,0.007752403298543617
-0.00012789044776119403,0.21903019597719073,0.007412963708713078
-0.00012787044776119404,0.24550530651324,0.007412963708713078
-0.00012785044776119403,0.24550530651325206,0.008091842888374464
-0.00012783044776119404,0.25991580971641814,0.008770722068035542
-0.00012781044776119402,0.26393734549406117,0.007752403298543771
-0.00012779044776119403,0.27901810466016513,0.007752403298543771
-0.00012777044776119404,0.2947691197892071,0.00809184288837431
-0.00012775044776119402,0.3219144862882171,0.007412963708714158
-0.00012773044776119403,0.3289521738990656,0.009789040837527933
-0.00012771044776119402,0.3269414060102644,0.008431282478204695
-0.00012769044776119403,0.3567677963610035,0.007412963708713078
-0.00012767044776119404,0.38089701102676987,0.008770722068035234
-0.00012765044776119405,0.3929616183596586,0.009110161657866236
-0.00012763044776119403,0.38759957065616346,0.008091842888374464
-0.00012761044776119401,0.3999993059705503,0.0080918428883757
-0.00012759044776119402,0.4318364642100886,0.00944960124769693
-0.00012757044776119403,0.43150133622861975,0.00877072206803616
-0.00012755044776119405,0.4428956875985597,0.009110161657866236
-0.00012753044776119403,0.4475874793391379,0.008431282478205158
-0.000127510447761194,0.4415551756727231,0.008770722068036777
-0.00012749044776119402,0.4740625898751986,0.009789040837527779
-0.00012747044776119403,0.4727220779493227,0.00944960124769724
-0.00012745044776119404,0.4918243728930545,0.009110161657866699
-0.00012743044776119403,0.5075753880221123,0.00944960124769724
-0.00012741044776119404,0.5008728283927326,0.00944960124769724
-0.00012739044776119402,0.5327099866323118,0.009789040837528396
-0.00012737044776119403,0.5652174008348028,0.010807359607020013
-0.00012735044776119404,0.5695740645938995,0.010128480427358935
-0.00012733044776119402,0.5732604723900643,0.009789040837528087
-0.00012731044776119403,0.578622520093568,0.010128480427358626
-0.00012729044776119402,0.5977248150373191,0.010128480427358935
-0.00012727044776119403,0.6211837737401475,0.010807359607020013
-0.00012725044776119404,0.6392806847394724,0.010807359607020013
-0.00012723044776119405,0.644307604461513,0.011146799196850398
-0.00012721044776119403,0.6422968365727028,0.01046792001718932
-0.00012719044776119401,0.6392806847394953,0.010467920017188702
-0.00012717044776119403,0.6553668278500078,0.009789040837529014
-0.00012715044776119404,0.6748042507751996,0.012165117966341706
-0.00012713044776119405,0.6627396434423308,0.011486238786682017
-0.00012711044776119403,0.6945768016818872,0.0114862387866814
-0.000127090447761194,0.6996037214039302,0.01250455755617348
-0.00012707044776119402,0.7063062810333071,0.012504557556173171
-0.00012705044776119403,0.7069765369962451,0.011825678376512093
-0.00012703044776119404,0.7250734479955616,0.013183436735833633
-0.00012701044776119403,0.732446263587899,0.01250455755617348
-0.000126990447761194,0.7656239337533237,0.013183436735834251
-0.00012697044776119402,0.7445108709207967,0.012504557556173943
-0.00012695044776119403,0.7642834218274663,0.013522876325665562
-0.00012693044776119404,0.7750075172344737,0.0138623159154961
-0.00012691044776119402,0.8085203153813921,0.013862315915496564
-0.00012689044776119403,0.8095256993257985,0.014541195095157333
-0.00012687044776119402,0.8004772438261407,0.01386231591549641
-0.00012685044776119403,0.8185741548254656,0.014201755505326949
-0.00012683044776119404,0.8065095474925823,0.014201755505326949
-0.00012681044776119405,0.7977962199743873,0.01352287632566618
-0.00012679044776119403,0.8101959552887373,0.014201755505326949
-0.00012677044776119402,0.8189092828069554,0.01522007427481872
-0.00012675044776119403,0.8416979855468356,0.014880634684988335
-0.00012673044776119404,0.8571138726944086,0.014541195095157796
-0.00012671044776119405,0.8671677121384804,0.014880634684988027
-0.00012669044776119403,0.8718595038790573,0.015220074274819029
-0.000126670447761194,0.8923023107486584,0.01623839304431142
-0.00012665044776119402,0.8748756557122918,0.016577832634141955
-0.00012663044776119403,0.9016858942298099,0.016917272223972497
-0.00012661044776119404,0.9016858942298099,0.01657783263414211
-0.00012659044776119403,0.891632054785736,0.01623839304431111
-0.000126570447761194,0.8939779506560325,0.01759615140363512
-0.00012655044776119402,0.9077181978962584,0.01895390976295635
-0.00012653044776119403,0.9167666533959209,0.01827503058329527
-0.00012651044776119404,0.9415661240246251,0.01895390976295635
-0.00012649044776119402,0.9499443235613669,0.018614470173126427
-0.00012647044776119404,0.9546361153019305,0.01963278894261758
-0.00012645044776119402,0.9626791868571912,0.019632788942618044
-0.00012643044776119403,0.9613386749313152,0.019632788942618044
-0.00012641044776119404,0.9532956033760598,0.019293349352787505
-0.00012639044776119405,0.9251448529326748,0.019632788942617736
-0.00012637044776119403,0.9211233171550195,0.019293349352787353
-0.00012635044776119402,0.9295015166917496,0.018953909762957893
-0.00012633044776119403,0.9315122845805626,0.02031166812227943
-0.00012631044776119404,0.955641499246329,0.02031166812227943
-0.00012629044776119405,0.9281610047658962,0.019632788942618662
-0.00012627044776119403,0.9321825405435008,0.02031166812227943
-0.00012625044776119401,0.9412309960431692,0.02099054730193989
-0.00012623044776119402,0.9432417639319809,0.0199722285324492
-0.00012621044776119403,0.9402256120987613,0.020990547301940353
-0.00012619044776119404,0.9452525318207924,0.020651107712110435
-0.00012617044776119403,0.9543009873204635,0.021669426481602205
-0.000126150447761194,0.9378797162284737,0.020311668122280666
-0.00012613044776119402,0.9351986923767288,0.021669426481602052
-0.00012611044776119403,0.94793355567255,0.021329986891771513
-0.00012609044776119404,0.9740735382271303,0.02099054730194097
-0.00012607044776119403,0.9831219937268088,0.020990547301940818
-0.00012605044776119404,0.9680412345607047,0.02065110771211028
-0.00012603044776119402,0.9663655946533473,0.0220088660714329
-0.00012601044776119403,0.95564149924634,0.0220088660714329
-0.00012599044776119404,0.9603332909869057,0.020990547301941283
-0.00012597044776119402,0.9767545620788936,0.020311668122279893
-0.00012595044776119403,0.9730681542827349,0.021329986891771513
-0.00012593044776119402,0.9576522671351609,0.02031166812227943
-0.00012591044776119403,0.97105738639392,0.02031166812227943
-0.00012589044776119404,0.9690466185051061,0.020651107712109974
-0.00012587044776119405,0.9730681542827312,0.020651107712110126
-0.00012585044776119403,0.9509497075057721,0.019632788942618044
-0.00012583044776119401,0.964354826764549,0.020311668122277887
-0.00012581044776119402,0.9770896900603484,0.018614470173126427
-0.00012579044776119403,0.9419012520061216,0.01963278894261758
-0.00012577044776119405,0.9529604753945768,0.01929334935278766
-0.00012575044776119403,0.927490748802933,0.018614470173125966
-0.000125730447761194,0.9164315254144535,0.018614470173126275
-0.00012571044776119402,0.9184422933032572,0.018953909762956196
-0.00012569044776119403,0.8979994864336496,0.017935590993464576
-0.00012567044776119404,0.9147558855070984,0.017935590993464576
-0.00012565044776119403,0.9221287010994269,0.017935590993464576
-0.000125630447761194,0.9157612694515217,0.017256711813803807
-0.00012561044776119402,0.9248097249511812,0.017935590993463958
-0.00012559044776119403,0.927490748802933,0.016577832634141802
-0.00012557044776119404,0.9036966621186355,0.015898953454480724
-0.00012555044776119402,0.9063776859703773,0.014880634684987872
-0.00012553044776119403,0.9050371740445012,0.013862315915496255
-0.00012551044776119402,0.8876105190081003,0.014541195095157796
-0.00012549044776119403,0.8738702717678721,0.014880634684988335
-0.00012547044776119404,0.8728648878234652,0.01352287632566618
-0.00012545044776119405,0.8795674474528412,0.012504557556174406
-0.00012543044776119403,0.8809079593787239,0.013522876325665562
-0.00012541044776119401,0.862140792416451,0.013183436735834868
-0.00012539044776119403,0.8604651525091069,0.013183436735834868
-0.00012537044776119404,0.8463897772874098,0.013183436735834868
-0.00012535044776119405,0.8450492653615281,0.013183436735834868
-0.00012533044776119403,0.8081851873999225,0.013183436735834868
-0.000125310447761194,0.8138823630849054,0.012165117966343713
-0.00012529044776119402,0.8222605626216215,0.013183436735834251
-0.00012527044776119403,0.8125418511590212,0.011825678376512093
-0.00012525044776119404,0.7853964846600463,0.011486238786681709
-0.00012523044776119403,0.7776885410862316,0.011146799196850707
-0.000125210447761194,0.7890828924561518,0.011486238786682017
-0.00012519044776119402,0.7559052222907335,0.012165117966342632
-0.00012517044776119403,0.7458513828466642,0.011825678376512093
-0.00012515044776119404,0.7223924241438358,0.010467920017189937
-0.00012513044776119402,0.7311057516620302,0.010807359607019859
-0.00012511044776119403,0.7481972787169403,0.010467920017189474
-0.00012509044776119402,0.7538944544019103,0.01012848042735909
-0.00012507044776119403,0.725073447995578,0.011146799196850707
-0.00012505044776119404,0.697592953515122,0.010807359607020168
-0.00012503044776119405,0.6915606498486705,0.010128480427359244
-0.00012501044776119403,0.6882093700339738,0.010128480427358626
-0.00012499044776119402,0.6691070750902247,0.009110161657867471
-0.00012497044776119403,0.6597234916090976,0.010128480427358626
-0.00012495044776119404,0.6349240209803932,0.009110161657867008
-0.00012493044776119405,0.6422968365726961,0.00944960124769693
-0.00012491044776119403,0.6245350535548388,0.009789040837527933
-0.000124890447761194,0.621854029703101,0.008431282478205775
-0.00012487044776119402,0.6386104287765245,0.009110161657865927
-0.00012485044776119403,0.5994004549446541,0.007752403298543771
-0.00012483044776119404,0.6027517347593424,0.008091842888374156
-0.00012481044776119403,0.5926978953152715,0.008091842888374464
-0.000124790447761194,0.5836494398155815,0.00775240329854408
-0.00012477044776119402,0.5578445852424765,0.008091842888374001
-0.00012475044776119403,0.5457799779095932,0.007073524118882384
-0.00012473044776119404,0.5437692100207793,0.008091842888374001
-0.00012471044776119403,0.5172940994847172,0.008431282478204849
-0.00012469044776119404,0.5176292274661861,0.00775240329854408
-0.00012467044776119402,0.5186346114105786,0.00707352411888223
-0.00012465044776119403,0.4857920692266188,0.006734084529051691
-0.00012463044776119404,0.4891433490413086,0.006394644939221151
-0.00012461044776119405,0.4841164293192777,0.007073524118881767
-0.00012459044776119403,0.46467900639406357,0.00571576575955961
-0.00012457044776119402,0.4599872146534925,0.006734084529051845
-0.00012455044776119403,0.45294952704264396,0.007073524118882384
-0.00012453044776119404,0.41776108898840125,0.006734084529051845
-0.00012451044776119405,0.37888624313800146,0.005036886579899767
-0.00012449044776119403,0.38056188304531174,0.005036886579898223
-0.00012447044776119401,0.3664865078236177,0.004358007400238688
-0.00012445044776119402,0.37687547524915394,0.00639464493922007
-0.00012443044776119403,0.3825726509341239,0.004358007400237762
-0.00012441044776119404,0.3510706206760569,0.00537632616972799
-0.00012439044776119403,0.31186064684413994,0.004697446990067529
-0.000124370447761194,0.30515808721475796,0.003000249040915914
-0.00012435044776119402,0.305828343177698,0.005036886579896834
-0.00012433044776119403,0.3111903908812017,0.001981930271421981
-0.00012431044776119404,0.2739911849381451,0.004018567810405216
-0.00012429044776119403,0.2662832413643382,0.003339688630744755
-0.00012427044776119404,0.22104096386602606,0.002660809451083677
-0.00012425044776119402,0.20897635653311558,0.0030002490409132897
-0.00012423044776119403,0.20629533268136374,0.0013030510917605939
-0.00012421044776119404,0.21835994001424697,0.0013030510917605939
-0.00012419044776119402,0.20394943681107372,0.001981930271421981
-0.00012417044776119403,0.1905443175523146,0.001981930271421981
-0.00012415044776119402,0.15904228729420855,0.0002847323222682046
-0.00012413044776119403,0.14195076023929065,-0.00039414685739287377
-0.00012411044776119404,0.10877309007386181,-0.00039414685739287377
-0.00012409044776119405,0.09771386668537548,-0.00039414685739287377
-0.00012407044776119403,0.08900053916716802,-0.0010730260370542608
-0.00012405044776119401,0.08698977127834163,-0.0003941468573931825
-0.00012403044776119402,0.07425490798252185,-0.0007335864472237216
-0.00012401044776119404,0.0645361965199259,-0.0010730260370541065
-0.00012399044776119405,0.0363854460765401,0.0002847323222672784
-0.00012397044776119403,0.018623663058650576,-0.0010730260370542608
-0.000123950447761194,0.008904951596026887,-0.0014124656268849544
-0.00012393044776119402,-0.011872983255041691,-0.0014124656268852632
-0.00012391044776119403,-0.014889135088262494,-0.0020913448065463416
-0.00012389044776119404,-0.03164553416171141,-0.0024307843963768806
-0.00012387044776119403,-0.03432655801347208,-0.003109663576038422
-0.000123850447761194,-0.03935347773552275,-0.0014124656268858806
-0.00012383044776119402,-0.05443423690163668,-0.0024307843963771894
-0.00012381044776119403,-0.09129831486322429,-0.0027702239862077284
-0.00012379044776119404,-0.09196857082616225,-0.003109663576038268
-0.00012377044776119402,-0.11676804145488372,-0.002430784396377498
-0.00012375044776119403,-0.12883264878776693,-0.0034491031658691156
-0.00012373044776119402,-0.1432431519909382,-0.0041279823455301935
-0.00012371044776119403,-0.14022700015771739,-0.0034491031658691156
-0.00012369044776119404,-0.14692955978709693,-0.0037885427556996545
-0.00012367044776119405,-0.1740749262860749,-0.0034491031658694243
-0.00012365044776119403,-0.18982594141514872,-0.003788542755699809
-0.00012363044776119402,-0.21697130791415228,-0.0044674219353611965
-0.00012361044776119403,-0.221327971673247,-0.0044674219353611965
-0.00012359044776119404,-0.21931720378443315,-0.0051463011150222745
-0.00012357044776119405,-0.22233335561765166,-0.0058251802946833525
-0.00012355044776119403,-0.2699215289862709,-0.00582518029468397
-0.000123530447761194,-0.26925127302335067,-0.0054857407048535855
-0.00012351044776119402,-0.28902382393001885,-0.005825180294683816
-0.00012349044776119403,-0.3054450950219988,-0.005485740704853277
-0.00012347044776119404,-0.31784483033634536,-0.005146301115022892
-0.00012345044776119403,-0.33627686931715883,-0.007182938654006744
-0.000123430447761194,-0.33929302115040594,-0.007522378243837129
-0.00012341044776119402,-0.36677351563085503,-0.007182938654007362
-0.00012339044776119403,-0.37850299498226925,-0.008540697013329518
-0.00012337044776119404,-0.39928092983334595,-0.007522378243837901
-0.00012335044776119402,-0.404642977536866,-0.00820125742349867
-0.00012333044776119403,-0.41469681698093086,-0.007861817833668286
-0.00012331044776119402,-0.43413423990615074,-0.008201257423498825
-0.00012329044776119403,-0.44686910320197193,-0.008201257423498825
-0.00012327044776119404,-0.4361450077949646,-0.008540697013329364
-0.00012325044776119405,-0.4629552463124658,-0.008540697013329518
-0.00012323044776119403,-0.4736793417195024,-0.008201257423498825
-0.00012321044776119402,-0.48205754125622946,-0.009219576192991524
-0.00012319044776119403,-0.48071702933035415,-0.009898455372652293
-0.00012317044776119404,-0.49244650868176837,-0.009898455372652293
-0.00012315044776119405,-0.5085326517922774,-0.009559015782821909
-0.00012313044776119403,-0.521267515088119,-0.010237894962482987
-0.000123110447761194,-0.5614828728643988,-0.009219576192991524
-0.00012309044776119402,-0.5440562178280314,-0.009898455372652139
-0.00012307044776119403,-0.5695259444196737,-0.0095590157828216
-0.00012305044776119404,-0.5571262091053273,-0.010237894962482369
-0.00012303044776119403,-0.577904143956402,-0.01057733455231368
-0.000123010447761194,-0.6006928466963258,-0.010916774142144373
