samples/acq3461.csv

#Digilent WaveForms Oscilloscope Acquisition
#Device Name: Discovery2
#Serial Number: SN:210321AD996C
#Date Time: 2025-12-07 12:58:45.230
#Sample rate: 5e+07Hz
#Samples: 8192
#Trigger: Source: Channel 1 Type: Edge Condition: Rising Level: 0 V Hyst.: Auto HoldOff: 0 s
#Channel 1: Range: 500 mV/div Offset: 0 V Sample Mode: Average
#Channel 2: Range: 500 mV/div Offset: 0 V Sample Mode: Average
#Wavegen Channel 1: Running
#Mode: Custom
#Type: noisy
#Frequency: 117 kHz
#Period: 8.547008547 us
#Amplitude: 1 V
#Offset: 0 V
#Phase: 0 °

Time (s),Channel 1 (V),Channel 2 (V)
-0.00012898153846153845,-0.5350077623283467,-0.012613972091297996
-0.00012896153846153846,-0.5202621311437116,-0.012953411681128535
-0.00012894153846153847,-0.5138946994958009,-0.011935092911636917
-0.00012892153846153848,-0.48105215731185313,-0.010577334552314915
-0.00012890153846153846,-0.4542419187942928,-0.01159565332180576
-0.00012888153846153845,-0.4505555109981229,-0.010916774142144373
-0.00012886153846153846,-0.44016654357258933,-0.010916774142144373
-0.00012884153846153847,-0.42307501651767143,-0.010237894962483295
-0.00012882153846153848,-0.4093347692774418,-0.011595653321804525
-0.00012880153846153846,-0.41436168899946624,-0.01057733455231368
-0.00012878153846153845,-0.41000502524036697,-0.01125621373197414
-0.00012876153846153846,-0.4093347692774191,-0.010237894962482832
-0.00012874153846153847,-0.38688119451899755,-0.009898455372652293
-0.00012872153846153848,-0.35169275646477083,-0.009219576192991524
-0.00012870153846153846,-0.32052585418810964,-0.008540697013329518
-0.00012868153846153844,-0.30343432713317975,-0.00888013660316083
-0.00012866153846153845,-0.29874253539261436,-0.009559015782821909
-0.00012864153846153846,-0.2947209996149866,-0.010237894962482987
-0.00012862153846153847,-0.2913697198002968,-0.009559015782821909
-0.00012860153846153846,-0.27528357668977993,-0.008201257423499133
-0.00012858153846153847,-0.28165100833768764,-0.008880136603159904
-0.00012856153846153845,-0.2739430647638876,-0.009559015782821291
-0.00012854153846153846,-0.2454571863390244,-0.008880136603160213
-0.00012852153846153847,-0.2273602753396996,-0.008201257423499133
-0.00012850153846153848,-0.20624721250715533,-0.006843499064177286
-0.00012848153846153846,-0.2015554207665683,-0.007182938654006744
-0.00012846153846153845,-0.1955231171001238,-0.007861817833667668
-0.00012844153846153846,-0.19518798911865481,-0.006843499064176051
-0.00012842153846153847,-0.16603185473085372,-0.006843499064176051
-0.00012840153846153848,-0.1499457116203368,-0.00752237824383682
-0.00012838153846153846,-0.13017316071364346,-0.006504059474345358
-0.00012836153846153845,-0.10872496989960659,-0.006164619884514664
-0.00012834153846153846,-0.09498472265938428,-0.00616461988451451
-0.00012832153846153847,-0.09397933871497781,-0.0058251802946841244
-0.00012830153846153848,-0.09364421073350851,-0.005146301115023201
-0.00012828153846153846,-0.06783935616038514,-0.006164619884514664
-0.00012826153846153844,-0.058120644697776086,-0.005825180294683044
-0.00012824153846153845,-0.05342885295720292,-0.00480686152519189
-0.00012822153846153846,-0.03231579012465729,-0.00480686152519189
-0.00012820153846153847,-0.004835295644201071,-0.00480686152519189
-0.00012818153846153846,0.019629047003057967,-0.0044674219353611965
-0.00012816153846153847,0.01694802315130614,-0.0037885427557001177
-0.00012814153846153845,0.02599647865098212,-0.004127982345530348
-0.00012812153846153846,0.0494554373538106,-0.003788542755699809
-0.00012810153846153847,0.07794131577867375,-0.003109663576038731
-0.00012808153846153846,0.09838412264830536,-0.0020913448065475763
-0.00012806153846153847,0.10207053044446412,-0.00480686152519189
-0.00012804153846153845,0.11648103364764922,-0.0031096635760385766
-0.00012802153846153846,0.14396152812810545,-0.0034491031658691156
-0.00012800153846153847,0.14061024831341568,-0.002770223986208037
-0.00012798153846153848,0.1583720313312619,-0.0027702239862077284
-0.00012796153846153846,0.18116073407117894,-0.002430784396377035
-0.00012794153846153845,0.19959277305198664,-0.002770223986206802
-0.00012792153846153846,0.20562507671842947,-0.001751905216715339
-0.00012790153846153847,0.21433840423661893,-0.0010730260370545694
-0.00012788153846153848,0.2233868597362812,-0.0017519052167150303
-0.00012786153846153846,0.25153761017969645,-0.0007335864472235673
-0.00012784153846153844,0.24349453862445097,-0.0014124656268852632
-0.00012782153846153845,0.2585752977905564,-0.0017519052167158022
-0.00012780153846153846,0.27667220878988125,-0.0020913448065463416
-0.00012778153846153848,0.2816991285119159,-0.001073026037054724
-0.00012776153846153846,0.3034824473074117,-0.0007335864472235673
-0.00012774153846153844,0.31387141473295865,-0.00039414685739256504
-0.00012772153846153845,0.31822807849205814,-5.470726756187151e-05
-0.00012770153846153846,0.3286170459175965,0.0006241719120992069
-0.00012768153846153847,0.36682163580506,0.0006241719120992069
-0.00012766153846153846,0.3912859784523172,0.002321369861251748
-0.00012764153846153847,0.37654034726768215,0.0002847323222685133
-0.00012762153846153845,0.3996641779890598,0.0009636115019303634
-0.00012760153846153846,0.41642057706250873,0.001981930271421981
-0.00012758153846153847,0.42714467246951604,0.001981930271421981
-0.00012756153846153848,0.44356594356149337,0.0013030510917612114
-0.00012754153846153846,0.44591183943179225,0.0030002490409140616
-0.00012752153846153845,0.4428956875985865,0.003000249040912827
-0.00012750153846153846,0.4609925985979031,0.0016424906815912875
-0.00012748153846153847,0.46803028620875164,0.0023213698612523656
-0.00012746153846153848,0.4894784770227597,0.003339688630743829
-0.00012744153846153846,0.49953231646685314,0.003339688630744755
-0.00012742153846153844,0.5149482036144517,0.0033396886307453725
-0.00012740153846153845,0.5353910104840629,0.0040185678104062966
-0.00012738153846153847,0.5635417609274571,0.0043580074002368355
-0.00012736153846153848,0.5628715049645194,0.0036791282205760664
-0.00012734153846153846,0.5662227847792102,0.0053763261697289165
-0.00012732153846153844,0.5715848324827308,0.0043580074002368355
-0.00012730153846153845,0.5876709755932448,0.0043580074002368355
-0.00012728153846153846,0.6101245503516662,0.0043580074002368355
-0.00012726153846153847,0.6342537650174327,0.005036886579897914
-0.00012724153846153846,0.6426319645541706,0.0060552053493899945
-0.00012722153846153847,0.6396158127209511,0.005376326169729225
-0.00012720153846153845,0.643302220517109,0.006055205349390303
-0.00012718153846153846,0.6406211966653571,0.006055205349390303
-0.00012716153846153847,0.6758096347195999,0.006394644939220842
-0.00012714153846153848,0.6684368191273017,0.005036886579899458
-0.00012712153846153846,0.6781555305898997,0.006394644939220997
-0.00012710153846153845,0.6885444980154614,0.006055205349390303
-0.00012708153846153846,0.7089873048850598,0.006055205349390303
-0.00012706153846153847,0.7053008970889011,0.006055205349390303
-0.00012704153846153848,0.7153547365329642,0.007752403298542227
-0.00012702153846153846,0.7311057516620224,0.006055205349390303
-0.00012700153846153845,0.7465216388096317,0.007073524118882693
-0.00012698153846153846,0.7786939250306337,0.007412963708712923
-0.00012696153846153847,0.7669644456792194,0.007073524118882384
-0.00012694153846153848,0.7746723892530024,0.0077524032985431535
-0.00012692153846153846,0.7934395562152807,0.008091842888374464
-0.00012690153846153844,0.8105310832702073,0.008091842888373847
-0.00012688153846153845,0.8115364672146174,0.007412963708712923
-0.00012686153846153846,0.8192444107884038,0.007073524118882384
-0.00012684153846153847,0.814552619047838,0.00843128247820454
-0.00012682153846153846,0.8041636516222898,0.008091842888374619
-0.00012680153846153847,0.7971259640114444,0.008431282478205003
-0.00012678153846153845,0.8158931309737203,0.007752403298544852
-0.00012676153846153846,0.8329846580286382,0.010128480427358626
-0.00012674153846153847,0.8450492653615215,0.009110161657867008
-0.00012672153846153848,0.860465152509093,0.007752403298545006
-0.00012670153846153847,0.8688433520458352,0.008431282478205158
-0.00012668153846153845,0.8832538552490089,0.010467920017188857
-0.00012666153846153846,0.8855997511192917,0.00944960124769724
-0.00012664153846153847,0.8782269355269742,0.009789040837527779
-0.00012662153846153848,0.8896212868969109,0.009789040837527933
-0.00012660153846153846,0.8943130786374891,0.00944960124769724
-0.00012658153846153845,0.8859348791007666,0.00944960124769724
-0.00012656153846153846,0.8923023107486842,0.009449601247697085
-0.00012654153846153847,0.914085629544158,0.009110161657866699
-0.00012652153846153848,0.9241394689882326,0.009789040837527315
-0.00012650153846153846,0.9449174038393279,0.01046792001718932
-0.00012648153846153844,0.9516199634687135,0.010807359607020322
-0.00012646153846153845,0.9549712432834006,0.011146799196850552
-0.00012644153846153846,0.9522902194316487,0.010807359607020013
-0.00012642153846153847,0.963014314838656,0.010467920017189474
-0.00012640153846153846,0.9291663887102787,0.010807359607020013
-0.00012638153846153847,0.9224638290808991,0.009789040837528396
-0.00012636153846153845,0.9217935731179561,0.010128480427358626
-0.00012634153846153846,0.9177720373403282,0.010128480427358626
-0.00012632153846153847,0.952625347413102,0.010467920017189165
-0.00012630153846153846,0.9358689483396575,0.009789040837527779
-0.00012628153846153847,0.927490748802933,0.00944960124769724
-0.00012626153846153845,0.9395553561358219,0.009789040837527933
-0.00012624153846153846,0.9398904841172908,0.009789040837527933
-0.00012622153846153847,0.937544588247008,0.01080735960701955
-0.00012620153846153848,0.9502794515428223,0.010128480427359244
-0.00012618153846153846,0.94793355567255,0.010807359607020013
-0.00012616153846153845,0.9579873951166166,0.01080735960702063
-0.00012614153846153846,0.9499443235613584,0.011486238786680782
-0.00012612153846153847,0.9358689483396677,0.010128480427359244
-0.00012610153846153848,0.9680412345606685,0.01114679919684978
-0.00012608153846153846,0.9807760978565248,0.0114862387866814
-0.00012606153846153844,0.9884840414303087,0.010807359607021248
-0.00012604153846153845,0.9817814818009244,0.012165117966342169
-0.00012602153846153846,0.9646899547460065,0.010807359607020013
-0.00012600153846153848,0.9613386749313168,0.010807359607020013
-0.00012598153846153846,0.9677061065792287,0.011146799196850707
-0.00012596153846153844,0.979435585930631,0.011825678376511167
-0.00012594153846153845,0.9603332909869073,0.010807359607019704
-0.00012592153846153846,0.9593279070425005,0.010128480427358626
-0.00012590153846153847,0.9780950740047633,0.010807359607019704
-0.00012588153846153846,0.9656953386904116,0.010807359607020168
-0.00012586153846153847,0.960668418968377,0.011146799196850707
-0.00012584153846153845,0.9492740675984334,0.010807359607020168
-0.00012582153846153846,0.9643548267645374,0.011146799196850707
-0.00012580153846153847,0.9516199634687162,0.010807359607020168
-0.00012578153846153848,0.940895868061708,0.011146799196850398
-0.00012576153846153846,0.9445822758578587,0.011146799196850707
-0.00012574153846153845,0.9224638290808919,0.010807359607019087
-0.00012572153846153846,0.9177720373403282,0.009789040837527933
-0.00012570153846153847,0.9097289657850728,0.010467920017189011
-0.00012568153846153848,0.9127451176182885,0.01046792001718932
-0.00012566153846153846,0.942906635950513,0.010807359607020013
-0.00012564153846153844,0.917101781377401,0.00978904083752855
-0.00012562153846153846,0.9291663887102819,0.01046792001718932
-0.00012560153846153847,0.9362040763211305,0.01046792001718932
-0.00012558153846153848,0.9080533258777491,0.010128480427358935
-0.00012556153846153846,0.899339998359526,0.010128480427358626
-0.00012554153846153844,0.8959887185448372,0.009789040837528242
-0.00012552153846153845,0.8986697423965833,0.010128480427358935
-0.00012550153846153846,0.8886159029525139,0.010807359607020013
-0.00012548153846153847,0.8735351437864098,0.009789040837528396
-0.00012546153846153846,0.8691784800273116,0.00877072206803616
-0.00012544153846153847,0.8852646231378153,0.00944960124769693
-0.00012542153846153845,0.8705189919531764,0.00843128247820593
-0.00012540153846153846,0.860800280490576,0.010128480427358626
-0.00012538153846153847,0.861805664434983,0.009449601247697548
-0.00012536153846153848,0.8450492653615421,0.007752403298545315
-0.00012534153846153846,0.8370061938062677,0.008770722068035851
-0.00012532153846153845,0.8162282589551905,0.008091842888374464
-0.00012530153846153846,0.8259469704177864,0.008091842888374464
-0.00012528153846153847,0.8158931309737171,0.007752403298543925
-0.00012526153846153848,0.7981313479558647,0.007073524118883002
-0.00012524153846153846,0.7793641809935773,0.007752403298543771
-0.00012522153846153845,0.7827154608082683,0.007412963708714004
-0.00012520153846153846,0.7823803328267838,0.008431282478204231
-0.00012518153846153847,0.747862150735479,0.006394644939220997
-0.00012516153846153848,0.7331165195508507,0.006734084529051382
-0.00012514153846153846,0.7388136952358124,0.006734084529051691
-0.00012512153846153844,0.7471918947725412,0.006055205349390303
-0.00012510153846153845,0.7478621507354737,0.006055205349390612
-0.00012508153846153846,0.7361326713840594,0.006734084529051691
-0.00012506153846153847,0.7160249924959207,0.006734084529051691
-0.00012504153846153846,0.703625257181552,0.0067340845290507646
-0.00012502153846153847,0.6996037214039259,0.004697446990068455
-0.00012500153846153845,0.6841878342563342,0.0050368865798983775
-0.00012498153846153846,0.6624045154608507,0.0053763261697289165
-0.00012496153846153847,0.6506750361094364,0.0057157657595594555
-0.00012494153846153848,0.6305673572213015,0.004358007400238071
-0.00012492153846153847,0.645312988405925,0.004697446990067529
-0.00012490153846153845,0.617832493925462,0.003679128220575449
-0.00012488153846153846,0.6305673572212832,0.003679128220575449
-0.00012486153846153847,0.6429670925356354,0.005376326169728145
-0.00012484153846153848,0.6101245503516961,0.004358007400237762
-0.00012482153846153846,0.6064381425555059,0.0043580074002368355
-0.00012480153846153845,0.5953789191670017,0.0030002490409152963
-0.00012478153846153846,0.5702443205568307,0.004358007400236372
-0.00012476153846153847,0.55047176965017,0.003339688630745218
-0.00012474153846153848,0.529358706817625,0.002660809451083986
-0.00012472153846153846,0.537736906354334,0.003339688630744755
-0.00012470153846153844,0.5115969237997483,0.0026608094510821335
-0.00012468153846153845,0.5186346114105882,0.0013030510917613656
-0.00012466153846153846,0.5065700040777049,0.0030002490409140616
-0.00012464153846153847,0.4814354054675315,0.0026608094510835226
-0.00012462153846153846,0.483781301337804,0.0009636115019299004
-0.00012460153846153847,0.468365414190231,0.001642490681590979
-0.00012458153846153845,0.45294952704264596,0.0016424906815919048
-0.00012456153846153846,0.4573061908017427,0.0030002490409140616
-0.00012454153846153847,0.4338472320989142,0.0019819302714224442
-0.00012452153846153846,0.4026803298222658,-0.001412465626884337
-0.00012450153846153847,0.38391316286000304,-5.470726756218023e-05
-0.00012448153846153845,0.368162147730958,0.0009636115019292829
-0.00012446153846153846,0.37721060323062044,-0.00039414685739287377
-0.00012444153846153847,0.3758700913047445,0.00028473232226820463
-0.00012442153846153848,0.3708431715827115,0.0009636115019292829
-0.00012440153846153846,0.3356547335284482,-0.0007335864472235673
-0.00012438153846153845,0.3048229592332931,-0.0010730260370524086
-0.00012436153846153846,0.3101850069367957,0.0009636115019285112
-0.00012434153846153847,0.3132011587700151,-0.0020913448065449525
-0.00012432153846153848,0.2706399051234756,-0.001412465626885572
-0.00012430153846153846,0.26561298540139994,-0.0027702239862077284
-0.00012428153846153844,0.23947300284677936,-0.001073026037055187
-0.00012426153846153845,0.2083061005701764,-0.002091344806546033
-0.00012424153846153846,0.2036143088296107,-0.0014124656268849544
-0.00012422153846153848,0.21199250836633518,-0.002091344806546033
-0.00012420153846153846,0.21098712442193157,-0.0017519052167156478
-0.00012418153846153844,0.19992790103342709,-0.0024307843963782697
-0.00012416153846153845,0.17445817444178752,-0.0037885427556996545
-0.00012414153846153846,0.15502075151658676,-0.0034491031658691156
-0.00012412153846153847,0.12251333731409587,-0.0037885427556996545
-0.00012410153846153846,0.11044872998118993,-0.0041279823455301935
-0.00012408153846153847,0.10508668227768875,-0.0034491031658694243
-0.00012406153846153845,0.08933566714863378,-0.0044674219353611965
-0.00012404153846153846,0.08196285155631627,-0.0044674219353611965
-0.00012402153846153847,0.059174148816425756,-0.0058251802946833525
-0.00012400153846153848,0.05146620524263239,-0.0061646198845143555
-0.00012398153846153846,0.01661289516983579,-0.006504059474345358
-0.00012396153846153845,0.016612895169822988,-0.004806861525192816
-0.00012394153846153846,0.0025375199481323016,-0.00582518029468397
-0.00012392153846153847,-0.013883751143847637,-0.005485740704853431
-0.00012390153846153848,-0.020251182791762794,-0.005825180294683661
-0.00012388153846153846,-0.028629382328496853,-0.005146301115022583
-0.00012386153846153844,-0.04605603736490719,-0.00582518029468397
-0.00012384153846153846,-0.0631475644198234,-0.005825180294684433
-0.00012382153846153847,-0.07655268367858253,-0.006843499064176051
-0.00012380153846153848,-0.09967651439993153,-0.006843499064176051
-0.00012378153846153846,-0.09431446669644647,-0.006504059474345358
-0.00012376153846153844,-0.12983803273219355,-0.007861817833668131
-0.00012374153846153845,-0.15095109556472863,-0.007861817833668131
-0.00012372153846153846,-0.14894032767591478,-0.007861817833668131
-0.00012370153846153847,-0.1469295597871009,-0.00854069701332921
-0.00012368153846153846,-0.16368595886056325,-0.008201257423499133
-0.00012366153846153847,-0.17843159004519157,-0.008880136603159904
-0.00012364153846153845,-0.21596592396973877,-0.008201257423499133
-0.00012362153846153846,-0.21127413222917307,-0.008880136603160213
-0.00012360153846153847,-0.21663617993267673,-0.008540697013329672
-0.00012358153846153848,-0.22065771571030507,-0.009219576192990289
-0.00012356153846153846,-0.23339257900613572,-0.008880136603160213
-0.00012354153846153845,-0.27695921659712086,-0.009898455372651984
-0.00012352153846153846,-0.27494844870830787,-0.0095590157828216
-0.00012350153846153847,-0.2977371514481984,-0.009898455372652139
-0.00012348153846153848,-0.31181252666989945,-0.009898455372652293
-0.00012346153846153846,-0.32052585418810964,-0.009898455372652293
-0.00012344153846153845,-0.3222014940954843,-0.010237894962483604
-0.00012342153846153846,-0.3540386523350278,-0.010916774142144064
-0.00012340153846153847,-0.36509787572350405,-0.010237894962482987
-0.00012338153846153848,-0.3915729862595413,-0.012274532501465294
-0.00012336153846153846,-0.40028631377776275,-0.01159565332180576
-0.00012334153846153844,-0.4049781055183559,-0.011256213731975993
-0.00012332153846153845,-0.4327937279802741,-0.012274532501467764
-0.00012330153846153846,-0.4451934632946263,-0.013632290860789922
-0.00012328153846153847,-0.44720423118344016,-0.011595653321806686
-0.00012326153846153846,-0.46530114218277413,-0.011935092911636453
-0.00012324153846153847,-0.47602523758978144,-0.012953411681128072
-0.00012322153846153845,-0.4773657495156673,-0.011935092911636608
-0.00012320153846153846,-0.48708446097826763,-0.012274532501467147
-0.00012318153846153847,-0.48540882107092276,-0.013632290860789304
-0.00012316153846153848,-0.49445727657058025,-0.012953411681129153
-0.00012314153846153847,-0.5172459793104893,-0.012613972091297842
-0.00012312153846153845,-0.5360131462727707,-0.013292851270959383
-0.00012310153846153846,-0.5581315930497234,-0.013632290860789922
-0.00012308153846153847,-0.5571262091053164,-0.013292851270959383
-0.00012306153846153848,-0.5634936407532236,-0.012953411681128844
-0.00012304153846153846,-0.5621531288273529,-0.013632290860789922
