samples/acq3508.csv

#Digilent WaveForms Oscilloscope Acquisition
#Device Name: Discovery2
#Serial Number: SN:210321AD996C
#Date Time: 2025-12-07 12:58:46.735
#Sample rate: 5e+07Hz
#Samples: 8192
#Trigger: Source: Channel 1 Type: Edge Condition: Rising Level: 0 V Hyst.: Auto HoldOff: 0 s
#Channel 1: Range: 500 mV/div Offset: 0 V Sample Mode: Average
#Channel 2: Range: 500 mV/div Offset: 0 V Sample Mode: Average
#Wavegen Channel 1: Running
#Mode: Custom
#Type: noisy
#Frequency: 117 kHz
#Period: 8.547008547 us
#Amplitude: 1 V
#Offset: 0 V
#Phase: 0 °

Time (s),Channel 1 (V),Channel 2 (V)
-0.00012899910714285714,-0.5487480095685877,-0.021099961837065178
-0.00012897910714285715,-0.5393644260874563,-0.02143940142689572
-0.00012895910714285714,-0.5249539228842743,-0.020421082657404253
-0.00012893910714285715,-0.513894699495803,-0.02143940142689541
-0.00012891910714285716,-0.48239266923772844,-0.021439401426895873
-0.00012889910714285714,-0.45591755870163847,-0.0200816430675731
-0.00012887910714285715,-0.4495501270537279,-0.019063324298081483
-0.00012885910714285716,-0.4415070554984732,-0.020081643067572173
-0.00012883910714285714,-0.42408040046207107,-0.019742203477742404
-0.00012881910714285716,-0.41000502524037397,-0.019063324298081327
-0.00012879910714285714,-0.41436168899946624,-0.019742203477742404
-0.00012877910714285715,-0.4089996412959626,-0.019742203477742404
-0.00012875910714285716,-0.407324001388616,-0.018384445118420866
-0.00012873910714285714,-0.385540682593121,-0.019742203477742404
-0.00012871910714285715,-0.3513576284832852,-0.01838444511842025
-0.00012869910714285714,-0.3278986697804205,-0.018723884708250017
-0.00012867910714285715,-0.30578022300347796,-0.018045005528589248
-0.00012865910714285716,-0.28533741613386954,-0.017705565938758553
-0.00012863910714285714,-0.2806456243932831,-0.01804500552858894
-0.00012861910714285715,-0.28433203218944186,-0.017366126348927858
-0.00012859910714285716,-0.27394306476390995,-0.018045005528588322
-0.00012857910714285714,-0.280310496411814,-0.01804500552858894
-0.00012855910714285715,-0.27360793678243445,-0.01804500552858894
-0.00012853910714285714,-0.24679769826490094,-0.01736612634892755
-0.00012851910714285715,-0.22669001937676225,-0.01668724716926647
-0.00012849910714285716,-0.20557695654421707,-0.017705565938757318
-0.00012847910714285714,-0.19987978085922264,-0.016008367989604776
-0.00012845910714285715,-0.17642082215639415,-0.014990049220113159
-0.00012843910714285714,-0.18915568545220374,-0.015668928399773775
-0.00012841910714285715,-0.1744100542675687,-0.014990049220112696
-0.00012839910714285716,-0.16100493500881566,-0.01668724716926462
-0.00012837910714285714,-0.1352000804356804,-0.014650609630282002
-0.00012835910714285715,-0.10973035384403806,-0.013971730450620924
-0.00012833910714285716,-0.09498472265939814,-0.013292851270959846
-0.00012831910714285714,-0.09330908275203909,-0.014990049220112696
-0.00012829910714285715,-0.09464959467791498,-0.014650609630282157
-0.00012827910714285714,-0.06951499606772592,-0.012953411681128226
-0.00012825910714285715,-0.05879090066072349,-0.012274532501467456
-0.00012823910714285716,-0.052423469012810926,-0.013632290860788687
-0.00012821910714285714,-0.0313104061802499,-0.014311170040451309
-0.00012819910714285715,-0.002824527755386743,-0.012613972091298614
-0.00012817910714285716,0.02499109470653876,-0.011935092911637071
-0.00012815910714285714,0.02130468691040362,-0.012953411681128535
-0.00012813910714285716,0.02767211855831421,-0.013292851270959074
-0.00012811910714285714,0.04811492542793407,-0.011256213731975067
-0.00012809910714285715,0.07760618779720416,-0.011935092911636145
-0.00012807910714285716,0.09637335475947181,-0.011256213731975684
-0.00012805910714285714,0.10106514650005671,-0.011256213731975067
-0.00012803910714285715,0.11681616162909872,-0.011256213731975067
-0.00012801910714285714,0.14563716803544852,-0.010237894962482987
-0.00012799910714285715,0.13993999235047588,-0.010237894962482987
-0.00012797910714285716,0.15870715931273013,-0.009898455372652602
-0.00012795910714285714,0.17982022214530244,-0.0095590157828216
-0.00012793910714285715,0.17982022214530244,-0.010237894962482678
-0.00012791910714285716,0.18819842168202305,-0.009559015782822217
-0.00012789910714285714,0.20964661249605507,-0.009219576192990906
-0.00012787910714285715,0.22874890743978682,-0.009219576192990906
-0.00012785910714285714,0.255559145957326,-0.008201257423498825
-0.00012783910714285715,0.24550530651325664,-0.008540697013329364
-0.00012781910714285716,0.26092119366081806,-0.008201257423499133
-0.00012779910714285714,0.27901810466016513,-0.008201257423498825
-0.00012777910714285715,0.2853855363080757,-0.007861817833668286
-0.00012775910714285713,0.30281219134447795,-0.008201257423498361
-0.00012773910714285715,0.31286603078854736,-0.007182938654006744
-0.00012771910714285716,0.3188983344549862,-0.008201257423497898
-0.00012769910714285714,0.3333088376581643,-0.008540697013329518
-0.00012767910714285715,0.37285393947150375,-0.007522378243837901
-0.00012765910714285716,0.39430213028552663,-0.007522378243837438
-0.00012763910714285714,0.37955649910090433,-0.006843499064176051
-0.00012761910714285715,0.3986587940446361,-0.006504059474345512
-0.00012759910714285714,0.41608544908104417,-0.007522378243836975
-0.00012757910714285715,0.42613928852510896,-0.006504059474345821
-0.00012755910714285716,0.442560559617086,-0.006504059474345358
-0.00012753910714285714,0.44524158346885395,-0.006504059474345358
-0.00012751910714285715,0.44256055961710217,-0.007182938654006436
-0.00012749910714285716,0.4599872146534799,-0.006504059474345975
-0.00012747910714285714,0.4690356701531622,-0.005485740704853277
-0.00012745910714285715,0.49115411693011485,-0.00446742193536166
-0.00012743910714285714,0.4998674444483223,-0.005146301115022583
-0.00012741910714285715,0.5132725637070814,-0.005825180294683661
-0.00012739910714285716,0.5055646201333045,-0.0054857407048535855
-0.00012737910714285714,0.5558338173536671,-0.0044674219353611965
-0.00012735910714285715,0.5682335526680192,-0.0037885427557001177
-0.00012733910714285714,0.5729253444085933,-0.004467421935361042
-0.00012731910714285715,0.5742658563344692,-0.004127982345530502
-0.00012729910714285716,0.5866655916488158,-0.004127982345530502
-0.00012727910714285714,0.6107948063146045,-0.003788542755699809
-0.00012725910714285715,0.6359294049247779,-0.00344910316586927
-0.00012723910714285716,0.6439724764800412,-0.0017519052167171915
-0.00012721910714285714,0.640286068683888,-0.0034491031658691156
-0.00012719910714285715,0.6433022205171088,-0.0034491031658691156
-0.00012717910714285714,0.6429670925356549,-0.0027702239862077284
-0.00012715910714285715,0.673128610867849,-0.0027702239862077284
-0.00012713910714285716,0.6660909232570176,-0.001751905216716574
-0.00012711910714285714,0.6801662984787146,-0.002430784396377035
-0.00012709910714285715,0.6925660337930668,-0.002091344806546496
-0.00012707910714285716,0.7073116649777007,-0.003109663576037496
-0.00012705910714285715,0.7056360250703685,-0.002430784396377035
-0.00012703910714285716,0.7170303764403086,-0.002430784396377035
-0.00012701910714285714,0.7301003677176151,-0.002430784396377035
-0.00012699910714285715,0.7441757429393121,-0.0014124656268854176
-0.00012697910714285716,0.779699308975014,-0.001751905216715339
-0.00012695910714285714,0.7679698296236268,0.0002847323222685133
-0.00012693910714285715,0.7746723892530064,-0.0017519052167147215
-0.00012691910714285714,0.792434172270881,-0.0010730260370541065
-0.00012689910714285715,0.8091905713443223,-0.0007335864472237216
-0.00012687910714285716,0.8024880117149534,-0.001073026037053952
-0.00012685910714285714,0.8088554433628607,-0.0010730260370542608
-0.00012683910714285715,0.8112013392331435,-0.0014124656268848
-0.00012681910714285716,0.8038285236408305,-0.0003941468573938
-0.00012679910714285714,0.7977962199743794,-0.00039414685739287377
-0.00012677910714285715,0.8148877470292973,-0.0007335864472234129
-0.00012675910714285714,0.8333197860101073,0.0002847323222685133
-0.00012673910714285715,0.8450492653615216,0.0006241719120990525
-0.00012671910714285716,0.8608002804905617,0.00028473232226882203
-0.00012669910714285714,0.8691784800273042,0.0006241719120992069
-0.00012667910714285715,0.8809079593787186,0.001303051091760285
-0.00012665910714285714,0.8862700070822316,0.0013030510917609026
-0.00012663910714285715,0.8899564148783904,0.001981930271421981
-0.00012661910714285716,0.9023561501927369,0.0013030510917612114
-0.00012659910714285714,0.8969941024892422,-5.470726756218023e-05
-0.00012657910714285715,0.8966589745077731,-5.470726756218023e-05
-0.00012655910714285716,0.8939779506560224,0.0009636115019289741
-0.00012653910714285714,0.9157612694515135,0.0006241719120992069
-0.00012651910714285715,0.9261502368770518,0.0016424906815908243
-0.00012649910714285714,0.944582275857862,0.0013030510917609026
-0.00012647910714285715,0.9519550914501762,0.0019819302714216723
-0.00012645910714285716,0.9569820111722119,0.0016424906815915962
-0.00012643910714285714,0.9502794515428339,0.0013030510917605939
-0.00012641910714285715,0.9626791868571861,0.0023213698612522113
-0.00012639910714285716,0.9318474125620598,0.00130305109176152
-0.00012637910714285714,0.9241394689882417,0.001981930271421981
-0.00012635910714285716,0.9224638290808969,0.001981930271421981
-0.00012633910714285714,0.9234692130253035,0.0030002490409140616
-0.00012631910714285715,0.9539658593389805,0.002321369861252983
-0.00012629910714285716,0.9351986923767401,0.0009636115019311354
-0.00012627910714285714,0.9278258767844022,0.0009636115019299004
-0.00012625910714285715,0.9382148442099404,0.0013030510917604395
-0.00012623910714285714,0.9392202281543525,0.0016424906815915962
-0.00012621910714285715,0.9388851001728836,0.0023213698612523656
-0.00012619910714285716,0.9506145795242924,0.0009636115019311354
-0.00012617910714285714,0.9486038116354882,0.0013030510917605939
-0.00012615910714285715,0.9586576510795576,0.0006241719120995156
-0.00012613910714285716,0.9506145795243104,0.001981930271420746
-0.00012611910714285714,0.9362040763211305,0.0006241719120992069
-0.00012609910714285715,0.9680412345606834,0.001303051091760285
-0.00012607910714285714,0.9801058418935865,0.0013030510917605939
-0.00012605910714285715,0.9750789221715519,0.0023213698612522113
-0.00012603910714285716,0.970387130430986,0.0016424906815919048
-0.00012601910714285714,0.9610035469498461,0.001981930271421981
-0.00012599910714285715,0.9589927790610322,0.0030002490409135984
-0.00012597910714285714,0.9680412345607039,0.0006241719120999787
-0.00012595910714285715,0.9814463538194631,0.0023213698612526744
-0.00012593910714285716,0.9630143148386776,0.0016424906815919048
-0.00012591910714285714,0.9603332909869078,0.0013030510917605939
-0.00012589910714285715,0.9764194340974188,0.0013030510917605939
-0.00012587910714285716,0.9633494428201419,0.0013030510917605939
-0.00012585910714285714,0.9626791868571918,0.0016424906815912875
-0.00012583910714285715,0.9489389396169636,0.0016424906815912875
-0.00012581910714285714,0.9717276423568537,0.0023213698612519025
-0.00012579910714285715,0.9616738029127889,0.0006241719120999786
-0.00012577910714285716,0.9415661240246548,0.0006241719120992069
-0.00012575910714285714,0.9442471478763895,0.0013030510917605939
-0.00012573910714285715,0.920453061192092,0.0006241719120995156
-0.00012571910714285716,0.9137505015627048,-0.00039414685739194754
-0.00012569910714285714,0.9080533258777235,0.0006241719120992069
-0.00012567910714285715,0.9093938378035994,-5.4707267561871615e-05
-0.00012565910714285714,0.9432417639319822,0.0013030510917605939
-0.00012563910714285715,0.915761269451526,0.0006241719120995156
-0.00012561910714285716,0.9288312607287976,-5.4707267561562834e-05
-0.00012559910714285714,0.9375445882470069,0.0006241719120992069
-0.00012557910714285715,0.9140856295441785,0.001303051091760285
-0.00012555910714285714,0.9060425579889053,0.000963611501929746
-0.00012553910714285715,0.8986697423965878,0.0006241719120992069
-0.00012551910714285716,0.8973292304707124,0.0006241719120992069
-0.00012549910714285714,0.8879456469895756,-0.00039414685739287377
-0.00012547910714285715,0.8745405277308165,-0.0007335864472234129
-0.00012545910714285716,0.8678379681014339,-0.0017519052167147217
-0.00012543910714285714,0.8855997511192917,-5.470726756218023e-05
-0.00012541910714285715,0.8695136080087807,-0.001412465626884337
-0.00012539910714285714,0.860800280490576,0.0002847323222685133
-0.00012537910714285715,0.8591246405832311,-0.0017519052167147215
-0.00012535910714285716,0.8437087534356643,-0.0007335864472244934
-0.00012533910714285714,0.829968506195416,-0.0020913448065463416
-0.00012531910714285715,0.8105310832702153,-0.0027702239862074196
-0.00012529910714285716,0.8246064584918972,-0.001751905216716574
-0.00012527910714285715,0.8189092828069346,-0.0027702239862077284
-0.00012525910714285716,0.799136731900274,-0.001751905216716574
-0.00012523910714285714,0.7796993089750464,-0.0027702239862077284
-0.00012521910714285715,0.7820452048453292,-0.001751905216716111
-0.00012519910714285716,0.7823803328267991,-0.0034491031658675717
-0.00012517910714285714,0.7488675346798863,-0.003109663576038422
-0.00012515910714285715,0.7317760076249685,-0.003109663576038422
-0.00012513910714285714,0.738478567254347,-0.0020913448065463416
-0.00012511910714285715,0.7465216388095988,-0.0020913448065463416
-0.00012509910714285716,0.7451811268837272,-0.0017519052167159566
-0.00012507910714285714,0.7341219034952446,-0.0020913448065463416
-0.00012505910714285715,0.7150196085515128,-0.003109663576037959
-0.00012503910714285716,0.6905552659042798,-0.003109663576038422
-0.00012501910714285714,0.696587569570702,-0.0034491031658691156
-0.00012499910714285715,0.681506810404598,-0.002430784396377498
-0.00012497910714285714,0.6593883636276284,-0.004127982345530502
-0.00012495910714285715,0.651345292072373,-0.0031096635760388854
-0.00012493910714285716,0.6315727411657086,-0.004127982345529576
-0.00012491910714285714,0.6433022205171102,-0.004127982345530502
-0.00012489910714285715,0.615486598055185,-0.004467421935361042
-0.00012487910714285714,0.6282214613510055,-0.004127982345530811
-0.00012485910714285715,0.6419617085912337,-0.00480686152519189
-0.00012483910714285716,0.6104596783331641,-0.00480686152519189
-0.00012481910714285714,0.6050976306296293,-0.00480686152519189
-0.00012479910714285715,0.5893466155005874,-0.004467421935361351
-0.00012477910714285716,0.5665579127607,-0.005146301115021966
-0.00012475910714285714,0.5591850971683584,-0.00582518029468397
-0.00012473910714285715,0.5370666503914059,-0.005485740704853431
-0.00012471910714285714,0.5390774182801976,-0.005485740704853277
-0.00012469910714285715,0.5105915398553474,-0.005485740704853277
-0.00012467910714285716,0.5196399953549927,-0.006504059474344431
-0.00012465910714285714,0.5079105160035814,-0.00480686152519189
-0.00012463910714285715,0.48076514950459415,-0.005825180294683507
-0.00012461910714285716,0.48210566143045713,-0.00582518029468397
-0.00012459910714285714,0.46736003024581657,-0.006164619884514664
-0.00012457910714285716,0.45261439906118156,-0.001073026037056576
-0.00012455910714285714,0.4653492623570018,0.007412963708713078
-0.00012453910714285715,0.44658209539473903,0.01488063468498494
-0.00012451910714285716,0.40938288945169077,0.017256711813801028
-0.00012449910714285714,0.3751998353418057,0.015220074274819029
-0.00012447910714285715,0.3581083082868878,0.01454119509515795
-0.00012445910714285714,0.3785511151564991,0.01216511796634325
-0.00012443910714285715,0.3832429068970627,0.013183436735834405
-0.00012441910714285716,0.3745295793788753,0.013183436735834868
-0.00012439910714285714,0.3323034537137569,0.014880634684988335
-0.00012437910714285715,0.3011365514371419,0.011486238786682944
-0.00012435910714285716,0.30884449501091077,0.01080735960702063
-0.00012433910714285714,0.3138714147329547,0.01046792001718932
-0.00012431910714285715,0.27164528906786345,0.007752403298545006
-0.00012429910714285714,0.2642724734755234,0.006734084529051691
-0.00012427910714285715,0.23980813082828795,0.005036886579898995
-0.00012425910714285716,0.20931148451461365,0.0033396886307462985
-0.00012423910714285714,0.2056250767184255,0.0053763261697289165
-0.00012421910714285715,0.21266276432927406,0.008431282478203768
-0.00012419910714285714,0.21299789231074104,0.010807359607020013
-0.00012417910714285715,0.2012684129593268,0.010807359607020013
-0.00012415910714285716,0.17613381434916486,0.008091842888376935
-0.00012413910714285714,0.15535587949805588,0.006055205349390303
-0.00012411910714285715,0.1215079533696891,0.006055205349390303
-0.00012409910714285716,0.11078385796267128,0.007073524118881458
-0.00012407910714285714,0.10642719420356281,0.008431282478205158
-0.00012405910714285715,0.09000592311158287,0.008431282478205158
-0.00012403910714285714,0.08698977127834331,0.00741296370871246
-0.00012401910714285715,0.06520645248286966,0.006055205349390921
-0.00012399910714285716,0.05247158918704436,0.005376326169729534
-0.00012397910714285714,0.02231007085481101,0.00571576575955961
-0.00012395910714285715,0.017618279114245315,0.004358007400237453
-0.00012393910714285716,0.004548287836958972,0.005036886579897606
-0.00012391910714285714,-0.015224263069731625,0.005036886579898223
-0.00012389910714285716,-0.018575542884421408,0.0036791282205760664
-0.00012387910714285714,-0.027623998384089462,0.0043580074002368355
-0.00012385910714285715,-0.04471552543900736,0.005036886579897914
-0.00012383910714285716,-0.0624773084568629,0.004697446990067838
-0.00012381910714285714,-0.07856345156739733,0.004018567810406142
-0.00012379910714285715,-0.10202241027022581,0.0033396886307450638
-0.00012377910714285714,-0.0936442107335239,0.004018567810406142
-0.00012375910714285715,-0.12816239282482866,0.004018567810406142
-0.00012373910714285716,-0.13151367263951694,0.004018567810406142
-0.00012371910714285714,-0.14324315199093957,0.003679128220575449
-0.00012369910714285715,-0.14357827997240855,0.002321369861253292
-0.00012367910714285716,-0.1606698070273188,0.0026608094510830595
-0.00012365910714285714,-0.17742620610079088,0.0023213698612526744
-0.00012363910714285715,-0.21596592396972336,0.0019819302714221354
-0.00012361910714285714,-0.21093900424770395,0.0023213698612526744
-0.00012359910714285715,-0.21730643589561455,0.001303051091761057
-0.00012357910714285716,-0.2236738675435251,0.0016424906815909787
-0.00012355910714285714,-0.2343979629505431,0.0009636115019299004
-0.00012353910714285715,-0.2759538326526964,0.001981930271421518
-0.00012351910714285716,-0.27494844870830876,0.000284732322270057
-0.00012349910714285715,-0.3010884312629001,0.0009636115019299004
-0.00012347910714285716,-0.31348816657724665,-0.00039414685739163886
-0.00012345910714285714,-0.3299094376692453,0.0009636115019299004
-0.00012343910714285715,-0.33091482161365227,-0.0007335864472227956
-0.00012341910714285716,-0.35738993214968995,-0.001073026037053952
-0.00012339910714285714,-0.3637573637976275,-0.0017519052167156478
-0.00012337910714285715,-0.3952593940557115,-0.0014124656268851088
-0.00012335910714285714,-0.40430784955539295,-0.0014124656268848
-0.00012333910714285715,-0.40564836148126826,-0.0010730260370544152
-0.00012331910714285716,-0.4331288559617126,-0.0017519052167150303
-0.00012329910714285714,-0.4458637192575645,-0.0020913448065463416
-0.00012327910714285715,-0.44854474310931636,-0.0020913448065463416
-0.00012325910714285716,-0.4425124394428787,-0.002770223986207111
-0.00012323910714285714,-0.4709983178677493,-0.003109663576038422
-0.00012321910714285715,-0.47300908575656325,-0.0017519052167162652
-0.00012319910714285714,-0.48641420501532934,-0.003788542755699809
-0.00012317910714285715,-0.48440343712651546,-0.0017519052167165742
-0.00012315910714285716,-0.4934518926261729,-0.003109663576037187
-0.00012313910714285714,-0.5182513632548967,-0.003109663576038422
-0.00012311910714285715,-0.5373536581986286,-0.004127982345530039
-0.00012309910714285714,-0.560477488920006,-0.003449103165868961
