samples/acq3509.csv

#Digilent WaveForms Oscilloscope Acquisition
#Device Name: Discovery2
#Serial Number: SN:210321AD996C
#Date Time: 2025-12-07 12:58:46.767
#Sample rate: 5e+07Hz
#Samples: 8192
#Trigger: Source: Channel 1 Type: Edge Condition: Rising Level: 0 V Hyst.: Auto HoldOff: 0 s
#Channel 1: Range: 500 mV/div Offset: 0 V Sample Mode: Average
#Channel 2: Range: 500 mV/div Offset: 0 V Sample Mode: Average
#Wavegen Channel 1: Running
#Mode: Custom
#Type: noisy
#Frequency: 117 kHz
#Period: 8.547008547 us
#Amplitude: 1 V
#Offset: 0 V
#Phase: 0 °

Time (s),Channel 1 (V),Channel 2 (V)
-0.0001289882666666667,-0.53433750636543,-0.018723884708251252
-0.00012896826666666667,-0.5179162352734277,-0.017705565938758244
-0.00012894826666666665,-0.5249539228842699,-0.017705565938757935
-0.00012892826666666666,-0.5145649554587282,-0.017366126348927858
-0.00012890826666666667,-0.4964680444594033,-0.01804500552858894
-0.00012888826666666668,-0.48138728529329927,-0.01702668675909732
-0.00012886826666666667,-0.44720423118344105,-0.017705565938758244
-0.00012884826666666668,-0.43011270412852315,-0.017026686759097166
-0.00012882826666666666,-0.43078296009144695,-0.01668724716926601
-0.00012880826666666667,-0.4160373289068119,-0.01634780757943547
-0.00012878826666666668,-0.42005886468443965,-0.01600836798960493
-0.00012876826666666666,-0.40196195368510046,-0.0156689283997747
-0.00012874826666666668,-0.3845352986487136,-0.017026686759096857
-0.00012872826666666666,-0.39827554588893566,-0.0166872471692657
-0.00012870826666666667,-0.3711301793899484,-0.015668928399774084
-0.00012868826666666668,-0.3570548041682513,-0.014311170040451926
-0.0001286682666666667,-0.353033268390619,-0.01566892839977285
-0.00012864826666666667,-0.3416389170206649,-0.01634780757943547
-0.00012862826666666666,-0.3282337977618637,-0.01566892839977254
-0.00012860826666666667,-0.2886886959485375,-0.013971730450620615
-0.00012858826666666668,-0.27829972852300394,-0.013971730450620615
-0.0001285682666666667,-0.24981385009814902,-0.01363229086079023
-0.00012854826666666667,-0.24143565056139485,-0.013632290860789922
-0.00012852826666666665,-0.2340628349690554,-0.013971730450620924
-0.00012850826666666666,-0.21362002809946096,-0.014311170040450846
-0.00012848826666666667,-0.2223333556176544,-0.013292851270959229
-0.00012846826666666668,-0.21194438819211606,-0.013292851270959229
-0.00012844826666666667,-0.18379363774870436,-0.012953411681128535
-0.00012842826666666665,-0.18245312582278944,-0.014311170040449456
-0.00012840826666666666,-0.14022700015772302,-0.012274532501467764
-0.00012838826666666667,-0.15262673547207523,-0.013632290860789922
-0.00012836826666666668,-0.14089725612066098,-0.011935092911637225
-0.00012834826666666667,-0.10738445797373937,-0.01193509291163599
-0.00012832826666666668,-0.10034677036289404,-0.010916774142144836
-0.00012830826666666666,-0.08090934743767256,-0.011595653321805914
-0.00012828826666666667,-0.06180705249394079,-0.011935092911636453
-0.00012826826666666668,-0.06046654056806488,-0.011595653321805914
-0.0001282482666666667,-0.06482320432715899,-0.01159565332180576
-0.00012822826666666667,-0.042369629568731214,-0.01057733455231368
-0.00012820826666666666,-0.017570158940004566,-0.010577334552313989
-0.00012818826666666667,-0.005505551607126835,-0.010916774142144373
-0.00012816826666666668,0.004213159855473534,-0.010916774142144373
-0.0001281482666666667,0.017283151132762166,-0.00989845537265322
-0.00012812826666666667,0.03940159790973668,-0.0095590157828216
-0.00012810826666666665,0.057163380927614325,-0.008540697013329827
-0.00012808826666666666,0.07224414009371988,-0.008880136603160059
-0.00012806826666666668,0.09067617907451367,-0.008540697013329518
-0.00012804826666666669,0.10877309007383026,-0.008201257423499133
-0.00012802826666666667,0.1040812983332789,-0.008201257423498825
-0.00012800826666666665,0.12150795336968225,-0.007861817833668131
-0.00012798826666666666,0.1308915368508197,-0.007861817833667977
-0.00012796826666666667,0.15368023959071023,-0.007522378243837438
-0.00012794826666666668,0.1526748556463033,-0.00684349906417636
-0.00012792826666666667,0.19087944553379274,-0.006843499064175897
-0.00012790826666666668,0.21065199644045346,-0.006504059474345512
-0.00012788826666666666,0.2190301959771906,-0.0061646198845143555
-0.00012786826666666667,0.21869506799572158,-0.005485740704853277
-0.00012784826666666668,0.22439224368069424,-0.005485740704853277
-0.0001278282666666667,0.2438296666058887,-0.006164619884514047
-0.00012780826666666667,0.27332092897518995,-0.005485740704853277
-0.00012778826666666666,0.2917529679560122,-0.005146301115022892
-0.00012776826666666667,0.3138714147329547,-0.005485740704853277
-0.00012774826666666668,0.3222496142696792,-0.00446742193536166
-0.0001277282666666667,0.3262711500473089,-0.004806861525191581
-0.00012770826666666667,0.32258474225115213,-0.004127982345530502
-0.00012768826666666665,0.3644757399348069,-0.0037885427556991914
-0.00012766826666666667,0.37922137111943965,-0.003109663576038731
-0.00012764826666666668,0.38894008258204,-0.003788542755699809
-0.00012762826666666669,0.37218368350859876,-0.0041279823455301935
-0.00012760826666666667,0.4020100738593361,-0.003788542755699809
-0.00012758826666666665,0.3963128981743801,-0.0037885427556982655
-0.00012756826666666666,0.4174259610069242,-0.0020913448065466504
-0.00012754826666666667,0.43518774402478005,-0.0027702239862077284
-0.00012752826666666668,0.4619979825422983,-0.001751905216716111
-0.00012750826666666667,0.460657470616434,-0.0020913448065463416
-0.00012748826666666668,0.46568439033846865,-0.0024307843963768806
-0.00012746826666666666,0.4831110453748761,-0.0017519052167156478
-0.00012744826666666667,0.5058997481147666,-0.0017519052167156478
-0.00012742826666666668,0.5102564118738633,-0.0020913448065461872
-0.0001274082666666667,0.5182994834291171,-0.001073026037055187
-0.00012738826666666667,0.5451097219466549,-0.0017519052167156478
-0.00012736826666666666,0.5437692100207719,-0.0007335864472235673
-0.00012734826666666667,0.529693834799075,-0.0007335864472235673
-0.00012732826666666668,0.5474556178169308,-0.0007335864472235673
-0.0001273082666666667,0.5565040733165971,-0.0007335864472235673
-0.00012728826666666667,0.5554986893721979,-0.0017519052167156478
-0.00012726826666666666,0.5839845677970961,0.00028473232226882203
-0.00012724826666666667,0.6081137824628638,0.00062417191209967
-0.00012722826666666668,0.6352591489618388,0.0016424906815908243
-0.0001272082666666667,0.6171622379625344,-0.000733586447221406
-0.00012718826666666667,0.6409563246468263,-0.00039414685739287377
-0.00012716826666666665,0.6681016911458136,0.0006241719120995156
-0.00012714826666666666,0.6546965718870713,0.0009636115019299004
-0.00012712826666666667,0.6781555305898997,0.0009636115019299004
-0.00012710826666666668,0.6979280814965695,0.001642490681590979
-0.00012708826666666667,0.6999388493853933,0.0013030510917605939
-0.00012706826666666668,0.6865337301266342,0.0009636115019300547
-0.00012704826666666666,0.6985983374595222,0.002660809451082905
-0.00012702826666666667,0.7106629447924054,0.0016424906815912875
-0.00012700826666666668,0.7394839511987377,0.0019819302714218267
-0.00012698826666666667,0.7515485585316501,0.002660809451083214
-0.00012696826666666668,0.7753426452159476,0.0023213698612526744
-0.00012694826666666666,0.7505431745872452,0.0026608094510833682
-0.00012692826666666667,0.7793641809935773,0.0026608094510833682
-0.00012690826666666668,0.7793641809935773,0.002321369861252829
-0.0001268882666666667,0.7897531484191109,0.0023213698612526744
-0.00012686826666666667,0.804163651622293,0.0030002490409140616
-0.00012684826666666666,0.8024880117149473,0.0033396886307438286
-0.00012682826666666667,0.8024880117149432,0.002321369861252983
-0.00012680826666666668,0.7934395562152848,0.003000249040913753
-0.0001267882666666667,0.8252767144548192,0.0036791282205748312
-0.00012676826666666667,0.8457195213244652,0.0030002490409140616
-0.00012674826666666665,0.8517518249909025,0.003000249040914988
-0.00012672826666666666,0.8440438814171309,0.004018567810406142
-0.00012670826666666667,0.8691784800273042,0.004018567810406142
-0.00012668826666666668,0.8705189919531803,0.003679128220575603
-0.00012666826666666667,0.8755459116752178,0.003339688630744755
-0.00012664826666666665,0.8685082240643693,0.003339688630744755
-0.00012662826666666666,0.8721946318605278,0.0033396886307449094
-0.00012660826666666667,0.8752107836937486,0.003679128220575449
-0.00012658826666666668,0.8963238465262944,0.004018567810405988
-0.00012656826666666667,0.906377685970383,0.004018567810406142
-0.00012654826666666668,0.917772037340323,0.004018567810406142
-0.00012652826666666666,0.9238043410067656,0.00469744699006722
-0.00012650826666666667,0.9083884538591925,0.004018567810406142
-0.00012648826666666668,0.9110694777109444,0.00469744699006722
-0.0001264682666666667,0.8973292304707238,0.004697446990067529
-0.00012644826666666667,0.8976643584521804,0.003679128220575449
-0.00012642826666666666,0.910399221748014,0.004358007400237762
-0.00012640826666666667,0.9177720373403282,0.0053763261697289165
-0.00012638826666666668,0.9238043410067698,0.004358007400237299
-0.0001263682666666667,0.936539204302588,0.004018567810406451
-0.00012634826666666667,0.9278258767844022,0.005036886579898223
-0.00012632826666666665,0.9559766272278177,0.0043580074002383794
-0.00012630826666666666,0.9653602107089408,0.00605520534938984
-0.00012628826666666668,0.9566468831907474,0.005036886579898223
-0.00012626826666666669,0.9697168744680316,0.005376326169728608
-0.00012624826666666667,0.9727330263012657,0.005036886579898223
-0.00012622826666666665,0.9583225230981107,0.005715765759559919
-0.00012620826666666666,0.9777599460232947,0.00605520534938984
-0.00012618826666666667,0.9603332909869078,0.005036886579898223
-0.00012616826666666668,0.9650250827274736,0.005715765759559301
-0.00012614826666666667,0.9734032822641985,0.0050368865798983775
-0.00012612826666666668,0.9613386749313206,0.005376326169728762
-0.00012610826666666666,0.9529604753945976,0.005376326169728762
-0.00012608826666666667,0.9764194340974262,0.005036886579898223
-0.00012606826666666668,0.9576522671351634,0.005036886579898223
-0.0001260482666666667,0.9636845708015938,0.006055205349389377
-0.00012602826666666667,0.9586576510795621,0.006055205349390303
-0.00012600826666666666,0.954300987320469,0.005036886579897606
-0.00012598826666666667,0.9603332909869078,0.0043580074002368355
-0.00012596826666666668,0.9764194340974188,0.005715765759558992
-0.0001259482666666667,0.9814463538194586,0.005376326169729225
-0.00012592826666666667,0.9643548267645374,0.0053763261697289165
-0.00012590826666666666,0.9496091955799176,0.005036886579897914
-0.00012588826666666667,0.9737384102456728,0.0046974469900673745
-0.00012586826666666668,0.9730681542827349,0.0043580074002368355
-0.00012584826666666669,0.9358689483396951,0.004018567810406451
-0.00012582826666666667,0.9305069006361552,0.005036886579898223
-0.00012580826666666665,0.9345284364137988,0.00469744699006722
-0.00012578826666666666,0.9499443235613587,0.0043580074002368355
-0.00012576826666666667,0.9365392043025995,0.0043580074002368355
-0.00012574826666666668,0.9372094602655375,0.003339688630745218
-0.00012572826666666667,0.9321825405435008,0.005036886579898223
-0.00012570826666666668,0.944582275857853,0.004018567810406605
-0.00012568826666666666,0.9348635643952453,0.0033396886307450638
-0.00012566826666666667,0.9160963974329825,0.004018567810406142
-0.00012564826666666668,0.9174369093588586,0.00469744699006722
-0.00012562826666666666,0.9103992217480052,0.0033396886307453725
-0.00012560826666666667,0.9057074300074396,0.004697446990067529
-0.00012558826666666666,0.9043669180815741,0.0043580074002368355
-0.00012556826666666667,0.9288312607288095,0.0043580074002368355
-0.00012554826666666668,0.9241394689882438,0.005376326169728453
-0.0001255282666666667,0.9057074300074563,0.004018567810407377
-0.00012550826666666667,0.8896212868969212,0.003679128220575449
-0.00012548826666666666,0.8812430873602008,0.0026608094510849117
-0.00012546826666666667,0.8899564148783842,0.004358007400236218
-0.00012544826666666668,0.8762161676381622,0.0030002490409146787
-0.0001254282666666667,0.8527572089353382,0.003339688630744446
-0.00012540826666666667,0.8688433520458352,0.003339688630744755
-0.00012538826666666665,0.8661623281940654,0.003339688630744755
-0.00012536826666666666,0.8477302892132771,0.003339688630744755
-0.00012534826666666667,0.8413628575653664,0.003339688630744755
-0.00012532826666666668,0.8155580029922551,0.0023213698612531376
-0.00012530826666666667,0.8155580029922433,0.0023213698612526744
-0.00012528826666666668,0.8058392915296431,0.0019819302714221354
-0.00012526826666666666,0.7920990442894038,0.002660809451083214
-0.00012524826666666667,0.7910936603449968,0.0023213698612526744
-0.00012522826666666668,0.7773534131047687,0.001642490681591596
-0.00012520826666666667,0.7874072525488286,0.0033396886307441374
-0.00012518826666666668,0.7703157254939107,0.001981930271421981
-0.00012516826666666666,0.7572457342166168,0.0013030510917607483
-0.00012514826666666667,0.7619375259571824,0.0016424906815912875
-0.00012512826666666668,0.7435054869763886,0.0013030510917607483
-0.0001251082666666667,0.7619375259571657,0.000963611501930209
-0.00012508826666666667,0.7388136952358124,0.0013030510917605939
-0.00012506826666666666,0.7250734479955641,0.0016424906815900525
-0.00012504826666666667,0.709657560848005,0.00028473232226882203
-0.00012502826666666668,0.725073447995571,0.0009636115019295917
-0.0001250082666666667,0.6979280814966031,-0.00039414685739163886
-0.00012498826666666667,0.7066414090147759,-0.00039414685739287377
-0.00012496826666666665,0.6902201379227836,-5.470726756248895e-05
-0.00012494826666666666,0.6848580902192677,-0.0003941468573930281
-0.00012492826666666667,0.6523506760167768,-0.0007335864472235673
-0.00012490826666666668,0.6557019558314651,-5.470726756279774e-05
-0.00012488826666666667,0.645312988405925,0.0002847323222685133
-0.00012486826666666665,0.6181676219069001,-0.0003941468573950348
-0.00012484826666666666,0.590351999444997,-0.002770223986207265
-0.00012482826666666667,0.6114650622775428,-0.0017519052167156478
-0.00012480826666666668,0.5960491751299698,-0.0017519052167156478
-0.00012478826666666667,0.5859953356858746,-0.0007335864472240303
-0.00012476826666666668,0.5544933054278048,-0.0017519052167151846
-0.00012474826666666666,0.5524825375389693,-0.0014124656268854176
-0.00012472826666666667,0.5380720343358032,-0.002430784396377035
-0.00012470826666666668,0.5367315224099272,-0.002091344806546496
-0.0001246882666666667,0.5193048673735478,-0.001412465626885572
-0.00012466826666666667,0.5065700040777049,-0.0034491031658691156
-0.00012464826666666666,0.49450539674481375,-0.0014124656268864981
-0.00012462826666666667,0.49182437289306313,-0.003109663576038422
-0.00012460826666666668,0.46836541419023464,-0.004127982345530039
-0.0001245882666666667,0.4489279912650321,-0.003449103165869733
-0.00012456826666666667,0.4616628545608414,-0.003788542755699809
-0.00012454826666666665,0.44557671145028194,-0.0034491031658694243
-0.00012452826666666666,0.4003344339519905,-0.003788542755700272
-0.00012450826666666668,0.4003344339519905,-0.00480686152519189
-0.00012448826666666669,0.3815672669897362,-0.0037885427557007353
-0.00012446826666666667,0.3899454665264474,-0.0044674219353611965
-0.00012444826666666665,0.3701729156197501,-0.004806861525190655
-0.00012442826666666666,0.3497301087501502,-0.0034491031658703502
-0.00012440826666666667,0.3463788289354604,-0.006164619884514664
-0.00012438826666666668,0.3410167812319568,-0.0051463011150230465
-0.00012436826666666667,0.3222496142696754,-0.005485740704853277
-0.00012434826666666668,0.30549321519623407,-0.005485740704853277
-0.00012432826666666666,0.29845552758536,-0.005146301115023355
-0.00012430826666666667,0.26594811338286906,-0.006843499064176051
-0.00012428826666666668,0.2656129854014001,-0.006504059474345512
-0.0001242682666666667,0.2639373454940558,-0.004806861525193434
-0.00012424826666666667,0.2394730028468077,-0.006504059474345358
-0.00012422826666666666,0.230759675328592,-0.007522378243837438
-0.00012420826666666667,0.21065199644046245,-0.007522378243837438
-0.00012418826666666668,0.19456585332995152,-0.007182938654006899
-0.0001241682666666667,0.1791499661823782,-0.007182938654006744
-0.00012414826666666667,0.17479330242326546,-0.007522378243837438
-0.00012412826666666666,0.14932357583159905,-0.008880136603159595
-0.00012410826666666667,0.13558332859135888,-0.008201257423498979
-0.00012408826666666668,0.09536797081509979,-0.008540697013329364
-0.00012406826666666669,0.07291439605667016,-0.008540697013329518
-0.00012404826666666667,0.09670848274095803,-0.007522378243837438
-0.00012402826666666665,0.07727105981574692,-0.008540697013330753
-0.00012400826666666666,0.07559541990839624,-0.009898455372652448
-0.00012398826666666667,0.06118491670523017,-0.010237894962482987
-0.00012396826666666668,0.03940159790974658,-0.009559015782821909
-0.00012394826666666667,0.019964174984527096,-0.0044674219353611965
-0.00012392826666666668,0.011921103429271617,-0.0014124656268863435
-0.00012390826666666666,-0.026618614439681762,-0.0010730260370533347
-0.00012388826666666667,-0.025948358476743805,0.0009636115019299004
-0.00012386826666666668,-0.022597078662054022,0.001642490681590979
-0.00012384826666666666,-0.04438039745756215,0.000963611501929746
-0.00012382826666666667,-0.07990396349327386,0.0006241719120992069
-0.00012380826666666666,-0.07755806762299025,0.0009636115019299004
-0.00012378826666666667,-0.07822832358592818,0.0009636115019299004
-0.00012376826666666668,-0.10604394604785339,-0.0024307843963754915
-0.0001237482666666667,-0.12280034512130733,-0.0010730260370554958
-0.00012372826666666667,-0.13855136025037174,-0.0027702239862077284
-0.00012370826666666666,-0.14424853593537254,-0.004127982345530811
-0.00012368826666666667,-0.17239928637874935,-0.004467421935362277
-0.00012366826666666668,-0.16234544693468458,-0.00684349906417497
-0.0001236482666666667,-0.17139390243433833,-0.004467421935363357
-0.00012362826666666667,-0.2146254120438644,-0.006164619884514664
-0.00012360826666666665,-0.224344123506478,-0.005485740704852659
-0.00012358826666666666,-0.23406283496907293,-0.0048068615251917355
-0.00012356826666666667,-0.23171693909879007,-0.0044674219353611965
-0.00012354826666666668,-0.2602028175236532,-0.0051463011150222745
-0.00012352826666666667,-0.26422435330129573,-0.005146301115022583
-0.00012350826666666668,-0.29371561567056576,-0.005146301115022583
-0.00012348826666666666,-0.3148286785031293,-0.0058251802946841244
-0.00012346826666666667,-0.303434327133184,-0.006164619884514664
-0.00012344826666666668,-0.31315303859578436,-0.006164619884514664
-0.00012342826666666667,-0.32856892574338176,-0.006504059474345512
-0.00012340826666666668,-0.3570548041682449,-0.006843499064176051
-0.00012338826666666666,-0.3774976110378692,-0.00854069701332921
-0.00012336826666666667,-0.39358375414838015,-0.007861817833668131
-0.00012334826666666668,-0.42240476055471227,-0.00854069701332921
-0.0001233282666666667,-0.4213993766103189,-0.008540697013329518
-0.00012330826666666667,-0.4277668082582315,-0.008201257423498825
-0.00012328826666666666,-0.4177129688141682,-0.007861817833669366
-0.00012326826666666667,-0.42944244816557714,-0.009219576192990906
-0.00012324826666666668,-0.4405016715540534,-0.008540697013329827
-0.0001232282666666667,-0.47636036557122285,-0.009219576192990289
-0.00012320826666666667,-0.48976548483002064,-0.01057733455231368
-0.00012318826666666665,-0.4968031724408767,-0.010237894962481751
-0.00012316826666666666,-0.5014949641814394,-0.008880136603160059
-0.00012314826666666667,-0.49948419629262547,-0.008540697013329518
-0.00012312826666666669,-0.5088677797737525,-0.010577334552311827
-0.00012310826666666667,-0.549418265531526,-0.009898455372652293
-0.00012308826666666665,-0.5775690159749403,-0.01057733455231368
-0.00012306826666666666,-0.5856120875301843,-0.010577334552313371
