samples/acq3495.csv

#Digilent WaveForms Oscilloscope Acquisition
#Device Name: Discovery2
#Serial Number: SN:210321AD996C
#Date Time: 2025-12-07 12:58:46.316
#Sample rate: 5e+07Hz
#Samples: 8192
#Trigger: Source: Channel 1 Type: Edge Condition: Rising Level: 0 V Hyst.: Auto HoldOff: 0 s
#Channel 1: Range: 500 mV/div Offset: 0 V Sample Mode: Average
#Channel 2: Range: 500 mV/div Offset: 0 V Sample Mode: Average
#Wavegen Channel 1: Running
#Mode: Custom
#Type: noisy
#Frequency: 117 kHz
#Period: 8.547008547 us
#Amplitude: 1 V
#Offset: 0 V
#Phase: 0 °

Time (s),Channel 1 (V),Channel 2 (V)
-0.00012899174603174605,-0.5272998187545511,-0.007861817833667205
-0.00012897174603174603,-0.5407049380133285,-0.008880136603160213
-0.00012895174603174602,-0.5165757233475609,-0.011256213731974758
-0.00012893174603174603,-0.5272998187545508,-0.0109167741421453
-0.00012891174603174604,-0.4998193242740946,-0.012953411681128535
-0.00012889174603174605,-0.4740144697009832,-0.012274532501467456
-0.00012887174603174603,-0.4596039664977989,-0.009898455372652293
-0.00012885174603174604,-0.44519346329463283,-0.011595653321804988
-0.00012883174603174602,-0.4146968169809273,-0.011595653321805142
-0.00012881174603174603,-0.39693503396307145,-0.010237894962482987
-0.00012879174603174604,-0.3919081142410368,-0.010916774142144064
-0.00012877174603174603,-0.38386504268578514,-0.010577334552313834
-0.00012875174603174604,-0.40531323349979975,-0.010916774142144373
-0.00012873174603174602,-0.3630871078346795,-0.008880136603160676
-0.00012871174603174603,-0.3416389170206649,-0.009898455372652293
-0.00012869174603174604,-0.3456604527982926,-0.009898455372652293
-0.00012867174603174605,-0.3225366220769455,-0.009219576192991524
-0.00012865174603174604,-0.33225533353952924,-0.008540697013329518
-0.00012863174603174602,-0.2876833120041281,-0.008540697013329518
-0.00012861174603174603,-0.28031049641180195,-0.00854069701332921
-0.00012859174603174604,-0.2538353858757647,-0.00786181783366844
-0.00012857174603174605,-0.2645594812827551,-0.008201257423498516
-0.00012855174603174603,-0.24780308220930833,-0.008201257423498825
-0.00012853174603174602,-0.218311819840016,-0.00820125742349759
-0.00012851174603174603,-0.2085931083774199,-0.006843499064176205
-0.00012849174603174604,-0.20825798039595092,-0.007182938654006744
-0.00012847174603174605,-0.19317722122984687,-0.007861817833667822
-0.00012845174603174603,-0.17407492628609958,-0.007182938654006744
-0.00012843174603174601,-0.14692955978709055,-0.0068434990641754335
-0.00012841174603174602,-0.13654059236155008,-0.006164619884514047
-0.00012839174603174603,-0.12145983319544607,-0.00480686152519189
-0.00012837174603174604,-0.10704932999227998,-0.006164619884514047
-0.00012835174603174603,-0.1150924015475193,-0.006843499064175588
-0.00012833174603174604,-0.08593626715973146,-0.005825180294684433
-0.00012831174603174602,-0.06549346029010458,-0.006164619884514047
-0.00012829174603174603,-0.07286627588242212,-0.00480686152519189
-0.00012827174603174604,-0.05108295708693851,-0.004127982345530811
-0.00012825174603174605,-0.05007757314252213,-0.0054857407048520416
-0.00012823174603174604,-0.04069398966138556,-0.004127982345530502
-0.00012821174603174602,-0.013213495180890324,-0.003449103165870042
-0.00012819174603174603,0.01594263920689753,-0.0044674219353611965
-0.00012817174603174604,0.031023398373001554,-0.0048068615251917355
-0.00012815174603174605,0.04677441350204323,-0.004467421935361505
-0.00012813174603174603,0.053812101112909294,-0.0027702239862077284
-0.00012811174603174602,0.0631956845940669,-0.0037885427556995
-0.00012809174603174603,0.08732489925981643,-0.0034491031658686524
-0.00012807174603174604,0.07425490798252626,-0.002430784396377035
-0.00012805174603174605,0.08196285155630927,-0.002430784396377035
-0.00012803174603174603,0.12787538501758716,-0.002430784396377035
-0.00012801174603174601,0.16138818316448988,-0.001751905216715339
-0.00012799174603174602,0.14999383179454662,-0.0014124656268854176
-0.00012797174603174603,0.14295614418369806,-0.002430784396377035
-0.00012795174603174605,0.1687609987568094,-0.002430784396377035
-0.00012793174603174603,0.1737879184788637,-0.0017519052167158022
-0.00012791174603174604,0.18618765379321028,-0.0020913448065461872
-0.00012789174603174602,0.21835994001424988,-0.0007335864472237216
-0.00012787174603174603,0.21266276432927725,-0.0010730260370542608
-0.00012785174603174604,0.25589427393877545,0.00028473232226789596
-0.00012783174603174605,0.26393734549404696,-5.4707267561871506e-05
-0.00012781174603174604,0.2719804170493134,-0.00039414685739287377
-0.00012779174603174602,0.29577450373365094,0.0009636115019295917
-0.00012777174603174603,0.3279467899546582,0.0006241719120992069
-0.00012775174603174604,0.3359898615099137,0.0016424906815908243
-0.00012773174603174605,0.35944882021273517,0.0009636115019305178
-0.00012771174603174603,0.3798916270823735,0.0016424906815912875
-0.00012769174603174602,0.3725188114900788,0.0013030510917621376
-0.00012767174603174603,0.40133981789639084,0.003000249040913907
-0.00012765174603174604,0.3859239307488178,0.0026608094510833682
-0.00012763174603174605,0.39664802615582023,0.0016424906815922136
-0.00012761174603174603,0.4214474967845457,0.0023213698612526744
-0.00012759174603174601,0.4311662082471587,0.002660809451083986
-0.00012757174603174603,0.4402146637468233,0.003339688630744755
-0.00012755174603174604,0.4539549109870514,0.003339688630744755
-0.00012753174603174605,0.47071131006050027,0.003339688630744755
-0.00012751174603174603,0.46668977428287833,0.003339688630744755
-0.00012749174603174604,0.501878212337121,0.002660809451083677
-0.00012747174603174602,0.5219858912252845,0.005036886579897914
-0.00012745174603174603,0.5209805072808775,0.0043580074002368355
-0.00012743174603174604,0.5196399953550015,0.003339688630745218
-0.00012741174603174605,0.5444394659836941,0.004018567810405525
-0.00012739174603174604,0.527347938928791,0.004018567810406142
-0.00012737174603174602,0.5675632967050871,0.006055205349389377
-0.00012735174603174603,0.5685686806494941,0.004018567810406142
-0.00012733174603174604,0.5601904811127696,0.004358007400236681
-0.00012731174603174605,0.5685686806494864,0.00537632616972799
-0.00012729174603174603,0.6020814787964072,0.00571576575955961
-0.00012727174603174602,0.5983950710002544,0.005715765759559301
-0.00012725174603174603,0.606773270536977,0.005376326169728453
-0.00012723174603174604,0.6114650622775407,0.004358007400237299
-0.00012721174603174605,0.6342537650174229,0.005715765759558375
-0.00012719174603174603,0.6630747714237889,0.006055205349390303
-0.00012717174603174602,0.6731286108678768,0.007073524118881458
-0.00012715174603174603,0.6885444980154416,0.006055205349390149
-0.00012713174603174604,0.6858634741636898,0.00571576575955961
-0.00012711174603174605,0.696252441589228,0.006734084529051228
-0.00012709174603174603,0.6929011617745415,0.006394644939220997
-0.00012707174603174604,0.7264139599214394,0.0074129637087126145
-0.00012705174603174602,0.7307706236805483,0.007412963708712923
-0.00012703174603174603,0.719711400292072,0.007073524118882384
-0.00012701174603174604,0.7341219034952381,0.007412963708712923
-0.00012699174603174603,0.7508783025686975,0.006734084529051691
-0.00012697174603174604,0.7428352310134421,0.006734084529051691
-0.00012695174603174602,0.761937525957192,0.00911016165786639
-0.00012693174603174603,0.7830505887897377,0.008770722068035851
-0.00012691174603174604,0.8001421158446556,0.008091842888374773
-0.00012689174603174605,0.804498779603758,0.008091842888374464
-0.00012687174603174604,0.8142174910663669,0.008431282478205158
-0.00012685174603174602,0.805839291529631,0.008431282478205158
-0.00012683174603174603,0.7974610919929235,0.008431282478205467
-0.00012681174603174604,0.8262820983992425,0.009110161657866236
-0.00012679174603174605,0.8303036341768815,0.008431282478205775
-0.00012677174603174603,0.8339900419730456,0.008091842888374464
-0.00012675174603174602,0.8366710658248044,0.009110161657868088
-0.00012673174603174603,0.8430384974727134,0.01080735960701955
-0.00012671174603174604,0.8460546493059343,0.009789040837527933
-0.00012669174603174605,0.8453843933429963,0.009110161657866853
-0.00012667174603174603,0.8688433520458352,0.008431282478205158
-0.00012665174603174601,0.8815782153416707,0.010128480427358935
-0.00012663174603174602,0.890961798822802,0.010467920017189474
-0.00012661174603174603,0.9003453823039335,0.010807359607020013
-0.00012659174603174604,0.9047020460630302,0.009789040837528396
-0.00012657174603174603,0.8996751263409978,0.010467920017189474
-0.00012655174603174604,0.9053723020259679,0.010807359607019859
-0.00012653174603174602,0.9174369093588574,0.010467920017189629
-0.00012651174603174603,0.9134153735812296,0.011146799196850707
-0.00012649174603174604,0.9194476772476711,0.01012848042735909
-0.00012647174603174605,0.9023561501927637,0.009449601247697857
-0.00012645174603174604,0.927490748802933,0.010807359607020013
-0.00012643174603174602,0.9301717726546702,0.01114679919684978
-0.00012641174603174603,0.9127451176182912,0.010128480427358626
-0.00012639174603174604,0.9321825405434919,0.010128480427358626
-0.00012637174603174605,0.9419012520060968,0.010807359607019396
-0.00012635174603174603,0.9539658593389944,0.010128480427358626
-0.00012633174603174602,0.9603332909868987,0.011146799196850089
-0.00012631174603174603,0.9502794515428461,0.010467920017189783
-0.00012629174603174604,0.9770896900603644,0.0114862387866814
-0.00012627174603174605,0.9596630350239854,0.010128480427359862
-0.00012625174603174603,0.9499443235613648,0.01046792001718932
-0.00012623174603174601,0.9730681542827303,0.011146799196850089
-0.00012621174603174602,0.9680412345606918,0.010467920017188702
-0.00012619174603174604,0.9549712432834018,0.009110161657866545
-0.00012617174603174605,0.951284835487243,0.010807359607019241
-0.00012615174603174603,0.9408958680617019,0.010807359607019859
-0.00012613174603174604,0.9489389396169537,0.010467920017189474
-0.00012611174603174602,0.946593043746676,0.010467920017189783
-0.00012609174603174603,0.9519550914501795,0.0114862387866814
-0.00012607174603174604,0.974073538227132,0.010807359607020322
-0.00012605174603174605,0.9754140501530175,0.011146799196850398
-0.00012603174603174604,0.9656953386904139,0.01046792001718932
-0.00012601174603174602,0.9529604753945747,0.010467920017189937
-0.00012599174603174603,0.9395553561358218,0.011146799196850707
-0.00012597174603174604,0.9539658593389878,0.010807359607020168
-0.00012595174603174605,0.9563117552092761,0.010467920017189629
-0.00012593174603174603,0.9365392043025995,0.01046792001718932
-0.00012591174603174602,0.9475984276910686,0.010807359607020013
-0.00012589174603174603,0.9341933084323271,0.010807359607020476
-0.00012587174603174604,0.9593279070425005,0.011825678376512093
-0.00012585174603174605,0.9603332909869069,0.011146799196851324
-0.00012583174603174603,0.9536307313575252,0.0114862387866814
-0.00012581174603174602,0.9432417639319688,0.011486238786680474
-0.00012579174603174603,0.9284961327473426,0.01046792001718932
-0.00012577174603174604,0.9331879244879082,0.01046792001718932
-0.00012575174603174605,0.9308420286176254,0.010807359607019859
-0.00012573174603174603,0.9244745969697109,0.01046792001718932
-0.00012571174603174604,0.9341933084323112,0.01046792001718932
-0.00012569174603174602,0.9127451176182965,0.010807359607019704
-0.00012567174603174603,0.9241394689882417,0.010128480427358626
-0.00012565174603174604,0.9227989570623657,0.009110161657867008
-0.00012563174603174603,0.9124099896368223,0.009789040837528087
-0.00012561174603174604,0.9127451176182912,0.010128480427358626
-0.00012559174603174602,0.9174369093588431,0.00944960124769724
-0.00012557174603174603,0.8822484713046004,0.00944960124769724
-0.00012555174603174604,0.8832538552490073,0.010128480427358318
-0.00012553174603174605,0.880907959378726,0.009110161657867471
-0.00012551174603174603,0.8718595038790573,0.009110161657866545
-0.00012549174603174602,0.8772215515825524,0.008770722068035542
-0.00012547174603174603,0.8651569442496719,0.008431282478205312
-0.00012545174603174604,0.8591246405832331,0.008770722068035697
-0.00012543174603174605,0.8604651525091057,0.009110161657866236
-0.00012541174603174603,0.8571138726944156,0.009110161657866545
-0.00012539174603174602,0.832984658028641,0.008770722068035851
-0.00012537174603174603,0.8360008098618505,0.008770722068035234
-0.00012535174603174604,0.8145526190478359,0.007412963708713078
-0.00012533174603174605,0.8028231396964217,0.007412963708713078
-0.00012531174603174603,0.7897531484191204,0.007752403298543771
-0.00012529174603174604,0.7971259640114379,0.007752403298543771
-0.00012527174603174602,0.7837208447526749,0.007412963708713386
-0.00012525174603174603,0.781374948882392,0.008091842888374464
-0.00012523174603174604,0.7880775085117717,0.008431282478205003
-0.00012521174603174603,0.7559052222907426,0.006734084529052154
-0.00012519174603174604,0.765959061734812,0.007752403298543771
-0.00012517174603174602,0.7837208447526572,0.008431282478204695
-0.00012515174603174603,0.7425001030319729,0.007412963708713078
-0.00012513174603174604,0.7210519122179583,0.006055205349390921
-0.00012511174603174605,0.727754471847325,0.0074129637087118425
-0.00012509174603174604,0.7391488232172816,0.007412963708713078
-0.00012507174603174602,0.7180357603847068,0.008091842888373847
-0.00012505174603174603,0.6965875695706963,0.007412963708712769
-0.00012503174603174604,0.6841878342563498,0.006734084529052
-0.00012501174603174605,0.6959173136077531,0.0063946449392213054
-0.00012499174603174603,0.6771501466454924,0.006734084529051691
-0.00012497174603174602,0.6727934828863632,0.006055205349390303
-0.00012495174603174603,0.6392806847394773,0.006055205349389686
-0.00012493174603174604,0.6319078691471598,0.004697446990067529
-0.00012491174603174605,0.6372699168506609,0.0057157657595586836
-0.00012489174603174603,0.6195081338328019,0.004697446990067529
-0.00012487174603174601,0.6141460861292956,0.004697446990068455
-0.00012485174603174602,0.6138109581478198,0.0057157657595594555
-0.00012483174603174603,0.5987301989817159,0.0053763261697289165
-0.00012481174603174604,0.5983950710002468,0.0053763261697289165
-0.00012479174603174603,0.5769468801862068,0.00503688657989776
-0.00012477174603174604,0.5427638260763865,0.004018567810406605
-0.00012475174603174602,0.5534879214833742,0.004697446990067066
-0.00012473174603174603,0.5337153705767045,0.003679128220575449
-0.00012471174603174604,0.5317046026878905,0.004018567810405988
-0.00012469174603174605,0.5216507632438249,0.0030002490409149875
-0.00012467174603174604,0.5196399953550009,0.004018567810406142
-0.00012465174603174602,0.5015430843556454,0.003000249040914988
-0.00012463174603174603,0.47674361372695223,0.004018567810406142
-0.00012461174603174604,0.4613277265793792,0.0026608094510839854
-0.00012459174603174605,0.4472523513576816,0.0019819302714225986
-0.00012457174603174603,0.4294905683398048,0.003339688630744755
-0.00012455174603174602,0.40301545780373893,0.0016424906815906701
-0.00012453174603174603,0.39798853808170515,0.000963611501930209
-0.00012451174603174604,0.39497238624848435,0.0016424906815912875
-0.00012449174603174605,0.39564264221142204,0.0013030510917609026
-0.00012447174603174603,0.3721836835085835,0.0016424906815912875
-0.00012445174603174601,0.3591136922312865,0.0016424906815906701
-0.00012443174603174602,0.3581083082868628,0.0009636115019299004
-0.00012441174603174604,0.3202388463808682,0.0009636115019299004
-0.00012439174603174605,0.32124423032527516,0.0006241719120993613
-0.00012437174603174603,0.31621731060323743,0.0009636115019295917
-0.00012435174603174604,0.3135362867514868,0.000284732322268822
-0.00012433174603174602,0.2971150156594872,-0.0003941468573930281
-0.00012431174603174603,0.2729858009937208,-0.0007335864472235673
-0.00012429174603174604,0.2605860656793686,-0.0007335864472235673
-0.00012427174603174605,0.22640301156954268,-0.0007335864472235673
-0.00012425174603174604,0.22707326753244986,-0.0007335864472235673
-0.00012423174603174602,0.20830610057017002,-0.0014124656268846457
-0.00012421174603174603,0.19892251708904288,-0.0010730260370542608
-0.00012419174603174604,0.20260892488520166,-0.0007335864472237216
-0.00012417174603174605,0.18451201388588673,-0.0014124656268843369
-0.00012415174603174603,0.15300998362777196,-0.0034491031658691156
-0.00012413174603174602,0.1322320487766554,-0.0027702239862074196
-0.00012411174603174603,0.09871925062977371,-0.0024307843963768806
-0.00012409174603174604,0.10073001851858668,-0.002091344806546496
-0.00012407174603174605,0.08698977127836571,-0.00412798234552865
-0.00012405174603174603,0.07727105981574844,-0.0034491031658691156
-0.00012403174603174602,0.05515261303877332,-0.003788542755699809
-0.00012401174603174603,0.0414123657985568,-0.0037885427557004265
-0.00012399174603174604,0.053141845149971036,-0.005146301115022583
-0.00012397174603174605,0.05079594927968819,-0.004806861525192044
-0.00012395174603174603,0.023650582780687535,-0.005146301115022583
-0.00012393174603174604,-0.009191959403272342,-0.005485740704853122
-0.00012391174603174602,-0.01824041490295121,-0.0058251802946841244
-0.00012389174603174603,-0.012543239217978579,-0.006164619884514664
-0.00012387174603174604,-0.04806680525369028,-0.0048068615251925075
-0.00012385174603174603,-0.07052038001214246,-0.0061646198845143555
-0.00012383174603174604,-0.07990396349327386,-0.005485740704853277
-0.00012381174603174602,-0.07219601991949101,-0.006164619884514664
-0.00012379174603174603,-0.08794703504853299,-0.006164619884514664
-0.00012377174603174604,-0.1140870176031133,-0.006843499064175742
-0.00012375174603174605,-0.13587033639859886,-0.006843499064176051
-0.00012373174603174603,-0.13654059236155694,-0.007861817833668131
-0.00012371174603174602,-0.13184880062102508,-0.007522378243837747
-0.00012369174603174603,-0.17139390243434519,-0.007861817833668131
-0.00012367174603174604,-0.16837775060112573,-0.007861817833668131
-0.00012365174603174605,-0.2052418285626952,-0.0085406970133289
-0.00012363174603174603,-0.23607360285788875,-0.007522378243837438
-0.00012361174603174602,-0.2565164097274917,-0.004467421935359961
-0.00012359174603174603,-0.24110052257993425,-0.003109663576038731
-0.00012357174603174604,-0.259867689542197,-0.003788542755699809
-0.00012355174603174605,-0.2638892253198247,-0.005146301115021966
-0.00012353174603174603,-0.272602552838024,-0.005485740704853277
-0.00012351174603174604,-0.3000830473184802,-0.00446742193536166
-0.00012349174603174602,-0.286677928059741,-0.0041279823455309655
-0.00012347174603174603,-0.3165043184104801,-0.005146301115022583
-0.00012345174603174604,-0.3516927564647228,-0.005825180294683661
-0.00012343174603174603,-0.3580601881126509,-0.006164619884514973
-0.00012341174603174604,-0.3550440362794301,-0.006843499064176051
-0.00012339174603174602,-0.37615709911199235,-0.007522378243837438
-0.00012337174603174603,-0.3915729862595654,-0.007522378243837438
-0.00012335174603174604,-0.40598348946273144,-0.008880136603159595
-0.00012333174603174605,-0.4230750165176481,-0.007522378243838673
-0.00012331174603174604,-0.4083293853330219,-0.008201257423498825
-0.00012329174603174602,-0.42843706422117916,-0.007522378243837129
-0.00012327174603174603,-0.4388260316467128,-0.007182938654006744
-0.00012325174603174604,-0.45859858255338254,-0.008201257423498361
-0.00012323174603174605,-0.46295524631248625,-0.00854069701332921
-0.00012321174603174603,-0.49814368436674894,-0.008540697013329518
-0.00012319174603174602,-0.5011598361999814,-0.008880136603159904
-0.00012317174603174603,-0.5125541875699333,-0.008540697013329827
-0.00012315174603174604,-0.5383590421430446,-0.009219576192990906
-0.00012313174603174605,-0.5484128815871094,-0.008201257423499751
-0.00012311174603174603,-0.5470723696612421,-0.009219576192990906
-0.00012309174603174601,-0.5859472155116673,-0.009559015782820982
-0.00012307174603174602,-0.5926497751410409,-0.008880136603160367
-0.00012305174603174603,-0.5862823434931304,-0.009219576192990906
