samples/acq3479.csv

#Digilent WaveForms Oscilloscope Acquisition
#Device Name: Discovery2
#Serial Number: SN:210321AD996C
#Date Time: 2025-12-07 12:58:45.801
#Sample rate: 5e+07Hz
#Samples: 8192
#Trigger: Source: Channel 1 Type: Edge Condition: Rising Level: 0 V Hyst.: Auto HoldOff: 0 s
#Channel 1: Range: 500 mV/div Offset: 0 V Sample Mode: Average
#Channel 2: Range: 500 mV/div Offset: 0 V Sample Mode: Average
#Wavegen Channel 1: Running
#Mode: Custom
#Type: noisy
#Frequency: 117 kHz
#Period: 8.547008547 us
#Amplitude: 1 V
#Offset: 0 V
#Phase: 0 °

Time (s),Channel 1 (V),Channel 2 (V)
-0.00012899395833333333,-0.5229431549954646,-0.021778841016726568
-0.00012897395833333334,-0.5132244435328642,-0.022457720196387646
-0.00012895395833333333,-0.5035057320702583,-0.02211828060655695
-0.00012893395833333334,-0.5105434196811035,-0.021439401426896182
-0.00012891395833333335,-0.4803819013489124,-0.021099961837065487
-0.00012889395833333333,-0.4602742224607372,-0.020760522247234486
-0.00012887395833333334,-0.4425124394428813,-0.021778841016726107
-0.00012885395833333335,-0.43949628760965376,-0.021439401426896182
-0.00012883395833333334,-0.4411719275169967,-0.0200816430675731
-0.00012881395833333335,-0.42408040046207884,-0.0200816430675731
-0.00012879395833333333,-0.42206963257325625,-0.019742203477742404
-0.00012877395833333334,-0.4059834894627453,-0.019402763887911866
-0.00012875395833333335,-0.4096698972588951,-0.019402763887911713
-0.00012873395833333333,-0.40363759359245405,-0.020760522247234486
-0.00012871395833333334,-0.3671086436123354,-0.019063324298081788
-0.00012869395833333333,-0.35135762848326707,-0.018723884708250326
-0.00012867395833333334,-0.34566045279829705,-0.018723884708250326
-0.00012865395833333335,-0.34264430096507503,-0.01838444511841994
-0.00012863395833333333,-0.3272284138174923,-0.018723884708250326
-0.00012861395833333334,-0.2960615115408773,-0.01770556593875871
-0.00012859395833333335,-0.28734818402267365,-0.017705565938758244
-0.00012857395833333333,-0.2514894900054687,-0.019063324298081018
-0.00012855395833333334,-0.2400951386355235,-0.016347807579436706
-0.00012853395833333333,-0.23372770698760484,-0.017705565938758244
-0.00012851395833333334,-0.2099336203033074,-0.017705565938758244
-0.00012849395833333335,-0.22233335561764314,-0.01668724716926709
-0.00012847395833333333,-0.20658234048860524,-0.016008367989604776
-0.00012845395833333334,-0.18010722995255599,-0.015329488809943698
-0.00012843395833333333,-0.18044235793400512,-0.015329488809943698
-0.00012841395833333334,-0.16301570289761827,-0.016008367989604776
-0.00012839395833333335,-0.15798878317558587,-0.015329488809944006
-0.00012837395833333333,-0.13151367263952,-0.015329488809943389
-0.00012835395833333334,-0.10738445797375355,-0.014650609630282311
-0.00012833395833333335,-0.10034677036289723,-0.014311170040451618
-0.00012831395833333333,-0.09498472265938473,-0.013632290860789922
-0.00012829395833333334,-0.06683397221599055,-0.014311170040451
-0.00012827395833333333,-0.06716910019744687,-0.013971730450619998
-0.00012825395833333334,-0.06716910019744687,-0.01261397209129846
-0.00012823395833333335,-0.04940731717959911,-0.01397173045061938
-0.00012821395833333333,-0.024942974532336414,-0.013292851270959229
-0.00012819395833333334,-0.003159655736852826,-0.013292851270959229
-0.00012817395833333335,0.018623663058630766,-0.011595653321807304
-0.00012815395833333333,0.02130468691040362,-0.012953411681128535
-0.00012813395833333335,0.041077237817073335,-0.011256213731975839
-0.00012811395833333333,0.056828252946131474,-0.012274532501467147
-0.00012809395833333334,0.06084978872375921,-0.011595653321806069
-0.00012807395833333335,0.08564925935245417,-0.010577334552314606
-0.00012805395833333333,0.10676232218503195,-0.009898455372652293
-0.00012803395833333334,0.11011360199972173,-0.009559015782821754
-0.00012801395833333333,0.12150795336967524,-0.009898455372652293
-0.00012799395833333334,0.12485923318436501,-0.009898455372652293
-0.00012797395833333335,0.14798306390571397,-0.009898455372652293
-0.00012795395833333333,0.1499938317945498,-0.008540697013329518
-0.00012793395833333334,0.178144582237944,-0.009219576192990598
-0.00012791395833333335,0.20629533268133815,-0.007861817833669366
-0.00012789395833333333,0.2230517317548203,-0.008540697013329518
-0.00012787395833333334,0.21701942808837868,-0.008880136603160059
-0.00012785395833333333,0.22941916340273377,-0.007861817833668131
-0.00012783395833333334,0.2565645299017211,-0.00820125742349867
-0.00012781395833333335,0.27499656888251883,-0.007522378243838055
-0.00012779395833333333,0.2924232239189304,-0.006843499064176051
-0.00012777395833333334,0.3158821826217589,-0.006164619884514973
-0.00012775395833333333,0.3088444950109229,-0.006504059474345203
-0.00012773395833333334,0.3202388463808682,-0.006164619884514664
-0.00012771395833333335,0.31889833445499294,-0.006504059474345049
-0.00012769395833333333,0.35107062067602823,-0.005146301115022583
-0.00012767395833333334,0.37285393947151185,-0.006843499064175279
-0.00012765395833333335,0.36179471608305047,-0.005825180294684896
-0.00012763395833333333,0.3604542041571639,-0.005146301115022583
-0.00012761395833333334,0.389610338544965,-0.006164619884514201
-0.00012759395833333333,0.4050262256925646,-0.005485740704853277
-0.00012757395833333334,0.41876647293278635,-0.005485740704853277
-0.00012755395833333335,0.4485928632835181,-0.0048068615251925075
-0.00012753395833333333,0.460657470616434,-0.0044674219353611965
-0.00012751395833333334,0.46166285456084094,-0.004127982345530657
-0.00012749395833333335,0.485456941245128,-0.004467421935360888
-0.00012747395833333333,0.48847309307837183,-0.0044674219353611965
-0.00012745395833333334,0.5109266678367934,-0.0034491031658695787
-0.00012743395833333333,0.5109266678368036,-0.004127982345530502
-0.00012741395833333334,0.5270128109473146,-0.0031096635760388854
-0.00012739395833333335,0.5521474095574838,-0.002770223986208037
-0.00012737395833333333,0.5487961297428153,-0.0034491031658691156
-0.00012735395833333334,0.5343856265396493,-0.0041279823455301935
-0.00012733395833333333,0.551477153594572,-0.004467421935361042
-0.00012731395833333334,0.5591850971683584,-0.004127982345530502
-0.00012729395833333335,0.5571743292795454,-0.004467421935360888
-0.00012727395833333333,0.5923627673338023,-0.003788542755699809
-0.00012725395833333334,0.6265458214436381,-0.002430784396377652
-0.00012723395833333335,0.6402860686838755,-0.002430784396377035
-0.00012721395833333333,0.6302322292398141,-0.0020913448065463416
-0.00012719395833333334,0.6456481163873872,-0.0024307843963768806
-0.00012717395833333333,0.6758096347196085,-0.0014124656268849544
-0.00012715395833333334,0.6597234916091049,-0.0014124656268849544
-0.00012713395833333335,0.6882093700339479,-0.001751905216715339
-0.00012711395833333333,0.7046306411259611,-0.002430784396377035
-0.00012709395833333334,0.7026198732371473,-0.002091344806546496
-0.00012707395833333335,0.7056360250703657,-0.001412465626885572
-0.00012705395833333334,0.7026198732371464,-0.0010730260370542608
-0.00012703395833333335,0.6989334654409892,-0.000733586447223876
-0.00012701395833333333,0.7277544718473311,-0.0010730260370542608
-0.00012699395833333334,0.7461865108281249,-0.0007335864472237216
-0.00012697395833333335,0.7505431745872281,-0.0014124656268843369
-0.00012695395833333333,0.7304354956990842,-0.0020913448065463416
-0.00012693395833333334,0.7619375259571681,0.000284732322267433
-0.00012691395833333333,0.7686400855865736,-0.0010730260370536435
-0.00012689395833333334,0.7874072525488278,0.00028473232226789596
-0.00012687395833333335,0.8011474997890582,-0.0003941468573922563
-0.00012685395833333333,0.8001421158446633,-0.00039414685739287377
-0.00012683395833333334,0.8135472351034225,0.001642490681590361
-0.00012681395833333335,0.7994718598817379,-0.001073026037051791
-0.00012679395833333333,0.8282928662880703,-0.00039414685739287377
-0.00012677395833333334,0.8477302892132711,0.0006241719120987436
-0.00012675395833333333,0.8537625928797242,0.001981930271421981
-0.00012673395833333334,0.858789512601759,0.0006241719120998242
-0.00012671395833333335,0.8762161676381401,0.0013030510917599763
-0.00012669395833333333,0.8601300245276378,0.001981930271421981
-0.00012667395833333334,0.8618056644349826,0.00232136986125252
-0.00012665395833333333,0.8644866882867402,0.001981930271421981
-0.00012663395833333334,0.8728648878234647,0.001981930271421981
-0.00012661395833333335,0.8745405277308088,0.0009636115019308266
-0.00012659395833333333,0.8701838639717117,0.0002847323222685133
-0.00012657395833333334,0.8929725667116022,0.0013030510917601307
-0.00012655395833333335,0.9060425579888968,0.0013030510917605939
-0.00012653395833333333,0.9087235818406617,0.0013030510917605939
-0.00012651395833333334,0.9050371740445029,0.00300024904091329
-0.00012649395833333333,0.9261502368770462,0.0023213698612522113
-0.00012647395833333334,0.9033615341371659,0.001303051091761057
-0.00012645395833333335,0.9147558855070957,0.0016424906815909787
-0.00012643395833333333,0.9536307313575252,0.0030002490409140616
-0.00012641395833333334,0.9281610047658828,0.002321369861252983
-0.00012639395833333335,0.9231340850438389,0.0009636115019311354
-0.00012637395833333333,0.9375445882470069,0.0023213698612526744
-0.00012635395833333335,0.9341933084323172,0.003000249040913753
-0.00012633395833333333,0.9663655946533521,0.0023213698612526744
-0.00012631395833333334,0.9663655946533521,0.003000249040913753
-0.00012629395833333335,0.9462579157652227,0.0036791282205748312
-0.00012627395833333333,0.9680412345606978,0.003339688630744755
-0.00012625395833333334,0.9630143148386632,0.0006241719121004418
-0.00012623395833333333,0.9532956033760687,0.0023213698612531376
-0.00012621395833333334,0.9807760978565122,0.003339688630744292
-0.00012619395833333335,0.9690466185051159,0.002660809451083986
-0.00012617395833333333,0.9680412345606978,0.003679128220575449
-0.00012615395833333334,0.9925055772079333,0.0033396886307449094
-0.00012613395833333335,0.9663655946533759,0.005036886579896679
-0.00012611395833333333,0.9693817464865744,0.003339688630744755
-0.00012609395833333334,0.9921704492264649,0.003000249040914216
-0.00012607395833333333,0.9690466185051052,0.0016424906815912875
-0.00012605395833333334,0.9680412345606982,0.0033396886307439835
-0.00012603395833333335,0.9610035469498526,0.004018567810405525
-0.00012601395833333333,0.95564149924634,0.0026608094510833682
-0.00012599395833333334,0.9606684189683746,0.003339688630744446
-0.00012597395833333333,0.9864732735414928,0.004358007400236064
-0.00012595395833333334,0.9707222584124509,0.0026608094510833682
-0.00012593395833333335,0.9633494428201367,0.002321369861252983
-0.00012591395833333333,0.9519550914501795,0.0026608094510833682
-0.00012589395833333334,0.975078922171539,0.003000249040913907
-0.00012587395833333335,0.9821166097823949,0.0036791282205748312
-0.00012585395833333333,0.9465930437466735,0.0030002490409140616
-0.00012583395833333334,0.9398904841172938,0.0019819302714224442
-0.00012581395833333333,0.9425715079690492,0.0016424906815919048
-0.00012579395833333334,0.9543009873204582,0.0030002490409134445
-0.00012577395833333335,0.9653602107089347,0.0036791282205748312
-0.00012575395833333333,0.9496091955798956,0.0023213698612526744
-0.00012573395833333334,0.9405607400802333,0.0019819302714221354
-0.00012571395833333335,0.931177156599102,0.001981930271421981
-0.00012569395833333333,0.9315122845805626,0.0009636115019299004
-0.00012567395833333334,0.9291663887102798,0.002321369861252057
-0.00012565395833333333,0.9174369093588591,0.0023213698612526744
-0.00012563395833333334,0.9090587098221347,0.0019819302714221354
-0.00012561395833333335,0.9057074300074426,0.0013030510917612114
-0.00012559395833333333,0.8933076946930817,0.001981930271421981
-0.00012557395833333334,0.8996751263409923,0.00232136986125252
-0.00012555395833333333,0.9160963974329842,0.002660809451083986
-0.00012553395833333334,0.919782805229143,0.004018567810406142
-0.00012551395833333335,0.8939779506560434,0.002660809451084603
-0.00012549395833333333,0.8926374387301435,0.0013030510917605939
-0.00012547395833333334,0.8809079593787292,0.0019819302714216723
-0.00012545395833333335,0.8742053997493473,0.0013030510917612114
-0.00012543395833333333,0.8664974561755513,0.0013030510917605939
-0.00012541395833333334,0.8825835992860622,0.0023213698612522113
-0.00012539395833333333,0.8859348791007609,0.0023213698612526744
-0.00012537395833333334,0.8634813043423393,0.00028473232226943965
-0.00012535395833333335,0.8494059291206384,0.0009636115019292829
-0.00012533395833333333,0.8286279942695395,0.0009636115019299004
-0.00012531395833333334,0.820920050695753,0.0013030510917604395
-0.00012529395833333335,0.80081237180762,0.00028473232226943943
-0.00012527395833333334,0.7867369965858981,0.0009636115019299004
-0.00012525395833333335,0.8021528837334642,0.001303051091760285
-0.00012523395833333333,0.7977962199743794,0.0009636115019299004
-0.00012521395833333334,0.7957854520855655,-0.0010730260370533343
-0.00012519395833333335,0.787407252548844,-5.470726756310641e-05
-0.00012517395833333333,0.7629429099015899,0.0002847323222685133
-0.00012515395833333334,0.7579159901795552,-0.0003941468573925651
-0.00012513395833333333,0.7425001030319814,-0.0007335864472231042
-0.00012511395833333334,0.7612672699942357,0.00028473232226805013
-0.00012509395833333335,0.7274193438658928,0.0002847323222685133
-0.00012507395833333333,0.7227275521252942,-0.0017519052167156478
-0.00012505395833333334,0.724403192032639,-0.0007335864472240304
-0.00012503395833333335,0.728089599828797,-0.0003941468573931825
-0.00012501395833333333,0.6908903938857267,-0.0014124656268849544
-0.00012499395833333334,0.701279361311265,-0.0010730260370544152
-0.00012497395833333333,0.6875391140710354,-0.0014124656268849544
-0.00012495395833333334,0.6704475870161175,-0.002430784396376572
-0.00012493395833333335,0.6443076044615413,-0.0017519052167162654
-0.00012491395833333333,0.6510101640909002,-0.0027702239862077284
-0.00012489395833333334,0.624199925573382,-0.0027702239862077284
-0.00012487395833333333,0.6138109581478223,-0.0024307843963781153
-0.00012485395833333334,0.6040922466852219,-0.00480686152519189
-0.00012483395833333335,0.6144812141107555,-0.003109663576039966
-0.00012481395833333333,0.5994004549446541,-0.002430784396377035
-0.00012479395833333334,0.5890114875191158,-0.0034491031658686524
-0.00012477395833333335,0.5672281687236373,-0.003109663576038731
-0.00012475395833333333,0.5638768889089262,-0.0034491031658691156
-0.00012473395833333334,0.5444394659837255,-0.0041279823455301935
-0.00012471395833333333,0.5286884508546597,-0.004467421935361505
-0.00012469395833333334,0.5112617958182806,-0.0051463011150222745
-0.00012467395833333335,0.5112617958182727,-0.005146301115022583
-0.00012465395833333333,0.5062348760962357,-0.004127982345530502
-0.00012463395833333334,0.4978566765595113,-0.004467421935361042
-0.00012461395833333335,0.4683654141902508,-0.003449103165870042
-0.00012459395833333333,0.45261439906117484,0.00571576575955961
-0.00012457395833333335,0.4552954229129267,0.01386231591549255
-0.00012455395833333333,0.4301608243027431,0.019632788942618044
-0.00012453395833333334,0.4087126334887285,0.019293349352787505
-0.00012451395833333335,0.4278149284324418,0.016577832634144272
-0.00012449395833333333,0.3963128981743609,0.014880634684988335
-0.00012447395833333334,0.38860495460057437,0.015559513864649413
-0.00012445395833333333,0.3701729156197574,0.015898953454481033
-0.00012443395833333334,0.34537344499106426,0.01725671181380257
-0.00012441395833333335,0.36615137984212026,0.015220074274820881
-0.00012439395833333333,0.34771934086133693,0.01250455755617348
-0.00012437395833333334,0.31286603078856323,0.011825678376512402
-0.00012435395833333335,0.3061634711591708,0.011825678376512093
-0.00012433395833333333,0.29745014364096733,0.007752403298543771
-0.00012431395833333334,0.26628324136435233,0.007752403298543771
-0.00012429395833333333,0.26929939319756035,0.006055205349390303
-0.00012427395833333334,0.25421863403145634,0.007073524118881921
-0.00012425395833333335,0.23679197899507048,0.011146799196847003
-0.00012423395833333333,0.23444608312477072,0.013183436735834868
-0.00012421395833333334,0.2116573803848802,0.012504557556173789
-0.00012419395833333333,0.20998174047751,0.012504557556171936
-0.00012417395833333334,0.17881483820089503,0.009110161657866545
-0.00012415395833333335,0.1771391982935509,0.00877072206803616
-0.00012413395833333333,0.17445817444179634,0.009110161657866545
-0.00012411395833333334,0.14865331986868502,0.010128480427358163
-0.00012409395833333335,0.11178924190710243,0.009449601247697857
-0.00012407395833333333,0.08296823550072366,0.01046792001718932
-0.00012405395833333334,0.09670848274095178,0.008770722068036623
-0.00012403395833333333,0.09000592311157053,0.00809184288837431
-0.00012401395833333334,0.07928182770456811,0.007752403298543925
-0.00012399395833333335,0.0608497887237778,0.007073524118883002
-0.00012397395833333333,0.0363854460765145,0.007073524118882384
-0.00012395395833333334,0.02298032681775537,0.006734084529051845
-0.00012393395833333335,-0.008856831421789182,0.005376326169730152
-0.00012391395833333333,-0.0313104061802499,0.006734084529051691
-0.00012389395833333335,-0.025613230495277268,0.006055205349390612
-0.00012387395833333333,-0.025613230495274676,0.006734084529051691
-0.00012385395833333334,-0.05007757314251009,0.005715765759560073
-0.00012383395833333335,-0.06750422817890017,0.005376326169729225
-0.00012381395833333333,-0.0772229396415208,0.0053763261697289165
-0.00012379395833333334,-0.08359037128943138,0.0050368865798983775
-0.00012377395833333333,-0.10436830614051461,0.006394644939220688
-0.00012375395833333334,-0.09163344284469344,0.00571576575955961
-0.00012373395833333335,-0.12313547310276307,0.004697446990068455
-0.00012371395833333333,-0.1318488006209891,0.003679128220575449
-0.00012369395833333334,-0.1459241758426862,0.004018567810405988
-0.00012367395833333335,-0.1549726313423509,0.004697446990066911
-0.00012365395833333333,-0.16837775060112437,0.003679128220575449
-0.00012363395833333334,-0.2082579803959328,0.0030002490409143704
-0.00012361395833333333,-0.22601976341381483,0.0026608094510833682
-0.00012359395833333334,-0.23071155515438052,0.003000249040913907
-0.00012357395833333335,-0.2256846354323503,0.0030002490409140616
-0.00012355395833333333,-0.2581920496348514,0.0030002490409140616
-0.00012353395833333334,-0.26522973724569987,0.0033396886307446006
-0.00012351395833333335,-0.2947209996149598,0.001981930271423216
-0.00012349395833333334,-0.31482867850313445,0.0023213698612526744
-0.00012347395833333335,-0.3144935505216656,0.00198193027142229
-0.00012345395833333333,-0.34096866105772666,0.0030002490409140616
-0.00012343395833333334,-0.33527148537275403,0.0016424906815919048
-0.00012341395833333335,-0.33057969363218787,0.0016424906815912875
-0.00012339395833333333,-0.3580601881126523,0.0009636115019299004
-0.00012337395833333334,-0.38151914681548077,0.000284732322268822
-0.00012335395833333333,-0.4053132334998054,0.0002847323222682046
-0.00012333395833333334,-0.4177129688141519,-0.0003941468573925651
-0.00012331395833333335,-0.42676142431381586,-0.00039414685739287377
-0.00012329395833333333,-0.42206963257325625,0.0013030510917605939
-0.00012327395833333334,-0.43346398394320157,0.0009636115019300547
-0.00012325395833333335,-0.4441880793502091,0.0009636115019299004
-0.00012323395833333333,-0.472673957775095,0.0002847323222685133
-0.00012321395833333334,-0.48105215731181944,0.0013030510917601307
-0.00012319395833333333,-0.49144112473736634,-0.00039414685739287377
-0.00012317395833333334,-0.5058516279405324,-0.0007335864472234129
-0.00012315395833333335,-0.5045111160146636,-5.470726756279774e-05
-0.00012313395833333333,-0.500824708218502,-0.0010730260370542608
-0.00012311395833333334,-0.5272998187545513,-0.0007335864472237216
-0.00012309395833333333,-0.5691908164382034,-0.0014124656268854176
-0.00012307395833333334,-0.5661746646049824,-0.002430784396377035
