samples/acq3490.csv

#Digilent WaveForms Oscilloscope Acquisition
#Device Name: Discovery2
#Serial Number: SN:210321AD996C
#Date Time: 2025-12-07 12:58:46.162
#Sample rate: 5e+07Hz
#Samples: 8192
#Trigger: Source: Channel 1 Type: Edge Condition: Rising Level: 0 V Hyst.: Auto HoldOff: 0 s
#Channel 1: Range: 500 mV/div Offset: 0 V Sample Mode: Average
#Channel 2: Range: 500 mV/div Offset: 0 V Sample Mode: Average
#Wavegen Channel 1: Running
#Mode: Custom
#Type: noisy
#Frequency: 117 kHz
#Period: 8.547008547 us
#Amplitude: 1 V
#Offset: 0 V
#Phase: 0 °

Time (s),Channel 1 (V),Channel 2 (V)
-0.00012899321100917432,-0.5376887861801064,-0.008880136603160213
-0.00012897321100917433,-0.5447264737909548,-0.010237894962482369
-0.0001289532110091743,-0.5108785476625759,-0.011935092911637071
-0.00012893321100917432,-0.5108785476625759,-0.013292851270958611
-0.0001289132110091743,-0.48038190134887826,-0.011256213731975221
-0.0001288932110091743,-0.46563627016424325,-0.01159565332180576
-0.00012887321100917432,-0.4411719275170078,-0.010916774142144682
-0.00012885321100917433,-0.4371503917393708,-0.010577334552313989
-0.00012883321100917432,-0.4244155284435402,-0.010916774142144373
-0.0001288132110091743,-0.41938860872149547,-0.010916774142144219
-0.0001287932110091743,-0.40229708166657757,-0.01057733455231368
-0.00012877321100917432,-0.3898973463522254,-0.01057733455231368
-0.00012875321100917433,-0.3895622183707509,-0.011256213731974449
-0.00012873321100917431,-0.3842001706672445,-0.009898455372652293
-0.0001287132110091743,-0.3583953160941026,-0.009898455372651984
-0.0001286932110091743,-0.3376173812430356,-0.009559015782821754
-0.00012867321100917432,-0.3382876372059733,-0.009898455372652139
-0.00012865321100917433,-0.33493635739128536,-0.009898455372652293
-0.0001286332110091743,-0.3067856069478753,-0.008880136603160213
-0.0001286132110091743,-0.28935895191145555,-0.009219576192990598
-0.0001285932110091743,-0.2618784574310036,-0.008880136603160213
-0.00012857321100917432,-0.24378154643167876,-0.008880136603160213
-0.00012855321100917433,-0.23272232304320248,-0.008540697013329672
-0.0001285332110091743,-0.22970617120997527,-0.007522378243837438
-0.00012851321100917432,-0.20524182856273987,-0.008540697013329055
-0.0001284932110091743,-0.21663617993267367,-0.00854069701332921
-0.00012847321100917431,-0.20457157259979047,-0.007861817833668131
-0.00012845321100917432,-0.18278825380430688,-0.00854069701332921
-0.0001284332110091743,-0.1750803102305088,-0.0085406970133289
-0.00012841321100917432,-0.17910184600813653,-0.007182938654006744
-0.0001283932110091743,-0.1713939024343304,-0.008540697013328746
-0.0001283732110091743,-0.13587033639861867,-0.006843499064176051
-0.00012835321100917432,-0.11207624971432123,-0.006843499064176051
-0.00012833321100917433,-0.09330908275205615,-0.007182938654006436
-0.00012831321100917432,-0.11174112173284126,-0.007182938654006744
-0.0001282932110091743,-0.08325524330795571,-0.006843499064175742
-0.0001282732110091743,-0.07286627588241755,-0.006504059474345512
-0.00012825321100917432,-0.06281243643835277,-0.006843499064175897
-0.00012823321100917433,-0.0500775731425328,-0.005825180294684896
-0.0001282132110091743,-0.04639116534636078,-0.00582518029468397
-0.0001281932110091743,-0.01689990297703613,-0.0051463011150222745
-0.0001281732110091743,0.02834237452125613,-0.00480686152519189
-0.00012815321100917432,0.03001801442860102,-0.00480686152519189
-0.00012813321100917433,0.04576902955764299,-0.003788542755700272
-0.0001281132110091743,0.05414722909437843,-0.004127982345530502
-0.0001280932110091743,0.05850389285351248,-0.0037885427557004265
-0.0001280732110091743,0.09737873870390529,-0.00446742193536027
-0.00012805321100917431,0.117151289610575,-0.002430784396377035
-0.00012803321100917432,0.11480539374029215,-0.002430784396377035
-0.0001280132110091743,0.13893460840606453,-0.0027702239862077284
-0.00012799321100917432,0.13022128088787108,-0.0027702239862077284
-0.0001279732110091743,0.13893460840607216,-0.002770223986208037
-0.0001279532110091743,0.14697767996132763,-0.0034491031658691156
-0.00012793321100917432,0.1577017753683349,-0.0020913448065469587
-0.00012791321100917433,0.18183099003409525,-0.002770223986207111
-0.00012789321100917432,0.21634917212543767,-0.003109663576038422
-0.0001278732110091743,0.232100187254492,-0.0014124656268852632
-0.0001278532110091743,0.23779736293946205,-0.0017519052167156478
-0.00012783321100917432,0.25220786614262813,-0.0020913448065461872
-0.00012781321100917433,0.2756668248454525,-0.001073026037055187
-0.00012779321100917431,0.2930934798818686,-0.0010730260370542608
-0.0001277732110091743,0.2937637358448139,-0.0007335864472241847
-0.0001277532110091743,0.3014716794186042,-0.0014124656268848
-0.00012773321100917432,0.3175578225291152,-0.0010730260370542608
-0.00012771321100917433,0.31990371839939696,-0.0003941468573934912
-0.0001276932110091743,0.34805446884280605,-0.00039414685739287377
-0.0001276732110091743,0.370508043601229,0.0019819302714207464
-0.0001276532110091743,0.3607893321386339,0.0006241719120993613
-0.00012763321100917432,0.36280010002744784,0.0009636115019299004
-0.00012761321100917433,0.38726444267468324,0.0013030510917604395
-0.0001275932110091743,0.42446364861777547,-0.0007335864472220237
-0.00012757321100917432,0.4412200476912168,0.0026608094510818248
-0.0001275532110091743,0.4556305508943931,0.0009636115019306722
-0.0001275332110091743,0.4469172233761996,0.0026608094510833682
-0.00012751321100917432,0.45730619080173796,0.002321369861252829
-0.00012749321100917433,0.487467709133937,0.003000249040913444
-0.00012747321100917432,0.4871325811524953,0.0030002490409140616
-0.0001274532110091743,0.507910516003576,0.0033396886307441374
-0.0001274332110091743,0.501878212337137,0.0026608094510833682
-0.00012741321100917432,0.5256722990214345,0.0026608094510833682
-0.00012739321100917433,0.522321019206757,0.0033396886307441374
-0.00012737321100917431,0.5353910104840501,0.003679128220575449
-0.0001273532110091743,0.5417584421319828,0.002660809451084603
-0.0001273332110091743,0.5628715049645194,0.004018567810406451
-0.00012731321100917432,0.5642120168903954,0.004697446990067529
-0.00012729321100917433,0.5699091925753653,0.004358007400237144
-0.0001272732110091743,0.5950437911855554,0.004018567810406142
-0.0001272532110091743,0.6285565893324804,0.004358007400237453
-0.0001272332110091743,0.6416265806097622,0.005036886579898841
-0.00012721321100917432,0.6365996608877276,0.006394644939220997
-0.00012719321100917433,0.6563722117943973,0.005036886579898841
-0.0001271732110091743,0.6805014264601867,0.0060552053493899945
-0.00012715321100917432,0.6872039860895633,0.005376326169729225
-0.0001271332110091743,0.6996037214039291,0.006055205349390612
-0.0001271132110091743,0.7106629447924054,0.006734084529051691
-0.00012709321100917432,0.7006091053483361,0.006734084529051691
-0.00012707321100917433,0.7066414090147705,0.0070735241188820755
-0.00012705321100917432,0.701614489292739,0.006734084529051691
-0.0001270332110091743,0.696252441589249,0.006055205349390612
-0.0001270132110091743,0.7317760076249608,0.006734084529051691
-0.00012699321100917432,0.7512134305501614,0.006394644939221151
-0.00012697321100917433,0.7545647103648586,0.007412963708712151
-0.00012695321100917432,0.7347921594581829,0.006394644939220997
-0.0001269332110091743,0.7636131658645519,0.006734084529052617
-0.0001269132110091743,0.7897531484191244,0.007752403298543925
-0.00012689321100917432,0.7984664759373137,0.00809184288837431
-0.00012687321100917433,0.8098608273072578,0.008770722068035234
-0.0001268532110091743,0.8065095474925769,0.008091842888374464
-0.0001268332110091743,0.8168985149181163,0.008091842888374773
-0.0001268132110091743,0.8128769791404986,0.008431282478205312
-0.00012679321100917432,0.8313090181212925,0.008770722068035851
-0.00012677321100917433,0.8416979855468308,0.007752403298544234
-0.0001267532110091743,0.8447141373800577,0.008431282478205158
-0.00012673321100917432,0.856443616731472,0.008431282478205158
-0.0001267132110091743,0.8738702717678667,0.009449601247696468
-0.00012669321100917431,0.8618056644349834,0.007752403298543771
-0.00012667321100917432,0.8785620635084322,0.009449601247696468
-0.0001266532110091743,0.8725297598420017,0.009449601247697394
-0.00012663321100917432,0.8859348791007609,0.009789040837527933
-0.0001266132110091743,0.9010156382668599,0.009789040837528087
-0.0001265932110091743,0.8752107836937486,0.010128480427358626
-0.00012657321100917432,0.8909617988227906,0.010128480427358626
-0.00012655321100917433,0.9107343497294585,0.009789040837528242
-0.00012653321100917432,0.9114046056924148,0.009789040837527933
-0.0001265132110091743,0.9117397336738988,0.009449601247698166
-0.0001264932110091743,0.928161004765873,0.01046792001718932
-0.00012647321100917432,0.932182540543499,0.01046792001718932
-0.00012645321100917433,0.922463829080905,0.010128480427358935
-0.0001264332110091743,0.9516199634687105,0.00944960124769724
-0.0001264132110091743,0.9244745969696981,0.010128480427358318
-0.0001263932110091743,0.9103992217480089,0.009789040837527624
-0.00012637321100917432,0.9137505015626987,0.009110161657866545
-0.00012635321100917433,0.9268204928399888,0.01114679919684978
-0.0001263332110091743,0.9305069006361552,0.01046792001718932
-0.0001263132110091743,0.9469281717281237,0.010467920017189011
-0.0001262932110091743,0.9261502368770594,0.01012848042735878
-0.00012627321100917431,0.93251766852497,0.01046792001718932
-0.00012625321100917433,0.9529604753945776,0.01012848042735878
-0.0001262332110091743,0.9559766272278198,0.010467920017189474
-0.00012621321100917432,0.9794355859306376,0.010807359607019859
-0.0001261932110091743,0.9774248180418323,0.011146799196850089
-0.0001261732110091743,0.9750789221715496,0.009789040837527933
-0.00012615321100917432,0.9794355859306463,0.010467920017189011
-0.00012613321100917433,0.9539658593390176,0.011486238786680474
-0.00012611321100917432,0.9653602107089448,0.01046792001718932
-0.0001260932110091743,0.9888191694117626,0.0114862387866814
-0.0001260732110091743,0.9653602107089448,0.0114862387866814
-0.00012605321100917432,0.9546361153019375,0.010467920017189783
-0.00012603321100917433,0.9616738029127779,0.00978904083752855
-0.00012601321100917431,0.9579873951166239,0.010128480427358626
-0.0001259932110091743,0.9693817464865933,0.010467920017190246
-0.0001259732110091743,0.9901596813376478,0.011486238786680782
-0.00012595321100917432,0.9623440588757226,0.010128480427358626
-0.00012593321100917433,0.957652267135159,0.010807359607019396
-0.0001259132110091743,0.9519550914501795,0.009110161657866545
-0.0001258932110091743,0.9713925143753983,0.01080735960702063
-0.0001258732110091743,0.9814463538194567,0.011486238786680937
-0.00012585321100917432,0.9673709785977596,0.01046792001718932
-0.00012583321100917433,0.9496091955799038,0.01046792001718932
-0.0001258132110091743,0.9576522671351588,0.010467920017189629
-0.00012579321100917432,0.9663655946533481,0.011146799196850398
-0.0001257732110091743,0.9707222584124428,0.010128480427358472
-0.0001257532110091743,0.952960475394587,0.009789040837527933
-0.00012573321100917432,0.9348635643952621,0.011146799196850089
-0.00012571321100917433,0.9214584451365009,0.009789040837529168
-0.00012569321100917432,0.9231340850438343,0.010128480427358626
-0.0001256732110091743,0.9264853648585424,0.010128480427358935
-0.0001256532110091743,0.9449174038393279,0.01046792001718932
-0.00012563321100917432,0.9157612694515267,0.01012848042735878
-0.00012561321100917433,0.91676665339592,0.009449601247697857
-0.00012559321100917431,0.8946482066189583,0.008770722068035851
-0.0001255732110091743,0.8926374387301417,0.009449601247697857
-0.0001255532110091743,0.8906266708413373,0.010128480427358472
-0.00012553321100917432,0.9097289657850691,0.009789040837527933
-0.00012551321100917433,0.9026912781742238,0.009789040837527933
-0.0001254932110091743,0.8876105190081065,0.009789040837527933
-0.0001254732110091743,0.8832538552490011,0.009449601247696622
-0.0001254532110091743,0.8758810396566827,0.00877072206803616
-0.00012543321100917432,0.8664974561755513,0.00944960124769724
-0.00012541321100917433,0.855438232787075,0.00877072206803616
-0.0001253932110091743,0.8795674474528473,0.009110161657866545
-0.00012537321100917432,0.8581192566388327,0.009110161657866545
-0.0001253532110091743,0.8363359378433234,0.008770722068035542
-0.00012533321100917431,0.8229308185845643,0.008091842888374464
-0.00012531321100917432,0.7998069878632048,0.007412963708713386
-0.00012529321100917433,0.7920990442894112,0.008091842888373847
-0.00012527321100917432,0.804163651622293,0.007752403298543771
-0.0001252532110091743,0.8101959552887352,0.0070735241188828474
-0.0001252332110091743,0.8055041635481694,0.008091842888374464
-0.00012521321100917432,0.7807046929194651,0.007752403298543925
-0.00012519321100917433,0.7800344369565161,0.008091842888374156
-0.00012517321100917432,0.7481972787169481,0.006394644939220997
-0.0001251532110091743,0.7548998383463111,0.0063946449392213054
-0.0001251332110091743,0.7334516475323147,0.006734084529052
-0.00012511321100917432,0.7518836865131002,0.007412963708712769
-0.00012509321100917433,0.7408244631246373,0.007073524118882693
-0.0001250732110091743,0.7518836865131086,0.006394644939220997
-0.0001250532110091743,0.7331165195508091,0.006734084529052
-0.0001250332110091743,0.7022847452556682,0.0070735241188820755
-0.00012501321100917432,0.6825121943489985,0.006394644939220997
-0.00012499321100917433,0.6848580902192813,0.00537632616972938
-0.0001249732110091743,0.6711178429790481,0.006055205349390303
-0.00012495321100917432,0.6650855393126065,0.006055205349390303
-0.0001249332110091743,0.6409563246468284,0.005036886579898841
-0.00012491321100917431,0.6456481163873942,0.006394644939220997
-0.00012489321100917432,0.6268809494251314,0.004018567810407223
-0.0001248732110091743,0.6174973659439834,0.005036886579898223
-0.00012485321100917432,0.6091191664072588,0.005036886579898223
-0.0001248332110091743,0.5896817434820489,0.0036791282205760664
-0.0001248132110091743,0.589011487519111,0.005036886579898223
-0.00012479321100917432,0.5779522641306347,0.004358007400237144
-0.00012477321100917433,0.5662227847792208,0.004018567810406451
-0.00012475321100917432,0.5699091925753705,0.003339688630744755
-0.0001247332110091743,0.5377369063543234,0.0036791282205757576
-0.0001247132110091743,0.5260074270029015,0.004018567810404907
-0.00012469321100917432,0.4975215485780513,0.0013030510917618286
-0.00012467321100917433,0.5062348760962279,0.0036791282205732878
-0.0001246532110091743,0.49852693252244573,0.0016424906815912875
-0.0001246332110091743,0.4894784770227676,0.0036791282205748312
-0.0001246132110091743,0.47674361372694446,0.003000249040913907
-0.00012459321100917432,0.45965208667202656,0.0026608094510833682
-0.00012457321100917433,0.453619783005585,0.00198193027142229
-0.0001245532110091743,0.45596567887586614,0.0023213698612526744
-0.0001245332110091743,0.42379339265481714,0.0019819302714216723
-0.0001245132110091743,0.410053145414577,0.001642490681591133
-0.00012449321100917431,0.36983778763829955,0.0013030510917605939
-0.00012447321100917433,0.3889400825820313,0.0013030510917605939
-0.0001244532110091743,0.38994546652643125,0.0009636115019299004
-0.00012443321100917432,0.3544219004907357,0.0009636115019299004
-0.0001244132110091743,0.352746260583367,0.000963611501929746
-0.0001243932110091743,0.33766550141726304,0.0006241719120992069
-0.00012437321100917432,0.3128660307885586,-5.4707267561871615e-05
-0.00012435321100917433,0.3011365514371384,-5.470726756218023e-05
-0.00012433321100917432,0.29409886382627604,-0.00039414685739287377
-0.0001243132110091743,0.29141783997450893,0.00028473232226727845
-0.0001242932110091743,0.27600195282694295,-0.0010730260370542608
-0.00012427321100917432,0.2475160744020798,-0.0007335864472237216
-0.00012425321100917433,0.2223814757919049,-0.001073026037053952
-0.00012423321100917431,0.22774352349538812,-0.0007335864472235673
-0.0001242132110091743,0.21903019597719225,-0.0017519052167156478
-0.0001241932110091743,0.22070583588452022,-0.001751905216715339
-0.00012417321100917432,0.18518226984880853,-0.0010730260370542608
-0.00012415321100917433,0.17881483820090083,-0.0017519052167150303
-0.0001241332110091743,0.17747432627501852,-0.002430784396377035
-0.0001241132110091743,0.125529489147281,-0.002091344806547268
-0.0001240932110091743,0.1010651465000526,-0.003109663576039194
-0.00012407321100917432,0.0920166910003902,-0.00480686152519189
-0.00012405321100917433,0.10810283411090114,-0.0024307843963781153
-0.0001240332110091743,0.09436258687066772,-0.002770223986207574
-0.00012401321100917432,0.08028721164897702,-0.0024307843963771894
-0.0001239932110091743,0.06084978872374686,-0.003109663576039194
-0.0001239732110091743,0.02968288644713189,-0.00480686152519189
-0.00012395321100917432,0.00957520755899319,-0.00480686152519189
-0.00012393321100917433,-0.011202727292083159,-0.005825180294683044
-0.00012391321100917432,-0.032986046087595554,-0.0044674219353611965
-0.0001238932110091743,-0.027288870402627036,-0.00514630111502351
-0.0001238732110091743,-0.0346616859949412,-0.006164619884514664
-0.00012385321100917432,-0.052758596994266035,-0.0054857407048535855
-0.00012383321100917433,-0.05678013277190017,-0.005825180294683661
-0.00012381321100917431,-0.0641529483642247,-0.005485740704853277
-0.0001237932110091743,-0.06951499606773384,-0.00514630111502351
-0.0001237732110091743,-0.07286627588242806,-0.00616461988451451
-0.00012375321100917432,-0.0859362671597182,-0.00582518029468397
-0.00012373321100917433,-0.11207624971428663,-0.007182938654005509
-0.0001237132110091743,-0.1295029047507052,-0.006164619884514664
-0.0001236932110091743,-0.14056212813919414,-0.006504059474346284
-0.0001236732110091743,-0.14894032767592272,-0.00752237824383682
-0.00012365321100917432,-0.16636698271230957,-0.006164619884514664
-0.00012363321100917433,-0.2045715725997731,-0.00752237824383682
-0.0001236132110091743,-0.22601976341381483,-0.007182938654006744
-0.00012359321100917432,-0.23506821891347726,-0.007182938654006744
-0.0001235732110091743,-0.2300412991914601,-0.00752237824383821
-0.00012355321100917431,-0.26455948128276485,-0.009219576192990906
-0.00012353321100917432,-0.2860076720967794,-0.008880136603160367
-0.00012351321100917433,-0.30276407117023046,-0.009219576192990598
-0.00012349321100917432,-0.31482867850313445,-0.009898455372652293
-0.0001234732110091743,-0.30779099089230216,-0.00888013660316083
-0.0001234532110091743,-0.35068737252033144,-0.010237894962482987
-0.00012343321100917432,-0.34767122068711065,-0.010237894962482987
-0.00012341321100917433,-0.336611997298638,-0.010577334552313371
-0.00012339321100917432,-0.3523630124276771,-0.0095590157828216
-0.0001233732110091743,-0.37381120324172185,-0.010577334552314297
-0.0001233532110091743,-0.3962647780001389,-0.011256213731975067
-0.00012333321100917432,-0.4086645133144854,-0.011256213731975067
-0.00012331321100917433,-0.42408040046205703,-0.011256213731975067
-0.0001232932110091743,-0.43648013577642886,-0.01057733455231368
-0.0001232732110091743,-0.4368152637579035,-0.011935092911635527
-0.0001232532110091743,-0.4428475674243561,-0.010916774142144219
-0.00012323321100917432,-0.47300908575656414,-0.01057733455231368
-0.00012321321100917433,-0.47300908575656414,-0.011595653321805297
-0.0001231932110091743,-0.500824708218502,-0.01159565332180576
-0.00012317321100917432,-0.5085326517922885,-0.01159565332180576
-0.0001231532110091743,-0.5071921398664129,-0.012953411681127918
-0.00012313321100917431,-0.5014949641814402,-0.01159565332180576
-0.00012311321100917432,-0.5259593068286756,-0.01159565332180576
-0.0001230932110091743,-0.569861072401142,-0.01261397209129846
-0.00012307321100917432,-0.5678503045123281,-0.013971730450620615
-0.0001230532110091743,-0.5594721049756112,-0.01261397209129815
-0.0001230332110091743,-0.5842715756043155,-0.013292851270959229
-0.00012301321100917432,-0.6023684866036404,-0.013971730450620307
-0.00012299321100917433,-0.5973415668816162,-0.01499004922011177
