samples/acq3526.csv

#Digilent WaveForms Oscilloscope Acquisition
#Device Name: Discovery2
#Serial Number: SN:210321AD996C
#Date Time: 2025-12-07 12:58:47.319
#Sample rate: 5e+07Hz
#Samples: 8192
#Trigger: Source: Channel 1 Type: Edge Condition: Rising Level: 0 V Hyst.: Auto HoldOff: 0 s
#Channel 1: Range: 500 mV/div Offset: 0 V Sample Mode: Average
#Channel 2: Range: 500 mV/div Offset: 0 V Sample Mode: Average
#Wavegen Channel 1: Running
#Mode: Custom
#Type: noisy
#Frequency: 117 kHz
#Period: 8.547008547 us
#Amplitude: 1 V
#Offset: 0 V
#Phase: 0 °

Time (s),Channel 1 (V),Channel 2 (V)
-0.00012899847826086956,-0.5427157059021434,-0.011935092911636453
-0.00012897847826086957,-0.5279700747175082,-0.011256213731975375
-0.00012895847826086955,-0.5232782829769221,-0.010237894962482987
-0.00012893847826086956,-0.4978085563852914,-0.010237894962482987
-0.00012891847826086958,-0.46094447842370895,-0.009559015782822217
-0.00012889847826086956,-0.4455285912760954,-0.01057733455231368
-0.00012887847826086957,-0.4401665435725918,-0.009559015782822063
-0.00012885847826086958,-0.44217731146140227,-0.0095590157828216
-0.00012883847826086956,-0.4180480967956267,-0.009898455372652293
-0.00012881847826086957,-0.4200588646844406,-0.009559015782821754
-0.00012879847826086956,-0.405983489462738,-0.009219576192990906
-0.00012877847826086957,-0.41402656101799346,-0.009219576192990906
-0.00012875847826086958,-0.3989458018519,-0.008880136603160522
-0.00012873847826086956,-0.3664383876493806,-0.007861817833668131
-0.00012871847826086957,-0.33895789316892433,-0.00888013660315975
-0.00012869847826086955,-0.3118125266699031,-0.007182938654007208
-0.00012867847826086956,-0.2917048477817736,-0.008201257423498361
-0.00012865847826086957,-0.3047748390590486,-0.007182938654007671
-0.00012863847826086956,-0.28634280007825835,-0.007182938654006744
-0.00012861847826086957,-0.2977371514482036,-0.008201257423498361
-0.00012859847826086958,-0.2987425353926153,-0.007182938654007671
-0.00012857847826086956,-0.28667792805972747,-0.006843499064176051
-0.00012855847826086957,-0.262548713393961,-0.006843499064176051
-0.00012853847826086956,-0.2354033468949505,-0.006843499064176051
-0.00012851847826086957,-0.20993362030330814,-0.005146301115023355
-0.00012849847826086958,-0.19284209324838644,-0.005146301115022583
-0.00012847847826086956,-0.19451773315571655,-0.00582518029468397
-0.00012845847826086957,-0.19317722122984063,-0.004806861525192353
-0.00012843847826086955,-0.18111261389694097,-0.005485740704852968
-0.00012841847826086956,-0.15832391115705044,-0.00480686152519189
-0.00012839847826086957,-0.13520008043570145,-0.0051463011150222745
-0.00012837847826086956,-0.13151367263952,-0.00480686152519189
-0.00012835847826086957,-0.09498472265940135,-0.003788542755700272
-0.00012833847826086958,-0.08995780293735232,-0.003788542755699809
-0.00012831847826086956,-0.06917986808626167,-0.002430784396377035
-0.00012829847826086957,-0.07387165982682736,-0.00412798234552973
-0.00012827847826086955,-0.044045269476071985,-0.003449103165868961
-0.00012825847826086956,-0.03332117406906956,-0.0031096635760385766
-0.00012823847826086958,-0.0386832217725659,-0.004127982345529576
-0.00012821847826086956,-0.014218879125324232,-0.0017519052167156478
-0.00012819847826086957,0.00856982361456629,-0.0014124656268851088
-0.00012817847826086958,0.024320838743611472,-0.001751905216715339
-0.00012815847826086956,0.017953407095712314,-0.002430784396377035
-0.00012813847826086957,0.02264519883627801,-0.002430784396377035
-0.00012811847826086956,0.04442851763177364,-0.0017519052167156478
-0.00012809847826086957,0.0866546432968649,-0.0014124656268851088
-0.00012807847826086958,0.09369233090772945,-0.0014124656268849544
-0.00012805847826086956,0.10307591438887151,-0.0017519052167156478
-0.00012803847826086957,0.1218430813511343,-0.0010730260370545694
-0.00012801847826086955,0.13357256070256712,-0.00039414685739287377
-0.00012799847826086956,0.14396152812810545,-0.00039414685739287377
-0.00012797847826086957,0.16641510288651679,-0.0020913448065447977
-0.00012795847826086956,0.19322534140406766,0.0013030510917605939
-0.00012793847826086957,0.20562507671841987,0.0002847323222689765
-0.00012791847826086958,0.2083061005701761,-0.0007335864472226411
-0.00012789847826086956,0.21835994001425246,0.0016424906815912875
-0.00012787847826086957,0.24349453862442583,0.0016424906815912875
-0.00012785847826086955,0.24416479458737553,0.0016424906815912875
-0.00012783847826086957,0.25187273816116207,0.0019819302714218267
-0.00012781847826086958,0.260586065679355,-5.470726756032782e-05
-0.00012779847826086956,0.2884016881413008,0.0016424906815912875
-0.00012777847826086957,0.30281219134446685,0.0013030510917607483
-0.00012775847826086955,0.3085093670294489,0.002660809451083214
-0.00012773847826086956,0.3091796229923869,0.0023213698612526744
-0.00012771847826086957,0.32224961426967114,0.004018567810404598
-0.00012769847826086956,0.3470490848983987,0.0016424906815912875
-0.00012767847826086957,0.3775457312120757,0.0036791282205745224
-0.00012765847826086958,0.3879346986376232,0.003679128220575449
-0.00012763847826086956,0.386259058730287,0.003339688630744755
-0.00012761847826086957,0.401004689914922,0.004697446990066911
-0.00012759847826086955,0.4147449371551684,0.00435800740023699
-0.00012757847826086956,0.4264744165065773,0.0046974469900673745
-0.00012755847826086957,0.45060363117233815,0.005376326169728299
-0.00012753847826086956,0.455630550894397,0.004697446990067529
-0.00012751847826086957,0.44323081558004485,0.005036886579898069
-0.00012749847826086958,0.47305720593076467,0.005376326169728608
-0.00012747847826086956,0.4697059261161005,0.0053763261697289165
-0.00012745847826086957,0.5015430843556535,0.0063946449392205335
-0.00012743847826086956,0.509251027929458,0.006055205349390303
-0.00012741847826086957,0.5196399953549962,0.006055205349390303
-0.00012739847826086958,0.5491312577242576,0.007073524118881458
-0.00012737847826086956,0.5695740645939015,0.006394644939220997
-0.00012735847826086957,0.5585148412054252,0.0077524032985431535
-0.00012733847826086955,0.5695740645939019,0.0057157657595602275
-0.00012731847826086956,0.5705794485383089,0.007073524118882384
-0.00012729847826086957,0.591357383389376,0.0077524032985431535
-0.00012727847826086956,0.6208486457586785,0.007073524118882384
-0.00012725847826086957,0.6443076044615069,0.008091842888374001
-0.00012723847826086958,0.647323756294737,0.0063946449392225406
-0.00012721847826086956,0.6396158127209498,0.008091842888374464
-0.00012719847826086957,0.6389455567580118,0.008431282478205003
-0.00012717847826086955,0.6583829796832298,0.008770722068035851
-0.00012715847826086957,0.6774852746269528,0.008770722068035851
-0.00012713847826086958,0.663074771423802,0.008431282478205467
-0.00012711847826086956,0.6872039860895663,0.008770722068035851
-0.00012709847826086957,0.6975929535151046,0.008770722068035851
-0.00012707847826086958,0.7187060163476454,0.008091842888375082
-0.00012705847826086956,0.719711400292072,0.00944960124769724
-0.00012703847826086957,0.7284247278102615,0.010128480427358009
-0.00012701847826086956,0.7287598557917385,0.009110161657866545
-0.00012699847826086957,0.7646185498089192,0.009449601247697085
-0.00012697847826086958,0.7907585323635039,0.010128480427358009
-0.00012695847826086956,0.7880775085117747,0.01046792001718932
-0.00012693847826086957,0.7840559727341468,0.01012848042735878
-0.00012691847826086955,0.8108662112516756,0.010467920017189783
-0.00012689847826086956,0.8108662112516756,0.011486238786680937
-0.00012687847826086957,0.8175687708810521,0.011146799196851015
-0.00012685847826086956,0.8232659465660334,0.010128480427358626
-0.00012683847826086957,0.8175687708810607,0.010467920017189165
-0.00012681847826086958,0.8088554433628686,0.00978904083752855
-0.00012679847826086956,0.8148877470293051,0.010128480427358626
-0.00012677847826086957,0.8239362025289675,0.010467920017189165
-0.00012675847826086956,0.8437087534356503,0.01046792001718932
-0.00012673847826086957,0.8567787447129405,0.01046792001718932
-0.00012671847826086958,0.8648218162681982,0.011486238786680474
-0.00012669847826086956,0.8738702717678721,0.011146799196850707
-0.00012667847826086957,0.8959887185448246,0.012843997146003401
-0.00012665847826086955,0.8762161676381586,0.012165117966342941
-0.00012663847826086956,0.8819133433231312,0.01250455755617348
-0.00012661847826086957,0.895653590563353,0.011486238786682326
-0.00012659847826086956,0.8822484713046004,0.011146799196850707
-0.00012657847826086957,0.8829187272675383,0.013183436735833942
-0.00012655847826086958,0.9030264061556682,0.011486238786682944
-0.00012653847826086956,0.9194476772476738,0.011825678376512093
-0.00012651847826086957,0.9432417639319715,0.013183436735834251
-0.00012649847826086955,0.9331879244879103,0.012504557556173326
-0.00012647847826086956,0.937879716228474,0.012165117966342941
-0.00012645847826086958,0.9502794515428226,0.013183436735833942
-0.00012643847826086956,0.9596630350239695,0.01250455755617348
-0.00012641847826086957,0.952290219431652,0.012165117966342941
-0.00012639847826086958,0.919112549266235,0.013183436735833942
-0.00012637847826086956,0.9191125492662048,0.011825678376512093
-0.00012635847826086957,0.9254799809141153,0.011825678376512093
-0.00012633847826086956,0.9281610047658713,0.012165117966342787
-0.00012631847826086957,0.9549712432833896,0.012504557556173326
-0.00012629847826086958,0.9445822758578681,0.01182567837651271
-0.00012627847826086956,0.9355338203581922,0.011825678376512093
-0.00012625847826086957,0.9512848354872341,0.01284399714600371
-0.00012623847826086955,0.9486038116354853,0.0114862387866814
-0.00012621847826086956,0.9422363799875777,0.0114862387866814
-0.00012619847826086957,0.9502794515428266,0.01080735960702063
-0.00012617847826086956,0.9559766272278092,0.01250455755617348
-0.00012615847826086957,0.95899277906103,0.011486238786681863
-0.00012613847826086958,0.9408958680617147,0.011146799196851015
-0.00012611847826086956,0.9496091955798956,0.0114862387866814
-0.00012609847826086957,0.975414050153007,0.012843997146003556
-0.00012607847826086956,0.9831219937268088,0.012843997146004173
-0.00012605847826086957,0.9894894253747193,0.013183436735834714
-0.00012603847826086958,0.9730681542827498,0.011825678376513328
-0.00012601847826086956,0.9623440588757226,0.012165117966342787
-0.00012599847826086957,0.9616738029127847,0.012165117966342787
-0.00012597847826086955,0.9734032822641998,0.012504557556173789
-0.00012595847826086956,0.9643548267645374,0.013183436735834868
-0.00012593847826086957,0.9556414992463479,0.013183436735834868
-0.00012591847826086956,0.9693817464865744,0.01250455755617348
-0.00012589847826086957,0.9703871304309813,0.01250455755617348
-0.00012587847826086958,0.9690466185051064,0.01182567837651271
-0.00012585847826086956,0.9482686836540192,0.012843997146004173
-0.00012583847826086957,0.965695338690406,0.012843997146004173
-0.00012581847826086955,0.962008930894242,0.01182567837651163
-0.00012579847826086956,0.9365392043026111,0.010807359607020476
-0.00012577847826086957,0.9412309960431632,0.011825678376511167
-0.00012575847826086956,0.9181071653217974,0.010807359607020013
-0.00012573847826086957,0.9137505015627007,0.011486238786681091
-0.00012571847826086958,0.9184422933032623,0.011146799196851015
-0.00012569847826086956,0.8963238465263039,0.011146799196850707
-0.00012567847826086957,0.9160963974329736,0.011486238786681245
-0.00012565847826086956,0.9127451176182912,0.0114862387866814
-0.00012563847826086957,0.918442293303264,0.012504557556173017
-0.00012561847826086958,0.930842028617613,0.01182567837651271
-0.00012559847826086956,0.9278258767844022,0.012165117966342787
-0.00012557847826086957,0.8926374387301594,0.012165117966342787
-0.00012555847826086955,0.9003453823039278,0.012165117966342323
-0.00012553847826086956,0.8879456469895756,0.011146799196850707
-0.00012551847826086957,0.8819133433231366,0.011486238786681091
-0.00012549847826086956,0.8728648878234647,0.011146799196850707
-0.00012547847826086957,0.852086952972388,0.010807359607020168
-0.00012545847826086958,0.86884335204582,0.011146799196850398
-0.00012543847826086956,0.8825835992860696,0.012165117966342787
-0.00012541847826086957,0.8728648878234692,0.011825678376512248
-0.00012539847826086955,0.8708541199346499,0.011146799196850707
-0.00012537847826086957,0.8768864236010915,0.011146799196850707
-0.00012535847826086958,0.8514166970094635,0.010807359607020322
-0.00012533847826086956,0.8219254346401569,0.0114862387866814
-0.00012531847826086957,0.8168985149181223,0.0114862387866814
-0.00012529847826086958,0.8199146667513393,0.009789040837529477
-0.00012527847826086956,0.8101959552887373,0.009110161657866545
-0.00012525847826086957,0.7813749488824182,0.009789040837527315
-0.00012523847826086956,0.7636131658645281,0.008770722068035851
-0.00012521847826086957,0.7853964846600118,0.00944960124769693
-0.00012519847826086958,0.7699805975124556,0.008431282478206084
-0.00012517847826086956,0.7619375259571824,0.009789040837527933
-0.00012515847826086957,0.7344570314767263,0.008770722068036314
-0.00012513847826086955,0.7582511181610214,0.009449601247696776
-0.00012511847826086956,0.756910606235146,0.008431282478205621
-0.00012509847826086957,0.7492026626613625,0.008431282478205158
-0.00012507847826086956,0.7237329360697016,0.007752403298543771
-0.00012505847826086957,0.7046306411259697,0.00809184288837431
-0.00012503847826086958,0.6996037214039287,0.008431282478204849
-0.00012501847826086956,0.6912255218671959,0.008431282478205158
-0.00012499847826086957,0.674469122793747,0.00775240329854408
-0.00012497847826086956,0.6600586195905668,0.006734084529051691
-0.00012495847826086957,0.6456481163874007,0.007752403298543308
-0.00012493847826086958,0.6506750361094266,0.008091842888374156
-0.00012491847826086956,0.6268809494251228,0.006734084529051691
-0.00012489847826086957,0.6342537650174404,0.007412963708712769
-0.00012487847826086955,0.6439724764800387,0.008431282478205158
-0.00012485847826086956,0.6225242856660241,0.008431282478205158
-0.00012483847826086957,0.6094542943887399,0.0063946449392228485
-0.00012481847826086956,0.5994004549446541,0.006394644939220997
-0.00012479847826086957,0.5886763595376467,0.006394644939220997
-0.00012477847826086958,0.5611958650571982,0.006055205349390612
-0.00012475847826086956,0.5310343467249514,0.006055205349390303
-0.00012473847826086957,0.5407530581875518,0.005036886579898686
-0.00012471847826086955,0.5330451146137655,0.0057157657595594555
-0.00012469847826086956,0.5313694747064214,0.005376326169729071
-0.00012467847826086958,0.5229912751696999,0.0046974469900681465
-0.00012465847826086956,0.483781301337804,0.004697446990067529
-0.00012463847826086957,0.4867974531710248,0.005715765759559147
-0.00012461847826086958,0.46702490226436544,0.004018567810407686
-0.00012459847826086956,0.4589818307090883,0.0043580074002368355
-0.00012457847826086957,0.4512738871353018,0.005036886579897914
-0.00012455847826086956,0.4489279912650144,0.005036886579898223
-0.00012453847826086957,0.41709083302546146,0.004358007400237144
-0.00012451847826086958,0.384248290841502,0.0023213698612545267
-0.00012449847826086956,0.3802267550638426,0.0030002490409140616
-0.00012447847826086957,0.36447573993480065,0.0033396886307446006
-0.00012445847826086955,0.3775457312120917,0.0026608094510838314
-0.00012443847826086956,0.3822375229526553,0.0036791282205749856
-0.00012441847826086957,0.35509215645368253,0.0023213698612539095
-0.00012439847826086956,0.3138714147329547,0.0013030510917605939
-0.00012437847826086957,0.30884449501092004,0.0019819302714216723
-0.00012435847826086958,0.3058283431776983,0.0016424906815915962
-0.00012433847826086956,0.2920880959374612,0.0016424906815912875
-0.00012431847826086957,0.25958068173497034,0.0016424906815912875
-0.00012429847826086956,0.2609211936608321,0.0023213698612526744
-0.00012427847826086957,0.21768968405133385,0.001642490681591596
-0.00012425847826086958,0.20797097258871824,0.0002847323222697482
-0.00012423847826086956,0.20629533268136374,0.0002847323222685133
-0.00012421847826086957,0.2197004519401229,0.0002847323222685133
-0.00012419847826086955,0.20227379690373343,0.0002847323222682046
-0.00012417847826086956,0.20059815699638853,-0.00039414685739287377
-0.00012415847826086957,0.1587071593127853,0.0006241719120982807
-0.00012413847826086956,0.1543504955536485,-0.00039414685739287377
-0.00012411847826086957,0.11782154557352988,-0.0014124656268844913
-0.00012409847826086958,0.10877309007385495,-0.002430784396376109
-0.00012407847826086956,0.07459003596399541,-0.0034491031658691156
-0.00012405847826086957,0.08363849146365782,-0.002770223986208037
-0.00012403847826086955,0.061520044686698236,-0.0024307843963773438
-0.00012401847826086956,0.05917414881641646,-0.0031096635760381134
-0.00012399847826086957,0.03236391029890932,-0.0024307843963776526
-0.00012397847826086956,0.01661289516983579,-0.003109663576038422
-0.00012395847826086957,0.007229311688704398,-0.0027702239862078828
-0.00012393847826086958,-0.0024893997738958196,-0.004127982345529267
-0.00012391847826086956,-0.012543239217978579,-0.003788542755699809
-0.00012389847826086957,-0.030975278198772382,-0.004806861525191427
-0.00012387847826086956,-0.0346616859949412,-0.004127982345530502
-0.00012385847826086957,-0.051753213049859095,-0.004127982345530502
-0.00012383847826086958,-0.06180705249393165,-0.005146301115021657
-0.00012381847826086956,-0.09297395477056994,-0.005146301115022583
-0.00012379847826086957,-0.08794703504853528,-0.005146301115022583
-0.00012377847826086955,-0.11576265751048515,-0.002430784396376726
-0.00012375847826086956,-0.14726468776856913,-0.0017519052167156478
-0.00012373847826086957,-0.15028083960178856,-0.0014124656268852632
-0.00012371847826086956,-0.13419469649127302,-0.00039414685739287377
-0.00012369847826086957,-0.1717290304157986,0.00028473232226820463
-0.00012367847826086958,-0.19384747719275816,-0.0003941468573922563
-0.00012365847826086956,-0.19552311710012393,-0.0007335864472235673
-0.00012363847826086957,-0.21060387626622798,-0.0007335864472235673
-0.00012361847826086955,-0.21496054002533352,-0.00039414685739287377
-0.00012359847826086957,-0.24344641845019668,-0.0020913448065455697
-0.00012357847826086958,-0.23238719506173836,-0.0020913448065463416
-0.00012355847826086956,-0.2692512730233327,-0.003788542755699809
-0.00012353847826086957,-0.26858101706039467,-0.00344910316586927
-0.00012351847826086958,-0.28801843998558635,-0.004806861525190655
-0.00012349847826086956,-0.30611535098493703,-0.005146301115022583
-0.00012347847826086957,-0.3188502142807524,-0.005146301115022583
-0.00012345847826086956,-0.32119611015104793,-0.005485740704853277
-0.00012343847826086957,-0.3339309734468691,-0.00412798234553112
-0.00012341847826086958,-0.37381120324166517,-0.004467421935360888
-0.00012339847826086956,-0.38688119451899755,-0.005485740704853277
-0.00012337847826086957,-0.40162682570363256,-0.003788542755700581
-0.00012335847826086955,-0.41503194496240725,-0.006164619884514664
-0.00012333847826086956,-0.42106424862884617,-0.006164619884514664
-0.00012331847826086957,-0.4354747518320084,-0.005485740704853894
-0.00012329847826086956,-0.44150705549846586,-0.005146301115022583
-0.00012327847826086957,-0.44854474310931436,-0.005485740704853122
-0.00012325847826086958,-0.47904138942298075,-0.005825180294683661
-0.00012323847826086956,-0.47971164538594674,-0.006504059474345358
-0.00012321847826086957,-0.48306292520063654,-0.006504059474345358
-0.00012319847826086956,-0.480381901348885,-0.006843499064176051
-0.00012317847826086957,-0.5018300921628996,-0.006843499064176051
-0.00012315847826086958,-0.5155703394031311,-0.0065040594743456664
-0.00012313847826086956,-0.5229431549954646,-0.005485740704853277
-0.00012311847826086957,-0.5386941701245065,-0.0075223782438365114
-0.00012309847826086955,-0.5376887861801218,-0.005825180294684896
-0.00012307847826086956,-0.5715367123084886,-0.007861817833668131
-0.00012305847826086957,-0.5594721049756108,-0.008201257423498516
