samples/acq3504.csv

#Digilent WaveForms Oscilloscope Acquisition
#Device Name: Discovery2
#Serial Number: SN:210321AD996C
#Date Time: 2025-12-07 12:58:46.603
#Sample rate: 5e+07Hz
#Samples: 8192
#Trigger: Source: Channel 1 Type: Edge Condition: Rising Level: 0 V Hyst.: Auto HoldOff: 0 s
#Channel 1: Range: 500 mV/div Offset: 0 V Sample Mode: Average
#Channel 2: Range: 500 mV/div Offset: 0 V Sample Mode: Average
#Wavegen Channel 1: Running
#Mode: Custom
#Type: noisy
#Frequency: 117 kHz
#Period: 8.547008547 us
#Amplitude: 1 V
#Offset: 0 V
#Phase: 0 °

Time (s),Channel 1 (V),Channel 2 (V)
-0.00012899555555555557,-0.5269646907731043,-0.005825180294683661
-0.00012897555555555556,-0.5159054673846128,-0.006164619884514664
-0.00012895555555555554,-0.5081975238108262,-0.005485740704853277
-0.00012893555555555555,-0.5118839316069711,-0.0054857407048528135
-0.00012891555555555556,-0.4850736930894528,-0.0044674219353611965
-0.00012889555555555557,-0.47133344584922476,-0.0051463011150222745
-0.00012887555555555555,-0.45591755870163847,-0.005485740704853277
-0.00012885555555555556,-0.43949628760965853,-0.005146301115022738
-0.00012883555555555555,-0.4160373289068061,-0.004806861525191427
-0.00012881555555555556,-0.40330246561098493,-0.003788542755699809
-0.00012879555555555557,-0.39425401011132255,-0.004467421935360888
-0.00012877555555555555,-0.4066537454256776,-0.004806861525192044
-0.00012875555555555556,-0.4096698972588984,-0.005146301115022583
-0.00012873555555555555,-0.3751517151675644,-0.004467421935360425
-0.00012871555555555556,-0.3453253248168253,-0.0027702239862077284
-0.00012869555555555557,-0.3322553335395352,-0.0024307843963771894
-0.00012867555555555558,-0.3111422707069932,-0.0027702239862074196
-0.00012865555555555556,-0.3299094376692453,-0.004127982345530502
-0.00012863555555555554,-0.31348816657723505,-0.0031096635760381134
-0.00012861555555555555,-0.2883535679670635,-0.002770223986207265
-0.00012859555555555556,-0.26724050513452746,-0.001751905216716111
-0.00012857555555555557,-0.2776294725600515,-0.004127982345528341
-0.00012855555555555556,-0.26757563311598703,-0.002430784396377035
-0.00012853555555555554,-0.24110052257990164,-0.002430784396377035
-0.00012851555555555555,-0.21462541204385374,-0.002430784396376726
-0.00012849555555555556,-0.19116645334102525,-0.0017519052167156478
-0.00012847555555555557,-0.1811126138969559,-0.0003941468573934912
-0.00012845555555555555,-0.18111261389695132,-0.0010730260370542608
-0.00012843555555555554,-0.15932929510143953,-0.001751905216714413
-0.00012841555555555555,-0.1392216162133013,-0.00039414685739287377
-0.00012839555555555556,-0.12011932126956953,-0.00039414685739287377
-0.00012837555555555557,-0.10604394604787244,-0.0014124656268844913
-0.00012835555555555555,-0.10570881806638395,0.0006241719120987438
-0.00012833555555555556,-0.07722293964153376,-0.0003941468573924105
-0.00012831555555555555,-0.060466540568069146,0.0009636115019295917
-0.00012829555555555556,-0.07119063597507644,0.0002847323222685133
-0.00012827555555555557,-0.0504127011239998,0.0006241719120990525
-0.00012825555555555558,-0.024607846550890756,0.0009636115019295917
-0.00012823555555555556,-0.0346616859949412,0.0013030510917605939
-0.00012821555555555554,0.0018672639852193383,0.0026608094510827507
-0.00012819555555555555,0.02968288644713189,0.001981930271421981
-0.00012817555555555556,0.033034166261821665,0.001981930271421981
-0.00012815555555555557,0.04979056533526449,0.0023213698612523656
-0.00012813555555555556,0.05481748505731669,0.0023213698612526744
-0.00012811555555555554,0.062190300649659816,0.0016424906815928311
-0.00012809555555555555,0.08665464329687862,0.003339688630744446
-0.00012807555555555556,0.07459003596399541,0.0026608094510833682
-0.00012805555555555557,0.11380000979584803,0.0033396886307441374
-0.00012803555555555556,0.13759409648019197,0.003339688630744755
-0.00012801555555555554,0.12385384923996129,0.004018567810406451
-0.00012799555555555555,0.12787538501758808,0.004358007400236681
-0.00012797555555555556,0.12988615290640196,0.004018567810406142
-0.00012795555555555557,0.1633989510532998,0.00469744699006722
-0.00012793555555555555,0.17579868636768384,0.005376326169728762
-0.00012791555555555556,0.1999279010334393,0.0050368865798983775
-0.00012789555555555555,0.22104096386600838,0.0053763261697289165
-0.00012787555555555556,0.22740839551391898,0.0053763261697289165
-0.00012785555555555557,0.2699696491604792,0.0060552053493899945
-0.00012783555555555558,0.26829400925315444,0.005715765759559919
-0.00012781555555555556,0.26527785741993076,0.0053763261697289165
-0.00012779555555555554,0.29543937575217055,0.006734084529051382
-0.00012777555555555555,0.31521192665883124,0.006394644939220997
-0.00012775555555555556,0.3249306381214316,0.0074129637087126145
-0.00012773555555555558,0.33699524545431375,0.008091842888373847
-0.00012771555555555556,0.34135190921342345,0.007073524118882384
-0.00012769555555555554,0.3621298440645251,0.006055205349391538
-0.00012767555555555555,0.3792213711194366,0.007412963708713386
-0.00012765555555555556,0.3822375229526574,0.008091842888374464
-0.00012763555555555557,0.4016749458778493,0.007412963708713695
-0.00012761555555555556,0.4254690325621753,0.009110161657866545
-0.00012759555555555554,0.43183646421008937,0.008431282478205467
-0.00012757555555555555,0.43250672017303676,0.008770722068035697
-0.00012755555555555556,0.4539549109870514,0.008431282478205158
-0.00012753555555555557,0.47272207794931415,0.009110161657866236
-0.00012751555555555555,0.468365414190224,0.010128480427358626
-0.00012749555555555556,0.49651616463361814,0.009449601247697548
-0.00012747555555555555,0.5089158999479929,0.009110161657867162
-0.00012745555555555556,0.5179643554476553,0.01046792001718932
-0.00012743555555555557,0.5119320517812137,0.01012848042735878
-0.00012741555555555558,0.5427638260763429,0.009789040837528242
-0.00012739555555555556,0.5357261384655192,0.010128480427358626
-0.00012737555555555554,0.577282008167689,0.011486238786681245
-0.00012735555555555556,0.5719199604641854,0.011146799196850707
-0.00012733555555555557,0.5655525288162748,0.010467920017189629
-0.00012731555555555558,0.5695740645938978,0.011486238786680474
-0.00012729555555555556,0.5977248150373085,0.0114862387866814
-0.00012727555555555554,0.5963843031114507,0.011486238786681709
-0.00012725555555555555,0.6171622379625314,0.011825678376512093
-0.00012723555555555556,0.646653500331788,0.011825678376512093
-0.00012721555555555557,0.6446427324429885,0.011486238786681709
-0.00012719555555555556,0.6600586195905668,0.012843997146004173
-0.00012717555555555554,0.6741339948122891,0.013522876325664944
-0.00012715555555555555,0.6949119296633542,0.012843997146004019
-0.00012713555555555556,0.6902201379227885,0.01250455755617348
-0.00012711555555555557,0.6985983374595129,0.012165117966342941
-0.00012709555555555555,0.7180357603847264,0.013522876325665562
-0.00012707555555555556,0.7344570314767063,0.01420175550532664
-0.00012705555555555555,0.7301003677176102,0.013522876325665562
-0.00012703555555555556,0.7193762723106029,0.013522876325665562
-0.00012701555555555557,0.7445108709207763,0.0138623159154961
-0.00012699555555555555,0.7532241984389821,0.013522876325665562
-0.00012697555555555556,0.7468567667910716,0.013522876325665562
-0.00012695555555555555,0.7786939250306444,0.015220074274818566
-0.00012693555555555556,0.7904234043820586,0.014201755505326949
-0.00012691555555555557,0.8112013392331352,0.015220074274818566
-0.00012689555555555558,0.8135472351034265,0.015559513864649413
-0.00012687555555555556,0.8165633869366508,0.015220074274819029
-0.00012685555555555554,0.8058392915296341,0.014541195095157642
-0.00012683555555555555,0.8008123718076116,0.014541195095157488
-0.00012681555555555556,0.8225956906030852,0.014201755505327103
-0.00012679555555555557,0.8262820983992523,0.01589895345447887
-0.00012677555555555556,0.8336549139915764,0.014880634684988335
-0.00012675555555555554,0.854097720861188,0.01555951386465034
-0.00012673555555555555,0.8480654171947535,0.016238393044310802
-0.00012671555555555556,0.8577841286573539,0.015559513864649722
-0.00012669555555555557,0.8427033694912498,0.016238393044310802
-0.00012667555555555555,0.8708541199346499,0.015898953454480415
-0.00012665555555555554,0.8859348791007673,0.01623839304431111
-0.00012663555555555555,0.8929725667116186,0.01623839304431142
-0.00012661555555555556,0.9063776859703778,0.016917272223972497
-0.00012659555555555557,0.9083884538591916,0.015898953454480877
-0.00012657555555555555,0.9050371740445036,0.016577832634141955
-0.00012655555555555556,0.9100640937665359,0.016917272223972345
-0.00012653555555555555,0.9187774212847275,0.016238393044311263
-0.00012651555555555556,0.9010156382668717,0.016577832634141802
-0.00012649555555555557,0.9164315254144447,0.016577832634141802
-0.00012647555555555558,0.9201179332106089,0.01623839304431142
-0.00012645555555555556,0.9365392043025995,0.016917272223972497
-0.00012643555555555554,0.9425715079690448,0.016577832634141493
-0.00012641555555555555,0.9435768919134513,0.01623839304431111
-0.00012639555555555556,0.9392202281543546,0.01691727222397219
-0.00012637555555555557,0.9573171391536692,0.01793559099346365
-0.00012635555555555556,0.9593279070425005,0.01725671181380319
-0.00012633555555555554,0.9553063712648623,0.017256711813803807
-0.00012631555555555555,0.9459227877837484,0.017935590993464267
-0.00012629555555555556,0.9750789221715496,0.01725671181380319
-0.00012627555555555557,0.9553063712648888,0.017596151403633575
-0.00012625555555555556,0.9486038116354882,0.017596151403633884
-0.00012623555555555554,0.9740735382271373,0.01827503058329527
-0.00012621555555555555,0.968711490523626,0.018275030583294653
-0.00012619555555555556,0.9465930437466735,0.016917272223972497
-0.00012617555555555557,0.9331879244879143,0.016577832634141955
-0.00012615555555555555,0.937544588247015,0.0182750305832945
-0.00012613555555555556,0.9553063712648627,0.016577832634142572
-0.00012611555555555555,0.9482686836540191,0.015559513864650648
-0.00012609555555555556,0.94793355567255,0.017596151403633884
-0.00012607555555555557,0.9710573863939095,0.01725671181380334
-0.00012605555555555558,0.9740735382271394,0.017935590993463958
-0.00012603555555555556,0.9623440588757226,0.017596151403633884
-0.00012601555555555554,0.9512848354872312,0.016917272223973115
-0.00012599555555555555,0.94022561209876,0.017596151403633884
-0.00012597555555555557,0.9539658593389881,0.01725671181380334
-0.00012595555555555558,0.9687114905236227,0.017935590993463958
-0.00012593555555555556,0.94793355567255,0.016917272223972497
-0.00012591555555555554,0.9506145795242991,0.017256711813802263
-0.00012589555555555555,0.9462579157652105,0.016238393044311263
-0.00012587555555555556,0.9596630350239695,0.016577832634141802
-0.00012585555555555557,0.9596630350239695,0.01691727222397219
-0.00012583555555555556,0.9536307313575252,0.016917272223972497
-0.00012581555555555554,0.9432417639319883,0.017596151403633575
-0.00012579555555555555,0.94994432356136,0.01725671181380257
-0.00012577555555555556,0.9395553561358218,0.015898953454480415
-0.00012575555555555557,0.937209460265539,0.016577832634141493
-0.00012573555555555555,0.9298366446732169,0.016577832634141802
-0.00012571555555555556,0.9328527965064378,0.015898953454480724
-0.00012569555555555555,0.911069477710951,0.01623839304431111
-0.00012567555555555556,0.9231340850438343,0.01623839304431111
-0.00012565555555555557,0.9083884538591992,0.015220074274819492
-0.00012563555555555555,0.9063776859703725,0.015559513864649722
-0.00012561555555555556,0.8946482066189583,0.015559513864649722
-0.00012559555555555554,0.9023561501927367,0.01657783263414134
-0.00012557555555555556,0.8772215515825634,0.015559513864649722
-0.00012555555555555557,0.8916320547857295,0.016238393044310802
-0.00012553555555555558,0.8822484713046089,0.015220074274819955
-0.00012551555555555556,0.8778918075455017,0.015898953454480415
-0.00012549555555555554,0.8812430873601795,0.015220074274819029
-0.00012547555555555555,0.8664974561755489,0.015220074274818874
-0.00012545555555555556,0.8611354084720476,0.01488063468498849
-0.00012543555555555557,0.8597948965461698,0.01522007427481872
-0.00012541555555555556,0.8577841286573539,0.015220074274819029
-0.00012539555555555554,0.829298250232496,0.014880634684988644
-0.00012537555555555555,0.849405929120613,0.015220074274819029
-0.00012535555555555556,0.8215903066586877,0.015220074274819029
-0.00012533555555555557,0.8051690355667077,0.015559513864649568
-0.00012531555555555555,0.8108662112516756,0.014541195095157642
-0.00012529555555555556,0.80282313969642,0.013862315915496564
-0.00012527555555555555,0.7887477644747108,0.014201755505327103
-0.00012525555555555556,0.7840559727341451,0.014541195095157642
-0.00012523555555555557,0.7890828924561797,0.014541195095157642
-0.00012521555555555555,0.7756777731974148,0.012504557556173789
-0.00012519555555555556,0.7713211094383181,0.013183436735834868
-0.00012517555555555555,0.7599267580683555,0.013862315915496564
-0.00012515555555555556,0.7331165195508372,0.014541195095157642
-0.00012513555555555557,0.7197114002920781,0.014201755505327103
-0.00012511555555555558,0.7334516475322939,0.01352287632566618
-0.00012509555555555556,0.7421649750505037,0.014541195095157642
-0.00012507555555555554,0.7213870401993951,0.01318343673583456
-0.00012505555555555555,0.6965875695706982,0.012843997146004328
-0.00012503555555555556,0.6882093700339775,0.013183436735834714
-0.00012501555555555557,0.6975929535151009,0.012843997146004482
-0.00012499555555555556,0.6778204026084307,0.011825678376512093
-0.00012497555555555554,0.6717880989419561,0.012504557556172245
-0.00012495555555555555,0.6386104287765357,0.01114679919685117
-0.00012493555555555556,0.6238647975919006,0.012165117966342787
-0.00012491555555555557,0.628891717313933,0.011146799196851633
-0.00012489555555555556,0.6141460861292959,0.012165117966342787
-0.00012487555555555554,0.6228594136474886,0.010467920017189629
-0.00012485555555555555,0.6178324939254549,0.010807359607020785
-0.00012483555555555556,0.6148163420922341,0.01250455755617348
-0.00012481555555555557,0.6030868627408198,0.011486238786681863
-0.00012479555555555555,0.5859953356858727,0.011486238786680937
-0.00012477555555555556,0.5504717696501771,0.010467920017189783
-0.00012475555555555555,0.5554986893721884,0.010807359607019859
-0.00012473555555555556,0.5343856265396427,0.01046792001718932
-0.00012471555555555557,0.531034346724953,0.01012848042735878
-0.00012469555555555558,0.5213156352623555,0.009789040837528242
-0.00012467555555555556,0.5169589715032479,0.010128480427358626
-0.00012465555555555554,0.5079105160035533,0.009449601247697548
-0.00012463555555555555,0.4770787417084214,0.009789040837527933
-0.00012461555555555556,0.4609925985979104,0.009449601247697394
-0.00012459555555555557,0.451609015116776,0.008770722068036469
-0.00012457555555555556,0.4331769761359653,0.007752403298543771
-0.00012455555555555554,0.4070369935813682,0.008091842888374773
-0.00012453555555555555,0.40167494587786345,0.008431282478204849
-0.00012451555555555556,0.393967002304077,0.007752403298543771
-0.00012449555555555557,0.386259058730294,0.007412963708713386
-0.00012447555555555556,0.37017291561976867,0.007073524118882384
-0.00012445555555555554,0.3473842128798669,0.0077524032985431535
-0.00012443555555555555,0.3463788289354465,0.007073524118883002
-0.00012441555555555556,0.31588218262176954,0.008431282478205158
-0.00012439555555555557,0.308844495010921,0.006394644939221923
-0.00012437555555555555,0.309849878955318,0.006055205349390612
-0.00012435555555555556,0.2940988638262832,0.006734084529051382
-0.00012433555555555555,0.2873963041968865,0.007752403298542999
-0.00012431555555555556,0.27231554503078254,0.006055205349390303
-0.00012429555555555557,0.2632670895311201,0.006055205349390303
-0.00012427555555555558,0.22774352349542043,0.005715765759559919
-0.00012425555555555556,0.23913787486533855,0.005036886579898223
-0.00012423555555555554,0.21199250836634387,0.004697446990067529
-0.00012421555555555555,0.21735455606984508,0.004697446990067529
-0.00012419555555555557,0.2153437881810312,0.005036886579898069
-0.00012417555555555558,0.18752816571911773,0.004697446990067838
-0.00012415555555555556,0.16507459096066068,0.003339688630744755
-0.00012413555555555554,0.13591845657282894,0.004018567810405833
-0.00012411555555555555,0.11681616162910496,0.0036791282205760664
-0.00012409555555555556,0.114805393740292,0.005036886579897606
-0.00012407555555555557,0.0776061877972514,0.004697446990067838
-0.00012405555555555556,0.06252542863110669,0.0030002490409140616
-0.00012403555555555554,0.05146620524260465,0.004358007400235292
-0.00012401555555555555,0.028677502502734094,0.0026608094510827507
-0.00012399555555555556,0.04979056533527973,0.0013030510917605939
-0.00012397555555555557,0.05548774102025236,0.0019819302714216723
-0.00012395555555555555,0.027672118558317103,0.0026608094510833682
-0.00012393555555555556,-0.0078514474773946,0.0009636115019306722
-0.00012391555555555555,-0.02695374242114617,0.0016424906815914418
-0.00012389555555555556,-0.015894519032669887,0.001981930271421981
-0.00012387555555555557,-0.03767783782815348,0.0016424906815914418
-0.00012385555555555555,-0.07554729973417607,0.0009636115019295917
-0.00012383555555555556,-0.07755806762298995,0.0002847323222685133
-0.00012381555555555555,-0.07956883551180943,-5.470726756218023e-05
-0.00012379555555555556,-0.08995780293734776,-5.470726756218023e-05
-0.00012377555555555557,-0.11676804145486605,0.00028473232226835897
-0.00012375555555555558,-0.1358703363986013,-0.001073026037053026
-0.00012373555555555556,-0.14491879189828522,-0.0020913448065463416
-0.00012371555555555554,-0.14257289602802994,-0.0027702239862077284
-0.00012369555555555555,-0.17407492628609866,-0.002770223986207265
-0.00012367555555555556,-0.1720641583972857,-0.001751905216716111
-0.00012365555555555557,-0.20792285241444916,-0.0017519052167156478
-0.00012363555555555556,-0.22970617120997527,-0.0027702239862077284
-0.00012361555555555554,-0.2454571863390183,-0.003109663576037496
-0.00012359555555555555,-0.2387546267096592,-0.0020913448065471136
-0.00012357555555555556,-0.2769592165971227,-0.003788542755699809
-0.00012355555555555557,-0.28064562439328145,-0.003109663576038731
-0.00012353555555555555,-0.29673176750380137,-0.0034491031658691156
-0.00012351555555555556,-0.2963966395223324,-0.004806861525191272
-0.00012349555555555555,-0.2873481840226831,-0.0037885427557001177
-0.00012347555555555556,-0.32555277391014664,-0.0044674219353611965
-0.00012345555555555557,-0.35303326839060284,-0.0048068615251917355
-0.00012343555555555555,-0.37113017938994186,-0.005485740704853122
-0.00012341555555555556,-0.3567196761867758,-0.005146301115022583
-0.00012339555555555555,-0.3711301793899536,-0.0048068615251925075
-0.00012337555555555556,-0.38252453075989884,-0.006164619884514664
-0.00012335555555555557,-0.38587581057458864,-0.0058251802946841244
-0.00012333555555555558,-0.3982755458889367,-0.0061646198845143555
-0.00012331555555555556,-0.39995118579629363,-0.00582518029468397
-0.00012329555555555554,-0.4240804004620845,-0.005146301115024127
-0.00012327555555555555,-0.4388260316467128,-0.006843499064176051
-0.00012325555555555556,-0.4572580706275066,-0.006843499064176051
-0.00012323555555555557,-0.46563627016423564,-0.006843499064176051
-0.00012321555555555556,-0.5025003481258477,-0.007182938654006744
-0.00012319555555555554,-0.4971383004223519,-0.007182938654007053
-0.00012317555555555555,-0.5085326517923062,-0.007522378243837747
-0.00012315555555555556,-0.5396995540689211,-0.008201257423498825
-0.00012313555555555557,-0.5507587774573923,-0.00786181783366844
-0.00012311555555555556,-0.5470723696612421,-0.008540697013329518
-0.00012309555555555554,-0.5705313283640976,-0.009219576192990906
-0.00012307555555555555,-0.5886282393634097,-0.009219576192990443
-0.00012305555555555556,-0.5785743999193403,-0.008201257423498825
-0.00012303555555555557,-0.6114169421033002,-0.008880136603159904
