samples/acq3459.csv

#Digilent WaveForms Oscilloscope Acquisition
#Device Name: Discovery2
#Serial Number: SN:210321AD996C
#Date Time: 2025-12-07 12:58:45.140
#Sample rate: 5e+07Hz
#Samples: 8192
#Trigger: Source: Channel 1 Type: Edge Condition: Rising Level: 0 V Hyst.: Auto HoldOff: 0 s
#Channel 1: Range: 500 mV/div Offset: 0 V Sample Mode: Average
#Channel 2: Range: 500 mV/div Offset: 0 V Sample Mode: Average
#Wavegen Channel 1: Running
#Mode: Custom
#Type: noisy
#Frequency: 117 kHz
#Period: 8.547008547 us
#Amplitude: 1 V
#Offset: 0 V
#Phase: 0 °

Time (s),Channel 1 (V),Channel 2 (V)
-0.00012899861386138613,-0.5112136756440451,-0.011256213731975067
-0.00012897861386138615,-0.5048462439961344,-0.011256213731975067
-0.00012895861386138613,-0.4944572765705924,-0.010577334552314143
-0.00012893861386138614,-0.5031706040887819,-0.011595653321805297
-0.00012891861386138615,-0.4743495976824669,-0.01159565332180576
-0.00012889861386138613,-0.46228499034955195,-0.01159565332180576
-0.00012887861386138614,-0.44452320733169615,-0.010237894962483604
-0.00012885861386138615,-0.4569229426460346,-0.009898455372652602
-0.00012883861386138614,-0.4431826954058115,-0.010237894962482987
-0.00012881861386138615,-0.42408040046207973,-0.009559015782821909
-0.00012879861386138613,-0.421399376610318,-0.009898455372652293
-0.00012877861386138614,-0.404978105518338,-0.009219576192991215
-0.00012875861386138615,-0.38420017066726336,-0.010577334552312445
-0.00012873861386138613,-0.35638454820530663,-0.008880136603160213
-0.00012871861386138614,-0.35370352435355484,-0.008540697013329672
-0.00012869861386138613,-0.3516927564647283,-0.008880136603160059
-0.00012867861386138614,-0.3285689257433793,-0.008540697013329672
-0.00012865861386138615,-0.3188502142807728,-0.008540697013329518
-0.00012863861386138613,-0.3051099670405297,-0.007522378243837438
-0.00012861861386138614,-0.28768331200414277,-0.008540697013329055
-0.00012859861386138615,-0.281651008337696,-0.008201257423499133
-0.00012857861386138614,-0.26020281752366614,-0.007182938654006744
-0.00012855861386138615,-0.2545056418386935,-0.0085406970133289
-0.00012853861386138613,-0.23372770698760484,-0.007861817833668131
-0.00012851861386138614,-0.22065771571031467,-0.007182938654007053
-0.00012849861386138615,-0.19853926893336624,-0.006164619884515591
-0.00012847861386138613,-0.17608569417491438,-0.006504059474345358
-0.00012845861386138614,-0.17910184600813517,-0.007182938654006436
-0.00012843861386138613,-0.15631314326822712,-0.005825180294684279
-0.00012841861386138614,-0.13754597630596432,-0.006504059474345358
-0.00012839861386138615,-0.1258164969545554,-0.004806861525193434
-0.00012837861386138613,-0.10738445797374258,-0.00480686152519189
-0.00012835861386138614,-0.08325524330797614,-0.005146301115022429
-0.00012833861386138615,-0.08560113917824694,-0.004806861525192199
-0.00012831861386138613,-0.08727677908559472,-0.00480686152519189
-0.00012829861386138614,-0.08191473138209107,-0.004467421935361351
-0.00012827861386138613,-0.0735365318453413,-0.0048068615251917355
-0.00012825861386138614,-0.03164553416173808,-0.004467421935361351
-0.00012823861386138615,-0.02326733462499838,-0.0044674219353611965
-0.00012821861386138613,0.009575207558984045,-0.003788542755699809
-0.00012819861386138614,0.02800724653977785,-0.0027702239862081915
-0.00012817861386138615,0.026331606632442103,-0.0037885427556988826
-0.00012815861386138614,0.04878518139087234,-0.003109663576038422
-0.00012813861386138615,0.04945543735381029,-0.003449103165868961
-0.00012811861386138613,0.0668820923902054,-0.002430784396377035
-0.00012809861386138614,0.08263310751924738,-0.0034491031658686524
-0.00012807861386138615,0.08162772357484807,-0.0017519052167171915
-0.00012805861386138613,0.11614590566616761,-0.0014124656268849544
-0.00012803861386138614,0.12787538501758183,-0.002091344806546033
-0.00012801861386138613,0.12083769740673789,-0.0014124656268849544
-0.00012799861386138614,0.1261997451102415,-0.0014124656268849544
-0.00012797861386138615,0.15703151940537352,-0.0007335864472241847
-0.00012795861386138613,0.1566963914239324,-0.0010730260370542608
-0.00012793861386138614,0.1741230464603193,-0.0007335864472237216
-0.00012791861386138615,0.19959277305195797,0.000624171912097972
-0.00012789861386138614,0.21701942808837593,0.0002847323222685133
-0.00012787861386138615,0.2481863303649909,0.0002847323222685133
-0.00012785861386138613,0.2639373454940543,0.0002847323222685133
-0.00012783861386138614,0.24684581843913633,-5.47072675620259e-05
-0.00012781861386138615,0.27198041704929055,0.0009636115019289741
-0.00012779861386138613,0.3115255188626708,0.0009636115019299004
-0.00012777861386138614,0.31822807849205037,0.0013030510917604395
-0.00012775861386138613,0.306833727122103,0.001981930271421981
-0.00012773861386138614,0.306833727122103,0.001981930271421981
-0.00012771861386138615,0.31789295051057426,0.0016424906815915962
-0.00012769861386138613,0.3507354926945591,0.001981930271421981
-0.00012767861386138614,0.37050804360122885,0.0016424906815914418
-0.00012765861386138615,0.3751998353418014,0.0016424906815912875
-0.00012763861386138613,0.38894008258204,0.0023213698612526744
-0.00012761861386138614,0.41843134495131007,0.003339688630744292
-0.00012759861386138613,0.40435596972962734,0.0030002490409148336
-0.00012757861386138614,0.42044211284013094,0.004697446990066757
-0.00012755861386138615,0.4566359348387715,0.004358007400237144
-0.00012753861386138613,0.4774138696898905,0.005036886579898223
-0.00012751861386138614,0.47875438161576644,0.005036886579898223
-0.00012749861386138615,0.47741386968989175,0.003679128220576684
-0.00012747861386138614,0.49182437289306313,0.004697446990067529
-0.00012745861386138615,0.5038889802259464,0.003679128220575912
-0.00012743861386138613,0.5105915398553345,0.0053763261697289165
-0.00012741861386138614,0.5146130756329622,0.0050368865798983775
-0.00012739861386138615,0.5236615311326224,0.0063946449392197615
-0.00012737861386138613,0.565887656797741,0.006734084529051691
-0.00012735861386138614,0.5826440558711898,0.005715765759560073
-0.00012733861386138613,0.5712497045012565,0.005715765759559764
-0.00012731861386138614,0.5916925113708641,0.006055205349390303
-0.00012729861386138615,0.588006103574707,0.007752403298542227
-0.00012727861386138613,0.586330463667358,0.006734084529051691
-0.00012725861386138614,0.6309024852027321,0.007752403298543308
-0.00012723861386138615,0.6362645329062536,0.00978904083752608
-0.00012721861386138613,0.6255404374992463,0.010128480427358626
-0.00012719861386138615,0.646318372350323,0.009789040837528087
-0.00012717861386138613,0.6610640035349875,0.009789040837528087
-0.00012715861386138614,0.6905552659042442,0.010128480427358472
-0.00012713861386138615,0.6831824503119435,0.010807359607019396
-0.00012711861386138613,0.6905552659042576,0.0114862387866814
-0.00012709861386138614,0.7180357603847138,0.011146799196850861
-0.00012707861386138615,0.7213870401994147,0.010128480427359553
-0.00012705861386138614,0.7227275521252942,0.01046792001718932
-0.00012703861386138615,0.7311057516620147,0.01046792001718932
-0.00012701861386138613,0.7542295823833924,0.010807359607020013
-0.00012699861386138614,0.7535593264204545,0.010807359607020013
-0.00012697861386138615,0.7368029273470129,0.010807359607020013
-0.00012695861386138613,0.7729967493456638,0.010128480427358626
-0.00012693861386138614,0.7780236690676984,0.011825678376511321
-0.00012691861386138613,0.7770182851233032,0.011146799196850552
-0.00012689861386138614,0.798801603918777,0.010807359607020168
-0.00012687861386138615,0.7840559727341585,0.010467920017189629
-0.00012685861386138613,0.7907585323635277,0.012165117966342787
-0.00012683861386138614,0.7964557080485004,0.011486238786681709
-0.00012681861386138615,0.8011474997890665,0.011825678376511784
-0.00012679861386138614,0.8162282589551816,0.011146799196850707
-0.00012677861386138615,0.8185741548254645,0.011486238786681245
-0.00012675861386138613,0.8276226103251321,0.0114862387866814
-0.00012673861386138614,0.8246064584919113,0.011146799196850861
-0.00012671861386138615,0.8520869529723536,0.013183436735833016
-0.00012669861386138613,0.8540977208611934,0.01250455755617348
-0.00012667861386138614,0.8644866882867317,0.012843997146004019
-0.00012665861386138613,0.8996751263409914,0.013183436735834714
-0.00012663861386138614,0.8912969268042669,0.012843997146004173
-0.00012661861386138615,0.9127451176182717,0.014541195095156098
-0.00012659861386138613,0.8909617988227978,0.014880634684988335
-0.00012657861386138614,0.8973292304707083,0.01318343673583564
-0.00012655861386138615,0.8973292304707112,0.014201755505326022
-0.00012653861386138613,0.9214584451364887,0.01250455755617348
-0.00012651861386138614,0.9026912781742259,0.013862315915495638
-0.00012649861386138613,0.9067128139518509,0.013522876325665716
-0.00012647861386138614,0.9154261414700403,0.0138623159154961
-0.00012645861386138615,0.9254799809141091,0.01352287632566587
-0.00012643861386138613,0.9392202281543526,0.014541195095157642
-0.00012641861386138614,0.9549712432833946,0.014201755505327103
-0.00012639861386138615,0.9241394689882698,0.013183436735835795
-0.00012637861386138614,0.9419012520061056,0.013522876325665562
-0.00012635861386138615,0.9539658593389889,0.014541195095157179
-0.00012633861386138613,0.9532956033760561,0.014541195095157642
-0.00012631861386138614,0.9479335556725524,0.014541195095157642
-0.00012629861386138615,0.9569820111722083,0.013522876325666488
-0.00012627861386138613,0.9506145795243031,0.013183436735834868
-0.00012625861386138614,0.9439120198949235,0.013862315915495946
-0.00012623861386138613,0.9680412345606954,0.013522876325665253
-0.00012621861386138614,0.9626791868571942,0.012843997146004482
-0.00012619861386138615,0.9455876598022817,0.013522876325664944
-0.00012617861386138613,0.9288312607288095,0.014201755505326949
-0.00012615861386138614,0.936874332284065,0.013183436735835332
-0.00012613861386138615,0.9599981630054177,0.013183436735834868
-0.00012611861386138614,0.9646899547460065,0.013862315915496255
-0.00012609861386138615,0.9697168744680411,0.013862315915496255
-0.00012607861386138613,0.960668418968377,0.013183436735834868
-0.00012605861386138614,0.9536307313575284,0.013183436735834868
-0.00012603861386138615,0.9563117552092758,0.013183436735834868
-0.00012601861386138613,0.9573171391536857,0.013183436735834868
-0.00012599861386138614,0.9549712432834029,0.01216511796634325
-0.00012597861386138613,0.9435768919134521,0.013183436735834714
-0.00012595861386138614,0.9452525318207969,0.012843997146004173
-0.00012593861386138615,0.9549712432833929,0.014201755505325713
-0.00012591861386138613,0.9465930437466735,0.014541195095157642
-0.00012589861386138614,0.9465930437466735,0.013183436735835486
-0.00012587861386138615,0.9412309960431723,0.013862315915495638
-0.00012585861386138613,0.9462579157652043,0.013522876325665562
-0.00012583861386138614,0.9579873951166186,0.014541195095157179
-0.00012581861386138613,0.9559766272278113,0.01352287632566587
-0.00012579861386138614,0.9606684189683748,0.01420175550532664
-0.00012577861386138615,0.9254799809141502,0.013183436735835795
-0.00012575861386138613,0.93251766852497,0.01250455755617348
-0.00012573861386138614,0.9375445882470046,0.013862315915495638
-0.00012571861386138615,0.933523052469381,0.0128439971460051
-0.00012569861386138614,0.9107343497294765,0.012843997146004173
-0.00012567861386138615,0.9214584451364838,0.012843997146004173
-0.00012565861386138613,0.9023561501927482,0.013522876325665562
-0.00012563861386138614,0.923469213025294,0.012165117966343404
-0.00012561861386138615,0.9114046056924258,0.012504557556173171
-0.00012559861386138613,0.904366918081563,0.013183436735834868
-0.00012557861386138614,0.9137505015626944,0.013183436735834868
-0.00012555861386138613,0.9107343497294689,0.013183436735834251
-0.00012553861386138614,0.8939779506560199,0.011825678376512093
-0.00012551861386138615,0.8966589745077705,0.013183436735833633
-0.00012549861386138613,0.881243087360193,0.012165117966342787
-0.00012547861386138614,0.8819133433231309,0.013183436735834405
-0.00012545861386138615,0.8775566795640366,0.012165117966343713
-0.00012543861386138613,0.8614705364535142,0.011825678376512093
-0.00012541861386138615,0.8514166970094449,0.012165117966342632
-0.00012539861386138613,0.8179038988625273,0.011825678376512093
-0.00012537861386138614,0.822930818584562,0.011486238786681554
-0.00012535861386138615,0.8205849227142824,0.011825678376511784
-0.00012533861386138613,0.8115364672146138,0.01046792001718932
-0.00012531861386138614,0.8192444107884003,0.011146799196850398
-0.00012529861386138615,0.803493395659369,0.011486238786681091
-0.00012527861386138614,0.7817100768638612,0.0114862387866814
-0.00012525861386138615,0.7756777731974223,0.011146799196851015
-0.00012523861386138613,0.8014826277705399,0.01046792001718932
-0.00012521861386138614,0.800812371807602,0.010807359607019859
-0.00012519861386138615,0.788747764474724,0.010128480427359244
-0.00012517861386138613,0.7592565021054294,0.0114862387866814
-0.00012515861386138614,0.7525539424760498,0.010467920017189783
-0.00012513861386138613,0.753894454401918,0.009449601247697394
-0.00012511861386138614,0.742164975050509,0.009789040837527779
-0.00012509861386138615,0.741829847069035,0.011146799196849471
-0.00012507861386138613,0.7217221681808867,0.01046792001718932
-0.00012505861386138614,0.7264139599214525,0.01012848042735878
-0.00012503861386138615,0.7059711530518562,0.010128480427358626
-0.00012501861386138614,0.7109980727738746,0.010807359607020013
-0.00012499861386138615,0.7026198732371501,0.009110161657867316
-0.00012497861386138613,0.6861986021451589,0.009110161657866545
-0.00012495861386138614,0.6794960425157793,0.009449601247697085
-0.00012493861386138615,0.6473237562947691,0.009789040837527624
-0.00012491861386138613,0.6506750361094311,0.008431282478205158
-0.00012489861386138614,0.6352591489618581,0.008431282478205158
-0.00012487861386138613,0.6275512053880532,0.008091842888374619
-0.00012485861386138614,0.6101245503516662,0.008431282478205158
-0.00012483861386138615,0.6138109581478234,0.007752403298544389
-0.00012481861386138613,0.6014112228334688,0.007073524118882384
-0.00012479861386138614,0.5870007196303028,0.0060552053493907665
-0.00012477861386138615,0.5444394659837554,0.006394644939220688
-0.00012475861386138613,0.5451097219466549,0.006734084529051691
-0.00012473861386138615,0.5347207545211167,0.006394644939221151
-0.00012471861386138613,0.5069051320591729,0.006394644939220688
-0.00012469861386138614,0.5045592361888912,0.005715765759559919
-0.00012467861386138615,0.4901487329857306,0.0060552053493899945
-0.00012465861386138613,0.48981360500424836,0.007073524118882384
-0.00012463861386138614,0.4717166940049235,0.0060552053493907665
-0.00012461861386138615,0.4462469674132845,0.0043580074002383794
-0.00012459861386138614,0.4552954229129279,0.005036886579898223
-0.00012457861386138615,0.4509387591538312,0.005376326169728762
-0.00012455861386138613,0.42446364861776786,0.0053763261697289165
-0.00012453861386138614,0.39363187432262187,0.004697446990067838
-0.00012451861386138615,0.3674918917680394,0.004358007400237144
-0.00012449861386138613,0.37050804360123785,0.004018567810406142
-0.00012447861386138614,0.35978394819423054,0.0030002490409145248
-0.00012445861386138613,0.35576241241658557,0.003000249040913753
-0.00012443861386138614,0.3326385816952365,0.002321369861252983
-0.00012441861386138615,0.30448783125184464,0.0023213698612526744
-0.00012439861386138613,0.3061634711591647,0.0023213698612526744
-0.00012437861386138614,0.29543937575215745,0.0023213698612526744
-0.00012435861386138615,0.2806937445675242,0.0026608094510830595
-0.00012433861386138614,0.2749965688825356,0.0013030510917605939
-0.00012431861386138615,0.26393734549405934,0.0019819302714216723
-0.00012429861386138613,0.2461755624761903,0.0026608094510833682
-0.00012427861386138614,0.22707326753245854,0.0013030510917612112
-0.00012425861386138615,0.24215402669854702,0.0019819302714213635
-0.00012423861386138613,0.2012684129593268,-0.00039414685739287377
-0.00012421861386138614,0.1811607340711881,0.000963611501929283
-0.00012419861386138613,0.1895389336078929,0.0006241719120992069
-0.00012417861386138614,0.15803690334980894,0.0006241719120992069
-0.00012415861386138615,0.1630638230718413,0.0016424906815903613
-0.00012413861386138613,0.16708535884947545,0.0009636115019299004
-0.00012411861386138614,0.13357256070257764,-0.0003941468573922564
-0.00012409861386138615,0.13290230473962475,0.001642490681589435
-0.00012407861386138613,0.10776770612943934,0.0006241719120992069
-0.00012405861386138614,0.0806223396304521,-0.0007335864472229499
-0.00012403861386138613,0.07827644376013998,-0.00039414685739287377
-0.00012401861386138614,0.04342313368738209,-0.00039414685739287377
-0.00012399861386138615,0.03135852635448851,-0.0007335864472232585
-0.00012397861386138613,0.014266999299551875,-0.0014124656268849544
-0.00012395861386138614,0.014937255262489832,-0.002091344806546033
-0.00012393861386138615,-0.015224263069704192,-0.002430784396376726
-0.00012391861386138614,-0.02728887040262033,-0.0017519052167156478
-0.00012389861386138615,-0.022261950680585656,-0.0020913448065461872
-0.00012387861386138613,-0.04102911764285469,-0.0020913448065463416
-0.00012385861386138614,-0.0547693648830828,-0.0014124656268852632
-0.00012383861386138615,-0.06415294836421616,-0.002091344806545724
-0.00012381861386138613,-0.07320140386389123,-0.0017519052167156478
-0.00012379861386138614,-0.1030277942146303,-0.0031096635760378046
-0.00012377861386138613,-0.12078957723250795,-0.002770223986208037
-0.00012375861386138614,-0.12112470521397692,-0.0034491031658691156
-0.00012373861386138615,-0.12950290475069756,-0.0017519052167171915
-0.00012371861386138613,-0.14458366391681607,-0.003109663576038422
-0.00012369861386138614,-0.16804262261964456,-0.004127982345530039
-0.00012367861386138615,-0.17709107811931352,-0.003449103165869733
-0.00012365861386138614,-0.20021490884069176,-0.0044674219353611965
-0.00012363861386138615,-0.21127413222916805,-0.0058251802946833525
-0.00012361861386138613,-0.20457157259979047,-0.005146301115022583
-0.00012359861386138614,-0.23707898680228134,-0.004806861525192044
-0.00012357861386138615,-0.27126204091211636,-0.0051463011150222745
-0.00012355861386138613,-0.27126204091214745,-0.006843499064176051
-0.00012353861386138614,-0.2880184399855964,-0.006504059474345512
-0.00012351861386138615,-0.2933804876891052,-0.005485740704854203
-0.00012349861386138614,-0.3228717500583936,-0.006164619884514664
-0.00012347861386138615,-0.3295743096877701,-0.006504059474345049
-0.00012345861386138613,-0.33694712528009707,-0.006843499064176051
-0.00012343861386138614,-0.36878428351965,-0.007861817833667668
-0.00012341861386138615,-0.3644276197605697,-0.0085406970133289
-0.00012339861386138613,-0.3888919624078123,-0.008201257423498825
-0.00012337861386138614,-0.38386504268577765,-0.007861817833668286
-0.00012335861386138613,-0.38386504268578436,-0.007182938654007362
-0.00012333861386138614,-0.40363759359244505,-0.0085406970133289
-0.00012331861386138615,-0.4247506564249901,-0.008540697013329518
-0.00012329861386138613,-0.43614500779495974,-0.008880136603160213
-0.00012327861386138614,-0.4542419187942846,-0.007861817833668594
-0.00012325861386138615,-0.4458637192575721,-0.008880136603159287
-0.00012323861386138614,-0.4596039664977989,-0.009219576192990906
-0.00012321861386138615,-0.48540882107091027,-0.008201257423499288
-0.00012319861386138613,-0.49412214858911935,-0.008880136603160213
-0.00012317861386138614,-0.5199270031622306,-0.008880136603160213
-0.00012315861386138615,-0.5266295627916189,-0.009898455372651367
-0.00012313861386138613,-0.5172459793104893,-0.008880136603160213
-0.00012311861386138614,-0.5152352114216755,-0.009219576192990752
-0.00012309861386138613,-0.5497533935130049,-0.01057733455231368
-0.00012307861386138614,-0.5715367123084886,-0.01057733455231368
-0.00012305861386138615,-0.5822608077154909,-0.010237894962483295
-0.00012303861386138613,-0.5949956710113277,-0.011256213731975067
