samples/acq3485.csv

#Digilent WaveForms Oscilloscope Acquisition
#Device Name: Discovery2
#Serial Number: SN:210321AD996C
#Date Time: 2025-12-07 12:58:45.999
#Sample rate: 5e+07Hz
#Samples: 8192
#Trigger: Source: Channel 1 Type: Edge Condition: Rising Level: 0 V Hyst.: Auto HoldOff: 0 s
#Channel 1: Range: 500 mV/div Offset: 0 V Sample Mode: Average
#Channel 2: Range: 500 mV/div Offset: 0 V Sample Mode: Average
#Wavegen Channel 1: Running
#Mode: Custom
#Type: noisy
#Frequency: 117 kHz
#Period: 8.547008547 us
#Amplitude: 1 V
#Offset: 0 V
#Phase: 0 °

Time (s),Channel 1 (V),Channel 2 (V)
-0.000128980625,-0.5102082916996377,-0.007861817833668131
-0.000128960625,-0.5081975238108237,-0.00854069701332921
-0.000128940625,-0.5014949641814366,-0.008201257423498979
-0.000128920625,-0.4934518926261848,-0.008540697013329364
-0.000128900625,-0.48071702933036575,-0.007861817833668749
-0.000128880625,-0.45122576696107064,-0.007522378243837438
-0.000128860625,-0.4572580706275123,-0.006504059474345821
-0.00012884062500000002,-0.4458637192575749,-0.007182938654006127
-0.000128820625,-0.4301127041285154,-0.006843499064176051
-0.000128800625,-0.4187183527585701,-0.006164619884514973
-0.000128780625,-0.4160373289068119,-0.00582518029468397
-0.000128760625,-0.4120157931291842,-0.005485740704853431
-0.00012874062500000001,-0.3714653073714544,-0.005825180294683661
-0.000128720625,-0.34968198857592403,-0.005146301115022583
-0.000128700625,-0.35806018811264845,-0.00650405947434474
-0.000128680625,-0.33192020555804946,-0.005146301115022583
-0.000128660625,-0.30846124685523163,-0.005146301115022583
-0.000128640625,-0.3077909908922833,-0.004467421935361814
-0.000128620625,-0.280310496411814,-0.00480686152519189
-0.000128600625,-0.27628896063418623,-0.004467421935361351
-0.00012858062500000002,-0.27930511246740386,-0.0031096635760396573
-0.000128560625,-0.2595325615607279,-0.0034491031658691156
-0.000128540625,-0.25215974596841034,-0.0031096635760385766
-0.000128520625,-0.22601976341381483,-0.003788542755699809
-0.000128500625,-0.21864694782149732,-0.00344910316586927
-0.000128480625,-0.18211799784139193,-0.0020913448065475763
-0.000128460625,-0.18714491756339569,-0.002430784396377035
-0.000128440625,-0.1787667180266712,-0.002091344806546496
-0.000128420625,-0.14022700015771633,-0.0010730260370544152
-0.000128400625,-0.13788110428743347,-0.0014124656268849544
-0.000128380625,-0.10537369008495734,-0.0027702239862064937
-0.000128360625,-0.08157960340061951,-0.00039414685739287377
-0.000128340625,-0.07521217175270893,-0.0007335864472234129
-0.00012832062500000001,-0.07387165982683072,0.0002847323222675872
-0.000128300625,-0.08224985936355778,-5.470726756218023e-05
-0.000128280625,-0.07521217175270924,-0.0010730260370537977
-0.000128260625,-0.048401933235169614,-0.0007335864472232586
-0.000128240625,-0.035331941957885415,-5.470726756248896e-05
-0.000128220625,-0.023937590587939386,-0.0007335864472229497
-0.000128200625,0.02499109470656406,0.0009636115019299004
-0.000128180625,0.027672118558315886,0.002321369861252057
-0.00012816062500000002,0.038061085983850704,0.0016424906815919048
-0.000128140625,0.04643928552058842,0.0002847323222685133
-0.000128120625,0.04476364561324353,0.0009636115019295917
-0.000128100625,0.07827644376015583,0.0026608094510833682
-0.000128080625,0.08598438733394233,0.002321369861252829
-0.00012806062500000001,0.1060920662220754,0.00198193027142229
-0.000128040625,0.12653487309171066,0.004018567810406142
-0.000128020625,0.13692384051724898,0.0026608094510839854
-0.000128000625,0.12150795336968773,0.0030002490409140616
-0.000127980625,0.15233972766483372,0.0030002490409140616
-0.000127960625,0.16071792720155434,0.003339688630744446
-0.000127940625,0.18752816571909245,0.005036886579898223
-0.000127920625,0.19221995745965814,0.004018567810406605
-0.00012790062500000002,0.211992508366321,0.004358007400236527
-0.000127880625,0.24584043449472118,0.005036886579898223
-0.000127860625,0.26527785741992194,0.004358007400237144
-0.000127840625,0.2719804170493134,0.00571576575955961
-0.000127820625,0.26159144962377506,0.00571576575955961
-0.000127800625,0.27734246475280516,0.005036886579898841
-0.000127780625,0.3165524385847078,0.0053763261697289165
-0.000127760625,0.3178929505105837,0.0057157657595594555
-0.000127740625,0.31554705464030036,0.006055205349390458
-0.000127720625,0.31554705464030036,0.006394644939220997
-0.000127700625,0.35509215645362185,0.006734084529051382
-0.000127680625,0.3678270197494848,0.007073524118882384
-0.000127660625,0.38558880276734064,0.0063946449392213054
-0.00012764062500000001,0.3708431715827204,0.007412963708712151
-0.000127620625,0.41675570504397785,0.007752403298543771
-0.000127600625,0.4100531454145983,0.007752403298543771
-0.000127580625,0.4026803298222913,0.00707352411888223
-0.000127560625,0.43987953576533095,0.006734084529051845
-0.000127540625,0.4619979825422904,0.0070735241188820755
-0.000127520625,0.468365414190224,0.008091842888374464
-0.000127500625,0.4717166940049138,0.009110161657866081
-0.00012748062500000002,0.4800948935416359,0.008431282478205775
-0.000127460625,0.5102564118738653,0.008091842888374464
-0.000127440625,0.5233264031511554,0.008091842888374464
-0.000127420625,0.5216507632438158,0.008770722068035851
-0.000127400625,0.5414233141504855,0.008431282478205312
-0.000127380625,0.5541581774463099,0.008091842888374773
-0.000127360625,0.5870007196302962,0.009789040837527933
-0.000127340625,0.5819737999082616,0.008431282478205775
-0.000127320625,0.5665579127606893,0.008431282478205158
-0.000127300625,0.5886763595376419,0.008431282478205158
-0.000127280625,0.5816386719267966,0.009110161657865927
-0.000127260625,0.6071083985184441,0.008431282478205158
-0.000127240625,0.6419617085912178,0.009789040837527315
-0.00012722062500000001,0.6520155480352985,0.011146799196849471
-0.000127200625,0.6443076044615176,0.009110161657866545
-0.000127180625,0.652015548035304,0.010807359607019241
-0.000127160625,0.6751393787566831,0.010467920017189474
-0.000127140625,0.6872039860895609,0.010807359607019859
-0.000127120625,0.6908903938857234,0.011146799196850398
-0.000127100625,0.7059711530518377,0.010128480427358626
-0.000127080625,0.7244031920326315,0.010128480427358626
-0.00012706062500000002,0.7274193438658593,0.010807359607019396
-0.000127040625,0.7223924241438251,0.011146799196850707
-0.000127020625,0.7361326713840468,0.010807359607020322
-0.000127000625,0.7622726539386516,0.012165117966342787
-0.000126980625,0.740824463124637,0.011825678376512248
-0.00012696062500000001,0.7505431745872232,0.01012848042736017
-0.000126940625,0.7857316126414907,0.011825678376512093
-0.000126920625,0.7719913654012626,0.011825678376512093
-0.000126900625,0.794444940159691,0.012504557556172862
-0.000126880625,0.8008123718075988,0.011146799196851324
-0.000126860625,0.7853964846600356,0.01216511796634186
-0.000126840625,0.789082892456182,0.011825678376512093
-0.000126820625,0.7833857167712094,0.011146799196851015
-0.00012680062500000002,0.8095256993257752,0.011825678376511476
-0.000126780625,0.8179038988625273,0.011825678376512093
-0.000126760625,0.8269523543621897,0.01284399714600371
-0.000126740625,0.8406926016024282,0.012843997146004173
-0.000126720625,0.8406926016024282,0.013183436735834714
-0.000126700625,0.8467249052688671,0.012165117966343713
-0.000126680625,0.8561084887500082,0.012843997146004173
-0.000126660625,0.8788971914898988,0.013862315915495792
-0.000126640625,0.8721946318605388,0.012504557556173943
-0.000126620625,0.899339998359526,0.013522876325665562
-0.000126600625,0.9154261414700297,0.014201755505326331
-0.000126580625,0.9016858942298099,0.013183436735834868
-0.000126560625,0.9080533258777206,0.013522876325665407
-0.00012654062500000001,0.9184422933032571,0.013862315915495946
-0.000126520625,0.9204530611920813,0.013183436735834868
-0.000126500625,0.9110694777109498,0.013522876325665407
-0.000126480625,0.9073830699147919,0.01555951386464895
-0.000126460625,0.9221287010994202,0.013862315915497027
-0.000126440625,0.9365392043025864,0.013183436735835486
-0.000126420625,0.9475984276910808,0.015220074274819029
-0.000126400625,0.9231340850438454,0.013522876325666334
-0.00012638062500000002,0.9234692130253032,0.013522876325665562
-0.000126360625,0.9499443235613648,0.014880634684988335
-0.000126340625,0.9599981630054342,0.014201755505327257
-0.000126320625,0.942906635950513,0.014541195095157642
-0.000126300625,0.9509497075057685,0.01522007427481872
-0.00012628062500000001,0.9593279070424928,0.01454119509515826
-0.000126260625,0.9378797162284761,0.014880634684988335
-0.000126240625,0.9650250827274633,0.014541195095157796
-0.000126220625,0.9663655946533484,0.014880634684988335
-0.000126200625,0.9579873951166277,0.014880634684988335
-0.000126180625,0.9372094602655567,0.01454119509515795
-0.000126160625,0.9291663887102787,0.015220074274819029
-0.000126140625,0.9516199634687003,0.01488063468498849
-0.00012612062500000002,0.9586576510795557,0.014880634684988335
-0.000126100625,0.9616738029127844,0.014541195095157642
-0.000126080625,0.9640196987830671,0.01522007427481872
-0.000126060625,0.9727330263012657,0.015559513864649722
-0.000126040625,0.967370978597762,0.015898953454480263
-0.000126020625,0.9479335556725677,0.014880634684989262
-0.000126000625,0.9643548267645374,0.015559513864649722
-0.000125980625,0.9563117552092819,0.015559513864649722
-0.000125960625,0.947933555672552,0.014880634684988644
-0.000125940625,0.9522902194316487,0.015559513864649722
-0.000125920625,0.9331879244879255,0.014201755505328184
-0.000125900625,0.9378797162284761,0.015220074274819029
-0.000125880625,0.9472632997096075,0.015220074274819029
-0.00012586062500000001,0.9636845708015842,0.014201755505327875
-0.000125840625,0.9516199634687105,0.015220074274819029
-0.000125820625,0.941566124024641,0.015559513864649568
-0.000125800625,0.9656953386904048,0.015220074274819029
-0.000125780625,0.9455876598022752,0.015220074274819029
-0.000125760625,0.9365392043026077,0.014880634684988644
-0.000125740625,0.9335230524693774,0.015220074274819029
-0.000125720625,0.9405607400802259,0.01488063468498849
-0.00012570062500000002,0.923469213025319,0.01454119509515795
-0.000125680625,0.9127451176182912,0.013862315915496255
-0.000125660625,0.9134153735812293,0.014201755505326794
-0.000125640625,0.8990048703780569,0.013862315915496255
-0.000125620625,0.9147558855070989,0.01589895345447949
-0.000125600625,0.9013507662483531,0.014541195095158877
-0.000125580625,0.9150910134885752,0.014541195095157642
-0.000125560625,0.9204530611920788,0.01522007427481872
-0.000125540625,0.8902915428598609,0.014201755505326794
-0.000125520625,0.8933076946930817,0.013862315915496255
-0.000125500625,0.8916320547857376,0.014541195095157024
-0.000125480625,0.8832538552490078,0.014541195095157642
-0.000125460625,0.8819133433231318,0.01522007427481872
-0.00012544062500000002,0.8715243758975977,0.014880634684988644
-0.000125420625,0.85543823278707,0.013862315915496255
-0.000125400625,0.8339900419730554,0.014201755505326794
-0.000125380625,0.8165633869366508,0.013522876325665562
-0.000125360625,0.8219254346401544,0.013522876325665562
-0.000125340625,0.7964557080485262,0.012843997146004791
-0.000125320625,0.8262820983992556,0.0114862387866814
-0.000125300625,0.804833907585241,0.012504557556173017
-0.00012528062500000002,0.7840559727341639,0.01250455755617348
-0.000125260625,0.7770182851232933,0.011825678376512093
-0.000125240625,0.79511519612261,0.013522876325664018
-0.000125220625,0.8105310832702064,0.012165117966342787
-0.000125200625,0.786066740622971,0.011486238786681709
-0.00012518062500000001,0.7652888057718926,0.011146799196851015
-0.000125160625,0.7465216388096024,0.0114862387866814
-0.000125140625,0.7569106062351407,0.0114862387866814
-0.000125120625,0.7468567667910713,0.010807359607020476
-0.000125100625,0.7461865108281337,0.01182567837651163
-0.000125080625,0.729430111754692,0.01080735960702094
-0.000125060625,0.7146844805700351,0.01046792001718932
-0.000125040625,0.6955821856263033,0.010807359607019859
-0.00012502062500000002,0.7089873048850476,0.012504557556171936
-0.000125000625,0.6992685934224551,0.01250455755617348
-0.000124980625,0.6969226975521722,0.011486238786681863
-0.000124960625,0.6664260512384802,0.01046792001718932
-0.000124940625,0.6553668278500039,0.010807359607019859
-0.000124920625,0.6305673572213057,0.010128480427359244
-0.000124900625,0.6372699168506658,0.009789040837527933
-0.000124880625,0.6329132530915691,0.009110161657866853
-0.000124860625,0.6128055742034245,0.008091842888375236
-0.000124840625,0.6241999255733698,0.009789040837527933
-0.000124820625,0.6050976306296467,0.009110161657867162
-0.000124800625,0.5997355829261232,0.009110161657866545
-0.000124780625,0.5652174008348184,0.008431282478205467
-0.00012476062500000001,0.5420935701134537,0.007752403298544389
-0.000124740625,0.5444394659837166,0.007073524118882384
-0.000124720625,0.5323748586508333,0.007073524118882384
-0.000124700625,0.5075753880221141,0.0077524032985431535
-0.000124680625,0.5115969237997401,0.006394644939221614
-0.000124660625,0.4991971884853953,0.00809184288837292
-0.000124640625,0.4804300215231127,0.006734084529051691
-0.000124620625,0.45529542291293934,0.006055205349390612
-0.00012460062500000002,0.45060363117236435,0.005376326169729534
-0.000124580625,0.44557671145032307,0.006394644939220997
-0.000124560625,0.4355228720062537,0.006055205349390458
-0.000124540625,0.4070369935813731,0.005036886579898223
-0.000124520625,0.40435596972962123,0.005036886579898223
-0.00012450062500000001,0.373524195434488,0.005376326169728608
-0.000124480625,0.3681621477309539,0.005036886579898223
-0.000124460625,0.3728539394715196,0.004358007400237144
-0.000124440625,0.34570857297251517,0.004018567810405833
-0.000124420625,0.33029268582494914,0.0033396886307450638
-0.000124400625,0.30046629547421666,0.0030002490409143704
-0.000124380625,0.3058283431776956,0.003339688630744755
-0.000124360625,0.2827045124563361,0.0019819302714225986
-0.00012434062500000002,0.2816991285119191,0.0030002490409131357
-0.000124320625,0.26259683356817776,0.0016424906815912875
-0.000124300625,0.2632670895311157,0.0016424906815912875
-0.000124280625,0.2501970982538199,0.003339688630744755
-0.000124260625,0.24382966660590927,0.0019819302714225986
-0.000124240625,0.24047838679121813,0.001981930271421981
-0.000124220625,0.18417688590440112,0.001981930271421981
-0.000124200625,0.1955712372743464,0.0016424906815914418
-0.000124180625,0.18853354966349298,0.0006241719120995156
-0.000124160625,0.17345279049738896,0.0013030510917605939
-0.000124140625,0.1520045996833841,0.0013030510917605939
-0.000124120625,0.15300998362777196,0.0013030510917605939
-0.000124100625,0.1325671767581643,0.0013030510917605939
-0.00012408062500000001,0.12016744144380846,0.00028473232226943943
-0.000124060625,0.08531413137100757,0.0002847323222685133
-0.000124040625,0.0652064524828689,-0.0003941468573925651
-0.000124020625,0.05180133322409116,-0.0010730260370541065
-0.000124000625,0.04442851763177699,-0.0007335864472237216
-0.000123980625,0.024320838743644085,0.0002847323222675872
-0.000123960625,0.024655966725094926,-5.470726756218023e-05
-0.000123940625,0.011250847466335796,-0.0010730260370537977
-0.00012392062500000002,-0.024607846550834672,-0.0017519052167150303
-0.000123900625,-0.022932206643521632,-0.0010730260370542608
-0.000123880625,-0.027288870402618348,-0.002430784396376418
-0.000123860625,-0.06716910019744687,-0.0010730260370542608
-0.000123840625,-0.0591260286421914,-0.0020913448065458785
-0.00012382062500000001,-0.07856345156737965,-0.002430784396376726
-0.000123800625,-0.08861729101147126,-0.002430784396377035
-0.000123780625,-0.11609778549192748,-0.002770223986207574
-0.000123760625,-0.12548136897307044,-0.003109663576038422
-0.000123740625,-0.11408701760312517,-0.003109663576038422
-0.000123720625,-0.1365405923615365,-0.0024307843963776526
-0.000123700625,-0.13922161621331,-0.003788542755699809
-0.000123680625,-0.17373979830461478,-0.004467421935360888
-0.00012366062500000002,-0.18949081343366528,-0.004127982345530811
-0.000123640625,-0.20289593269244482,-0.003788542755699809
-0.000123620625,-0.22199822763617658,-0.004806861525191427
-0.000123600625,-0.22769540332116048,-0.0044674219353611965
-0.000123580625,-0.2605379455051203,-0.0051463011150222745
-0.000123560625,-0.27930511246738954,-0.004467421935361814
-0.000123540625,-0.28198613631915964,-0.00480686152519189
-0.000123520625,-0.2947209996149808,-0.004467421935361351
-0.00012350062500000002,-0.3282337977618692,-0.005146301115021966
-0.000123480625,-0.32823379776189965,-0.00480686152519189
-0.000123460625,-0.3329255895024632,-0.005825180294683044
-0.000123440625,-0.36141146792734363,-0.006164619884514664
-0.000123420625,-0.35839531609412284,-0.0058251802946841244
-0.00012340062500000001,-0.38621093855603394,-0.006843499064175125
-0.000123380625,-0.3842001706672445,-0.007522378243837438
-0.000123360625,-0.3801786348896168,-0.006164619884515282
-0.000123340625,-0.38654606653753576,-0.006843499064175897
-0.000123320625,-0.40263220964803936,-0.006504059474345512
-0.000123300625,-0.4264262963323333,-0.007182938654006127
-0.000123280625,-0.43949628760965104,-0.008201257423498825
-0.000123260625,-0.43648013577643024,-0.008201257423498825
-0.00012324062500000002,-0.4572580706274961,-0.007522378243838055
-0.000123220625,-0.46664165410865066,-0.007861817833668131
-0.000123200625,-0.49579778849645173,-0.00888013660315975
-0.000123180625,-0.49814368436674894,-0.007861817833668131
-0.000123160625,-0.5159054673846047,-0.00854069701332921
-0.000123140625,-0.535007762328336,-0.008201257423499133
-0.000123120625,-0.5460669857168347,-0.007861817833668131
-0.000123100625,-0.5380239141615791,-0.00888013660315975
-0.000123080625,-0.5681854324938026,-0.008880136603160367
-0.000123060625,-0.5799149118452168,-0.009219576192990906
-0.000123040625,-0.5960010549557204,-0.010577334552312445
-0.000123020625,-0.6070602783442164,-0.010916774142144373
-0.000123000625,-0.6268328292508861,-0.010916774142144373
-0.00012298062500000001,-0.634875900806147,-0.010577334552313989
-0.000122960625,-0.6399028205281913,-0.009898455372652293
-0.000122940625,-0.628508469158246,-0.010577334552313371
-0.000122920625,-0.6509620439166651,-0.011595653321804988
-0.000122900625,-0.6345407728246926,-0.009898455372653065
-0.000122880625,-0.6553187076757524,-0.011595653321804216
-0.000122860625,-0.6848099700450547,-0.01057733455231368
-0.000122840625,-0.6972097053594069,-0.011595653321805297
-0.00012282062500000002,-0.6921827856373801,-0.010237894962484222
-0.000122800625,-0.7045825209517335,-0.011256213731975067
-0.000122780625,-0.7223443039695893,-0.011935092911636145
-0.000122760625,-0.7297171195619182,-0.01159565332180576
-0.000122740625,-0.7380953190986427,-0.011256213731975221
-0.00012272062500000001,-0.7494896704685866,-0.013292851270957376
-0.000122700625,-0.7628947897273621,-0.012274532501467147
-0.000122680625,-0.7699324773382107,-0.012953411681128226
-0.000122660625,-0.7833375965969797,-0.012953411681128072
-0.000122640625,-0.7846781085228551,-0.011935092911636917
-0.000122620625,-0.80914245117008,-0.013632290860788378
-0.000122600625,-0.8372932016135092,-0.013632290860789922
-0.000122580625,-0.838968841520854,-0.013292851270959383
-0.00012256062500000002,-0.8258988502435706,-0.012953411681128844
-0.000122540625,-0.8118234750218553,-0.012613972091297842
-0.000122520625,-0.8245583383176764,-0.013632290860789459
-0.000122500625,-0.8326014098729414,-0.013971730450620615
-0.000122480625,-0.8714762557233429,-0.014990049220112232
-0.000122460625,-0.8808598392044876,-0.013292851270960773
-0.000122440625,-0.8852165029635949,-0.014650609630282002
-0.000122420625,-0.8805247112230291,-0.013971730450620924
-0.000122400625,-0.8801895832415537,-0.014650609630281693
-0.000122380625,-0.8708059997604223,-0.013971730450620615
-0.000122360625,-0.8959405983705842,-0.014311170040451
-0.000122340625,-0.9029782859814588,-0.014990049220112696
-0.000122320625,-0.8992918781853,-0.014311170040451618
-0.00012230062500000001,-0.8935947025003284,-0.014990049220112078
