samples/acq3489.csv

#Digilent WaveForms Oscilloscope Acquisition
#Device Name: Discovery2
#Serial Number: SN:210321AD996C
#Date Time: 2025-12-07 12:58:46.130
#Sample rate: 5e+07Hz
#Samples: 8192
#Trigger: Source: Channel 1 Type: Edge Condition: Rising Level: 0 V Hyst.: Auto HoldOff: 0 s
#Channel 1: Range: 500 mV/div Offset: 0 V Sample Mode: Average
#Channel 2: Range: 500 mV/div Offset: 0 V Sample Mode: Average
#Wavegen Channel 1: Running
#Mode: Custom
#Type: noisy
#Frequency: 117 kHz
#Period: 8.547008547 us
#Amplitude: 1 V
#Offset: 0 V
#Phase: 0 °

Time (s),Channel 1 (V),Channel 2 (V)
-0.00012898992366412214,-0.5464021136983037,0.0006241719120992069
-0.00012896992366412215,-0.528305202698979,0.001303051091760285
-0.00012894992366412213,-0.5239485389398595,0.0009636115019300548
-0.00012892992366412214,-0.4964680444594158,0.0013030510917604395
-0.00012890992366412215,-0.4619498623681142,0.0013030510917605939
-0.00012888992366412214,-0.44720423118344105,0.0016424906815912875
-0.00012886992366412215,-0.43983141559112354,0.0023213698612523656
-0.00012884992366412216,-0.4358098798134943,0.003000249040913444
-0.00012882992366412214,-0.41235092111065147,0.0030002490409140616
-0.00012880992366412215,-0.40765912937008575,0.0033396886307446006
-0.00012878992366412213,-0.39458913809278756,0.0030002490409140616
-0.00012876992366412214,-0.4076591293700777,0.0033396886307446006
-0.00012874992366412215,-0.37816786700082694,0.004018567810405525
-0.00012872992366412214,-0.36174659590881275,0.005036886579898223
-0.00012870992366412215,-0.33929302115039117,0.0036791282205760664
-0.00012868992366412213,-0.3121476546513721,0.005376326169728762
-0.00012866992366412214,-0.2917048477817737,0.0050368865798983775
-0.00012864992366412215,-0.2823212643006373,0.005376326169728608
-0.00012862992366412213,-0.27796460054153005,0.0043580074002368355
-0.00012860992366412214,-0.2776294725600611,0.005036886579897914
-0.00012858992366412216,-0.27762947256006093,0.005715765759558992
-0.00012856992366412214,-0.2652297372457031,0.004697446990067529
-0.00012854992366412215,-0.2504841060610681,0.004018567810406451
-0.00012852992366412213,-0.2310466831358518,0.0053763261697289165
-0.00012850992366412214,-0.21965233176590654,0.0057157657595594555
-0.00012848992366412215,-0.2022256767295224,0.004358007400238071
-0.00012846992366412214,-0.1841287657301735,0.0053763261697289165
-0.00012844992366412215,-0.18144774187842166,0.004697446990067838
-0.00012842992366412213,-0.1780964620637284,0.004697446990067683
-0.00012840992366412214,-0.1764208221563835,0.005036886579898223
-0.00012838992366412215,-0.13989187217628146,0.004358007400237453
-0.00012836992366412213,-0.13017316071364346,0.003679128220575449
-0.00012834992366412214,-0.09464959467793174,0.004358007400236527
-0.00012832992366412215,-0.08861729101147674,0.0036791282205760664
-0.00012830992366412214,-0.09632523458526127,0.0026608094510833682
-0.00012828992366412215,-0.07990396349328133,0.0036791282205749856
-0.00012826992366412213,-0.06180705249393622,0.003000249040914216
-0.00012824992366412214,-0.05175321304987144,0.0033396886307446006
-0.00012822992366412215,-0.05309372497574217,0.001981930271423216
-0.00012820992366412214,-0.02226195068058337,0.0026608094510833682
-0.00012818992366412215,0.0032077759110589812,0.0026608094510833682
-0.00012816992366412216,0.029012630484170156,0.0016424906815922136
-0.00012814992366412214,0.019629047003057967,0.0030002490409140616
-0.00012812992366412215,0.03739083002091382,0.0009636115019308268
-0.00012810992366412213,0.061520044686699304,0.0013030510917605939
-0.00012808992366412214,0.09369233090772122,0.0013030510917605939
-0.00012806992366412215,0.10106514650005001,0.0006241719120998243
-0.00012804992366412214,0.10609206622209369,0.0013030510917605939
-0.00012802992366412215,0.14329127216515025,0.0009636115019300547
-0.00012800992366412213,0.14530204005397954,0.0002847323222685133
-0.00012798992366412214,0.13993999235047588,0.0002847323222685133
-0.00012796992366412215,0.15870715931273013,-5.4707267561871506e-05
-0.00012794992366412213,0.18987406158937636,0.0009636115019299004
-0.00012792992366412214,0.17445817444180337,-0.0010730260370533343
-0.00012790992366412216,0.19791713314461415,0.0013030510917584326
-0.00012788992366412214,0.21835994001425246,-0.00039414685739287377
-0.00012786992366412215,0.24517017853177073,-0.0007335864472234129
-0.00012784992366412213,0.24550530651325206,0.0006241719120992069
-0.00012782992366412214,0.25790504182760426,-0.0007335864472229499
-0.00012780992366412215,0.2619265776052358,-0.0007335864472235673
-0.00012778992366412214,0.28370989640073296,-5.470726756218023e-05
-0.00012776992366412215,0.2947691197892092,0.00028473232226835897
-0.00012774992366412213,0.3212442303252782,-0.001073026037054724
-0.00012772992366412214,0.32694140601025085,-0.0020913448065463416
-0.00012770992366412215,0.3259360220658443,-0.002430784396376726
-0.00012768992366412213,0.35576241241659606,-0.003788542755699809
-0.00012766992366412214,0.3795564991008935,-0.0014124656268860347
-0.00012764992366412215,0.39095085047084444,-0.0027702239862064937
-0.00012762992366412214,0.3869293146932252,-0.0020913448065463416
-0.00012760992366412215,0.3973182821187636,-0.0020913448065463416
-0.00012758992366412213,0.4311662082471503,-0.0007335864472240303
-0.00012756992366412214,0.4308310802656815,-0.0017519052167151846
-0.00012754992366412215,0.4425605596170903,-0.0010730260370548782
-0.00012752992366412214,0.44557671145032307,-0.0020913448065463416
-0.00012750992366412215,0.45563055089439247,-0.0007335864472241846
-0.00012748992366412216,0.48445155730071604,-0.0007335864472235673
-0.00012746992366412214,0.4754031018010757,-0.0007335864472235673
-0.00012744992366412215,0.49215950087452465,-0.0003941468573930281
-0.00012742992366412213,0.5072402600406432,-5.470726756218023e-05
-0.00012740992366412214,0.5012079563742016,0.00028473232226835897
-0.00012738992366412215,0.5303640907619867,-0.0007335864472226411
-0.00012736992366412214,0.5628715049645189,0.0009636115019299004
-0.00012734992366412215,0.5705794485383053,0.0013030510917604395
-0.00012732992366412213,0.5719199604641886,0.0019819302714216723
-0.00012730992366412214,0.5789576480750371,0.0013030510917605939
-0.00012728992366412215,0.5994004549446356,0.0013030510917605939
-0.00012726992366412213,0.6198432618142711,0.0026608094510833682
-0.00012724992366412214,0.6399509407024098,0.0013030510917612112
-0.00012722992366412215,0.6453129884059201,0.0019819302714213635
-0.00012720992366412214,0.6443076044615176,0.0023213698612526744
-0.00012718992366412215,0.638610428776545,0.0019819302714221354
-0.00012716992366412213,0.6573775957388215,0.0016424906815912875
-0.00012714992366412214,0.6744691227937316,0.0016424906815912875
-0.00012712992366412215,0.661734259497924,0.0019819302714216723
-0.00012710992366412214,0.6935714177374798,0.001981930271421981
-0.00012708992366412215,0.6979280814965765,0.001981930271421981
-0.00012706992366412216,0.7073116649777056,0.0026608094510827507
-0.00012704992366412214,0.7073116649777141,0.003339688630744755
-0.00012702992366412215,0.7240680640511555,0.003339688630744755
-0.00012700992366412213,0.7321111356064298,0.004018567810406142
-0.00012698992366412214,0.7639482938459828,0.004358007400236681
-0.00012696992366412215,0.745181126883743,0.004018567810406451
-0.00012694992366412214,0.763278037883059,0.004018567810406142
-0.00012692992366412215,0.7729967493456593,0.004018567810406142
-0.00012690992366412213,0.8081851873999221,0.004018567810406605
-0.00012688992366412214,0.8071798034555155,0.00503688657989776
-0.00012686992366412215,0.7998069878632009,0.004358007400237453
-0.00012684992366412213,0.8179038988625273,0.004697446990067529
-0.00012682992366412215,0.8065095474925821,0.003679128220575912
-0.00012680992366412216,0.7967908360299809,0.004358007400236218
-0.00012678992366412214,0.8098608273072682,0.0053763261697289165
-0.00012676992366412215,0.8162282589551787,0.0050368865798983775
-0.00012674992366412213,0.8410277295838973,0.005036886579898223
-0.00012672992366412214,0.8668325841570086,0.004697446990067683
-0.00012670992366412215,0.8688433520458334,0.007412963708710607
-0.00012668992366412214,0.8728648878234647,0.006734084529051691
-0.00012666992366412215,0.8923023107486654,0.005715765759560073
-0.00012664992366412213,0.8748756557122915,0.005036886579898841
-0.00012662992366412214,0.9013507662483409,0.006394644939220997
-0.00012660992366412215,0.9013507662483409,0.0057157657595602275
-0.00012658992366412213,0.891632054785736,0.006055205349390303
-0.00012656992366412214,0.891632054785736,0.005376326169729225
-0.00012654992366412215,0.9067128139518331,0.00639464493922007
-0.00012652992366412214,0.9164315254144517,0.006734084529051691
-0.00012650992366412215,0.943576891913439,0.006394644939221151
-0.00012648992366412213,0.9509497075057739,0.006734084529051845
-0.00012646992366412214,0.9549712432834,0.00707352411888223
-0.00012644992366412215,0.9626791868571848,0.00605520534939123
-0.00012642992366412214,0.9610035469498461,0.007752403298543771
-0.00012640992366412215,0.9543009873204665,0.006055205349391075
-0.00012638992366412216,0.924474596969738,0.007073524118881458
-0.00012636992366412214,0.9217935731179578,0.007073524118882384
-0.00012634992366412215,0.9284961327473374,0.0063946449392213054
-0.00012632992366412213,0.9318474125620317,0.006055205349390303
-0.00012630992366412214,0.9543009873204533,0.007073524118881921
-0.00012628992366412215,0.9278258767844263,0.006394644939221614
-0.00012626992366412214,0.9315122845805626,0.006734084529051691
-0.00012624992366412215,0.9432417639319769,0.006734084529051691
-0.00012622992366412213,0.9435768919134508,0.006734084529052
-0.00012620992366412214,0.9425715079690443,0.007412963708712769
-0.00012618992366412215,0.9489389396169516,0.0067340845290523085
-0.00012616992366412213,0.9559766272278092,0.00571576575955961
-0.00012614992366412214,0.9358689483396704,0.006734084529051228
-0.00012612992366412216,0.9351986923767236,0.0070735241188820755
-0.00012610992366412214,0.9482686836540192,0.006394644939220997
-0.00012608992366412215,0.9754140501530064,0.0074129637087126145
-0.00012606992366412213,0.9834571217082778,0.007752403298543771
-0.00012604992366412214,0.9693817464865808,0.007752403298543771
-0.00012602992366412215,0.9670358506162926,0.006734084529052617
-0.00012600992366412214,0.9583225230980931,0.008091842888374464
-0.00012598992366412215,0.9603332909869069,0.007412963708713386
-0.00012596992366412213,0.9623440588757197,0.006734084529051845
-0.00012594992366412214,0.9559766272278092,0.007073524118882384
-0.00012592992366412215,0.950614579524308,0.0077524032985431535
-0.00012590992366412213,0.9703871304309818,0.007073524118882384
-0.00012588992366412214,0.9700520024495127,0.007073524118882384
-0.00012586992366412215,0.9717276423568567,0.008770722068034307
-0.00012584992366412214,0.9512848354872413,0.006734084529051691
-0.00012582992366412215,0.9653602107089384,0.00707352411888223
-0.00012580992366412213,0.9764194340974102,0.006055205349390612
-0.00012578992366412214,0.9412309960431834,0.006734084529051382
-0.00012576992366412215,0.9526253474131076,0.007752403298542845
-0.00012574992366412214,0.9254799809141182,0.006394644939220997
-0.00012572992366412215,0.9154261414700489,0.0067340845290515365
-0.00012570992366412216,0.9184422933032638,0.005036886579899767
-0.00012568992366412214,0.8979994864336496,0.0053763261697289165
-0.00012566992366412215,0.9154261414700364,0.00775240329854269
-0.00012564992366412213,0.9224638290808961,0.006394644939220997
-0.00012562992366412214,0.9164315254144545,0.006055205349390458
-0.00012560992366412215,0.9231340850438282,0.006055205349390303
-0.00012558992366412214,0.9268204928399948,0.006734084529051691
-0.00012556992366412215,0.9063776859703871,0.006734084529051691
-0.00012554992366412213,0.9043669180815602,0.0060552053493899945
-0.00012552992366412214,0.8983346144151186,0.0053763261697289165
-0.00012550992366412215,0.8949833346004303,0.005036886579898532
-0.00012548992366412213,0.8785620635084399,0.0043580074002368355
-0.00012546992366412214,0.8701838639717154,0.005036886579897914
-0.00012544992366412215,0.8748756557122753,0.005376326169728608
-0.00012542992366412214,0.8711892479161191,0.0043580074002368355
-0.00012540992366412215,0.8631461763608635,0.0046974469900673745
-0.00012538992366412213,0.8618056644349834,0.004697446990067529
-0.00012536992366412214,0.8460546493059415,0.005036886579898069
-0.00012534992366412215,0.844714137380059,0.004697446990067838
-0.00012532992366412214,0.811871595196083,0.004018567810406142
-0.00012530992366412215,0.8132121071219589,0.004018567810406142
-0.00012528992366412216,0.8256118424363059,0.004018567810406142
-0.00012526992366412214,0.8132121071219595,0.004018567810406142
-0.00012524992366412215,0.7847262286971092,0.005376326169727681
-0.00012522992366412213,0.7773534131047625,0.004697446990067529
-0.00012520992366412214,0.7910936603449906,0.004697446990067529
-0.00012518992366412215,0.7579159901795831,0.003679128220576375
-0.00012516992366412214,0.7465216388096024,0.0026608094510833682
-0.00012514992366412215,0.7207167842364912,0.0026608094510833682
-0.00012512992366412213,0.731776007624968,0.004358007400236372
-0.00012510992366412214,0.7475270227540026,0.003339688630745218
-0.00012508992366412215,0.7559052222907304,0.0023213698612536008
-0.00012506992366412213,0.7254085759770472,0.0023213698612526744
-0.00012504992366412215,0.6992685934224669,0.0023213698612526744
-0.00012502992366412216,0.6918957778301408,0.0016424906815919048
-0.00012500992366412214,0.6898850099413194,0.0023213698612526744
-0.00012498992366412215,0.6711178429790566,0.0019819302714221354
-0.00012496992366412213,0.6600586195905668,0.0013030510917605939
-0.00012494992366412214,0.6362645329062693,0.0019819302714216723
-0.00012492992366412215,0.6412914526282909,0.001981930271421981
-0.00012490992366412214,0.6272160774065919,0.0016424906815912875
-0.00012488992366412215,0.6248701815363091,0.000963611501930209
-0.00012486992366412213,0.6396158127209322,0.0023213698612522113
-0.00012484992366412214,0.6007409668705306,0.0013030510917605939
-0.00012482992366412215,0.6050976306296253,0.002321369861251748
-0.00012480992366412213,0.5933681512782097,0.0006241719120992069
-0.00012478992366412214,0.5839845677970783,0.00028473232226866764
-0.00012476992366412215,0.5595202251498498,0.0006241719120988981
-0.00012474992366412214,0.5467853618540006,0.0006241719120992069
-0.00012472992366412215,0.5444394659837177,-0.0014124656268840279
-0.00012470992366412213,0.5186346114105927,-0.0017519052167150305
-0.00012468992366412214,0.5166238435217797,-0.0003941468573934912
-0.00012466992366412215,0.5129374357256217,0.00028473232226789585
-0.00012464992366412214,0.48110027748605094,0.0002847323222685133
-0.00012462992366412215,0.4867974531710236,-0.0017519052167147215
-0.00012460992366412216,0.4861271972080885,-0.0010730260370548782
-0.00012458992366412214,0.46601951831994004,-0.0017519052167156478
-0.00012456992366412215,0.45965208667202945,-0.0017519052167156478
-0.00012454992366412213,0.45596567887586614,-0.00039414685739287377
-0.00012452992366412214,0.4197718568772165,-0.0020913448065455697
-0.00012450992366412215,0.381232139008285,-0.0034491031658678804
-0.00012448992366412214,0.3798916270823735,-0.002430784396377035
-0.00012446992366412215,0.3658162518606764,-0.002430784396377035
-0.00012444992366412213,0.37721060323062255,-0.003109663576038268
-0.00012442992366412214,0.38190239497118617,-0.0027702239862078828
-0.00012440992366412215,0.3514057486575251,-0.003449103165868498
-0.00012438992366412213,0.3132011587700165,-0.003788542755699809
-0.00012436992366412214,0.305158087214761,-0.004127982345530348
-0.00012434992366412216,0.30783911106650796,-0.003449103165869733
-0.00012432992366412214,0.31186064684413994,-0.004127982345530502
-0.00012430992366412215,0.2756668248454903,-0.00514630111502212
-0.00012428992366412213,0.2662832413643382,-0.005146301115022583
-0.00012426992366412214,0.22271660377337096,-0.004806861525192044
-0.00012424992366412215,0.20964661249606695,-0.00480686152519189
-0.00012422992366412214,0.20596020469989462,-0.005146301115022583
-0.00012420992366412215,0.22037070790306068,-0.004467421935361505
-0.00012418992366412213,0.204954820755481,-0.005146301115022429
-0.00012416992366412214,0.19121457351525287,-0.00480686152519189
-0.00012414992366412215,0.15870715931277676,-0.007182938654004583
-0.00012412992366412213,0.14664255197985848,-0.006164619884514664
-0.00012410992366412214,0.10776770612945702,-0.00752237824383682
-0.00012408992366412215,0.09905437861124987,-0.007182938654007053
-0.00012406992366412214,0.08967079513010628,-0.007182938654006744
-0.00012404992366412215,0.08665464329688548,-0.006843499064176205
-0.00012402992366412213,0.0742549079825223,-0.007861817833667977
-0.00012400992366412214,0.06554158046433284,-0.007522378243837592
-0.00012398992366412215,0.0360503180950722,-0.007861817833667822
-0.00012396992366412214,0.018288535077181443,-0.008201257423498825
-0.00012394992366412215,0.00924007957751903,-0.008540697013329364
-0.00012392992366412216,-0.012543239217958767,-0.009219576192990289
-0.00012390992366412214,-0.014889135088262494,-0.008880136603160213
-0.00012388992366412215,-0.032315790124649364,-0.008880136603160213
-0.00012386992366412213,-0.0346616859949412,-0.008201257423498825
-0.00012384992366412214,-0.0393534777355069,-0.009559015782820982
-0.00012382992366412215,-0.05476936488307503,-0.00888013660316083
-0.00012380992366412214,-0.09163344284469344,-0.009898455372652293
-0.00012378992366412215,-0.09163344284469344,-0.009898455372652293
-0.00012376992366412213,-0.11710316943635345,-0.009559015782821291
-0.00012374992366412214,-0.13050828869511258,-0.008880136603160213
-0.00012372992366412215,-0.14491879189827211,-0.010237894962481751
-0.00012370992366412213,-0.13922161621331,-0.01057733455231368
-0.00012368992366412214,-0.14625930382415853,-0.010237894962483141
-0.00012366992366412216,-0.1754154382119496,-0.011595653321804525
-0.00012364992366412214,-0.1908313253595561,-0.011256213731975067
-0.00012362992366412215,-0.21697130791413644,-0.010916774142144528
-0.00012360992366412213,-0.22400899552500006,-0.010916774142144373
-0.00012358992366412214,-0.22467925148793802,-0.01193509291163599
-0.00012356992366412215,-0.22534950745087595,-0.011256213731975684
-0.00012354992366412214,-0.272602552838024,-0.012953411681128535
-0.00012352992366412215,-0.272602552838024,-0.011935092911636917
-0.00012350992366412216,-0.29170484778174705,-0.013632290860788378
-0.00012348992366412214,-0.30812611887375185,-0.012953411681128535
-0.00012346992366412215,-0.31851508629928543,-0.012953411681128535
-0.00012344992366412213,-0.3386227651874427,-0.013292851270959229
-0.00012342992366412214,-0.3386227651874427,-0.013292851270959229
-0.00012340992366412215,-0.3657681316864176,-0.013632290860789613
-0.00012338992366412214,-0.3788381229637384,-0.013632290860789922
-0.00012336992366412215,-0.3962647780001253,-0.014650609630281539
-0.00012334992366412213,-0.40229708166658334,-0.014990049220112696
-0.00012332992366412214,-0.41503194496239876,-0.014990049220112696
-0.00012330992366412215,-0.43346398394318997,-0.016347807579434236
-0.00012328992366412213,-0.4451934632946263,-0.014990049220112696
-0.00012326992366412215,-0.43681526375790186,-0.015329488809943234
-0.00012324992366412216,-0.4646308862198105,-0.014311170040452235
-0.00012322992366412214,-0.4740144697009715,-0.015668928399774084
-0.00012320992366412215,-0.4833980531821029,-0.016008367989604623
-0.00012318992366412213,-0.48071702933035415,-0.015668928399774084
-0.00012316992366412214,-0.4927816366632373,-0.015668928399774084
-0.00012314992366412215,-0.5081975238108088,-0.015329488809943698
-0.00012312992366412214,-0.521267515088119,-0.017705565938758244
-0.00012310992366412215,-0.5628233847902723,-0.016687247169266624
-0.00012308992366412213,-0.5433859618650836,-0.01702668675909701
-0.00012306992366412214,-0.5477426256241803,-0.01736612634892755
