samples/acq3440.csv

#Digilent WaveForms Oscilloscope Acquisition
#Device Name: Discovery2
#Serial Number: SN:210321AD996C
#Date Time: 2025-12-07 12:58:40.187
#Sample rate: 5e+07Hz
#Samples: 8192
#Trigger: Source: Channel 1 Type: Edge Condition: Rising Level: 0 V Hyst.: Auto HoldOff: 0 s
#Channel 1: Range: 500 mV/div Offset: 0 V Sample Mode: Average
#Channel 2: Range: 500 mV/div Offset: 0 V Sample Mode: Average
#Wavegen Channel 1: Running
#Mode: Custom
#Type: noisy
#Frequency: 117 kHz
#Period: 8.547008547 us
#Amplitude: 1 V
#Offset: 0 V
#Phase: 0 °

Time (s),Channel 1 (V),Channel 2 (V)
-0.00012899603053435115,-0.5433859618650816,-0.003109663576038422
-0.00012897603053435114,-0.538023914161559,-0.004127982345529267
-0.00012895603053435115,-0.5199270031622379,-0.0027702239862078828
-0.00012893603053435116,-0.5102082916996421,-0.003109663576038268
-0.00012891603053435117,-0.4820575412562563,-0.003109663576038422
-0.00012889603053435115,-0.46563627016424325,-0.0020913448065463416
-0.00012887603053435113,-0.4518960229240058,-0.003449103165868189
-0.00012885603053435114,-0.44854474310930614,-0.0024307843963768806
-0.00012883603053435115,-0.4234101444991328,-0.0020913448065463416
-0.00012881603053435117,-0.41503194496240836,-0.0017519052167158022
-0.00012879603053435115,-0.40363759359245405,-0.0014124656268849544
-0.00012877603053435113,-0.40698887340714296,-0.001751905216715339
-0.00012875603053435114,-0.40430784955537863,-0.0014124656268841827
-0.00012873603053435115,-0.3741463312231706,0.0002847323222685133
-0.00012871603053435116,-0.35738993214972165,-0.0014124656268841827
-0.00012869603053435115,-0.33761738124302143,-0.0007335864472229498
-0.00012867603053435116,-0.3071207349293583,0.0006241719120985896
-0.00012865603053435114,-0.318515086299281,-0.00039414685739287377
-0.00012863603053435115,-0.288018439985604,-0.00039414685739287377
-0.00012861603053435116,-0.2910345918188248,0.000963611501929283
-0.00012859603053435117,-0.2782997285230108,0.0016424906815906701
-0.00012857603053435115,-0.27126204091214745,0.0016424906815912875
-0.00012855603053435114,-0.2407653945984517,0.0016424906815912875
-0.00012853603053435115,-0.2354033468949505,0.0016424906815912875
-0.00012851603053435116,-0.20926336434037018,0.0019819302714218267
-0.00012849603053435117,-0.20155542076657532,0.0023213698612523656
-0.00012847603053435115,-0.20524182856272874,0.001981930271421981
-0.00012845603053435113,-0.18379363774871138,0.002321369861252057
-0.00012843603053435115,-0.19150158132249406,0.0016424906815917506
-0.00012841603053435116,-0.1908313253595561,0.0026608094510833682
-0.00012839603053435117,-0.16301570289764356,0.0033396886307441374
-0.00012837603053435115,-0.13955674419477912,0.003339688630744755
-0.00012835603053435113,-0.11408701760311298,0.004018567810406142
-0.00012833603053435114,-0.10068189834436589,0.004018567810406142
-0.00012831603053435115,-0.11375188962165605,0.004018567810406142
-0.00012829603053435116,-0.10101702632583485,0.0033396886307450638
-0.00012827603053435115,-0.08057421945620341,0.003000249040914679
-0.00012825603053435116,-0.06147192451248035,0.004358007400236218
-0.00012823603053435114,-0.055104492864554676,0.0043580074002368355
-0.00012821603053435115,-0.04739654929076817,0.0043580074002368355
-0.00012819603053435116,-0.009191959403304646,0.005036886579897914
-0.00012817603053435117,0.026331606632408272,0.005036886579898223
-0.00012815603053435115,0.02130468691040362,0.005036886579898223
-0.00012813603053435114,0.02800724653980513,0.005036886579898223
-0.00012811603053435115,0.04878518139087234,0.005036886579898223
-0.00012809603053435116,0.06554158046432125,0.006394644939220379
-0.00012807603053435117,0.09905437861121147,0.006734084529051382
-0.00012805603053435115,0.10106514650005671,0.006394644939220997
-0.00012803603053435114,0.10475155429625525,0.006734084529052
-0.00012801603053435115,0.14664255197985665,0.007073524118882539
-0.00012799603053435116,0.14262101620222892,0.007412963708713078
-0.00012797603053435117,0.14362640014663539,0.007412963708713078
-0.00012795603053435115,0.17914996618236417,0.008770722068035851
-0.00012793603053435113,0.17814458223796167,0.007752403298544697
-0.00012791603053435114,0.18350662994147443,0.008770722068035388
-0.00012789603053435115,0.2089763565331168,0.007752403298543771
-0.00012787603053435116,0.22673813955097266,0.008431282478204849
-0.00012785603053435115,0.2535483780685112,0.009789040837527933
-0.00012783603053435116,0.256899657883201,0.009110161657866853
-0.00012781603053435114,0.2646076014569997,0.008431282478205621
-0.00012779603053435115,0.28035861658604166,0.00944960124769724
-0.00012777603053435116,0.2877314321783592,0.00877072206803616
-0.00012775603053435114,0.2900773280486577,0.00944960124769724
-0.00012773603053435116,0.3148767986773621,0.00944960124769724
-0.00012771603053435114,0.31688756656618816,0.010467920017189165
-0.00012769603053435115,0.3416870371948926,0.010128480427358626
-0.00012767603053435116,0.37251881149003857,0.010807359607019704
-0.00012765603053435117,0.3835780348785239,0.011146799196850398
-0.00012763603053435115,0.36883240369389214,0.010128480427358626
-0.00012761603053435114,0.3966480261558602,0.010807359607020322
-0.00012759603053435115,0.4298256963212744,0.011146799196850552
-0.00012757603053435116,0.4308310802656809,0.010807359607020168
-0.00012755603053435117,0.441220047691215,0.011486238786680782
-0.00012753603053435115,0.44289568759857006,0.01250455755617348
-0.00012751603053435113,0.4445713275059532,0.01250455755617348
-0.00012749603053435114,0.4857920692266139,0.012504557556173326
-0.00012747603053435115,0.4750679738196066,0.012165117966342787
-0.00012745603053435116,0.500537700411249,0.012504557556173326
-0.00012743603053435115,0.49852693252244573,0.01250455755617348
-0.00012741603053435116,0.5293587068175918,0.01250455755617348
-0.00012739603053435114,0.5219858912253028,0.0138623159154961
-0.00012737603053435115,0.5611958650571732,0.013522876325665562
-0.00012735603053435116,0.5598553531312972,0.013522876325665562
-0.00012733603053435115,0.5689038086309633,0.013183436735835486
-0.00012731603053435116,0.5692389366124323,0.014541195095157642
-0.00012729603053435114,0.5826440558712093,0.012843997146005563
-0.00012727603053435115,0.6084489104443206,0.015898953454480415
-0.00012725603053435116,0.633918637035963,0.014880634684988799
-0.00012723603053435117,0.6419617085912264,0.01454119509515795
-0.00012721603053435115,0.6392806847394806,0.014880634684988335
-0.00012719603053435114,0.6422968365727064,0.014201755505326949
-0.00012717603053435115,0.6463183723503462,0.014201755505327103
-0.00012715603053435116,0.6764798906825403,0.014541195095157488
-0.00012713603053435117,0.6677665631643647,0.016238393044309567
-0.00012711603053435115,0.6922309058116033,0.014541195095157642
-0.00012709603053435113,0.6925660337930822,0.014880634684988953
-0.00012707603053435114,0.7032901292000835,0.015559513864649568
-0.00012705603053435115,0.7009442333298007,0.015220074274819029
-0.00012703603053435117,0.7009442333298007,0.01454119509515826
-0.00012701603053435115,0.7331165195508372,0.01623839304431111
-0.00012699603053435113,0.7458513828466736,0.016577832634141493
-0.00012697603053435114,0.756240350272204,0.016238393044311263
-0.00012695603053435115,0.7492026626613555,0.016577832634141802
-0.00012693603053435116,0.7622726539386456,0.016917272223972345
-0.00012691603053435115,0.7907585323635358,0.01691727222397265
-0.00012689603053435116,0.8085203153813836,0.017256711813803036
-0.00012687603053435114,0.8128769791404892,0.01827503058329558
-0.00012685603053435115,0.8105310832702064,0.018953909762956658
-0.00012683603053435116,0.8205849227142757,0.01827503058329558
-0.00012681603053435117,0.8138823630849038,0.01827503058329527
-0.00012679603053435115,0.8132121071219595,0.017935590993464576
-0.00012677603053435114,0.8383467057321461,0.017935590993464267
-0.00012675603053435115,0.840357473620959,0.017596151403633884
-0.00012673603053435116,0.8507464410464973,0.0186144701731255
-0.00012671603053435117,0.8658272002125992,0.017935590993465193
-0.00012669603053435115,0.8725297598419955,0.018953909762956658
-0.00012667603053435113,0.8812430873601979,0.018953909762957275
-0.00012665603053435115,0.8866051350636983,0.019632788942617118
-0.00012663603053435116,0.8849294951563534,0.017596151403633884
-0.00012661603053435117,0.9026912781742011,0.01963278894261619
-0.00012659603053435115,0.9000102543224643,0.018614470173125966
-0.00012657603053435113,0.8976643584521783,0.018614470173126275
-0.00012655603053435114,0.8953184625819047,0.018953909762956966
-0.00012653603053435115,0.9134153735812296,0.019632788942618044
-0.00012651603053435116,0.9261502368770508,0.019972228532448587
-0.00012649603053435115,0.9392202281543571,0.018953909762956966
-0.00012647603053435116,0.9492740675984219,0.019632788942617736
-0.00012645603053435114,0.9526253474131214,0.01997222853244843
-0.00012643603053435115,0.9603332909869078,0.019293349352787353
-0.00012641603053435116,0.9663655946533494,0.01963278894261789
-0.00012639603053435117,0.9328527965064697,0.018953909762957275
-0.00012637603053435115,0.9238043410067726,0.018614470173125966
-0.00012635603053435114,0.9301717726546852,0.01929334935278766
-0.00012633603053435115,0.9291663887102787,0.019632788942618044
-0.00012631603053435116,0.9569820111722038,0.019632788942618044
-0.00012629603053435117,0.9355338203582118,0.01929334935278766
-0.00012627603053435115,0.927490748802933,0.01827503058329527
-0.00012625603053435114,0.9465930437466714,0.018953909762956966
-0.00012623603053435115,0.9442471478763937,0.0192933493527872
-0.00012621603053435116,0.953630731357521,0.01895390976295681
-0.00012619603053435117,0.9680412345606847,0.020311668122278196
-0.00012617603053435115,0.9532956033760561,0.019293349352787353
-0.00012615603053435113,0.9710573863938978,0.01997222853244843
-0.00012613603053435114,0.9465930437466761,0.01963278894261789
-0.00012611603053435115,0.9522902194316487,0.019293349352787353
-0.00012609603053435116,0.9834571217082636,0.018614470173126275
-0.00012607603053435115,0.9858030175785618,0.019632788942618044
-0.00012605603053435116,0.9599981630054505,0.018953909762956966
-0.00012603603053435114,0.9646899547460047,0.020311668122278814
-0.00012601603053435115,0.960668418968377,0.018953909762956658
-0.00012599603053435116,0.959327907042501,0.018953909762956658
-0.00012597603053435114,0.9697168744680377,0.01895390976295635
-0.00012595603053435116,0.9569820111722165,0.01827503058329527
-0.00012593603053435114,0.9579873951166257,0.018614470173126427
-0.00012591603053435115,0.9620089308942535,0.019632788942618044
-0.00012589603053435116,0.9777599460232954,0.019632788942618044
-0.00012587603053435117,0.9646899547460184,0.019632788942618044
-0.00012585603053435115,0.96334944282013,0.01997222853244874
-0.00012583603053435114,0.9489389396169651,0.019972228532448122
-0.00012581603053435115,0.9573171391536858,0.019293349352787814
-0.00012579603053435116,0.9576522671351547,0.02031166812227897
-0.00012577603053435117,0.9405607400802447,0.01929334935278828
-0.00012575603053435115,0.9432417639319822,0.01997222853244874
-0.00012573603053435113,0.9207881891735474,0.01793559099346581
-0.00012571603053435114,0.9174369093588561,0.01929334935278689
-0.00012569603053435115,0.9107343497294765,0.01827503058329527
-0.00012567603053435116,0.918442293303263,0.018614470173125813
-0.00012565603053435115,0.9362040763211305,0.02031166812227943
-0.00012563603053435113,0.9100640937665443,0.018275030583296197
-0.00012561603053435114,0.9167666533959278,0.019293349352787353
-0.00012559603053435115,0.9318474125620317,0.019293349352787353
-0.00012557603053435116,0.912074861655362,0.017596151403634654
-0.00012555603053435115,0.9067128139518443,0.018614470173125966
-0.00012553603053435116,0.9010156382668717,0.018614470173125966
-0.00012551603053435114,0.8979994864336456,0.017256711813803498
-0.00012549603053435115,0.8892861589154522,0.017935590993464576
-0.00012547603053435116,0.8829187272675415,0.018275030583295118
-0.00012545603053435117,0.8708541199346609,0.017935590993464885
-0.00012543603053435115,0.8668325841570204,0.017596151403633884
-0.00012541603053435114,0.8631461763608553,0.016917272223973424
-0.00012539603053435115,0.8581192566388229,0.017935590993464576
-0.00012537603053435116,0.8527572089353194,0.017935590993464576
-0.00012535603053435117,0.8433736254541898,0.017935590993464576
-0.00012533603053435115,0.8276226103251321,0.016917272223972497
-0.00012531603053435113,0.8081851873999262,0.016577832634141185
-0.00012529603053435114,0.8122067231775503,0.015898953454481186
-0.00012527603053435115,0.8081851873999225,0.017596151403633884
-0.00012525603053435117,0.7957854520855759,0.01589895345448196
-0.00012523603053435115,0.7931044282338117,0.016917272223972497
-0.00012521603053435113,0.7847262286970894,0.01623839304431142
-0.00012519603053435114,0.7914287883264528,0.016577832634141493
-0.00012517603053435115,0.7622726539386516,0.015898953454480415
-0.00012515603053435116,0.7414947190875749,0.016238393044310958
-0.00012513603053435115,0.7311057516620288,0.015559513864649877
-0.00012511603053435116,0.7451811268837195,0.015898953454480263
-0.00012509603053435114,0.7398190791802183,0.01691727222397157
-0.00012507603053435115,0.7364677993655285,0.014880634684988335
-0.00012505603053435116,0.729094983773211,0.015220074274818874
-0.00012503603053435117,0.6992685934224822,0.01454119509515826
-0.00012501603053435115,0.6985983374595167,0.015559513864649722
-0.00012499603053435114,0.6992685934224219,0.014541195095157642
-0.00012497603053435115,0.6627396434423198,0.014541195095157642
-0.00012495603053435116,0.6553668278500022,0.013522876325666025
-0.00012493603053435117,0.6332483810730564,0.012843997146004791
-0.00012491603053435115,0.6526858039982458,0.013183436735834868
-0.00012489603053435113,0.6288917173139418,0.0128439971460051
-0.00012487603053435115,0.6335835090545012,0.013862315915495483
-0.00012485603053435116,0.6241999255733698,0.012165117966342787
-0.00012483603053435117,0.5947086632041131,0.013183436735833942
-0.00012481603053435115,0.5903519994449875,0.013522876325665562
-0.00012479603053435113,0.5789576480750228,0.013522876325664327
-0.00012477603053435114,0.5632066329459864,0.012165117966342941
-0.00012475603053435115,0.5598553531312966,0.01250455755617348
-0.00012473603053435116,0.5380720343358131,0.01318343673583456
-0.00012471603053435115,0.5424286980948887,0.011825678376511784
-0.00012469603053435116,0.5132725637071007,0.011146799196851015
-0.00012467603053435114,0.5260074270029044,0.011825678376512248
-0.00012465603053435115,0.5038889802259519,0.012165117966342787
-0.00012463603053435116,0.4814354054675303,0.01080735960702063
-0.00012461603053435117,0.48780283711542777,0.011825678376511167
-0.00012459603053435115,0.47439771785666834,0.010807359607020013
-0.00012457603053435114,0.4485928632835477,0.010467920017189629
-0.00012455603053435115,0.4539549109870514,0.011146799196850707
-0.00012453603053435116,0.4331769761359747,0.01012848042735909
-0.00012451603053435117,0.40703699358139683,0.009449601247697857
-0.00012449603053435115,0.3819023949711883,0.009110161657866545
-0.00012447603053435114,0.37687547524915865,0.010128480427358009
-0.00012445603053435115,0.3849185468044031,0.009449601247697703
-0.00012443603053435116,0.36883240369389947,0.010467920017188857
-0.00012441603053435117,0.3547570284722015,0.009449601247698166
-0.00012439603053435115,0.3276116619731891,0.008431282478205158
-0.00012437603053435113,0.303482447307415,0.008431282478205467
-0.00012435603053435114,0.30716885510357333,0.008770722068035697
-0.00012433603053435115,0.3098498789553252,0.008431282478205158
-0.00012431603053435116,0.29476911978922116,0.007412963708713541
-0.00012429603053435115,0.27231554503078254,0.007073524118882384
-0.00012427603053435116,0.24651069045767118,0.007412963708712923
-0.00012425603053435114,0.2119925083663361,0.0057157657595602275
-0.00012423603053435115,0.2056250767184255,0.007073524118882384
-0.00012421603053435116,0.2119925083663361,0.006734084529051845
-0.00012419603053435114,0.2119925083663242,0.006734084529051845
-0.00012417603053435116,0.1794850941638333,0.007073524118882384
-0.00012415603053435114,0.1701015106826993,0.006055205349390458
-0.00012413603053435115,0.17378791847885808,0.006394644939220997
-0.00012411603053435116,0.12519436116585622,0.00537632616972938
-0.00012409603053435117,0.11178924190708109,0.005036886579898532
-0.00012407603053435115,0.09436258687067411,0.0053763261697289165
-0.00012405603053435114,0.08631951531542047,0.0053763261697289165
-0.00012403603053435115,0.09235181898184819,0.005376326169728299
-0.00012401603053435116,0.06788747633462391,0.00401856781040676
-0.00012399603053435117,0.06017953276082979,0.0033396886307453725
-0.00012397603053435115,0.02968288644713189,0.003679128220575449
-0.00012395603053435113,0.018958791040083738,0.003339688630744755
-0.00012393603053435114,-0.02058631077323726,0.003339688630744446
-0.00012391603053435115,-0.019580926828830322,0.0026608094510833682
-0.00012389603053435116,-0.011202727292105866,0.002321369861252829
-0.00012387603053435115,-0.029969894254373377,0.003339688630744755
-0.00012385603053435113,-0.06113679653100253,0.0023213698612523656
-0.00012383603053435114,-0.06113679653101106,0.0019819302714218267
-0.00012381603053435115,-0.07990396349327386,0.0016424906815912875
-0.00012379603053435116,-0.08191473138208771,0.0019819302714218267
-0.00012377603053435115,-0.09062805890029882,0.001981930271421981
-0.00012375603053435116,-0.118778809343693,0.001981930271421981
-0.00012373603053435114,-0.1204544492510475,0.001303051091760285
-0.00012371603053435115,-0.13989187217624824,0.0006241719120992069
-0.00012369603053435116,-0.14324315199093804,0.00028473232226866764
-0.00012367603053435117,-0.16033467904584967,0.0013030510917596677
-0.00012365603053435115,-0.17809646206372914,-5.470726756218023e-05
-0.00012363603053435114,-0.21362002809946035,-0.00039414685739256504
-0.00012361603053435115,-0.21730643589561743,-5.470726756218023e-05
-0.00012359603053435116,-0.23205206708025247,-0.0010730260370537977
-0.00012357603053435117,-0.22534950745088267,0.000963611501928048
-0.00012355603053435115,-0.2581920496348514,-0.0017519052167156478
-0.00012353603053435113,-0.2853374161338497,-0.0014124656268846457
-0.00012351603053435114,-0.28399690420798585,-0.0010730260370545696
-0.00012349603053435116,-0.3091315028181592,-0.0017519052167156478
-0.00012347603053435117,-0.3161691904290046,-0.0007335864472244934
-0.00012345603053435115,-0.3516927564647388,-0.0010730260370542608
-0.00012343603053435113,-0.3379525092245118,-0.0017519052167159566
-0.00012341603053435114,-0.34599558077976633,-0.002091344806546496
-0.00012339603053435115,-0.352027884446208,-0.002430784396377035
-0.00012337603053435116,-0.3852055546116368,-0.002770223986207574
-0.00012335603053435115,-0.39894580185188827,-0.002091344806546496
-0.00012333603053435116,-0.40330246561098293,-0.0024307843963768806
-0.00012331603053435114,-0.4187183527585729,-0.0034491031658694243
-0.00012329603053435115,-0.43614500779495974,-0.004127982345530502
-0.00012327603053435116,-0.44519346329462217,-0.0031096635760388854
-0.00012325603053435117,-0.44418807935021976,-0.002770223986208037
-0.00012323603053435115,-0.4703280619048111,-0.0034491031658691156
-0.00012321603053435114,-0.4743495976824495,-0.004467421935361505
-0.00012319603053435115,-0.48406830914504545,-0.00480686152519189
-0.00012317603053435116,-0.4937870206076458,-0.004127982345530811
-0.00012315603053435117,-0.503840860051715,-0.0054857407048520416
-0.00012313603053435115,-0.5246187949028103,-0.005485740704853277
-0.00012311603053435113,-0.5316564825136858,-0.004806861525192816
-0.00012309603053435115,-0.5577964650682514,-0.005825180294683507
-0.00012307603053435116,-0.5517641614018098,-0.00480686152519189
-0.00012305603053435117,-0.5507587774574033,-0.005485740704852659
-0.00012303603053435115,-0.570196200382612,-0.00582518029468397
-0.00012301603053435113,-0.5993523347704471,-0.006504059474345358
