samples/acq3493.csv

#Digilent WaveForms Oscilloscope Acquisition
#Device Name: Discovery2
#Serial Number: SN:210321AD996C
#Date Time: 2025-12-07 12:58:46.251
#Sample rate: 5e+07Hz
#Samples: 8192
#Trigger: Source: Channel 1 Type: Edge Condition: Rising Level: 0 V Hyst.: Auto HoldOff: 0 s
#Channel 1: Range: 500 mV/div Offset: 0 V Sample Mode: Average
#Channel 2: Range: 500 mV/div Offset: 0 V Sample Mode: Average
#Wavegen Channel 1: Running
#Mode: Custom
#Type: noisy
#Frequency: 117 kHz
#Period: 8.547008547 us
#Amplitude: 1 V
#Offset: 0 V
#Phase: 0 °

Time (s),Channel 1 (V),Channel 2 (V)
-0.0001289936170212766,-0.523948538939872,-0.019063324298081018
-0.0001289736170212766,-0.5138946994958026,-0.019063324298081018
-0.00012895361702127658,-0.505181371977603,-0.019742203477742252
-0.0001289336170212766,-0.5102082916996353,-0.019402763887911866
-0.0001289136170212766,-0.47937651740450565,-0.019402763887911713
-0.0001288936170212766,-0.46194986236808283,-0.01838444511841963
-0.0001288736170212766,-0.44150705549847513,-0.018045005528589092
-0.0001288536170212766,-0.42944244816558813,-0.017705565938758553
-0.0001288336170212766,-0.43044783210998455,-0.01804500552858894
-0.0001288136170212766,-0.4213993766103221,-0.01804500552858894
-0.00012879361702127659,-0.42508578440647843,-0.017705565938758244
-0.0001287736170212766,-0.40631861744421566,-0.018045005528588787
-0.0001287536170212766,-0.40832938533302005,-0.017705565938758553
-0.0001287336170212766,-0.40430784955539234,-0.017705565938758244
-0.0001287136170212766,-0.3674437715938047,-0.016687247169266624
-0.00012869361702127658,-0.35236301242767437,-0.016008367989605393
-0.0001286736170212766,-0.34633070876123545,-0.01736612634892693
-0.0001286536170212766,-0.3436496849094821,-0.01668724716926678
-0.0001286336170212766,-0.3275635417989614,-0.015668928399774084
-0.0001286136170212766,-0.2967317675038154,-0.016008367989604623
-0.0001285936170212766,-0.2900292078744249,-0.016347807579435162
-0.0001285736170212766,-0.25316512991281437,-0.01634780757943547
-0.0001285536170212766,-0.23841949872817939,-0.015329488809943852
-0.00012853361702127659,-0.23406283496907399,-0.015329488809943389
-0.0001285136170212766,-0.21194438819212139,-0.015329488809943389
-0.0001284936170212766,-0.22333873956205144,-0.016008367989604158
-0.0001284736170212766,-0.20557695654419786,-0.014990049220112696
-0.0001284536170212766,-0.18010722995255551,-0.014650609630282157
-0.00012843361702127658,-0.1804423579340059,-0.015329488809943234
-0.0001284136170212766,-0.16469134280496392,-0.014990049220112696
-0.0001283936170212766,-0.15731852721264977,-0.01532948880994308
-0.0001283736170212766,-0.13318931254686564,-0.014990049220112696
-0.0001283536170212766,-0.10704932999228531,-0.014990049220112696
-0.0001283336170212766,-0.10135215430730339,-0.013971730450621542
-0.0001283136170212766,-0.0805742194562121,-0.013292851270959229
-0.0001282936170212766,-0.06582858827157707,-0.009898455372653837
-0.00012827361702127658,-0.06147192451247212,-0.0017519052167099365
-0.0001282536170212766,-0.06247730845687859,0.010807359607014302
-0.0001282336170212766,-0.05208834103134545,0.013862315915493476
-0.0001282136170212766,-0.024607846550867285,0.011146799196850707
-0.0001281936170212766,-0.0011488878480388036,0.010807359607020168
-0.0001281736170212766,0.019293919021570242,0.010128480427359244
-0.0001281536170212766,0.018958791040119705,0.009789040837527933
-0.0001281336170212766,0.03973672589119637,0.012843997146002784
-0.00012811361702127659,0.05716338092760061,0.013522876325665562
-0.0001280936170212766,0.06386594055698017,0.011146799196851787
-0.0001280736170212766,0.0856492593524569,0.010128480427359553
-0.0001280536170212766,0.10676232218503195,0.007412963708713078
-0.0001280336170212766,0.11245949787000457,0.006734084529052
-0.00012801361702127658,0.12385384923995976,0.005036886579897914
-0.0001279936170212766,0.12854564098052543,0.0043580074002368355
-0.0001279736170212766,0.14932357583159264,0.004018567810406451
-0.0001279536170212766,0.1513343437204263,0.007412963708713078
-0.0001279336170212766,0.1794850941638205,0.011486238786679547
-0.0001279136170212766,0.2093114845145588,0.012843997146002938
-0.0001278936170212766,0.22606788358804247,0.013862315915496255
-0.0001278736170212766,0.2166843001069111,0.01182567837651302
-0.00012785361702127659,0.22908403542126465,0.01046792001718932
-0.0001278336170212766,0.2532132500870311,0.011146799196850398
-0.0001278136170212766,0.27667220878985993,0.01216511796634186
-0.0001277936170212766,0.2927583519003995,0.013183436735834868
-0.0001277736170212766,0.3132011587700072,0.013183436735834868
-0.00012775361702127658,0.3044878312518221,0.012843997146004173
-0.0001277336170212766,0.3111903908812017,0.012843997146004173
-0.0001277136170212766,0.31588218262176526,0.011486238786682635
-0.0001276936170212766,0.3497301087501517,0.0114862387866814
-0.0001276736170212766,0.37385932341591815,0.013183436735834097
-0.0001276536170212766,0.3631352280089267,0.012504557556174098
-0.0001276336170212766,0.35978394819422566,0.013862315915496255
-0.0001276136170212766,0.3886049546005578,0.014541195095157333
-0.00012759361702127658,0.408042377525785,0.015559513864649877
-0.0001275736170212766,0.41809621696984983,0.015898953454480263
-0.0001275536170212766,0.45965208667198876,0.015559513864650031
-0.0001275336170212766,0.4693707981346314,0.015220074274819029
-0.0001275136170212766,0.4656843903384726,0.01488063468498849
-0.0001274936170212766,0.46836541419022154,0.014201755505327566
-0.0001274736170212766,0.48210566143045835,0.014541195095157642
-0.0001274536170212766,0.5082456439850387,0.015559513864649259
-0.00012743361702127659,0.5105915398553345,0.01623839304431111
-0.0001274136170212766,0.5280181948917214,0.01623839304431111
-0.0001273936170212766,0.5541581774462977,0.016577832634141493
-0.0001273736170212766,0.5481258737798771,0.01623839304431111
-0.0001273536170212766,0.534720754521118,0.01691727222397219
-0.00012733361702127658,0.5501366416686968,0.016917272223972497
-0.0001273136170212766,0.560860737075704,0.016917272223972497
-0.0001272936170212766,0.5568392012980782,0.018275030583294036
-0.0001272736170212766,0.5903519994449875,0.01623839304431111
-0.0001272536170212766,0.6141460861292851,0.017935590993463806
-0.0001272336170212766,0.6372699168506448,0.018275030583294962
-0.0001272136170212766,0.6295619732768758,0.01827503058329527
-0.0001271936170212766,0.643302220517104,0.016917272223973115
-0.00012717361702127658,0.6758096347196086,0.019293349352787353
-0.0001271536170212766,0.660058619590574,0.019293349352787353
-0.0001271336170212766,0.686533730126604,0.019972228532448122
-0.0001271136170212766,0.7053008970888994,0.018614470173125966
-0.0001270936170212766,0.7022847452556785,0.018614470173125966
-0.0001270736170212766,0.7049657691074278,0.01895390976295635
-0.0001270536170212766,0.7032901292000846,0.01725671181380319
-0.0001270336170212766,0.6989334654409899,0.017935590993463958
-0.00012701361702127659,0.724738320014109,0.01827503058329527
-0.0001269936170212766,0.7455162548651856,0.01895390976295635
-0.0001269736170212766,0.7709859814568258,0.019293349352787044
-0.0001269536170212766,0.7495377906428247,0.018614470173125966
-0.0001269336170212766,0.7676347016421494,0.018953909762956505
-0.00012691361702127658,0.768975213568042,0.018614470173126275
-0.0001268936170212766,0.7860667406229521,0.019293349352787044
-0.0001268736170212766,0.8018177557519947,0.020311668122278505
-0.0001268536170212766,0.8004772438261325,0.01997222853244874
-0.0001268336170212766,0.8152228750107676,0.020990547301940353
-0.0001268136170212766,0.7991367319002707,0.020651107712110435
-0.0001267936170212766,0.8286279942695395,0.018614470173125966
-0.0001267736170212766,0.8484005451762092,0.01963278894261758
-0.00012675361702127659,0.8527572089353169,0.02031166812227943
-0.0001267336170212766,0.8551031048055997,0.019632788942618353
-0.0001267136170212766,0.8728648878234486,0.01997222853244843
-0.0001266936170212766,0.8601300245276378,0.020990547301940818
-0.0001266736170212766,0.8631461763608586,0.02065110771211028
-0.00012665361702127658,0.8661623281940851,0.02132998689177105
-0.0001266336170212766,0.8728648878234647,0.02031166812227943
-0.0001266136170212766,0.8738702717678712,0.022008866071431356
-0.0001265936170212766,0.8698487359902426,0.022348305661263595
-0.0001265736170212766,0.8926374387301331,0.021669426481602513
-0.0001265536170212766,0.9067128139518341,0.02200886607143259
-0.0001265336170212766,0.9083884538591925,0.021669426481602205
-0.0001265136170212766,0.9050371740445028,0.020990547301941127
-0.00012649361702127658,0.9207881891735401,0.021669426481601896
-0.0001264736170212766,0.8979994864336599,0.020990547301941127
-0.0001264536170212766,0.9130802455997467,0.020651107712110435
-0.0001264336170212766,0.927490748802933,0.020990547301940818
-0.0001264136170212766,0.9214584451364914,0.02200886607143244
-0.0001263936170212766,0.9204530611920821,0.022348305661263286
-0.0001263736170212766,0.9358689483396613,0.021669426481602205
-0.0001263536170212766,0.9345284364137854,0.021329986891771666
-0.00012633361702127659,0.9667007226348213,0.022348305661263595
-0.0001263136170212766,0.9663655946533523,0.022008866071433052
-0.0001262936170212766,0.9472632997096291,0.0220088660714329
-0.0001262736170212766,0.9687114905236361,0.0220088660714329
-0.0001262536170212766,0.9650250827274773,0.023027184840924517
-0.00012623361702127658,0.9553063712648828,0.022687745251093978
-0.0001262136170212766,0.9817814818009202,0.02200886607143321
-0.0001261936170212766,0.9653602107089598,0.022348305661263286
-0.0001261736170212766,0.9663655946533521,0.022348305661263595
-0.0001261536170212766,0.9894894253747116,0.021669426481602513
-0.0001261336170212766,0.9673709785977797,0.020651107712111053
-0.0001261136170212766,0.9687114905236361,0.0220088660714329
-0.0001260936170212766,0.9908299373005887,0.023366624430755056
-0.00012607361702127659,0.9673709785977596,0.022348305661263595
-0.0001260536170212766,0.9680412345606975,0.022348305661263595
-0.0001260336170212766,0.9610035469498526,0.022687745251093978
-0.0001260136170212766,0.9563117552092782,0.0220088660714329
-0.0001259936170212766,0.958657651079561,0.0220088660714329
-0.00012597361702127658,0.9854678895970947,0.022348305661263442
-0.0001259536170212766,0.9901596813376604,0.0220088660714329
-0.0001259336170212766,0.9667007226348426,0.020990547301941744
-0.0001259136170212766,0.9532956033760561,0.020990547301940818
-0.0001258936170212766,0.9744086662086018,0.02132998689177136
-0.0001258736170212766,0.980776097856519,0.021669426481601896
-0.0001258536170212766,0.9422363799875748,0.020990547301940818
-0.0001258336170212766,0.938549972191416,0.02065110771211028
-0.00012581361702127658,0.9429066359505176,0.02031166812228005
-0.0001257936170212766,0.9529604753945824,0.021669426481601587
-0.0001257736170212766,0.9646899547459958,0.020990547301941435
-0.0001257536170212766,0.952960475394587,0.020990547301940818
-0.0001257336170212766,0.9419012520061106,0.02031166812227974
-0.0001257136170212766,0.948938939616951,0.020651107712109817
-0.0001256936170212766,0.935198692376723,0.01997222853244874
-0.0001256736170212766,0.9345284364137851,0.020651107712109817
-0.00012565361702127659,0.9207881891735504,0.019293349352787353
-0.0001256336170212766,0.912074861655357,0.01997222853244843
-0.0001256136170212766,0.9057074300074454,0.019632788942618353
-0.0001255936170212766,0.8923023107486743,0.02031166812227943
-0.0001255736170212766,0.8963238465263021,0.02031166812227943
-0.00012555361702127658,0.9160963974329837,0.019632788942618197
-0.0001255336170212766,0.9184422933032665,0.01997222853244874
-0.0001255136170212766,0.8936428226745734,0.020311668122279122
-0.0001254936170212766,0.8902915428598596,0.019293349352787353
-0.0001254736170212766,0.8795674474528522,0.01895390976295681
-0.0001254536170212766,0.8721946318605331,0.019972228532447813
-0.0001254336170212766,0.8537625928797242,0.01827503058329527
-0.0001254136170212766,0.8668325841570144,0.01895390976295635
-0.00012539361702127658,0.8795674474528473,0.02031166812227943
-0.0001253736170212766,0.8608002804905845,0.018953909762957275
-0.0001253536170212766,0.8477302892132919,0.019293349352787044
-0.0001253336170212766,0.8259469704177864,0.019293349352787353
-0.0001253136170212766,0.8222605626216276,0.01963278894261789
-0.0001252936170212766,0.7994718598817458,0.017596151403635737
-0.0001252736170212766,0.783720844752676,0.018614470173125966
-0.0001252536170212766,0.8001421158446483,0.017935590993465193
-0.00012523361702127659,0.796790836029972,0.017935590993464576
-0.0001252136170212766,0.7927693002523443,0.018953909762956196
-0.0001251936170212766,0.7837208447526842,0.017935590993465502
-0.0001251736170212766,0.7612672699942442,0.018953909762956658
-0.0001251536170212766,0.7565754782536784,0.0175961514036345
-0.00012513361702127658,0.7381434392728841,0.017256711813803036
-0.0001251136170212766,0.7599267580683579,0.01691727222397265
-0.0001250936170212766,0.7250734479956098,0.01657783263414211
-0.0001250736170212766,0.7213870401994177,0.017935590993464576
-0.0001250536170212766,0.7220572961623556,0.017596151403634037
-0.0001250336170212766,0.7277544718473259,0.017596151403633884
-0.0001250136170212766,0.688879625996912,0.016917272223972497
-0.0001249936170212766,0.6996037214039192,0.016917272223972497
-0.00012497361702127659,0.6875391140710354,0.01725671181380319
-0.0001249536170212766,0.6761447627010903,0.01657783263414211
-0.0001249336170212766,0.649334524183579,0.016577832634141802
-0.0001249136170212766,0.653020931979715,0.015898953454480415
-0.0001248936170212766,0.6419617085912387,0.016577832634141493
-0.00012487361702127658,0.6174973659439831,0.016577832634141493
-0.0001248536170212766,0.6084489104443206,0.015898953454480415
-0.0001248336170212766,0.6148163420922284,0.017256711813801954
-0.0001248136170212766,0.5963843031114319,0.014880634684988335
-0.0001247936170212766,0.5863304636673625,0.015559513864649413
-0.0001247736170212766,0.5685686806495103,0.014880634684988953
-0.0001247536170212766,0.5632066329459879,0.014201755505326949
-0.0001247336170212766,0.5434340820393182,0.015220074274818566
-0.00012471361702127658,0.5283533228731903,0.015220074274818566
-0.0001246936170212766,0.5105915398553426,0.014201755505327412
-0.0001246736170212766,0.5092510279294592,0.015220074274818102
-0.0001246536170212766,0.5028835962815444,0.013862315915496255
-0.0001246336170212766,0.4955107806892269,0.013862315915496255
-0.0001246136170212766,0.46769515822731106,0.01352287632566587
-0.0001245936170212766,0.44959824722795266,0.013862315915496255
-0.0001245736170212766,0.45160901511676654,0.012843997146004637
-0.00012455361702127659,0.43418236008037264,0.012843997146004173
-0.0001245336170212766,0.4090477614701993,0.012843997146004173
-0.0001245136170212766,0.4201069848586591,0.013862315915495329
-0.0001244936170212766,0.3869293146932252,0.012843997146004173
-0.0001244736170212766,0.39363187432260477,0.012504557556173634
-0.00012445361702127658,0.37855111515648127,0.012165117966342478
-0.0001244336170212766,0.3440329330651922,0.011486238786681709
-0.0001244136170212766,0.3386708853616753,0.012504557556172554
-0.0001243936170212766,0.33699524545432474,0.011146799196850707
-0.0001243736170212766,0.3081742390479926,0.011146799196850707
-0.0001243536170212766,0.30214193538154066,0.011825678376511476
-0.0001243336170212766,0.29677988767802904,0.011825678376512093
-0.0001243136170212766,0.26628324136435205,0.011146799196851015
-0.00012429361702127659,0.2669534973272764,0.010807359607020013
-0.0001242736170212766,0.2528781221055793,0.009789040837528396
-0.0001242536170212766,0.2371271069765381,0.010128480427358318
-0.0001242336170212766,0.23310557119889422,0.010807359607020013
-0.0001242136170212766,0.21065199644047267,0.009449601247697857
-0.00012419361702127658,0.20897635653310248,0.009110161657866081
-0.0001241736170212766,0.17747432627501852,0.008091842888374464
-0.0001241536170212766,0.17546355838620556,0.009110161657865618
-0.0001241336170212766,0.1640692070162533,0.00944960124769724
-0.0001241136170212766,0.13960486436901787,0.007073524118883465
-0.0001240936170212766,0.10609206622212417,0.008091842888373538
-0.0001240736170212766,0.08129259559337801,0.006394644939220997
-0.0001240536170212766,0.09670848274095102,0.00877072206803477
-0.00012403361702127658,0.08866541118569493,0.008770722068035851
-0.0001240136170212766,0.07995208366750545,0.008770722068035851
-0.0001239936170212766,0.05984440477937193,0.007412963708714313
-0.0001239736170212766,0.03672057405798363,0.006394644939220997
-0.0001239536170212766,0.022645198836286545,0.006394644939220997
-0.0001239336170212766,-0.008521703440320664,0.005376326169729843
-0.0001239136170212766,-0.0313104061802499,0.006055205349390303
-0.0001238936170212766,-0.0313104061802499,0.005036886579898686
-0.00012387361702127659,-0.028964510309965982,0.00571576575955961
-0.0001238536170212766,-0.05275859699426344,0.004358007400237453
-0.0001238336170212766,-0.0805742194561868,0.006394644939219145
-0.0001238136170212766,-0.0792337075303356,0.005036886579898223
-0.0001237936170212766,-0.08794703504852902,0.005715765759559301
-0.00012377361702127658,-0.1077195859552053,0.005715765759559764
-0.0001237536170212766,-0.0936442107335082,0.006055205349390303
-0.0001237336170212766,-0.12414085704717136,0.0043580074002383794
-0.0001237136170212766,-0.13318931254686564,0.005036886579898223
-0.0001236936170212766,-0.1459241758426868,0.004358007400237144
-0.0001236736170212766,-0.1549726313423509,0.003339688630745681
-0.0001236536170212766,-0.17072364647140828,0.004697446990067529
-0.0001236336170212766,-0.21227951617356158,0.003000249040914833
-0.00012361361702127658,-0.22937104322850616,0.0030002490409140616
-0.0001235936170212766,-0.23875462670963754,0.0026608094510835226
-0.0001235736170212766,-0.22803053130263937,0.003000249040913753
-0.0001235536170212766,-0.2581920496348514,0.0030002490409140616
-0.0001235336170212766,-0.26522973724569987,0.0026608094510835226
-0.0001235136170212766,-0.29572638355936626,0.0013030510917618288
-0.0001234936170212766,-0.31415842254019616,0.0009636115019299004
-0.0001234736170212766,-0.31415842254019616,0.0019819302714210547
-0.0001234536170212766,-0.33962814913185013,0.0002847323222685133
-0.0001234336170212766,-0.33426610142834645,0.0009636115019295917
-0.0001234136170212766,-0.3305796936321869,0.0009636115019299004
-0.0001233936170212766,-0.3590655720570597,-0.00039414685739287377
-0.0001233736170212766,-0.3815191468154812,0.0006241719120987436
-0.00012335361702127658,-0.414696816980938,-0.0014124656268846457
-0.0001233336170212766,-0.420393992665908,-0.0007335864472238759
-0.0001233136170212766,-0.4190534807400353,0.0002847323222675872
-0.0001232936170212766,-0.41235092111065147,-5.470726756218023e-05
-0.0001232736170212766,-0.43044783210997634,-0.0010730260370537977
-0.0001232536170212766,-0.4431826954057999,-0.0014124656268846457
-0.0001232336170212766,-0.4706631898862802,-0.0017519052167156478
-0.0001232136170212766,-0.47904138942300467,-0.0010730260370545694
-0.00012319361702127659,-0.49077086877442805,-0.0014124656268849544
-0.0001231736170212766,-0.5055164999590631,-0.0017519052167154934
-0.0001231536170212766,-0.5045111160146633,-0.0027702239862068025
-0.0001231336170212766,-0.5001544522555638,-0.0017519052167156478
-0.0001231136170212766,-0.5370185302171513,-0.00514630111502104
-0.00012309361702127658,-0.5705313283640806,-0.002770223986208037
-0.0001230736170212766,-0.5691908164382047,-0.0034491031658691156
-0.0001230536170212766,-0.5618180008458904,-0.002770223986208346
-0.0001230336170212766,-0.5839364476228464,-0.002430784396377035
-0.0001230136170212766,-0.6030387425665782,-0.0031096635760381134
-0.0001229936170212766,-0.6033738705480556,-0.0034491031658688068
-0.0001229736170212766,-0.6261625732879569,-0.004127982345530502
-0.0001229536170212766,-0.6285084691582397,-0.004127982345530502
-0.00012293361702127658,-0.6278382131953119,-0.0034491031658694243
