samples/acq3445.csv

#Digilent WaveForms Oscilloscope Acquisition
#Device Name: Discovery2
#Serial Number: SN:210321AD996C
#Date Time: 2025-12-07 12:58:41.734
#Sample rate: 5e+07Hz
#Samples: 8192
#Trigger: Source: Channel 1 Type: Edge Condition: Rising Level: 0 V Hyst.: Auto HoldOff: 0 s
#Channel 1: Range: 500 mV/div Offset: 0 V Sample Mode: Average
#Channel 2: Range: 500 mV/div Offset: 0 V Sample Mode: Average
#Wavegen Channel 1: Running
#Mode: Custom
#Type: noisy
#Frequency: 117 kHz
#Period: 8.547008547 us
#Amplitude: 1 V
#Offset: 0 V
#Phase: 0 °

Time (s),Channel 1 (V),Channel 2 (V)
-0.0001289968,-0.5236134109584029,-0.0010730260370542608
-0.0001289768,-0.5155703394031379,-0.002091344806544798
-0.0001289568,-0.5092029077552326,-0.00039414685739256504
-0.00012893680000000002,-0.5142298274772649,0.00028473232226820463
-0.0001289168,-0.48507369308944703,-0.0020913448065454153
-0.0001288968,-0.47233882979362585,-5.470726756218023e-05
-0.0001288768,-0.4572580706274991,0.0009636115019289743
-0.0001288568,-0.43983141559110983,-5.470726756187151e-05
-0.0001288368,-0.4170427128512193,0.0006241719120992069
-0.0001288168,-0.40229708166657313,0.000963611501929746
-0.0001287968,-0.39257837020397274,0.0006241719120992069
-0.0001287768,-0.40732400138861574,0.0006241719120992069
-0.0001287568,-0.40866451331447445,0.00062417191209967
-0.0001287368,-0.37213556333435577,0.0016424906815912875
-0.0001287168,-0.34331455692799834,0.0013030510917618288
-0.0001286968,-0.32990943766923736,0.0026608094510827507
-0.00012867680000000001,-0.31248278263285845,0.0013030510917612112
-0.0001286568,-0.3272284138174853,0.002660809451082905
-0.0001286368,-0.31181252666991227,0.0016424906815912875
-0.0001286168,-0.28533741613383173,0.002321369861252983
-0.0001285968,-0.2642243533013003,0.002660809451083214
-0.0001285768,-0.27427819274536963,0.0023213698612526744
-0.0001285568,-0.25249487394985143,0.003339688630744755
-0.0001285368,-0.22534950745087656,0.003339688630744755
-0.00012851680000000002,-0.2109390042477105,0.003339688630744755
-0.0001284968,-0.19016106939661406,0.004018567810405833
-0.0001284768,-0.1817828698598896,0.003339688630744755
-0.0001284568,-0.1787667180266476,0.0033396886307462985
-0.0001284368,-0.15698339923116553,0.0050368865798983775
-0.00012841680000000001,-0.13855136025037174,0.0053763261697289165
-0.0001283968,-0.11978419328809384,0.0053763261697289165
-0.0001283768,-0.10537369008492778,0.0053763261697289165
-0.0001283568,-0.10503856210343397,0.004697446990067838
-0.0001283368,-0.07789319560445206,0.005036886579898532
-0.0001283168,-0.06247730845687905,0.00571576575955961
-0.0001282968,-0.07253114790093285,0.006394644939220688
-0.0001282768,-0.05041270112397785,0.006055205349390303
-0.00012825680000000002,-0.02293220664353413,0.006055205349390303
-0.0001282368,-0.03399143003198679,0.0063946449392213054
-0.0001282168,0.0015321360037249096,0.007073524118882384
-0.0001281968,0.02968288644713524,0.007752403298543462
-0.0001281768,0.033369294243300096,0.007412963708713386
-0.0001281568,0.05046082129821799,0.008091842888374464
-0.0001281368,0.05582286900172988,0.007073524118882384
-0.0001281168,0.06219030064963756,0.007073524118882384
-0.0001280968,0.08766002724127929,0.008770722068035851
-0.0001280768,0.07425490798254349,0.008770722068035697
-0.0001280568,0.11212436988853805,0.008431282478205158
-0.0001280368,0.13625358455430508,0.008431282478205775
-0.0001280168,0.12485923318436745,0.009110161657866699
-0.00012799680000000001,0.13022128088787108,0.00944960124769724
-0.0001279768,0.1312266648322925,0.008091842888375236
-0.0001279568,0.1620584391274385,0.009789040837527933
-0.0001279368,0.17512843040475656,0.009789040837527933
-0.0001279168,0.19925764507052207,0.009789040837527933
-0.0001278968,0.22137609184747464,0.009789040837527933
-0.0001278768,0.22640301156955364,0.011825678376511784
-0.0001278568,0.27265067301225165,0.0114862387866814
-0.00012783680000000002,0.26963452117903086,0.010807359607020322
-0.0001278168,0.26661836934582084,0.01114679919685117
-0.0001277968,0.2964447596965599,0.012165117966342787
-0.0001277768,0.3165524385847163,0.012843997146002938
-0.0001277568,0.3259360220658485,0.011486238786682017
-0.0001277368,0.33699524545432474,0.012843997146004173
-0.0001277168,0.34168703719490234,0.012165117966343559
-0.0001276968,0.36313522800891695,0.013862315915496255
-0.0001276768,0.38056188304531324,0.012843997146004482
-0.0001276568,0.3822375229526662,0.013183436735835023
-0.0001276368,0.40167494587786695,0.013522876325665562
-0.0001276168,0.4231231366918999,0.014541195095157333
-0.0001275968,0.43250672017302777,0.014201755505326794
-0.00012757680000000001,0.43418236008037187,0.01386231591549641
-0.0001275568,0.4522792710797156,0.014541195095158414
-0.0001275368,0.4740625898751992,0.01623839304431111
-0.0001275168,0.4687005421717178,0.013862315915498725
-0.0001274968,0.4958459086706993,0.016577832634141032
-0.0001274768,0.5102564118738653,0.014880634684988335
-0.0001274568,0.5186346114105884,0.015898953454480415
-0.0001274368,0.5129374357256183,0.015898953454480415
-0.00012741680000000002,0.5430989540578264,0.015898953454480415
-0.0001273968,0.5367315224099447,0.015220074274819646
-0.0001273768,0.5766117522047532,0.016577832634141802
-0.0001273568,0.5695740645938975,0.016238393044310802
-0.0001273368,0.5652174008348056,0.015898953454480415
-0.00012731680000000001,0.5715848324827162,0.015898953454480415
-0.0001272968,0.5994004549446525,0.015898953454480877
-0.0001272768,0.5960491751299628,0.016917272223972497
-0.0001272568,0.6057678865925946,0.01657783263414242
-0.0001272368,0.635594276943323,0.017256711813803036
-0.0001272168,0.6419617085912337,0.016917272223972497
-0.0001271968,0.6610640035349854,0.016577832634143346
-0.0001271768,0.6734637388493405,0.018275030583294962
-0.00012715680000000002,0.6922309058115947,0.017596151403634193
-0.0001271368,0.6898850099413235,0.018275030583294962
-0.0001271168,0.6989334654409859,0.017596151403633884
-0.0001270968,0.7180357603847416,0.018614470173126275
-0.0001270768,0.7347921594581809,0.018953909762956505
-0.0001270568,0.7304354956990842,0.018614470173125966
-0.0001270368,0.716360120477389,0.018275030583295732
-0.0001270168,0.7344570314767137,0.019293349352787353
-0.0001269968,0.7441757429393168,0.018953909762956966
-0.0001269768,0.7421649750505194,0.019293349352787353
-0.0001269568,0.7766831571418242,0.019293349352787353
-0.0001269368,0.7880775085117945,0.018953909762957893
-0.0001269168,0.8098608273072698,0.02031166812227943
-0.00012689680000000001,0.813547235103427,0.02031166812227943
-0.0001268768,0.818239026843991,0.01997222853244874
-0.0001268568,0.8061744195111077,0.01997222853244874
-0.0001268368,0.8004772438261533,0.020311668122278814
-0.0001268168,0.8232659465660341,0.01963278894261897
-0.0001267968,0.824941586473379,0.021669426481602205
-0.0001267768,0.8329846580286544,0.01929334935278828
-0.0001267568,0.8507464410465021,0.02031166812227943
-0.00012673680000000002,0.8467249052688743,0.02099054730194051
-0.0001267168,0.857449000675877,0.019632788942618353
-0.0001266968,0.8406926016024282,0.02031166812227943
-0.0001266768,0.8711892479161325,0.020651107712110126
-0.0001266568,0.8859348791007633,0.020651107712110126
-0.00012663680000000001,0.8912969268042669,0.020651107712110126
-0.0001266168,0.9057074300074391,0.020990547301940356
-0.0001265968,0.9047020460630322,0.01997222853244874
-0.0001265768,0.9020210222112831,0.019972228532449666
-0.0001265568,0.9063776859703833,0.020990547301940818
-0.0001265368,0.9184422933032665,0.020990547301940818
-0.0001265168,0.8979994864336679,0.01997222853244843
-0.0001264968,0.9181071653217928,0.019632788942618353
-0.00012647680000000002,0.908053325877728,0.020311668122279122
-0.0001264568,0.9308420286176289,0.02132998689177105
-0.0001264368,0.9408958680616982,0.02031166812227943
-0.0001264168,0.9419012520061035,0.02132998689177213
-0.0001263968,0.9395553561358301,0.02200886607143259
-0.0001263768,0.9579873951166239,0.021329986891771513
-0.0001263568,0.9586576510795585,0.021669426481602205
-0.0001263368,0.9546361153019326,0.021669426481602205
-0.0001263168,0.944917403839355,0.020990547301941127
-0.0001262968,0.9747437941900712,0.021329986891771204
-0.0001262768,0.9543009873204635,0.020651107712110126
-0.0001262568,0.9472632997096355,0.020311668122281284
-0.0001262368,0.9734032822642016,0.022348305661263286
-0.00012621680000000001,0.9683763625421693,0.021669426481602513
-0.0001261968,0.9475984276910747,0.020651107712110435
-0.0001261768,0.9341933084323156,0.021329986891771513
-0.0001261568,0.9372094602655564,0.020651107712110744
-0.0001261368,0.9576522671351507,0.021329986891770895
-0.0001261168,0.9486038116354882,0.01997222853244874
-0.0001260968,0.948938939616977,0.020990547301941435
-0.0001260768,0.9703871304309818,0.021669426481602205
-0.00012605680000000002,0.9723978983197956,0.020990547301941127
-0.0001260368,0.9623440588757176,0.020651107712110126
-0.0001260168,0.9512848354872413,0.020651107712110126
-0.0001259968,0.9385499721914281,0.021329986891770587
-0.0001259768,0.9536307313575265,0.020311668122279584
-0.0001259568,0.9566468831907474,0.020651107712110126
-0.0001259368,0.9362040763211357,0.0199722285324492
-0.0001259168,0.9475984276910808,0.020990547301940818
-0.0001258968,0.9432417639319972,0.021329986891770587
-0.0001258768,0.9596630350239691,0.02031166812227943
-0.0001258568,0.9586576510795621,0.02031166812227943
-0.0001258368,0.9522902194316398,0.0209905473019402
-0.0001258168,0.9425715079690471,0.02031166812227974
-0.00012579680000000002,0.9496091955798924,0.02099054730194051
-0.0001257768,0.9415661240246352,0.019972228532449048
-0.0001257568,0.9388851001728835,0.020651107712110126
-0.0001257368,0.9278258767844076,0.02031166812227943
-0.0001257168,0.9338581804508364,0.020311668122279122
-0.0001256968,0.9114046056924148,0.019632788942618044
-0.0001256768,0.9234692130252883,0.02065110771210889
-0.0001256568,0.9067128139518469,0.019293349352787353
-0.0001256368,0.9050371740444909,0.0206511077121092
-0.0001256168,0.8936428226745559,0.019632788942618353
-0.0001255968,0.9047020460630322,0.02031166812227943
-0.0001255768,0.8782269355269806,0.018953909762957893
-0.0001255568,0.8889510309339796,0.02031166812227897
-0.00012553680000000001,0.8815782153416621,0.019293349352787353
-0.0001255168,0.8775566795640347,0.01929334935278766
-0.0001254968,0.8822484713046004,0.01997222853244874
-0.0001254768,0.8668325841570143,0.01929334935278797
-0.0001254568,0.860130024527637,0.019972228532448278
-0.0001254368,0.8584543846202921,0.018953909762956658
-0.0001254168,0.8514166970094178,0.018614470173126275
-0.0001253968,0.8266172263807247,0.018953909762956658
-0.00012537680000000002,0.8453843933429874,0.01861447017312612
-0.0001253568,0.8189092828069273,0.01861447017312612
-0.0001253368,0.8028231396964164,0.018953909762956658
-0.0001253168,0.8078500594184476,0.01759615140363481
-0.0001252968,0.8014826277705335,0.018614470173125505
-0.0001252768,0.7874072525488364,0.017596151403633884
-0.0001252568,0.7843911007156156,0.016577832634142264
-0.0001252368,0.7874072525488364,0.017596151403633884
-0.0001252168,0.7750075172344758,0.015559513864650031
-0.0001251968,0.7719913654012591,0.015898953454480724
-0.0001251768,0.7780236690677007,0.016577832634141802
-0.0001251568,0.7378083112913882,0.014541195095156098
-0.0001251368,0.7193762723106094,0.012843997146004482
-0.00012511680000000001,0.7337867755137689,0.013522876325665253
-0.0001250968,0.7391488232172735,0.01386231591549641
-0.0001250768,0.7213870401994177,0.014201755505326949
-0.0001250568,0.6959173136077552,0.012504557556172554
-0.0001250368,0.6865337301266325,0.011486238786681554
-0.0001250168,0.6962524415892328,0.011825678376512093
-0.0001249968,0.6751393787566718,0.010128480427358009
-0.0001249768,0.6687719471087641,0.00944960124769724
-0.00012495680000000002,0.6382753007950871,0.00944960124769724
-0.0001249368,0.6215189017216193,0.007752403298543462
-0.0001249168,0.6272160774065919,0.007073524118882384
-0.0001248968,0.6138109581478349,0.00809184288837323
-0.0001248768,0.6228594136474896,0.006734084529051228
-0.00012485680000000001,0.6151514700737032,0.00571576575955961
-0.0001248368,0.6124704462219457,0.005376326169728762
-0.0001248168,0.6027517347593454,0.005036886579898223
-0.0001247968,0.5839845677970418,0.003679128220574214
-0.0001247768,0.5484610017613484,0.002321369861252829
-0.0001247568,0.553152793501914,0.0026608094510833682
-0.0001247368,0.5337153705767005,0.0023213698612523656
-0.0001247168,0.5293587068176006,0.0019819302714216723
-0.00012469680000000002,0.5179643554476605,0.0013030510917609026
-0.0001246768,0.5159535875588334,0.001981930271421209
-0.0001246568,0.5002025724297914,0.0002847323222685133
-0.0001246368,0.46970592611608986,-0.0003941468573941086
-0.0001246168,0.4579764467646782,-0.0017519052167151846
-0.0001245968,0.4519441430982366,-0.0007335864472235673
-0.0001245768,0.4331769761359537,-0.0007335864472243391
-0.0001245568,0.4077072495443113,-0.002430784396377035
-0.0001245368,0.4006695619334547,-0.0031096635760390397
-0.0001245168,0.3953075142299489,-0.003788542755699809
-0.0001244968,0.3852536747858796,-0.003788542755699809
-0.0001244768,0.3691675316753415,-0.0024307843963773438
-0.0001244568,0.34738421287986615,-0.002770223986208346
-0.00012443680000000001,0.343697805083709,-0.004127982345529885
-0.0001244168,0.3158821826217663,-0.00344910316586927
-0.0001243968,0.30884449501091776,-0.003788542755699809
-0.0001243768,0.31018500693677664,-0.004806861525192199
-0.0001243568,0.2907475840115835,-0.005146301115021657
-0.0001243368,0.2880665601598317,-0.003109663576038422
-0.0001243168,0.2723155450307734,-0.006164619884512504
-0.0001242968,0.2622617055867086,-0.003788542755699809
-0.00012427680000000002,0.2284137794583418,-0.004806861525191427
-0.0001242568,0.23947300284679382,-0.006164619884514047
-0.0001242368,0.2089763565331168,-0.00480686152519189
-0.0001242168,0.21299789231074576,-0.004467421935360888
-0.0001241968,0.21232763634779714,-0.004127982345530502
-0.00012417680000000001,0.1881984216820307,-0.004127982345530502
-0.0001241568,0.16239356710889558,-0.006164619884513738
-0.0001241368,0.13591845657284632,-0.004127982345530502
-0.0001241168,0.11178924190707012,-0.005485740704852968
-0.0001240968,0.11312975383292867,-0.005146301115022738
-0.0001240768,0.07626567587134106,-0.005485740704853277
-0.0001240568,0.0625254286310954,-0.005146301115021657
-0.0001240368,0.0501256933167388,-0.0041279823455309655
-0.00012401680000000002,0.02800724653979629,-0.00514630111502212
-0.0001239968,0.04777979744646876,-0.00514630111502212
-0.0001239768,0.05615799698319321,-0.004127982345530502
-0.0001239568,0.03236391029884897,-0.004127982345529885
-0.0001239368,-0.00718119151448148,-0.0034491031658694243
-0.0001239168,-0.0269537424211512,-0.004127982345530502
-0.0001238968,-0.015894519032707985,-0.002770223986208037
-0.0001238768,-0.05778551671631122,-0.003109663576038422
-0.0001238568,-0.08191473138208802,-0.0034491031658688068
-0.0001238368,-0.08124447541915052,-0.003109663576038731
-0.0001238168,-0.08157960340061951,-0.003788542755699809
-0.0001237968,-0.08962267495590272,-0.002091344806546959
-0.0001237768,-0.11609778549194927,-0.002770223986207265
-0.00012375680000000001,-0.13654059236155694,-0.0017519052167156478
-0.0001237368,-0.14625930382415914,-0.0027702239862069564
-0.0001237168,-0.1405621281391865,-0.0010730260370542608
-0.0001236968,-0.17340467032316223,-0.001412465626884337
-0.0001236768,-0.17441005426758424,-0.0007335864472238759
-0.0001236568,-0.20859310837742004,-0.0014124656268849544
-0.0001236368,-0.23037642717292878,-0.0010730260370545696
-0.0001236168,-0.24713282624637006,-0.0014124656268849544
-0.00012359680000000002,-0.23707898680230072,-5.470726756279763e-05
-0.0001235768,-0.27628896063418684,-0.002430784396376572
-0.0001235568,-0.2816510083376905,-0.0014124656268849544
-0.0001235368,-0.29639663952233375,-5.4707267563106385e-05
-0.0001235168,-0.2980722794296724,-0.0010730260370542608
-0.0001234968,-0.2860076720967892,-0.0010730260370542608
-0.0001234768,-0.32454738996575216,-5.470726756264331e-05
-0.0001234568,-0.35303326839061533,-0.0010730260370542608
-0.0001234368,-0.3711301793899356,-0.0017519052167147217
-0.0001234168,-0.3570548041682506,-0.0007335864472235673
-0.0001233968,-0.36945453948260276,-0.0007335864472235673
-0.0001233768,-0.38453529864873065,-0.0003941468573931825
-0.0001233568,-0.40330246561098965,-0.0007335864472240303
-0.00012333680000000001,-0.4136914330365233,-0.0017519052167151846
-0.0001233168,-0.40363759359246243,-0.0014124656268851088
-0.0001232968,-0.42206963257325625,-0.0017519052167156478
-0.0001232768,-0.439831415591137,-0.002091344806546033
-0.0001232568,-0.4582634545719262,-0.0017519052167154934
-0.0001232368,-0.46664165410865066,-0.0014124656268849544
-0.0001232168,-0.5025003481258424,-0.004127982345530502
-0.0001231968,-0.4968031724408724,-0.004127982345530502
-0.00012317680000000002,-0.5098731637181625,-0.004467421935361042
-0.0001231568,-0.5410400659948023,-0.004127982345530657
-0.0001231368,-0.5510939054388716,-0.0044674219353611965
-0.0001231168,-0.5480777536056686,-0.004467421935361505
-0.0001230968,-0.5691908164382136,-0.0048068615251925075
-0.00012307680000000001,-0.5886282393634142,-0.006164619884514664
-0.0001230568,-0.5779041439564168,-0.0048068615251925075
-0.0001230368,-0.6104115581589077,-0.006164619884514664
-0.0001230168,-0.6157736058624245,-0.008880136603167004
-0.0001229968,-0.6275030852138376,-0.01634780757943933
-0.0001229768,-0.636886668694969,-0.024833797325202807
-0.0001229568,-0.6137628379736264,-0.027209874454014574
-0.0001229368,-0.6439243563058208,-0.023815478555709493
-0.00012291680000000002,-0.6439243563058208,-0.021099961837066413
-0.0001228968,-0.645264868231711,-0.020760522247235413
-0.0001228768,-0.6754263865639191,-0.022797159786218647
-0.0001228568,-0.6992204732482282,-0.022457720196389808
-0.0001228368,-0.7002258571926371,-0.024494357735371963
-0.0001228168,-0.7052527769146717,-0.02415491814554142
-0.0001227968,-0.7022366250814512,-0.02313659937604996
-0.0001227768,-0.7059230328776099,-0.024494357735372115
-0.0001227568,-0.7313927594692928,-0.024833797325203733
-0.0001227368,-0.7632299177088339,-0.025852116094693962
-0.0001227168,-0.7689270933938065,-0.02381547855571073
-0.0001226968,-0.7806565727452365,-0.024833797325203116
-0.0001226768,-0.7920509241151742,-0.02517323691503381
-0.00012265680000000001,-0.7870240043931419,-0.02585211609469458
-0.0001226368,-0.7910455401707845,-0.026191555684526045
-0.0001226168,-0.8248934662991514,-0.027209874454017662
-0.0001225968,-0.8356175617061647,-0.027888753633677505
-0.0001225768,-0.8369580736320332,-0.026191555684524505
-0.0001225568,-0.8218773144659292,-0.02381547855571073
-0.0001225368,-0.8450011451872852,-0.026530995274356275
-0.0001225168,-0.8295852580397192,-0.026530995274356275
-0.00012249680000000002,-0.8242232103362155,-0.025512676504864662
-0.0001224768,-0.8657790800383859,-0.02687043486418651
-0.0001224568,-0.8671195919642618,-0.02585211609469489
-0.0001224368,-0.888567782778282,-0.0261915556845262
-0.0001224168,-0.8838759910377298,-0.02687043486418728
-0.00012239680000000001,-0.9093457176293723,-0.027549314043848357
-0.0001223768,-0.9096808456108418,-0.027549314043848205
-0.0001223568,-0.9106862295552488,-0.027209874454017662
-0.0001223368,-0.8892380387412421,-0.02653099527435751
-0.0001223168,-0.9086754616664385,-0.027888753633678896
-0.0001222968,-0.918729301110508,-0.027549314043848357
-0.0001222768,-0.8992918781853175,-0.02585211609469489
-0.0001222568,-0.9204049410178471,-0.025852116094695506
-0.00012223680000000002,-0.9059944378146876,-0.027209874454017045
-0.0001222168,-0.919064429091983,-0.026530995274356893
-0.0001221968,-0.9321344203692732,-0.02788875363367905
-0.0001221768,-0.9257669887213572,-0.02720987445401797
-0.0001221568,-0.9230859648696066,-0.027549314043848357
-0.0001221368,-0.9230859648696066,-0.027549314043848357
-0.0001221168,-0.9351505722024807,-0.02687043486418728
-0.0001220968,-0.919064429091977,-0.027209874454017662
