samples/acq3523.csv

#Digilent WaveForms Oscilloscope Acquisition
#Device Name: Discovery2
#Serial Number: SN:210321AD996C
#Date Time: 2025-12-07 12:58:47.227
#Sample rate: 5e+07Hz
#Samples: 8192
#Trigger: Source: Channel 1 Type: Edge Condition: Rising Level: 0 V Hyst.: Auto HoldOff: 0 s
#Channel 1: Range: 500 mV/div Offset: 0 V Sample Mode: Average
#Channel 2: Range: 500 mV/div Offset: 0 V Sample Mode: Average
#Wavegen Channel 1: Running
#Mode: Custom
#Type: noisy
#Frequency: 117 kHz
#Period: 8.547008547 us
#Amplitude: 1 V
#Offset: 0 V
#Phase: 0 °

Time (s),Channel 1 (V),Channel 2 (V)
-0.0001289823300970874,-0.5055164999590698,-0.003788542755699809
-0.00012896233009708738,-0.5058516279405472,-0.0041279823455301935
-0.0001289423300970874,-0.5149000834401971,-0.0037885427556996545
-0.0001289223300970874,-0.4964680444594117,-0.00344910316586927
-0.00012890233009708738,-0.4830629252006234,-0.004127982345530348
-0.0001288823300970874,-0.4508906389796015,-0.003788542755699809
-0.00012886233009708737,-0.45692294264603645,-0.004467421935359344
-0.00012884233009708738,-0.4465339752204955,-0.002430784396377498
-0.0001288223300970874,-0.43044783210998455,-0.0034491031658691156
-0.00012880233009708738,-0.4093347692774308,-0.0024307843963779613
-0.0001287823300970874,-0.4126860490921206,-0.0044674219353611965
-0.00012876233009708737,-0.41201579312914915,-0.0017519052167156478
-0.00012874233009708738,-0.3754868431490354,-0.0017519052167156478
-0.0001287223300970874,-0.34968198857592403,-0.0017519052167156478
-0.00012870233009708738,-0.33895789316889996,-0.0017519052167162652
-0.00012868233009708739,-0.32588790189161027,-0.002430784396377035
-0.0001286623300970874,-0.31382329455873254,-0.002430784396377035
-0.00012864233009708738,-0.3161691904289963,-0.002430784396377035
-0.0001286223300970874,-0.2839969042079744,-0.002430784396377035
-0.00012860233009708737,-0.27662408861565563,-0.0024307843963788872
-0.00012858233009708738,-0.2789699844859315,-0.004467421935360579
-0.0001285623300970874,-0.2658999932086414,-0.003109663576038422
-0.00012854233009708738,-0.2535002578942564,-0.0034491031658694243
-0.0001285223300970874,-0.2236738675435309,-0.003788542755699809
-0.0001285023300970874,-0.21529566800680647,-0.003788542755699809
-0.00012848233009708738,-0.18178286985989386,-0.0024307843963776526
-0.0001284623300970874,-0.19116645334102525,-0.003788542755699809
-0.00012844233009708737,-0.1791018460081082,-0.0041279823455301935
-0.00012842233009708738,-0.14793494373150634,-0.0037885427556999633
-0.0001284023300970874,-0.14558904786122348,-0.004127982345530502
-0.00012838233009708738,-0.1100654818254822,-0.00480686152519189
-0.0001283623300970874,-0.0805742194562121,-0.00480686152519189
-0.00012834233009708737,-0.07286627588242882,-0.00480686152519189
-0.00012832233009708738,-0.08023909147474405,-0.004806861525192353
-0.0001283023300970874,-0.0825849873450269,-0.00582518029468397
-0.00012828233009708738,-0.06314756441979384,-0.006164619884514973
-0.00012826233009708739,-0.037342709846691816,-0.006504059474345358
-0.0001282423300970874,-0.0319806621431906,-0.006504059474345358
-0.00012822233009708738,-0.017570158939995424,-0.005825180294683661
-0.0001282023300970874,0.026666734613909712,-0.005146301115022583
-0.00012818233009708737,0.03269903828036199,-0.006164619884513738
-0.00012816233009708738,0.04141236579855451,-0.005146301115023201
-0.0001281423300970874,0.04811492542793407,-0.006504059474345358
-0.00012812233009708738,0.04509877359474329,-0.006843499064176051
-0.0001281023300970874,0.07961695568603236,-0.006843499064176051
-0.00012808233009708737,0.08397361944514906,-0.00582518029468397
-0.00012806233009708738,0.10374617035182226,-0.005825180294683661
-0.0001280423300970874,0.1312266648322785,-0.005146301115022583
-0.00012802233009708737,0.14262101620221185,-0.005146301115024127
-0.00012800233009708739,0.12385384923996723,-0.006843499064175897
-0.0001279823300970874,0.14496691207251283,-0.006504059474345358
-0.00012796233009708738,0.1583720313312884,-0.007182938654006281
-0.0001279423300970874,0.18116073407117894,-0.006164619884514664
-0.00012792233009708737,0.1865227817747073,-0.005825180294684896
-0.00012790233009708738,0.21098712442194162,-0.006843499064175897
-0.0001278823300970874,0.23310557119889422,-0.006504059474345358
-0.00012786233009708738,0.26259683356818386,-0.005485740704853894
-0.0001278423300970874,0.26929939319756035,-0.006164619884514664
-0.0001278223300970874,0.2612563216423049,-0.006504059474345203
-0.00012780233009708738,0.27097503310492427,-0.005485740704853431
-0.0001277823300970874,0.3111903908812017,-0.00582518029468397
-0.00012776233009708737,0.31722269454765,-0.00548574070485235
-0.00012774233009708738,0.3215793583067421,-0.0044674219353619685
-0.0001277223300970874,0.31588218262176954,-0.006164619884514664
-0.00012770233009708738,0.34671395691693624,-0.004467421935361351
-0.0001276823300970874,0.3614595881015713,-0.00480686152519189
-0.00012766233009708737,0.38391316286000216,-0.004467421935360579
-0.00012764233009708738,0.3829077789156112,-0.003788542755699809
-0.0001276223300970874,0.41709083302544697,-0.003788542755699809
-0.00012760233009708738,0.41105852935899684,-0.0024307843963785785
-0.00012758233009708739,0.404691097711105,-0.004127982345529422
-0.0001275623300970874,0.43954440778386294,-0.0017519052167167281
-0.00012754233009708738,0.4596520866720298,-0.0017519052167151846
-0.0001275223300970874,0.46668977428287833,-0.0007335864472235673
-0.00012750233009708737,0.483781301337804,-0.00039414685739287377
-0.00012748233009708738,0.48378130133782016,-0.0003941468573922563
-0.0001274623300970874,0.5193048673735319,0.0009636115019299004
-0.00012744233009708738,0.5293587068175988,0.0002847323222694395
-0.0001274223300970874,0.5216507632438158,0.0013030510917605939
-0.0001274023300970874,0.5434340820392993,0.00300024904091329
-0.00012738233009708738,0.5551635613907402,0.00198193027142229
-0.0001273623300970874,0.5799630320194445,0.0026608094510833682
-0.00012734233009708737,0.5762766242232746,0.002321369861254218
-0.00012732233009708739,0.5658876567977508,0.004018567810406451
-0.0001273023300970874,0.5873358476117654,0.004697446990067529
-0.00012728233009708738,0.5809684159638692,0.005376326169729071
-0.0001272623300970874,0.6191730058513328,0.00571576575955961
-0.00012724233009708737,0.6453129884059232,0.007073524118883002
-0.00012722233009708738,0.6433022205171065,0.007752403298543925
-0.0001272023300970874,0.6352591489618511,0.008091842888374464
-0.00012718233009708738,0.6506750361094674,0.008431282478206702
-0.0001271623300970874,0.6905552659042584,0.010128480427358472
-0.0001271423300970874,0.6922309058116025,0.009789040837528087
-0.00012712233009708738,0.6942416737004253,0.00978904083752855
-0.0001271023300970874,0.7099926888294672,0.011146799196850707
-0.00012708233009708737,0.7260788319399846,0.01182567837651055
-0.00012706233009708738,0.7250734479955769,0.010128480427359862
-0.0001270423300970874,0.7227275521252942,0.012843997146004173
-0.00012702233009708738,0.7267490879029387,0.013183436735834868
-0.0001270023300970874,0.7595916300868986,0.013183436735834868
-0.00012698233009708737,0.7475270227540177,0.013862315915496564
-0.00012696233009708738,0.7562403502722227,0.014201755505327257
-0.0001269423300970874,0.7900882764005894,0.014880634684988335
-0.00012692233009708738,0.7810398209009373,0.014541195095157333
-0.00012690233009708739,0.796790836029979,0.01420175550532772
-0.0001268823300970874,0.812206723177545,0.015898953454479645
-0.00012686233009708738,0.7937746841967493,0.015220074274818874
-0.0001268423300970874,0.7924341722708733,0.014880634684988335
-0.00012682233009708737,0.7843911007156374,0.01420175550532911
-0.00012680233009708738,0.8098608273072735,0.016577832634141802
-0.0001267823300970874,0.8215903066586877,0.016577832634141802
-0.00012676233009708738,0.8269523543622112,0.01657783263414211
-0.0001267423300970874,0.8460546493059343,0.016917272223972497
-0.0001267223300970874,0.8460546493059343,0.01793559099346411
-0.00012670233009708738,0.849741057102091,0.017596151403633575
-0.0001266823300970874,0.8416979855468356,0.016917272223972497
-0.00012666233009708737,0.8742053997493494,0.01657783263414211
-0.00012664233009708738,0.8832538552490204,0.016917272223972806
-0.0001266223300970874,0.9110694777109456,0.017596151403633884
-0.00012660233009708738,0.9174369093588477,0.017935590993464114
-0.0001265823300970874,0.8923023107486743,0.016917272223972497
-0.00012656233009708737,0.9073830699147956,0.01623839304430648
-0.00012654233009708738,0.9187774212847365,0.011146799196847927
-0.0001265223300970874,0.9207881891735504,0.005036886579898223
-0.00012650233009708738,0.9137505015626957,0.0016424906815925224
-0.00012648233009708739,0.910399221748015,0.0030002490409145248
-0.0001264623300970874,0.9271556208214562,0.004018567810405679
-0.00012644233009708738,0.9459227877837363,0.0050368865798983775
-0.0001264223300970874,0.9482686836540192,0.0053763261697289165
-0.00012640233009708737,0.9295015166917494,0.004697446990066911
-0.00012638233009708738,0.9311771565991036,0.0040185678104062966
-0.0001263623300970874,0.9532956033760561,0.0043580074002368355
-0.00012634233009708738,0.9546361153019198,0.005376326169728299
-0.0001263223300970874,0.9405607400802292,0.004697446990067529
-0.00012630233009708737,0.9489389396169668,0.004358007400237144
-0.00012628233009708738,0.9593279070424916,0.004697446990066757
-0.0001262623300970874,0.9398904841172908,0.0030002490409140616
-0.00012624233009708738,0.9660304666718836,0.005376326169728608
-0.00012622233009708739,0.9667007226348171,0.005036886579897606
-0.0001262023300970874,0.9573171391536899,0.0036791282205760664
-0.00012618233009708738,0.9372094602655354,0.0030002490409140616
-0.0001261623300970874,0.9318474125620317,0.0030002490409140616
-0.00012614233009708737,0.9559766272278107,0.0033396886307450638
-0.00012612233009708738,0.9576522671351548,0.003679128220575449
-0.0001261023300970874,0.9576522671351548,0.003679128220575449
-0.00012608233009708738,0.9650250827274858,0.00367912822057514
-0.0001260623300970874,0.976084306115957,0.003339688630744755
-0.0001260423300970874,0.9710573863939224,0.003000249040914216
-0.00012602233009708738,0.9519550914501861,0.003000249040914216
-0.0001260023300970874,0.9663655946533521,0.003339688630744755
-0.00012598233009708737,0.9559766272277982,0.0033396886307441374
-0.00012596233009708738,0.9439120198949229,0.0026608094510835226
-0.0001259423300970874,0.9492740675984265,0.0030002490409140616
-0.00012592233009708738,0.942906635950516,0.0013030510917605939
-0.0001259023300970874,0.9496091955798956,0.0013030510917605939
-0.00012588233009708737,0.9536307313575246,0.0016424906815915962
-0.00012586233009708738,0.9529604753945841,0.001981930271421981
-0.0001258423300970874,0.9465930437466735,0.001981930271421981
-0.00012582233009708738,0.9425715079690652,0.0019819302714216723
-0.00012580233009708739,0.9660304666718741,0.0016424906815917506
-0.0001257823300970874,0.9462579157652133,0.002660809451082905
-0.00012576233009708738,0.9362040763211285,0.002321369861252057
-0.0001257423300970874,0.9318474125620317,0.0009636115019299004
-0.00012572233009708737,0.921458445136485,0.0006241719120998243
-0.00012570233009708738,0.9174369093588531,0.0013030510917605939
-0.0001256823300970874,0.904366918081563,0.0013030510917605939
-0.00012566233009708738,0.905372302025964,-0.00039414685739287377
-0.0001256423300970874,0.8983346144151186,-0.00039414685739287377
-0.00012562233009708737,0.9063776859703702,0.0013030510917590502
-0.00012560233009708738,0.8979994864336487,-0.00039414685739256504
-0.0001255823300970874,0.8959887185448348,0.0002847323222685133
-0.00012556233009708737,0.9053723020259484,0.0009636115019292829
-0.00012554233009708739,0.8812430873601979,0.00028473232226866764
-0.0001255223300970874,0.8919671827672052,0.0006241719120992069
-0.00012550233009708738,0.8902915428598562,-0.0010730260370541065
-0.0001254823300970874,0.8829187272675386,-0.0007335864472235673
-0.00012546233009708737,0.8825835992860592,0.00028473232226727845
-0.00012544233009708738,0.8711892479161116,-0.0010730260370542608
-0.0001254223300970874,0.8547679768241316,-0.0010730260370542608
-0.00012540233009708738,0.8326495300471657,-0.0007335864472232586
-0.0001253823300970874,0.8289631222510087,-0.00039414685739287377
-0.0001253623300970874,0.8252767144548498,-0.0017519052167150303
-0.00012534233009708738,0.8058392915296501,-0.0014124656268848
-0.0001253223300970874,0.8309738901398234,-0.0010730260370542608
-0.00012530233009708737,0.8031582676778838,-0.002430784396376726
-0.00012528233009708738,0.8011474997890614,-0.0020913448065463416
-0.0001252623300970874,0.7807046929194538,-0.0020913448065463416
-0.00012524233009708738,0.7984664759373234,-0.002091344806546959
-0.0001252223300970874,0.8112013392331446,-0.0034491031658691156
-0.00012520233009708737,0.7786939250306205,-0.002091344806547268
-0.00012518233009708738,0.7582511181610154,-0.0031096635760385766
-0.0001251623300970874,0.7438406149578494,-0.0034491031658691156
-0.00012514233009708738,0.7274193438658706,-0.0034491031658691156
-0.00012512233009708739,0.7368029273469994,-0.0034491031658691156
-0.0001251023300970874,0.7404893351431564,-0.0034491031658691156
-0.00012508233009708738,0.7267490879029171,-0.0044674219353611965
-0.0001250623300970874,0.7123385846997511,-0.0044674219353611965
-0.00012504233009708737,0.6828473223304868,-0.00446742193536027
-0.00012502233009708738,0.7039603851630186,-0.0034491031658691156
-0.0001250023300970874,0.6945768016818872,-0.0034491031658691156
-0.00012498233009708738,0.6908903938857008,-0.004127982345530811
-0.0001249623300970874,0.6624045154608507,-0.0044674219353611965
-0.0001249423300970874,0.6540263159241262,-0.0058251802946833525
-0.00012492233009708738,0.6288917173139388,-0.0041279823455309655
-0.0001249023300970874,0.6315727411656906,-0.005146301115022583
-0.00012488233009708737,0.6302322292398016,-0.00582518029468397
-0.00012486233009708738,0.6164919819995847,-0.00582518029468397
-0.0001248423300970874,0.6272160774065919,-0.00582518029468397
-0.00012482233009708738,0.6057678865925666,-0.0054857407048535855
-0.0001248023300970874,0.6037571187037528,-0.006164619884514664
-0.00012478233009708737,0.5665579127606655,-0.0061646198845143555
-0.00012476233009708738,0.5514771535945688,-0.005825180294684433
-0.0001247423300970874,0.5524825375389758,-0.006843499064176051
-0.00012472233009708738,0.5353910104840257,-0.006504059474346284
-0.00012470233009708739,0.5085807719665205,-0.007522378243837129
-0.0001246823300970874,0.5105915398553336,-0.00684349906417636
-0.00012466233009708738,0.5146130756329508,-0.007522378243837747
-0.0001246423300970874,0.48545694124514965,-0.008201257423498825
-0.00012462233009708737,0.4673600302458111,-0.006504059474346284
-0.00012460233009708738,0.4613277265793669,-0.007522378243837747
-0.0001245823300970874,0.44959824722795266,-0.008201257423498825
-0.00012456233009708738,0.4244636486177586,-0.00820125742349867
-0.0001245423300970874,0.4040208417481509,-0.007861817833668131
-0.00012452233009708737,0.404691097711062,-0.009219576192990598
-0.00012450233009708738,0.37486470736033345,-0.008880136603160213
-0.0001244823300970874,0.3681621477309539,-0.008880136603160213
-0.00012446233009708738,0.3718485555270924,-0.00888013660316083
-0.00012444233009708739,0.34771934086132933,-0.009559015782821137
-0.0001244223300970874,0.330962941787888,-0.008540697013329981
-0.00012440233009708738,0.3011365514371302,-0.009219576192991215
-0.0001243823300970874,0.3064985991406339,-0.009898455372652293
-0.00012436233009708737,0.28404502438219936,-0.01125621373197414
-0.00012434233009708738,0.28102887254897607,-0.010237894962482678
-0.0001243223300970874,0.27265067301225165,-0.0095590157828216
-0.00012430233009708738,0.2662832413643205,-0.00989845537265291
-0.0001242823300970874,0.24684581843912856,-0.01057733455231368
-0.0001242623300970874,0.23679197899505922,-0.010237894962483141
-0.00012424233009708738,0.23846761890237533,-0.010916774142144528
-0.0001242223300970874,0.18350662994146286,-0.011256213731975067
-0.00012420233009708737,0.19624149323728313,-0.011935092911636145
-0.00012418233009708738,0.1888686776449624,-0.011595653321806069
-0.0001241623300970874,0.17445817444179634,-0.012274532501467147
-0.00012414233009708738,0.14429665610957548,-0.012613972091297687
-0.0001241223300970874,0.14630742399838936,-0.012274532501467147
-0.00012410233009708737,0.12888076896197567,-0.012953411681127918
-0.00012408233009708738,0.10810283411089824,-0.012274532501467301
-0.0001240623300970874,0.08564925935247672,-0.012613972091297842
-0.00012404233009708738,0.06286055661256547,-0.013971730450620615
-0.00012402233009708739,0.051466205242622486,-0.013971730450621079
-0.0001240023300970874,0.04509877359471479,-0.014990049220112232
-0.00012398233009708738,0.03571519011357228,-0.01363229086079054
-0.0001239623300970874,0.02700186259537884,-0.014990049220112696
-0.00012394233009708737,0.011921103429237176,-0.014990049220113622
-0.00012392233009708738,-0.02192682269911256,-0.01600836798960493
-0.0001239023300970874,-0.018240414902953802,-0.01634780757943547
-0.00012388233009708738,-0.023937590587966514,-0.015668928399775628
-0.0001238623300970874,-0.0651583323086321,-0.01736612634892755
-0.00012384233009708737,-0.07655268367858985,-0.015329488809944624
-0.00012382233009708738,-0.08459575523384001,-0.0166872471692657
-0.0001238023300970874,-0.08090934743768124,-0.015668928399774084
-0.00012378233009708737,-0.10805471393669391,-0.016687247169266162
-0.00012376233009708739,-0.12246521713986168,-0.01668724716926601
-0.0001237423300970874,-0.1405621281391865,-0.01634780757943547
-0.00012372233009708738,-0.14391340795387705,-0.016008367989605084
-0.0001237023300970874,-0.14223776804653215,-0.016687247169266162
-0.00012368233009708737,-0.17508031023052067,-0.01668724716926647
-0.00012366233009708738,-0.19016106939662397,-0.01702668675909701
-0.0001236423300970874,-0.2035661886553831,-0.01736612634892755
-0.00012362233009708738,-0.22434412350649416,-0.01838444511841963
-0.0001236023300970874,-0.2518246179869379,-0.01838444511841963
-0.0001235823300970874,-0.26724050513451086,-0.018723884708250173
-0.00012356233009708738,-0.2809807523747512,-0.019402763887911404
-0.0001235423300970874,-0.27863485650446834,-0.018723884708250326
-0.00012352233009708737,-0.29170484778177175,-0.018045005528589557
-0.00012350233009708738,-0.299747919337033,-0.01872388470825048
-0.0001234823300970874,-0.32052585418810964,-0.019063324298081018
-0.00012346233009708738,-0.3352714853727673,-0.020081643067573252
-0.0001234423300970874,-0.370124795445541,-0.02042108265740379
-0.00012342233009708737,-0.36342223581618094,-0.0204210826574041
-0.00012340233009708738,-0.3882217064448726,-0.020760522247234334
-0.0001233823300970874,-0.3848704266301828,-0.02042108265740379
-0.00012336233009708738,-0.40229708166657085,-0.021778841016725642
-0.00012334233009708739,-0.39492426607425957,-0.020760522247234178
-0.0001233223300970874,-0.4012916977221673,-0.02008164306757341
-0.00012330233009708738,-0.4230750165176708,-0.020760522247234178
-0.0001232823300970874,-0.4388260316467128,-0.0200816430675731
-0.00012326233009708737,-0.4394962876096678,-0.020081643067574335
-0.00012324233009708738,-0.45792832659046223,-0.021439401426896182
-0.0001232223300970874,-0.47770087749713197,-0.02211828060655726
-0.00012320233009708738,-0.5061867559220031,-0.022797159786218647
-0.0001231823300970874,-0.500824708218502,-0.022797159786218647
-0.0001231623300970874,-0.5175811072919508,-0.023815478555710264
-0.00012314233009708738,-0.5370185302171728,-0.022797159786218647
-0.0001231223300970874,-0.5474074976427111,-0.022797159786218647
-0.00012310233009708737,-0.5383590421430836,-0.022797159786218647
-0.00012308233009708738,-0.5812554237710987,-0.022797159786218955
-0.0001230623300970874,-0.593320031103982,-0.023476038965880033
-0.00012304233009708738,-0.6016982306407198,-0.02313659937604965
-0.0001230223300970874,-0.6228112934732656,-0.02381547855571073
