samples/acq3496.csv

#Digilent WaveForms Oscilloscope Acquisition
#Device Name: Discovery2
#Serial Number: SN:210321AD996C
#Date Time: 2025-12-07 12:58:46.348
#Sample rate: 5e+07Hz
#Samples: 8192
#Trigger: Source: Channel 1 Type: Edge Condition: Rising Level: 0 V Hyst.: Auto HoldOff: 0 s
#Channel 1: Range: 500 mV/div Offset: 0 V Sample Mode: Average
#Channel 2: Range: 500 mV/div Offset: 0 V Sample Mode: Average
#Wavegen Channel 1: Running
#Mode: Custom
#Type: noisy
#Frequency: 117 kHz
#Period: 8.547008547 us
#Amplitude: 1 V
#Offset: 0 V
#Phase: 0 °

Time (s),Channel 1 (V),Channel 2 (V)
-0.0001289817307692308,-0.5115488036255159,-0.011256213731975684
-0.00012896173076923077,-0.5095380357366994,-0.01057733455231368
-0.00012894173076923076,-0.5021652201443718,-0.012274532501464985
-0.00012892173076923077,-0.49479240455205126,-0.009898455372652139
-0.00012890173076923078,-0.48071702933035415,-0.0095590157828216
-0.0001288817307692308,-0.451560894942553,-0.00921957619299106
-0.00012886173076923077,-0.45491217475723106,-0.009219576192990906
-0.00012884173076923078,-0.4458637192575686,-0.010577334552313062
-0.00012882173076923076,-0.4297775761470417,-0.009219576192990906
-0.00012880173076923077,-0.41972373670297236,-0.009219576192990906
-0.00012878173076923079,-0.41670758486975157,-0.008880136603160367
-0.00012876173076923077,-0.41101040918475773,-0.008201257423498825
-0.00012874173076923078,-0.3731409472787632,-0.008201257423498825
-0.00012872173076923076,-0.35068737252033555,-0.007522378243837747
-0.00012870173076923077,-0.3597358280199979,-0.008201257423498825
-0.00012868173076923078,-0.33124994959513476,-0.006843499064176669
-0.0001286617307692308,-0.3087963748367105,-0.006843499064176051
-0.00012864173076923078,-0.30712073492934444,-0.007861817833668131
-0.00012862173076923076,-0.28031049641181127,-0.007861817833667822
-0.00012860173076923077,-0.27729434457859287,-0.007522378243837129
-0.00012858173076923078,-0.27964024044887464,-0.00684349906417636
-0.0001285617307692308,-0.257856921653402,-0.007182938654006436
-0.00012854173076923077,-0.25350025789428354,-0.006843499064176051
-0.00012852173076923076,-0.2260197634138075,-0.006843499064176977
-0.00012850173076923077,-0.2179766918585403,-0.00786181783366736
-0.00012848173076923078,-0.1841287657301735,-0.006164619884514664
-0.0001284617307692308,-0.18714491756339433,-0.006504059474345203
-0.00012844173076923077,-0.17776133408226003,-0.005485740704853277
-0.00012842173076923075,-0.1405621281391856,-0.004467421935360888
-0.00012840173076923076,-0.1395567441947648,-0.004127982345530502
-0.00012838173076923078,-0.10805471393668081,-0.004127982345530502
-0.00012836173076923079,-0.08191473138210051,-0.0034491031658694243
-0.00012834173076923077,-0.07387165982682996,-0.0034491031658691156
-0.00012832173076923078,-0.07487704377123643,-0.0034491031658691156
-0.00012830173076923076,-0.0829201153264919,-0.00344910316586927
-0.00012828173076923077,-0.0738716598268295,-0.003788542755699809
-0.00012826173076923078,-0.04873706121665612,-0.003788542755699809
-0.0001282417307692308,-0.03533194195789166,-0.0024307843963782697
-0.00012822173076923078,-0.024942974532336414,-0.0034491031658691156
-0.00012820173076923076,0.025661350669503535,-0.002091344806546959
-0.00012818173076923077,0.02700186259537884,-0.0027702239862077284
-0.00012816173076923078,0.038061085983855124,-0.003109663576038268
-0.0001281417307692308,0.046439285520580804,-0.0024307843963776526
-0.00012812173076923077,0.043758261668835376,-0.003788542755699809
-0.00012810173076923076,0.07760618779722304,-0.00039414685739287377
-0.00012808173076923077,0.08363849146367229,-0.00039414685739333683
-0.00012806173076923078,0.10642719420356281,-0.0014124656268849544
-0.0001280417307692308,0.12485923318434825,0.0006241719120973544
-0.00012802173076923077,0.13658871253578458,0.0002847323222685133
-0.00012800173076923076,0.12117282538822834,0.0016424906815909787
-0.00012798173076923077,0.14731280794280163,0.0013030510917613656
-0.00012796173076923078,0.15803690334980894,0.0030002490409140616
-0.00012794173076923079,0.19221995745964474,0.0026608094510835226
-0.00012792173076923077,0.19322534140407482,0.0026608094510838314
-0.00012790173076923078,0.20897635653310964,0.0036791282205749856
-0.00012788173076923076,0.23980813082828747,0.004018567810405988
-0.00012786173076923077,0.263267089531116,0.003679128220575449
-0.00012784173076923078,0.2716452890678404,0.005036886579897606
-0.0001278217307692308,0.26226170558671713,0.0033396886307462985
-0.00012780173076923078,0.2749965688825356,0.001981930271421981
-0.00012778173076923076,0.31521192665883063,0.003679128220575449
-0.00012776173076923077,0.314541670695893,0.003679128220575449
-0.00012774173076923078,0.3155470546402999,0.0030002490409143704
-0.0001277217307692308,0.3135362867514874,0.003339688630744446
-0.00012770173076923078,0.3537516445277813,0.003679128220575449
-0.00012768173076923076,0.366486507823625,0.004358007400237144
-0.00012766173076923077,0.3849185468044047,0.004697446990067683
-0.00012764173076923078,0.3721836835085835,0.005036886579898223
-0.0001276217307692308,0.41105852935896725,0.005715765759558992
-0.00012760173076923077,0.40904776147018784,0.006055205349390303
-0.00012758173076923076,0.4030154578037755,0.005376326169728299
-0.00012756173076923077,0.4382038958580123,0.0046974469900681465
-0.00012754173076923078,0.46032234263496485,0.006055205349390303
-0.0001275217307692308,0.46467900639406157,0.006394644939220842
-0.00012750173076923077,0.4717166940049153,0.006055205349390303
-0.00012748173076923078,0.47875438161576384,0.005715765759559764
-0.00012746173076923076,0.5079105160035875,0.005715765759559919
-0.00012744173076923077,0.5213156352623466,0.006394644939220997
-0.00012742173076923078,0.5216507632438157,0.0070735241188820755
-0.0001274017307692308,0.5360612664469753,0.00605520534939123
-0.00012738173076923078,0.5528176655204449,0.007752403298543771
-0.00012736173076923076,0.5856602077044182,0.008431282478205003
-0.00012734173076923077,0.5823089278897284,0.008091842888374464
-0.00012732173076923078,0.5662227847792175,0.008091842888374464
-0.0001273017307692308,0.5856602077044021,0.007412963708713695
-0.00012728173076923078,0.5792927760565062,0.007073524118882384
-0.00012726173076923076,0.6047625026481922,0.007412963708713695
-0.00012724173076923077,0.6399509407024233,0.008091842888374619
-0.00012722173076923078,0.6496696521650193,0.008431282478205003
-0.0001272017307692308,0.6419617085912407,0.007752403298544389
-0.00012718173076923077,0.6510101640909002,0.007752403298543771
-0.00012716173076923076,0.6724583549049371,0.008091842888375082
-0.00012714173076923077,0.6861986021451595,0.008770722068035851
-0.00012712173076923078,0.6875391140710354,0.008770722068035851
-0.0001271017307692308,0.7066414090147672,0.00944960124769693
-0.00012708173076923077,0.7237329360697016,0.010128480427358626
-0.00012706173076923078,0.7247383200141085,0.010128480427358626
-0.00012704173076923076,0.7217221681808883,0.009449601247697085
-0.00012702173076923077,0.725073447995578,0.009110161657866545
-0.00012700173076923079,0.7572457342166,0.009449601247697085
-0.00012698173076923077,0.7404893351431618,0.010807359607019704
-0.00012696173076923078,0.7488675346798863,0.010128480427358626
-0.00012694173076923076,0.7877423805302987,0.010807359607020322
-0.00012692173076923077,0.7726616213641947,0.0114862387866814
-0.00012690173076923078,0.7944449401596783,0.010128480427359244
-0.0001268817307692308,0.80248801171494,0.012504557556171319
-0.00012686173076923078,0.7850613566785525,0.0114862387866814
-0.00012684173076923076,0.7897531484191167,0.010807359607019396
-0.00012682173076923077,0.7857316126415013,0.010128480427359398
-0.00012680173076923078,0.8088554433628502,0.011825678376511321
-0.0001267817307692308,0.8202497947328009,0.010467920017190555
-0.00012676173076923077,0.8286279942695395,0.01250455755617348
-0.00012674173076923076,0.8410277295838985,0.01080735960702063
-0.00012672173076923077,0.8423682415097759,0.011486238786681709
-0.00012670173076923078,0.8467249052688726,0.012165117966342787
-0.0001266817307692308,0.8581192566388177,0.012504557556173326
-0.00012666173076923077,0.8788971914899091,0.012843997146004173
-0.00012664173076923075,0.8711892479161447,0.013183436735833942
-0.00012662173076923077,0.8993399983595327,0.012165117966343095
-0.00012660173076923078,0.9140856295441678,0.012843997146004173
-0.00012658173076923079,0.9023561501927535,0.013522876325665253
-0.00012656173076923077,0.910399221748011,0.013522876325665716
-0.00012654173076923078,0.9184422933032629,0.0138623159154961
-0.00012652173076923076,0.9217935731179543,0.013522876325665407
-0.00012650173076923077,0.9140856295441678,0.013183436735834868
-0.00012648173076923078,0.91006409376654,0.014201755505326485
-0.0001264617307692308,0.9207881891735407,0.013862315915496564
-0.00012644173076923078,0.9372094602655379,0.015220074274819029
-0.00012642173076923076,0.9479335556725266,0.015220074274817176
-0.00012640173076923077,0.9221287010994269,0.013183436735834868
-0.00012638173076923078,0.9244745969697098,0.013522876325665407
-0.0001263617307692308,0.9492740675984039,0.013862315915495946
-0.00012634173076923077,0.9596630350239695,0.013183436735834868
-0.00012632173076923076,0.9435768919134562,0.014201755505326331
-0.00012630173076923077,0.9489389396169619,0.01352287632566587
-0.00012628173076923078,0.9586576510795621,0.014201755505326949
-0.0001262617307692308,0.937879716228495,0.014541195095157333
-0.00012624173076923077,0.9646899547460065,0.014880634684988335
-0.00012622173076923076,0.9653602107089391,0.01454119509515795
-0.00012620173076923077,0.958992779061022,0.014880634684988181
-0.00012618173076923078,0.9385499721914143,0.014541195095157642
-0.00012616173076923079,0.9311771565990968,0.014201755505327103
-0.00012614173076923077,0.9539658593389961,0.01386231591549641
-0.00012612173076923078,0.9579873951166221,0.014201755505326794
-0.00012610173076923076,0.9633494428201317,0.013862315915496564
-0.00012608173076923077,0.9670358506162905,0.014541195095157642
-0.00012606173076923078,0.973403282264201,0.012504557556174406
-0.0001260417307692308,0.9667007226348274,0.01386231591549502
-0.00012602173076923078,0.9489389396169574,0.012843997146004173
-0.00012600173076923076,0.9640196987830588,0.014201755505327257
-0.00012598173076923077,0.9536307313575252,0.014541195095157642
-0.00012596173076923078,0.9499443235613665,0.013522876325666025
-0.0001259417307692308,0.9512848354872401,0.013862315915495946
-0.00012592173076923078,0.93251766852497,0.013862315915496255
-0.00012590173076923076,0.9378797162284843,0.012843997146004173
-0.00012588173076923077,0.9469281717281499,0.012843997146004328
-0.00012586173076923078,0.9630143148386608,0.013183436735834868
-0.0001258417307692308,0.9506145795243144,0.013183436735834868
-0.00012582173076923077,0.9412309960431674,0.013862315915496255
-0.00012580173076923076,0.9643548267645198,0.012843997146005717
-0.00012578173076923077,0.9449174038393227,0.014541195095157024
-0.00012576173076923078,0.9335230524693774,0.013183436735834868
-0.0001257417307692308,0.9321825405435014,0.013522876325665407
-0.00012572173076923077,0.9227989570623651,0.014201755505326949
-0.00012570173076923078,0.9177720373403305,0.012504557556174252
-0.00012568173076923076,0.9114046056924163,0.013183436735834714
-0.00012566173076923077,0.9147558855071061,0.012843997146004173
-0.00012564173076923078,0.900010254322471,0.012504557556173634
-0.00012562173076923077,0.915091013488569,0.01352287632566479
-0.00012560173076923078,0.9013507662483409,0.011825678376512093
-0.00012558173076923076,0.915091013488578,0.013862315915495946
-0.00012556173076923077,0.9211233171550195,0.013183436735834868
-0.00012554173076923078,0.8892861589154666,0.01216511796634325
-0.0001255217307692308,0.8919671827672028,0.012504557556173171
-0.00012550173076923078,0.8892861589154522,0.012165117966342787
-0.00012548173076923076,0.8839241112119433,0.012843997146003556
-0.00012546173076923077,0.8809079593787194,0.012165117966342941
-0.00012544173076923078,0.8708541199346544,0.012504557556173326
-0.0001254217307692308,0.8564436167314904,0.012843997146003865
-0.00012540173076923077,0.8336549139915764,0.011825678376512093
-0.00012538173076923076,0.814217491066373,0.011486238786682017
-0.00012536173076923077,0.8209200506957387,0.012165117966342323
-0.00012534173076923078,0.7971259640114412,0.011146799196850707
-0.0001253217307692308,0.8239362025289594,0.010807359607020168
-0.00012530173076923077,0.8034933956593546,0.01046792001718932
-0.00012528173076923078,0.782380332826809,0.009789040837528242
-0.00012526173076923076,0.7766831571418324,0.01046792001718932
-0.00012524173076923077,0.7947800681411573,0.01046792001718932
-0.00012522173076923079,0.8108662112516682,0.009789040837528242
-0.00012520173076923077,0.7847262286970743,0.010467920017189474
-0.00012518173076923078,0.7649536777904047,0.010807359607020013
-0.00012516173076923076,0.7471918947725442,0.009110161657866699
-0.00012514173076923077,0.7548998383463307,0.00944960124769724
-0.00012512173076923078,0.7448459989022613,0.009789040837527779
-0.0001251017307692308,0.7465216388096009,0.010128480427358318
-0.00012508173076923078,0.7287598557917385,0.009110161657866545
-0.00012506173076923076,0.7130088406626736,0.009789040837527624
-0.00012504173076923077,0.6955821856263,0.00944960124769693
-0.00012502173076923078,0.7076467929591779,0.00877072206803616
-0.0001250017307692308,0.6979280814965874,0.008091842888375082
-0.00012498173076923077,0.6932362897560107,0.008770722068035851
-0.00012496173076923076,0.6644152833496573,0.008431282478204849
-0.00012494173076923077,0.6553668278499861,0.00809184288837431
-0.00012492173076923078,0.6272160774065919,0.007752403298543771
-0.0001249017307692308,0.6342537650174372,0.006394644939222232
-0.00012488173076923077,0.6315727411656906,0.007412963708713078
-0.00012486173076923075,0.6128055742034266,0.008091842888373847
-0.00012484173076923077,0.6208486457586703,0.0074129637087126145
-0.00012482173076923078,0.6027517347593454,0.006394644939220997
-0.00012480173076923079,0.5994004549446557,0.0070735241188820755
-0.00012478173076923077,0.5658876567977305,0.007412963708712151
-0.00012476173076923078,0.5427638260763815,0.005376326169729843
-0.00012474173076923076,0.5434340820393047,0.005036886579898532
-0.00012472173076923077,0.5333802425952353,0.00571576575955961
-0.00012470173076923078,0.5099212838924069,0.005036886579898532
-0.0001246817307692308,0.5115969237997403,0.005376326169728608
-0.00012466173076923078,0.49886206050391485,0.005036886579898223
-0.00012464173076923076,0.4817705334489633,0.004697446990066911
-0.00012462173076923077,0.4532846550241131,0.004018567810406142
-0.00012460173076923078,0.4475874793391405,0.00503688657989776
-0.0001245817307692308,0.44658209539473137,0.004358007400237453
-0.00012456173076923077,0.4331769761359653,0.004018567810406142
-0.00012454173076923076,0.405361353674025,0.0043580074002368355
-0.00012452173076923077,0.40268032982226065,0.0043580074002368355
-0.00012450173076923078,0.3725188114900526,0.0043580074002368355
-0.0001244817307692308,0.36682163580508254,0.0030002490409152963
-0.00012446173076923077,0.37285393947152173,0.003679128220575449
-0.00012444173076923076,0.34604370095397574,0.004358007400236527
-0.00012442173076923077,0.3289521738990528,0.004018567810405525
-0.00012440173076923078,0.30080142345565863,0.0026608094510833682
-0.0001243817307692308,0.3071688551035692,0.0026608094510833682
-0.00012436173076923077,0.28438015236367004,0.0023213698612523656
-0.00012434173076923078,0.2816991285119194,0.001642490681591596
-0.00012432173076923076,0.26293196154964704,0.0019819302714213635
-0.00012430173076923077,0.263267089531116,0.0006241719120992069
-0.00012428173076923078,0.25120248219823277,0.001303051091760285
-0.0001242617307692308,0.24349453862444428,0.002321369861251748
-0.00012424173076923078,0.2394730028468077,0.0002847323222685133
-0.00012422173076923076,0.18384175792294175,0.0006241719120988982
-0.00012420173076923077,0.1945658533299442,0.0002847323222685133
-0.00012418173076923078,0.1895389336079095,0.0009636115019295917
-0.0001241617307692308,0.17445817444181005,0.00028473232226913076
-0.00012414173076923078,0.14965870381308066,-5.470726756218023e-05
-0.00012412173076923076,0.15401536757215956,0.0006241719120982808
-0.00012410173076923077,0.13223204877667993,-0.00039414685739287377
-0.00012408173076923078,0.11916205749939573,-0.00039414685739287377
-0.0001240617307692308,0.08766002724132013,-5.470726756248896e-05
-0.00012404173076923077,0.06520645248285975,-0.0020913448065463416
-0.00012402173076923076,0.05347697313143255,-0.0003941468573941086
-0.00012400173076923077,0.04509877359470199,-0.0017519052167158022
-0.00012398173076923078,0.023315454799218406,-0.0020913448065463416
-0.0001239617307692308,0.02432083874362534,-0.001073026037054724
-0.00012394173076923077,0.009910335540453176,-0.0017519052167156478
-0.00012392173076923078,-0.025613230495258522,-0.0017519052167156478
-0.00012390173076923076,-0.023602462606461875,-0.0010730260370545696
-0.00012388173076923077,-0.02795912636555859,-0.0017519052167156478
-0.00012386173076923078,-0.06683397221596007,-0.0031096635760378046
-0.00012384173076923077,-0.059126028642196585,-0.002430784396377498
-0.00012382173076923078,-0.07856345156739733,-0.0034491031658691156
-0.00012380173076923076,-0.08727677908560783,-0.0024307843963776526
-0.00012378173076923077,-0.11609778549193997,-0.003788542755699809
-0.00012376173076923078,-0.12414085704719544,-0.003788542755699809
-0.0001237417307692308,-0.11542752952900963,-0.0031096635760390397
-0.00012372173076923078,-0.13620546438008782,-0.004127982345530502
-0.00012370173076923076,-0.14156751208362256,-0.003449103165870968
-0.00012368173076923077,-0.1730695423416989,-0.0054857407048528135
-0.00012366173076923078,-0.18781517352632723,-0.00446742193536166
-0.0001236417307692308,-0.2002149088406805,-0.005825180294682735
-0.00012362173076923077,-0.2233387395620618,-0.005146301115022583
-0.00012360173076923076,-0.2273602753397206,-0.005825180294684588
-0.00012358173076923077,-0.2595325615607375,-0.006504059474345203
-0.00012356173076923078,-0.2806456243932831,-0.006164619884514664
-0.0001235417307692308,-0.28031049641181416,-0.006843499064175742
-0.00012352173076923077,-0.2947209996149866,-0.007522378243837438
-0.00012350173076923078,-0.32823379776188444,-0.007522378243837438
-0.00012348173076923076,-0.3299094376692459,-0.005825180294684588
-0.00012346173076923077,-0.33124994959512183,-0.007182938654006744
-0.00012344173076923079,-0.3630871078346748,-0.007182938654006744
-0.00012342173076923077,-0.3580601881126651,-0.007182938654006899
-0.00012340173076923078,-0.38621093855605926,-0.007522378243837438
-0.00012338173076923076,-0.3858758105745891,-0.007861817833667977
-0.00012336173076923077,-0.38352991470430625,-0.007522378243837438
-0.00012334173076923078,-0.388221706444872,-0.007522378243837438
-0.0001233217307692308,-0.4053132334997842,-0.008201257423498207
-0.00012330173076923078,-0.4277668082582315,-0.007861817833668131
-0.00012328173076923076,-0.44016654357258506,-0.008201257423498825
-0.00012326173076923077,-0.4354747518320215,-0.008201257423498825
-0.00012324173076923078,-0.4569229426460361,-0.009219576192990443
-0.0001232217307692308,-0.46764703805304825,-0.008540697013330135
-0.00012320173076923077,-0.49613291647793417,-0.010237894962482987
-0.00012318173076923076,-0.5011598361999869,-0.009559015782821291
-0.00012316173076923077,-0.518586491236374,-0.009219576192991215
-0.00012314173076923078,-0.5363482742542298,-0.009898455372652293
-0.0001231217307692308,-0.5470723696612323,-0.010916774142143447
-0.00012310173076923077,-0.5376887861801064,-0.0095590157828216
-0.00012308173076923075,-0.5698610724011536,-0.008880136603161757
-0.00012306173076923077,-0.5815905517525691,-0.01057733455231368
-0.00012304173076923078,-0.5963361829372043,-0.01057733455231368
-0.00012302173076923079,-0.6047143824739287,-0.011256213731974758
