samples/acq3497.csv

#Digilent WaveForms Oscilloscope Acquisition
#Device Name: Discovery2
#Serial Number: SN:210321AD996C
#Date Time: 2025-12-07 12:58:46.380
#Sample rate: 5e+07Hz
#Samples: 8192
#Trigger: Source: Channel 1 Type: Edge Condition: Rising Level: 0 V Hyst.: Auto HoldOff: 0 s
#Channel 1: Range: 500 mV/div Offset: 0 V Sample Mode: Average
#Channel 2: Range: 500 mV/div Offset: 0 V Sample Mode: Average
#Wavegen Channel 1: Running
#Mode: Custom
#Type: noisy
#Frequency: 117 kHz
#Period: 8.547008547 us
#Amplitude: 1 V
#Offset: 0 V
#Phase: 0 °

Time (s),Channel 1 (V),Channel 2 (V)
-0.0001289878125,-0.5477426256241803,-0.009219576192990906
-0.0001289678125,-0.5303159705877809,-0.008880136603160522
-0.0001289478125,-0.5252890508657363,-0.009219576192990752
-0.0001289278125,-0.49847881234823027,-0.008880136603160367
-0.0001289078125,-0.4716685738306812,-0.008540697013329672
-0.0001288878125,-0.4575931986089841,-0.008880136603160213
-0.0001288678125,-0.4441880793502085,-0.007522378243837438
-0.0001288478125,-0.43279372798025945,-0.007522378243837592
-0.0001288278125,-0.4130211770735897,-0.007861817833668131
-0.0001288078125,-0.40832938533301594,-0.007861817833668286
-0.0001287878125,-0.3952593940557258,-0.008201257423498825
-0.0001287678125,-0.40799425735152595,-0.007182938654005818
-0.0001287478125,-0.37850299498226164,-0.006164619884514664
-0.0001287278125,-0.36174659590881275,-0.006164619884514664
-0.0001287078125,-0.339628149131827,-0.006504059474343197
-0.0001286878125,-0.3141584225401954,-0.004127982345531274
-0.0001286678125,-0.3124827826328513,-0.005825180294683198
-0.0001286478125,-0.3034343271331759,-0.006843499064175588
-0.0001286278125,-0.28567254411532006,-0.00582518029468397
-0.0001286078125,-0.28299152026356494,-0.005485740704852659
-0.0001285878125,-0.28064562439327745,-0.004806861525192199
-0.0001285678125,-0.26824588907892527,-0.005485740704853277
-0.0001285478125,-0.2514894900054517,-0.004127982345530811
-0.0001285278125,-0.23272232304319745,-0.0044674219353611965
-0.00012850781250000001,-0.22065771571031423,-0.0034491031658695787
-0.0001284878125,-0.20323106067390526,-0.0034491031658695787
-0.0001284678125,-0.1841287657301735,-0.0044674219353611965
-0.0001284478125,-0.1837936377487016,-0.004127982345529885
-0.0001284278125,-0.18077748591548115,-0.0034491031658691156
-0.0001284078125,-0.1784315900451983,-0.0034491031658691156
-0.0001283878125,-0.14357827997240366,-0.004127982345530502
-0.0001283678125,-0.13251905658392737,-0.004127982345530502
-0.0001283478125,-0.09531985064085934,-0.0020913448065463416
-0.0001283278125,-0.10135215430730127,-0.0020913448065466504
-0.0001283078125,-0.10805471393668081,-0.0027702239862077284
-0.0001282878125,-0.08493088321528948,-0.0017519052167159566
-0.0001282678125,-0.061471924512468155,-0.002091344806546496
-0.0001282478125,-0.05376398093868516,-0.0024307843963768806
-0.0001282278125,-0.053428852957198805,-0.002770223986206802
-0.0001282078125,-0.02326733462499076,-0.0007335864472235673
-0.0001281878125,0.004883415818440295,-0.0014124656268846457
-0.0001281678125,0.03135852635447282,-0.0010730260370541065
-0.0001281478125,0.02096955892893449,-0.0007335864472235673
-0.0001281278125,0.03873134194681761,-0.00039414685739256504
-0.0001281078125,0.05984440477935365,-5.470726756218023e-05
-0.0001280878125,0.09905437861124712,0.0009636115019283568
-0.0001280678125,0.10475155429621777,-0.0007335864472234129
-0.0001280478125,0.10609206622209369,-0.00039414685739287377
-0.0001280278125,0.14195076023929554,0.00028473232226913076
-0.0001280078125,0.14731280794279325,0.0009636115019299004
-0.0001279878125,0.13960486436900674,0.0009636115019299004
-0.0001279678125,0.1587071593127623,0.0016424906815919048
-0.0001279478125,0.19188482947819113,0.0030002490409140616
-0.0001279278125,0.17512843040475778,0.0016424906815922136
-0.0001279078125,0.20059815699639616,0.0026608094510833682
-0.0001278878125,0.21735455606984508,0.0026608094510833682
-0.0001278678125,0.2438296666059146,0.0030002490409140616
-0.0001278478125,0.2528781221055729,0.0030002490409140616
-0.00012782781250000001,0.2652778574199251,0.00367912822057514
-0.0001278078125,0.265277857419941,0.003000249040913907
-0.0001277878125,0.28773143217836256,0.0026608094510833682
-0.0001277678125,0.2974501436409902,0.004358007400236527
-0.0001277478125,0.32258474225115413,0.004018567810406605
-0.0001277278125,0.32694140601025085,0.005036886579898223
-0.0001277078125,0.32727653399173323,0.0040185678104062966
-0.0001276878125,0.35643266837953436,0.0043580074002368355
-0.0001276678125,0.3805618830453218,0.005376326169728299
-0.0001276478125,0.3916211064337908,0.004697446990067683
-0.0001276278125,0.3865941867117561,0.005036886579898223
-0.0001276078125,0.4097180174331548,0.0057157657595602275
-0.0001275878125,0.44122004769122153,0.006394644939220842
-0.0001275678125,0.4348526160433138,0.006055205349390458
-0.0001275478125,0.4358579999877221,0.006055205349390149
-0.0001275278125,0.4442361995244466,0.00571576575955961
-0.0001275078125,0.4563008068573624,0.006734084529051382
-0.0001274878125,0.48612719720808406,0.006394644939221769
-0.0001274678125,0.47774899767135964,0.008091842888374464
-0.0001274478125,0.4948405247262969,0.006734084529051691
-0.0001274278125,0.5075753880221123,0.006734084529051691
-0.00012740781250000001,0.5015430843556707,0.007412963708712769
-0.0001273878125,0.5320397306693716,0.007073524118882693
-0.0001273678125,0.5601904811127658,0.007752403298543771
-0.0001273478125,0.5665579127606838,0.007752403298543771
-0.0001273278125,0.5715848324827179,0.00775240329854408
-0.0001273078125,0.5752712402788767,0.008431282478205158
-0.0001272878125,0.5990653269631951,0.008431282478205467
-0.0001272678125,0.6215189017216167,0.009110161657866545
-0.0001272478125,0.6372699168506725,0.009110161657867471
-0.0001272278125,0.6446427324429863,0.010128480427358472
-0.0001272078125,0.6436373484985793,0.009789040837527933
-0.0001271878125,0.6392806847394968,0.009789040837527315
-0.0001271678125,0.657042467757354,0.009110161657867008
-0.00012714781250000001,0.6778204026084212,0.010128480427358163
-0.0001271278125,0.6624045154608657,0.010807359607019396
-0.0001271078125,0.6952470576448254,0.00944960124769724
-0.0001270878125,0.7006091053483298,0.010467920017189011
-0.0001270678125,0.6985983374595197,0.010128480427358626
-0.0001270478125,0.7053008970888994,0.010128480427358626
-0.0001270278125,0.7314408796434956,0.010467920017189011
-0.0001270078125,0.740154207161689,0.009789040837527933
-0.0001269878125,0.7689752135680108,0.01216511796634186
-0.0001269678125,0.7431703589949212,0.011146799196850861
-0.0001269478125,0.7652888057718737,0.0114862387866814
-0.0001269278125,0.7766831571418538,0.011146799196851324
-0.0001269078125,0.80919057134433,0.011825678376512248
-0.0001268878125,0.8095256993257989,0.012165117966342632
-0.0001268678125,0.8004772438261414,0.011146799196850861
-0.0001268478125,0.8199146667513421,0.0114862387866814
-0.0001268278125,0.8189092828069184,0.013183436735833325
-0.0001268078125,0.8011474997890793,0.011486238786681709
-0.0001267878125,0.8199146667513421,0.012165117966342787
-0.0001267678125,0.8266172263807414,0.012165117966342787
-0.0001267478125,0.8450492653615269,0.012165117966342787
-0.00012672781250000001,0.8661623281940726,0.012165117966342787
-0.0001267078125,0.8664974561755543,0.012843997146004482
-0.0001266878125,0.8732000158049339,0.013522876325665562
-0.0001266678125,0.8926374387301272,0.013862315915495946
-0.0001266478125,0.8748756557122923,0.01352287632566618
-0.0001266278125,0.9030264061556865,0.014880634684988335
-0.0001266078125,0.900680510285398,0.013862315915495792
-0.0001265878125,0.8906266708413286,0.012843997146004173
-0.0001265678125,0.8933076946930948,0.01352287632566587
-0.0001265478125,0.9077181978962573,0.013862315915495792
-0.0001265278125,0.9144207575256369,0.012843997146004173
-0.0001265078125,0.9419012520061102,0.01420175550532664
-0.0001264878125,0.9469281717281443,0.013862315915496718
-0.0001264678125,0.9506145795243014,0.014880634684987872
-0.0001264478125,0.9613386749313151,0.014201755505326485
-0.0001264278125,0.9610035469498461,0.013183436735834868
-0.0001264078125,0.9539658593389669,0.013183436735835177
-0.0001263878125,0.9238043410067714,0.013522876325665099
-0.0001263678125,0.9214584451364887,0.01250455755617348
-0.0001263478125,0.9301717726546885,0.012504557556173789
-0.0001263278125,0.9328527965064392,0.012843997146004173
-0.0001263078125,0.9549712432833771,0.014880634684986483
-0.0001262878125,0.9278258767844045,0.012843997146004173
-0.0001262678125,0.9328527965064392,0.012843997146004173
-0.0001262478125,0.9499443235613603,0.014541195095156716
-0.0001262278125,0.9449174038393274,0.013522876325665716
-0.0001262078125,0.9439120198949209,0.0138623159154961
-0.0001261878125,0.9509497075057737,0.014201755505327103
-0.0001261678125,0.9543009873204635,0.014541195095157642
-0.0001261478125,0.9368743322840681,0.013183436735834868
-0.0001261278125,0.9362040763211357,0.013183436735835177
-0.0001261078125,0.9475984276910808,0.013862315915496255
-0.0001260878125,0.9747437941900805,0.013862315915496873
-0.0001260678125,0.9747437941900805,0.014541195095157642
-0.00012604781250000001,0.9606684189683834,0.013183436735835486
-0.0001260278125,0.9643548267645354,0.013183436735835177
-0.0001260078125,0.9599981630054387,0.013862315915496255
-0.0001259878125,0.9603332909869062,0.013183436735835486
-0.0001259678125,0.9586576510795598,0.01386231591549641
-0.0001259478125,0.9536307313575252,0.014201755505326949
-0.0001259278125,0.9509497075057805,0.012843997146004791
-0.0001259078125,0.9693817464865744,0.014201755505326949
-0.0001258878125,0.9693817464865762,0.013183436735835177
-0.0001258678125,0.9713925143753799,0.013522876325665562
-0.0001258478125,0.9509497075057721,0.013522876325665562
-0.0001258278125,0.9656953386904246,0.014541195095157333
-0.0001258078125,0.977424818041817,0.014201755505327257
-0.0001257878125,0.9412309960431838,0.014880634684988027
-0.0001257678125,0.951619963468699,0.014201755505326485
-0.0001257478125,0.9264853648585256,0.013183436735834868
-0.0001257278125,0.9181071653217986,0.01454119509515548
-0.0001257078125,0.9194476772476647,0.01216511796634325
-0.0001256878125,0.899339998359526,0.013183436735834868
-0.0001256678125,0.9150910134885831,0.01318343673583456
-0.0001256478125,0.9238043410067726,0.012843997146004173
-0.0001256278125,0.9164315254144584,0.01352287632566587
-0.0001256078125,0.9238043410067738,0.013862315915495638
-0.0001255878125,0.9264853648585256,0.01250455755617348
-0.0001255678125,0.9070479419333148,0.012843997146004173
-0.0001255478125,0.9057074300074375,0.012843997146004637
-0.0001255278125,0.9010156382668717,0.013862315915496255
-0.0001255078125,0.8923023107486706,0.012843997146003865
-0.0001254878125,0.8842592391934152,0.012165117966342787
-0.0001254678125,0.8762161676381566,0.011486238786682017
-0.0001254478125,0.8768864236010918,0.012165117966342941
-0.0001254278125,0.8715243758975882,0.01250455755617348
-0.0001254078125,0.863146176360859,0.012504557556172862
-0.0001253878125,0.8621407924164526,0.011825678376512093
-0.00012536781250000001,0.8450492653615347,0.011825678376512093
-0.0001253478125,0.8443790093985729,0.011486238786680937
-0.0001253278125,0.8098608273072682,0.01046792001718932
-0.0001253078125,0.8125418511590315,0.010467920017189937
-0.0001252878125,0.8239362025289675,0.011146799196850861
-0.0001252678125,0.8148877470293051,0.0114862387866814
-0.0001252478125,0.7920990442894019,0.011146799196850707
-0.0001252278125,0.7870721245673673,0.011146799196850707
-0.0001252078125,0.793104428233797,0.010807359607020322
-0.0001251878125,0.7770182851232823,0.011146799196850089
-0.0001251678125,0.752889070457516,0.009789040837527933
-0.0001251478125,0.7247383200141148,0.009789040837527933
-0.0001251278125,0.7311057516620303,0.009789040837528087
-0.0001251078125,0.7485324066984094,0.010128480427358472
-0.0001250878125,0.753894454401911,0.009110161657866853
-0.0001250678125,0.7267490879029237,0.009789040837527933
-0.0001250478125,0.6996037214039162,0.008431282478206393
-0.0001250278125,0.6908903938857296,0.009789040837527933
-0.0001250078125,0.6972578255336402,0.009789040837527933
-0.0001249878125,0.680166298478699,0.009110161657865927
-0.0001249678125,0.6630747714237889,0.008431282478205158
-0.00012494781250000001,0.6416265806097743,0.008770722068035697
-0.0001249278125,0.6429670925356346,0.00809184288837431
-0.0001249078125,0.6285565893324685,0.007752403298543771
-0.0001248878125,0.6241999255733836,0.007752403298544389
-0.0001248678125,0.6392806847394623,0.008431282478205158
-0.0001248478125,0.5990653269631849,0.008431282478205158
-0.0001248278125,0.6034219907222782,0.007412963708713232
-0.0001248078125,0.5913573833893949,0.007752403298543771
-0.0001247878125,0.5836494398155836,0.0074129637087118425
-0.0001247678125,0.5601904811127598,0.006055205349390921
-0.0001247478125,0.5471204898354697,0.007412963708713078
-0.0001247278125,0.5461151058910364,0.006055205349390612
-0.0001247078125,0.5176292274661858,0.006394644939220842
-0.0001246878125,0.5166238435217793,0.006055205349390458
-0.0001246678125,0.5136076916885418,0.007752403298542999
-0.0001246478125,0.48110027748605094,0.006055205349390303
-0.0001246278125,0.48545694124514843,0.005036886579897914
-0.0001246078125,0.48411642931926446,0.004697446990067683
-0.0001245878125,0.4650141343755327,0.005036886579898223
-0.0001245678125,0.4596520866720243,0.0060552053493899945
-0.0001245478125,0.4546251669499896,0.0053763261697289165
-0.0001245278125,0.41943672889569406,0.004697446990067529
-0.0001245078125,0.37888624313796715,0.004697446990067529
-0.0001244878125,0.38123213900825,0.004697446990067529
-0.0001244678125,0.3802267550638435,0.005036886579897914
-0.0001244478125,0.38123213900825015,0.00469744699006722
-0.0001244278125,0.381567266989719,0.004018567810406451
-0.0001244078125,0.35006523673160267,0.003679128220575603
-0.0001243878125,0.3101850069367943,0.004018567810406142
-0.0001243678125,0.30582834317769586,0.003339688630744755
-0.0001243478125,0.3061634711591662,0.0033396886307450638
-0.0001243278125,0.30951475097385606,0.004018567810406142
-0.0001243078125,0.2739911849381218,0.0036791282205748312
-0.0001242878125,0.2669534973272764,0.0030002490409140616
-0.00012426781250000001,0.2237219877177782,0.0019819302714224442
-0.0001242478125,0.2096466124960534,0.0019819302714218267
-0.0001242278125,0.20596020469989462,0.0016424906815912875
-0.0001242078125,0.22070583588450896,0.0023213698612526744
-0.0001241878125,0.1905443175523088,0.002321369861252057
-0.0001241678125,0.17780945425648764,0.0009636115019299004
-0.0001241478125,0.15401536757217557,0.0013030510917609026
-0.0001241278125,0.1456371680354511,0.001981930271421981
-0.0001241078125,0.10977847401824316,0.00028473232226882203
-0.0001240878125,0.09771386668536221,0.0006241719120992069
-0.0001240678125,0.09067617907451367,0.0006241719120992069
-0.0001240478125,0.08799515522274874,0.000963611501928048
-0.0001240278125,0.07492516394545996,-0.001073026037053952
-0.0001240078125,0.06487132450139518,-0.00039414685739318244
-0.0001239878125,0.03873134194679003,-0.0010730260370536435
-0.0001239678125,0.02029930296599623,0.0002847323222685133
-0.0001239478125,-0.005840679588616387,-0.002430784396377035
-0.0001239278125,-0.02829425434702467,-0.002430784396376726
-0.0001239078125,-0.021591694717645108,-0.0017519052167156478
-0.0001238878125,-0.04303988553166673,-0.002091344806546033
-0.0001238678125,-0.0400237336984473,-0.0017519052167156478
-0.0001238478125,-0.04203450158727641,-0.0024307843963764174
-0.0001238278125,-0.057785516716326916,-0.0017519052167159566
-0.0001238078125,-0.09230369880763167,-0.002430784396377035
-0.0001237878125,-0.09163344284471629,-0.0027702239862077284
-0.0001237678125,-0.11676804145488387,-0.0027702239862088087
-0.0001237478125,-0.12916777676923608,-0.005146301115022583
-0.0001237278125,-0.14491879189828294,-0.0037885427556993458
-0.0001237078125,-0.13989187217624824,-0.0027702239862077284
-0.0001236878125,-0.14558904786124907,-0.003449103165870042
-0.0001236678125,-0.17373979830463732,-0.0044674219353611965
-0.0001236478125,-0.18882055747074133,-0.0044674219353611965
-0.0001236278125,-0.21730643589562293,-0.004806861525192816
-0.0001236078125,-0.2233387395620618,-0.00582518029468397
-0.00012358781250000001,-0.22367386754353077,-0.005485740704853431
-0.0001235678125,-0.22501437946942818,-0.0061646198845143555
-0.0001235478125,-0.2705917849492092,-0.005485740704853277
-0.0001235278125,-0.2722674248565713,-0.005485740704854203
-0.0001235078125,-0.2903643358558952,-0.00650405947434613
-0.0001234878125,-0.30645047896640615,-0.008201257423498825
-0.0001234678125,-0.3319202055580691,-0.007182938654007053
-0.0001234478125,-0.3516927564647388,-0.007861817833668131
-0.0001234278125,-0.3456604527982969,-0.007861817833667205
-0.0001234078125,-0.34834147665005877,-0.006843499064176669
-0.0001233878125,-0.3731409472787632,-0.008201257423498825
-0.0001233678125,-0.39727016194454545,-0.007522378243838982
-0.0001233478125,-0.40263220964805263,-0.009219576192991215
-0.0001233278125,-0.41570220092533683,-0.009898455372651984
-0.0001233078125,-0.4364801357764345,-0.008540697013329672
-0.0001232878125,-0.4488798710907867,-0.008880136603160213
-0.0001232678125,-0.43648013577645417,-0.009559015782821909
-0.0001232478125,-0.464295758238371,-0.009898455372652293
-0.0001232278125,-0.4736793417195024,-0.009898455372652293
-0.0001232078125,-0.48272779721916803,-0.009898455372651984
-0.0001231878125,-0.4817224132747615,-0.0095590157828216
-0.00012316781250000001,-0.50518137197759,-0.010916774142143756
-0.0001231478125,-0.5108785476625789,-0.01159565332180576
-0.0001231278125,-0.5175811072919585,-0.01159565332180576
-0.0001231078125,-0.5598072329570523,-0.011256213731975067
-0.0001230878125,-0.5413751939762693,-0.011256213731975221
-0.0001230678125,-0.5470723696612421,-0.01159565332180576
-0.0001230478125,-0.5490831375500683,-0.012613972091297533
-0.0001230278125,-0.5745528641417107,-0.011935092911636453
-0.0001230078125,-0.5986820788075138,-0.011595653321807304
-0.0001229878125,-0.6268328292508899,-0.013292851270959537
-0.0001229678125,-0.6154384778809446,-0.013971730450620615
-0.0001229478125,-0.6486161480463999,-0.012613972091299077
-0.0001229278125,-0.6610158833607459,-0.013971730450620307
-0.00012290781250000001,-0.6596753714348704,-0.013292851270959537
-0.0001228878125,-0.6667130590457163,-0.014311170040451772
-0.0001228678125,-0.6549835796943021,-0.015329488809943389
-0.0001228478125,-0.6811235622489131,-0.01397173045062185
-0.0001228278125,-0.7019014970999861,-0.015329488809943698
-0.0001228078125,-0.7143012324143382,-0.016008367989604776
-0.0001227878125,-0.7417817268948075,-0.016008367989604314
-0.0001227678125,-0.7431222388206835,-0.014990049220112696
-0.0001227478125,-0.7451330067094958,-0.015668928399774393
-0.0001227278125,-0.7424519828577494,-0.016008367989604776
-0.0001227078125,-0.7518355663388808,-0.016008367989604776
-0.0001226878125,-0.7813268287081686,-0.01634780757943609
-0.0001226678125,-0.7860186204487281,-0.017026686759096857
-0.0001226478125,-0.7769701649490698,-0.017026686759096857
-0.0001226278125,-0.7746242690787948,-0.015668928399774393
-0.0001226078125,-0.8031101475036578,-0.01634780757943547
-0.0001225878125,-0.8021047635592705,-0.01668724716926678
-0.0001225678125,-0.8242232103362125,-0.01736612634892755
-0.0001225478125,-0.8228826984103366,-0.01736612634892755
-0.0001225278125,-0.8158450107994881,-0.01634780757943578
-0.0001225078125,-0.8195314185956453,-0.016687247169266162
-0.00012248781250000001,-0.8510334488537292,-0.01736612634892724
-0.0001224678125,-0.8671195919642588,-0.016687247169266315
-0.0001224478125,-0.8604170323348792,-0.017026686759096857
-0.0001224278125,-0.8771734314083293,-0.018384445118418087
-0.0001224078125,-0.8701357437974861,-0.016687247169266624
-0.0001223878125,-0.8748275355380518,-0.017705565938758244
-0.0001223678125,-0.8580711364646137,-0.017026686759097475
-0.0001223478125,-0.8986216222223601,-0.01838444511841963
