samples/acq3467.csv

#Digilent WaveForms Oscilloscope Acquisition
#Device Name: Discovery2
#Serial Number: SN:210321AD996C
#Date Time: 2025-12-07 12:58:45.422
#Sample rate: 5e+07Hz
#Samples: 8192
#Trigger: Source: Channel 1 Type: Edge Condition: Rising Level: 0 V Hyst.: Auto HoldOff: 0 s
#Channel 1: Range: 500 mV/div Offset: 0 V Sample Mode: Average
#Channel 2: Range: 500 mV/div Offset: 0 V Sample Mode: Average
#Wavegen Channel 1: Running
#Mode: Custom
#Type: noisy
#Frequency: 117 kHz
#Period: 8.547008547 us
#Amplitude: 1 V
#Offset: 0 V
#Phase: 0 °

Time (s),Channel 1 (V),Channel 2 (V)
-0.00012899548387096776,-0.5437210898465507,0.0043580074002368355
-0.00012897548387096774,-0.5092029077552381,0.00367912822057514
-0.00012895548387096775,-0.517916235273412,0.003339688630745218
-0.00012893548387096776,-0.48339805318212287,0.004358007400236372
-0.00012891548387096774,-0.4636255022754227,0.006055205349390303
-0.00012889548387096775,-0.4508906389796015,0.006055205349390303
-0.00012887548387096774,-0.45055551099812413,0.005036886579897914
-0.00012885548387096775,-0.4415070554984593,0.004697446990067838
-0.00012883548387096776,-0.4270965522952932,0.0053763261697289165
-0.00012881548387096774,-0.41804809679561816,0.005715765759559764
-0.00012879548387096775,-0.3992809298333554,0.006055205349390303
-0.00012877548387096773,-0.39727016194453996,0.005715765759559919
-0.00012875548387096774,-0.39659990598158634,0.006055205349390458
-0.00012873548387096775,-0.36141146792734363,0.006394644939220997
-0.00012871548387096774,-0.3309148216136314,0.007412963708711225
-0.00012869548387096775,-0.30745586291082194,0.0053763261697296885
-0.00012867548387096776,-0.3258879018916074,0.007073524118881612
-0.00012865548387096774,-0.3131530385957812,0.006734084529052
-0.00012863548387096775,-0.29639663952233225,0.007412963708713078
-0.00012861548387096774,-0.30443971107755724,0.0057157657595602275
-0.00012859548387096775,-0.26690537715303897,0.0063946449392213054
-0.00012857548387096776,-0.2454571863390244,0.007073524118882384
-0.00012855548387096774,-0.23004129919143768,0.0077524032985431535
-0.00012853548387096775,-0.22266848359912353,0.007073524118882384
-0.00012851548387096776,-0.1968636290260122,0.006734084529051845
-0.00012849548387096774,-0.19451773315571397,0.007412963708713078
-0.00012847548387096775,-0.18882055747074133,0.007412963708713078
-0.00012845548387096774,-0.16703723867521827,0.006734084529052926
-0.00012843548387096775,-0.13452982447274645,0.008091842888374619
-0.00012841548387096776,-0.1439134079538778,0.008431282478205158
-0.00012839548387096774,-0.12782726484335802,0.007752403298544234
-0.00012837548387096775,-0.12447598502866822,0.008770722068035851
-0.00012835548387096773,-0.12280034512128325,0.0074129637087146216
-0.00012833548387096775,-0.07956883551179939,0.009110161657866853
-0.00012831548387096776,-0.06783935616038514,0.009789040837527933
-0.00012829548387096774,-0.061807052493916714,0.00978904083752886
-0.00012827548387096775,-0.03533194195787139,0.010807359607019396
-0.00012825548387096776,-0.017570158940023617,0.009449601247697857
-0.00012823548387096774,-0.00215427179242105,0.010128480427358935
-0.00012821548387096775,0.02968288644713189,0.010807359607020013
-0.00012819548387096774,0.01828853507719577,0.010128480427359862
-0.00012817548387096775,0.034039550206242476,0.011486238786680937
-0.00012815548387096776,0.06017953276082278,0.01046792001718932
-0.00012813548387096774,0.05816876487201562,0.011486238786681091
-0.00012811548387096775,0.06654696440873625,0.011146799196850707
-0.00012809548387096773,0.0806223396304492,0.011486238786682326
-0.00012807548387096774,0.09101130705599074,0.01250455755617348
-0.00012805548387096775,0.1084379620923776,0.01250455755617348
-0.00012803548387096774,0.1305564088693527,0.011825678376512093
-0.00012801548387096775,0.144296656109577,0.011825678376512093
-0.00012799548387096776,0.14965870381308066,0.011825678376512093
-0.00012797548387096774,0.17881483820089975,0.013183436735833942
-0.00012795548387096775,0.1892038056264381,0.011146799196850707
-0.00012793548387096774,0.21467353221808075,0.012843997146004791
-0.00012791548387096775,0.20227379690373706,0.013522876325665099
-0.00012789548387096776,0.20864122855164766,0.01250455755617348
-0.00012787548387096774,0.22975429138420533,0.012843997146004173
-0.00012785548387096775,0.23243531523595595,0.012843997146004173
-0.00012783548387096776,0.24986197027234286,0.014201755505326331
-0.00012781548387096774,0.2974501436409696,0.013522876325665716
-0.00012779548387096775,0.3024770633630043,0.013862315915496255
-0.00012777548387096774,0.3048229592332855,0.014541195095157024
-0.00012775548387096775,0.30180680740008115,0.013862315915496255
-0.00012773548387096776,0.33498447756551,0.013862315915496255
-0.00012771548387096774,0.3376655014172824,0.014201755505327412
-0.00012769548387096775,0.3802267550638426,0.015220074274819029
-0.00012767548387096773,0.39329674634112255,0.015559513864649722
-0.00012765548387096774,0.37553496332327785,0.015559513864649877
-0.00012763548387096776,0.3822375229526574,0.015898953454480415
-0.00012761548387096774,0.3996641779890714,0.015559513864649722
-0.00012759548387096775,0.42077724082161916,0.015559513864649877
-0.00012757548387096776,0.44658209539471877,0.015898953454480263
-0.00012755548387096774,0.46333849446819053,0.01623839304431142
-0.00012753548387096775,0.47104643804197704,0.016917272223972497
-0.00012751548387096774,0.4700410540976007,0.016577832634144272
-0.00012749548387096775,0.5042241082074213,0.019293349352786735
-0.00012747548387096776,0.5048943641703593,0.017935590993464576
-0.00012745548387096774,0.5052294921518238,0.01793559099346365
-0.00012743548387096775,0.5002025724297914,0.016917272223972497
-0.00012741548387096776,0.5320397306693444,0.01793559099346411
-0.00012739548387096774,0.5511420256131047,0.01827503058329527
-0.00012737548387096775,0.5632066329459879,0.01827503058329527
-0.00012735548387096774,0.5789576480750481,0.018953909762957584
-0.00012733548387096775,0.5910222554079255,0.019972228532448587
-0.00012731548387096776,0.5903519994449875,0.019632788942618044
-0.00012729548387096774,0.5957140471484984,0.0206511077121092
-0.00012727548387096775,0.6061030145740367,0.018614470173125966
-0.00012725548387096774,0.6305673572212795,0.020990547301939583
-0.00012723548387096775,0.6265458214436587,0.019632788942618506
-0.00012721548387096776,0.637605044832135,0.020651107712110126
-0.00012719548387096774,0.6486642682206348,0.019632788942620206
-0.00012717548387096775,0.6691070750902324,0.02200886607143259
-0.00012715548387096776,0.6670963072014193,0.021329986891771822
-0.00012713548387096774,0.6915606498486626,0.0220088660714329
-0.00012711548387096775,0.6861986021451589,0.0220088660714329
-0.00012709548387096774,0.6922309058116302,0.02200886607143321
-0.00012707548387096775,0.721722168180884,0.022348305661263442
-0.00012705548387096776,0.7156898645144424,0.0220088660714329
-0.00012703548387096774,0.7304354956990927,0.022687745251094904
-0.00012701548387096775,0.7492026626613555,0.02404550361041706
-0.00012699548387096773,0.7609321420127921,0.0230271848409256
-0.00012697548387096774,0.7796993089750407,0.023706064020585907
-0.00012695548387096775,0.7672995736606886,0.022687745251094286
-0.00012693548387096774,0.7947800681411769,0.022687745251094595
-0.00012691548387096775,0.8162282589551848,0.0230271848409256
-0.00012689548387096776,0.8232659465660301,0.024384943200247138
-0.00012687548387096774,0.8142174910663629,0.02370606402058637
-0.00012685548387096775,0.8055041635481694,0.02370606402058637
-0.00012683548387096774,0.839352089676544,0.025063822379907907
-0.00012681548387096775,0.8309738901398179,0.02370606402058683
-0.00012679548387096776,0.8189092828069346,0.024724382790078447
-0.00012677548387096774,0.8363359378433188,0.02404550361041737
-0.00012675548387096775,0.8246064584919099,0.024384943200247755
-0.00012673548387096776,0.8584543846202767,0.02540326196973937
-0.00012671548387096774,0.8564436167314907,0.024724382790078138
-0.00012669548387096775,0.8859348791007609,0.02404550361041706
-0.00012667548387096774,0.8822484713046025,0.025403261969739525
-0.00012665548387096775,0.8845943671748867,0.02506382237990976
-0.00012663548387096776,0.8899564148783904,0.026421580739231915
-0.00012661548387096774,0.8762161676381572,0.02676102032906184
-0.00012659548387096775,0.8788971914899091,0.025063822379909142
-0.00012657548387096773,0.8819133433231452,0.02574270155957022
-0.00012655548387096775,0.8973292304707243,0.025403261969739986
-0.00012653548387096776,0.9261502368770566,0.02574270155957053
-0.00012651548387096774,0.9227989570623573,0.025742701559570837
-0.00012649548387096775,0.9140856295441743,0.026082141149400606
-0.00012647548387096776,0.9281610047658648,0.024724382790079064
-0.00012645548387096774,0.9375445882470141,0.02506382237990945
-0.00012643548387096775,0.9532956033760561,0.02574270155957053
-0.00012641548387096774,0.9465930437466482,0.02608214114939968
-0.00012639548387096775,0.9187774212847455,0.024384943200248217
-0.00012637548387096776,0.9405607400802292,0.025403261969739833
-0.00012635548387096774,0.9261502368770471,0.025063822379910068
-0.00012633548387096775,0.9157612694515135,0.026082141149401224
-0.00012631548387096773,0.9536307313575227,0.025742701559570837
-0.00012629548387096774,0.9509497075057705,0.026082141149400915
-0.00012627548387096775,0.9472632997096118,0.025403261969739833
-0.00012625548387096774,0.9482686836540222,0.02506382237990945
-0.00012623548387096775,0.9516199634687147,0.025403261969739525
-0.00012621548387096776,0.9610035469498419,0.024724382790078756
-0.00012619548387096774,0.9603332909869052,0.0247243827900786
-0.00012617548387096775,0.9546361153019326,0.025063822379909142
-0.00012615548387096774,0.9472632997096194,0.025063822379908833
-0.00012613548387096775,0.9556414992463474,0.024724382790078447
-0.00012611548387096776,0.9720627703383274,0.024724382790078447
-0.00012609548387096774,0.9599981630054321,0.024724382790078447
-0.00012607548387096775,0.9526253474131179,0.024724382790078447
-0.00012605548387096776,0.9673709785977529,0.024384943200247908
-0.00012603548387096774,0.95229021943165,0.0247243827900786
-0.00012601548387096775,0.9553063712648708,0.025063822379909142
-0.00012599548387096774,0.9563117552092728,0.025063822379908833
-0.00012597548387096775,0.9502794515428449,0.024724382790078908
-0.00012595548387096776,0.9744086662086113,0.02574270155957053
-0.00012593548387096774,0.9874786574859058,0.024384943200247755
-0.00012591548387096775,0.983792249689747,0.024384943200247755
-0.00012589548387096773,0.9415661240246298,0.025742701559569602
-0.00012587548387096775,0.9341933084323112,0.024724382790078294
-0.00012585548387096776,0.9244745969697109,0.024384943200247755
-0.00012583548387096774,0.9435768919134595,0.024724382790078447
-0.00012581548387096775,0.952625347413117,0.024724382790078447
-0.00012579548387096776,0.950614579524304,0.024724382790078447
-0.00012577548387096774,0.9325176685249683,0.023706064020586677
-0.00012575548387096775,0.9288312607288095,0.024384943200247755
-0.00012573548387096774,0.9442471478763749,0.02472438279007752
-0.00012571548387096775,0.9281610047658716,0.02370606402058637
-0.00012569548387096776,0.9288312607288095,0.02370606402058637
-0.00012567548387096774,0.9254799809141264,0.02472438279007752
-0.00012565548387096775,0.9345284364137848,0.02370606402058637
-0.00012563548387096773,0.9348635643952298,0.024384943200247138
-0.00012561548387096774,0.9083884538591869,0.023706064020585598
-0.00012559548387096775,0.8959887185448348,0.0220088660714329
-0.00012557548387096774,0.9124099896368009,0.02370606402058575
-0.00012555548387096775,0.8889510309339805,0.02302718484092483
-0.00012553548387096776,0.8835889832304769,0.022687745251094286
-0.00012551548387096774,0.8782269355269622,0.022348305661263747
-0.00012549548387096775,0.8591246405832303,0.022687745251094286
-0.00012547548387096774,0.8514166970094601,0.022687745251094595
-0.00012545548387096775,0.8732000158049266,0.02302718484092498
-0.00012543548387096776,0.8571138726944156,0.02302718484092498
-0.00012541548387096774,0.8279577383066262,0.022687745251094595
-0.00012539548387096775,0.85543823278707,0.02302718484092498
-0.00012537548387096776,0.8427033694912487,0.021329986891772283
-0.00012535548387096774,0.8252767144548485,0.02200886607143336
-0.00012533548387096775,0.8259469704177864,0.02302718484092498
-0.00012531548387096774,0.8155580029922449,0.022348305661261742
-0.00012529548387096775,0.8172336428995783,0.02031166812228005
-0.00012527548387096776,0.7937746841967499,0.021669426481602205
-0.00012525548387096774,0.7719913654012568,0.019972228532449357
-0.00012523548387096775,0.7729967493456638,0.021329986891771513
-0.00012521548387096773,0.780704692919466,0.020651107712109817
-0.00012519548387096774,0.794109812178208,0.02031166812227974
-0.00012517548387096776,0.7699805975124416,0.020990547301940818
-0.00012515548387096774,0.7629429099015893,0.021669426481600352
-0.00012513548387096775,0.7622726539386426,0.019632788942618197
-0.00012511548387096776,0.7425001030319819,0.019972228532448587
-0.00012509548387096774,0.720381656255002,0.020651107712109974
-0.00012507548387096775,0.7019496172742081,0.02031166812227943
-0.00012505548387096774,0.701279361311274,0.0209905473019402
-0.00012503548387096775,0.7059711530518366,0.02031166812227928
-0.00012501548387096776,0.7036252571815538,0.01997222853244874
-0.00012499548387096774,0.6808365544416498,0.02065110771210951
-0.00012497548387096775,0.6774852746269615,0.01997222853244874
-0.00012495548387096776,0.6580478517017608,0.019632788942618197
-0.00012493548387096774,0.6557019558314607,0.019632788942617427
-0.00012491548387096775,0.6396158127209498,0.01827503058329527
-0.00012489548387096774,0.6419617085912181,0.018614470173126892
-0.00012487548387096775,0.6248701815363051,0.01963278894261789
-0.00012485548387096776,0.6185027498883945,0.019293349352787353
-0.00012483548387096774,0.5906871274264522,0.01861447017312535
-0.00012481548387096775,0.5809684159638518,0.01725671181380319
-0.00012479548387096774,0.5786225200935295,0.018275030583294653
-0.00012477548387096775,0.5363963944284633,0.017596151403633884
-0.00012475548387096776,0.5491312577242845,0.017596151403633884
-0.00012473548387096774,0.5330451146137732,0.018953909762955422
-0.00012471548387096775,0.5407530581875493,0.017596151403634193
-0.00012469548387096776,0.5253371710399832,0.018275030583294962
-0.00012467548387096774,0.4931648848189348,0.01725671181380319
-0.00012465548387096775,0.4824407894119275,0.01725671181380319
-0.00012463548387096774,0.45965208667201923,0.01623839304431111
-0.00012461548387096775,0.4516090151167664,0.016238393044310802
-0.00012459548387096776,0.44926311924648354,0.015559513864649722
-0.00012457548387096774,0.4318364642100769,0.016917272223971727
-0.00012455548387096775,0.40569648165549654,0.015220074274819029
-0.00012453548387096773,0.3892752105635214,0.015220074274819646
-0.00012451548387096774,0.4026803298222704,0.015898953454480877
-0.00012449548387096775,0.393967002304077,0.016917272223972497
-0.00012447548387096774,0.3718485555270863,0.01657783263413964
-0.00012445548387096775,0.3410167812319517,0.014201755505327103
-0.00012443548387096776,0.3353196055469817,0.014541195095157488
-0.00012441548387096774,0.3366601174728541,0.015559513864649413
-0.00012439548387096775,0.3333088376581643,0.014880634684988335
-0.00012437548387096774,0.3118606468441217,0.015559513864648487
-0.00012435548387096775,0.2917529679559784,0.014201755505326485
-0.00012433548387096776,0.26159144962377034,0.013183436735834868
-0.00012431548387096774,0.255559145957301,0.013862315915494711
-0.00012429548387096775,0.22807865147685724,0.012165117966342787
-0.00012427548387096776,0.23478121110623681,0.012843997146003865
-0.00012425548387096774,0.2099817404775207,0.013522876325665099
-0.00012423548387096775,0.20227379690373418,0.01250455755617348
-0.00012421548387096774,0.16607997490507204,0.013183436735833325
-0.00012419548387096775,0.17043663866416206,0.011486238786681863
-0.00012417548387096776,0.1600476712386237,0.01250455755617348
-0.00012415548387096774,0.15435049555364622,0.01216511796634325
-0.00012413548387096775,0.14932357583161154,0.013183436735834868
-0.00012411548387096773,0.13189692079519663,0.012165117966341552
-0.00012409548387096775,0.10977847401824942,0.010807359607020322
-0.00012407548387096776,0.09938950659271106,0.0114862387866814
-0.00012405548387096774,0.07794131577868274,0.011146799196851324
-0.00012403548387096775,0.07358465201957032,0.011825678376511476
-0.00012401548387096776,0.03470980616918653,0.010467920017189937
-0.00012399548387096774,0.020634430947458347,0.009449601247697394
-0.00012397548387096775,0.005218543799885347,0.009789040837527933
-0.00012395548387096774,0.004213159855477345,0.00944960124769693
-0.00012393548387096775,0.003542903892536341,0.009110161657866545
-0.00012391548387096776,-0.0038299116997811814,0.009110161657866545
-0.00012389548387096774,-0.017905286921490154,0.00944960124769724
-0.00012387548387096775,-0.023937590587929023,0.00944960124769724
-0.00012385548387096773,-0.06247730845688118,0.008770722068035234
-0.00012383548387096774,-0.06482320432716525,0.008091842888374156
-0.00012381548387096775,-0.06985012404919994,0.007412963708713078
-0.00012379548387096774,-0.08828216303002162,0.008431282478203923
-0.00012377548387096775,-0.10973035384404417,0.007073524118882384
-0.00012375548387096776,-0.14860519969444563,0.007073524118882384
-0.00012373548387096774,-0.15597801528677765,0.006394644939221151
-0.00012371548387096775,-0.18044235793401306,0.006734084529051691
-0.00012369548387096774,-0.17541543821200903,0.006734084529051073
-0.00012367548387096775,-0.21160926021064527,0.0060552053493899945
-0.00012365548387096776,-0.21831181984002482,0.0053763261697289165
-0.00012363548387096774,-0.22132797167325613,0.006394644939220379
-0.00012361548387096775,-0.23138181111732092,0.00571576575955961
-0.00012359548387096776,-0.24411667441314208,0.004697446990067992
-0.00012357548387096774,-0.26489460926422986,0.0060552053493899945
-0.00012355548387096775,-0.25584615376456743,0.0053763261697289165
-0.00012353548387096774,-0.2799753684303525,0.0053763261697289165
-0.00012351548387096775,-0.28835356796707556,0.005376326169728762
-0.00012349548387096776,-0.2937156156705792,0.005036886579898223
-0.00012347548387096774,-0.3108071427255198,0.004018567810405679
-0.00012345548387096775,-0.34364968490947967,0.0030002490409140616
-0.00012343548387096773,-0.35839531609414615,0.0030002490409152963
-0.00012341548387096774,-0.3855406825931245,0.004358007400236064
-0.00012339548387096776,-0.39324862616691103,0.0026608094510833682
-0.00012337548387096774,-0.39559452203721474,0.0023213698612523656
-0.00012335548387096775,-0.41737784083269514,0.001981930271421981
-0.00012333548387096776,-0.4321234720173235,0.001981930271421981
-0.00012331548387096774,-0.4240804004620799,0.002660809451083677
-0.00012329548387096775,-0.44351782338728063,0.003339688630744755
-0.00012327548387096774,-0.46664165410865704,0.0006241719120992069
-0.00012325548387096775,-0.4736793417194972,0.0006241719120995156
-0.00012323548387096776,-0.46228499034955195,0.0013030510917605939
-0.00012321548387096774,-0.4961329164779534,0.0013030510917596677
-0.00012319548387096775,-0.5172459793104893,0.0002847323222685133
-0.00012317548387096776,-0.5205972591251792,0.0002847323222685133
-0.00012315548387096774,-0.5336672504024681,0.0009636115019300548
-0.00012313548387096775,-0.5145649554587364,0.0013030510917605939
-0.00012311548387096774,-0.5534398013091887,0.0006241719120985894
-0.00012309548387096775,-0.5899687512892858,-5.470726756248895e-05
-0.00012307548387096776,-0.5792446558822786,-0.0007335864472235673
-0.00012305548387096774,-0.5936551590854452,-0.0007335864472235673
-0.00012303548387096775,-0.5805851678081551,-0.0007335864472235673
-0.00012301548387096774,-0.6201302696215089,-0.0014124656268834108
-0.00012299548387096775,-0.6161087338438839,0.0002847323222677415
