samples/acq3468.csv

#Digilent WaveForms Oscilloscope Acquisition
#Device Name: Discovery2
#Serial Number: SN:210321AD996C
#Date Time: 2025-12-07 12:58:45.453
#Sample rate: 5e+07Hz
#Samples: 8192
#Trigger: Source: Channel 1 Type: Edge Condition: Rising Level: 0 V Hyst.: Auto HoldOff: 0 s
#Channel 1: Range: 500 mV/div Offset: 0 V Sample Mode: Average
#Channel 2: Range: 500 mV/div Offset: 0 V Sample Mode: Average
#Wavegen Channel 1: Running
#Mode: Custom
#Type: noisy
#Frequency: 117 kHz
#Period: 8.547008547 us
#Amplitude: 1 V
#Offset: 0 V
#Phase: 0 °

Time (s),Channel 1 (V),Channel 2 (V)
-0.00012898063829787235,-0.5232782829769337,-0.005485740704853277
-0.00012896063829787233,-0.5246187949028008,-0.0048068615251925075
-0.00012894063829787234,-0.5142298274772614,-0.005485740704852968
-0.00012892063829787235,-0.501494964181446,-0.004806861525192199
-0.00012890063829787234,-0.49579778849644734,-0.005485740704852505
-0.00012888063829787235,-0.4569229426460459,-0.003788542755699809
-0.00012886063829787233,-0.4394962876096428,-0.0037885427556995
-0.00012884063829787234,-0.4304478321099789,-0.0034491031658694243
-0.00012882063829787235,-0.4180480967956267,-0.004127982345530502
-0.00012880063829787233,-0.41201579312918507,-0.0037885427556996545
-0.00012878063829787235,-0.4180480967956267,-0.0034491031658691156
-0.00012876063829787233,-0.39928092983335295,-0.0031096635760390397
-0.00012874063829787234,-0.3965999059815982,-0.003788542755699809
-0.00012872063829787235,-0.3875514504819358,-0.003788542755699809
-0.00012870063829787233,-0.37783273901930237,-0.0031096635760378046
-0.00012868063829787234,-0.34633070876123684,-0.002430784396376726
-0.00012866063829787235,-0.35537916426089516,-0.0017519052167159566
-0.00012864063829787234,-0.3265581578545456,-0.0027702239862078828
-0.00012862063829787235,-0.30812611887375185,-0.003109663576038422
-0.00012860063829787233,-0.2860076720967614,-0.002091344806546033
-0.00012858063829787234,-0.2555110257830908,-0.001751905216715339
-0.00012856063829787235,-0.23908975469111093,-0.0010730260370542608
-0.00012854063829787233,-0.24110052257989983,-0.001073026037053952
-0.00012852063829787234,-0.2126146441550496,-0.0007335864472235673
-0.00012850063829787235,-0.21998745974736714,0.00028473232226805013
-0.00012848063829787234,-0.22300361158057938,-0.0007335864472237216
-0.00012846063829787235,-0.19384747719277828,-0.0010730260370542608
-0.00012844063829787233,-0.19049619737805987,-0.0010730260370533347
-0.00012842063829787234,-0.1606698070273278,-5.470726756218023e-05
-0.00012840063829787235,-0.14625930382416172,-5.470726756218023e-05
-0.00012838063829787234,-0.14827007171296402,0.0006241719120988982
-0.00012836063829787235,-0.1207895772325078,-5.470726756218023e-05
-0.00012834063829787233,-0.09833600247407207,0.0002847323222700569
-0.00012832063829787234,-0.09397933871496394,0.0019819302714218267
-0.00012830063829787235,-0.06448807634569384,0.0016424906815912875
-0.00012828063829787233,-0.07621755569710092,0.0016424906815909787
-0.00012826063829787234,-0.06247730845687966,0.0013030510917612112
-0.00012824063829787235,-0.06381782038275496,0.002660809451082751
-0.00012822063829787234,-0.04136424562430736,0.0030002490409145248
-0.00012820063829787235,-0.005170423625657704,0.004018567810406142
-0.00012818063829787233,-0.001484015829490866,0.0019819302714229074
-0.00012816063829787234,0.005553671781369109,0.003000249040914216
-0.00012814063829787235,0.03772595800239102,0.003339688630744755
-0.00012812063829787233,0.04375826166885,0.0030002490409143704
-0.00012810063829787234,0.05984440477935365,0.003339688630744755
-0.00012808063829787233,0.08766002724129605,0.004358007400236527
-0.00012806063829787234,0.09268694696332602,0.004018567810405833
-0.00012804063829787235,0.08732489925982237,0.003339688630744755
-0.00012802063829787233,0.11681616162911503,0.004697446990066911
-0.00012800063829787234,0.1268700010731973,0.004018567810406605
-0.00012798063829787235,0.1654097189421298,0.005036886579898223
-0.00012796063829787234,0.16306382307185016,0.005715765759559147
-0.00012794063829787235,0.17244740655298155,0.004697446990067529
-0.00012792063829787233,0.2086412285516574,0.004697446990068764
-0.00012790063829787234,0.21936532395865999,0.006055205349389531
-0.00012788063829787235,0.219700451940129,0.0043580074002368355
-0.00012786063829787233,0.22472737166216838,0.0070735241188820755
-0.00012784063829787234,0.22740839551391898,0.006734084529051691
-0.00012782063829787235,0.26527785741991355,0.00707352411888223
-0.00012780063829787234,0.28236938447486404,0.0074129637087126145
-0.00012778063829787235,0.299125783548313,0.006394644939220997
-0.00012776063829787233,0.3296224298620112,0.007412963708713386
-0.00012774063829787234,0.3376655014172542,0.007752403298543308
-0.00012772063829787235,0.3182280784920534,0.006734084529051691
-0.00012770063829787234,0.3574380523239527,0.007412963708713541
-0.00012768063829787235,0.38156726698971916,0.008431282478205158
-0.00012766063829787233,0.38491854680440407,0.008770722068035542
-0.00012764063829787234,0.3778808591935602,0.008431282478204695
-0.00012762063829787235,0.38123213900825,0.007412963708713078
-0.00012760063829787233,0.4013398178963939,0.008770722068035851
-0.00012758063829787234,0.396983154137315,0.008770722068035851
-0.00012756063829787235,0.43183646421007293,0.008770722068035851
-0.00012754063829787234,0.4532846550241184,0.00911016165786639
-0.00012752063829787235,0.4650141343755327,0.008770722068035851
-0.00012750063829787233,0.4646790063940742,0.009449601247697548
-0.00012748063829787234,0.4764084857454933,0.009789040837528705
-0.00012746063829787235,0.49886206050391485,0.0114862387866814
-0.00012744063829787233,0.5122671797626887,0.009789040837527933
-0.00012742063829787234,0.5216507632438158,0.009789040837527933
-0.00012740063829787235,0.5310343467249472,0.012165117966341706
-0.00012738063829787234,0.5521474095574989,0.010128480427359244
-0.00012736063829787235,0.535055882502581,0.0114862387866814
-0.00012734063829787233,0.5347207545211271,0.011146799196851015
-0.00012732063829787234,0.5514771535945704,0.011486238786681091
-0.00012730063829787235,0.5558338173536671,0.010807359607020013
-0.00012728063829787234,0.5719199604641967,0.011146799196851478
-0.00012726063829787235,0.596719431092901,0.012843997146004173
-0.00012724063829787233,0.6255404374992316,0.012165117966342787
-0.00012722063829787234,0.609454294388731,0.012165117966342632
-0.00012720063829787235,0.6161568540181106,0.011825678376512093
-0.00012718063829787233,0.6600586195905594,0.01250455755617348
-0.00012716063829787234,0.652015548035314,0.012504557556173789
-0.00012714063829787235,0.6660909232570047,0.01318343673583456
-0.00012712063829787234,0.6818419383860718,0.01216511796634325
-0.00012710063829787235,0.7073116649777141,0.013183436735834868
-0.00012708063829787233,0.6875391140710366,0.01250455755617348
-0.00012706063829787234,0.6888796259969177,0.012504557556174098
-0.00012704063829787235,0.7012793613112698,0.013862315915496255
-0.00012702063829787233,0.732111135606433,0.013183436735835023
-0.00012700063829787235,0.7391488232172816,0.013522876325665562
-0.00012698063829787233,0.7585862461425027,0.013183436735836104
-0.00012696063829787234,0.771321109438305,0.014541195095157642
-0.00012694063829787235,0.7425001030319729,0.014541195095157642
-0.00012692063829787233,0.7686400855865757,0.014880634684987718
-0.00012690063829787234,0.7803695649379936,0.014201755505326949
-0.00012688063829787235,0.7998069878631854,0.014201755505326949
-0.00012686063829787234,0.7967908360299758,0.013862315915496873
-0.00012684063829787235,0.8051690355667003,0.015220074274819029
-0.00012682063829787233,0.795785452085568,0.014541195095157333
-0.00012680063829787234,0.7994718598817449,0.014201755505327412
-0.00012678063829787235,0.8430384974727121,0.015220074274819029
-0.00012676063829787233,0.8427033694912445,0.016238393044309875
-0.00012674063829787234,0.8443790093985886,0.014880634684988335
-0.00012672063829787235,0.8547679768241269,0.014880634684988335
-0.00012670063829787234,0.860130024527642,0.015898953454479798
-0.00012668063829787235,0.8695136080087734,0.014541195095157642
-0.00012666063829787233,0.8631461763608693,0.015220074274820573
-0.00012664063829787234,0.8735351437864021,0.016917272223972036
-0.00012662063829787235,0.8715243758975882,0.015898953454480415
-0.00012660063829787234,0.8835889832304876,0.014880634684988953
-0.00012658063829787235,0.9073830699147852,0.01623839304431111
-0.00012656063829787233,0.9067128139518661,0.016238393044311728
-0.00012654063829787234,0.927825876784397,0.01691727222397265
-0.00012652063829787235,0.9164315254144517,0.01725671181380319
-0.00012650063829787233,0.9067128139518469,0.015559513864649722
-0.00012648063829787234,0.9067128139518414,0.015559513864650031
-0.00012646063829787235,0.8946482066189637,0.016238393044310802
-0.00012644063829787234,0.8926374387301567,0.01623839304431142
-0.00012642063829787235,0.9217935731179578,0.016917272223972497
-0.00012640063829787233,0.9164315254144749,0.016917272223973424
-0.00012638063829787234,0.9419012520061016,0.017935590993464267
-0.00012636063829787235,0.9331879244879082,0.01725671181380319
-0.00012634063829787233,0.9398904841173125,0.016917272223973424
-0.00012632063829787234,0.9636845708015992,0.017935590993464576
-0.00012630063829787233,0.9569820111722231,0.017935590993464885
-0.00012628063829787234,0.9643548267645399,0.018275030583295118
-0.00012626063829787235,0.9697168744680434,0.017935590993464576
-0.00012624063829787233,0.9646899547460159,0.017256711813804115
-0.00012622063829787234,0.9750789221715475,0.018275030583294962
-0.00012620063829787235,0.9703871304309839,0.017596151403634193
-0.00012618063829787234,0.958322523098094,0.017596151403633423
-0.00012616063829787235,0.9603332909869078,0.016577832634141802
-0.00012614063829787233,0.9640196987830604,0.01725671181380288
-0.00012612063829787234,0.9553063712648749,0.01691727222397265
-0.00012610063829787235,0.9643548267645374,0.01725671181380319
-0.00012608063829787233,0.9720627703383131,0.017596151403633575
-0.00012606063829787234,0.9563117552092782,0.01725671181380319
-0.00012604063829787235,0.9663655946533476,0.01759615140363373
-0.00012602063829787234,0.9546361153019315,0.017596151403633575
-0.00012600063829787235,0.9522902194316487,0.016917272223972497
-0.00012598063829787233,0.9596630350239643,0.01657783263414211
-0.00012596063829787234,0.9539658593390067,0.01691727222397296
-0.00012594063829787235,0.9811112258379939,0.017935590993464576
-0.00012592063829787234,0.952625347413124,0.017596151403633575
-0.00012590063829787235,0.9660304666718831,0.016917272223972497
-0.00012588063829787233,0.9660304666718602,0.01725671181380288
-0.00012586063829787234,0.9408958680616913,0.01691727222397219
-0.00012584063829787235,0.9258151088955874,0.01623839304431111
-0.00012582063829787233,0.93184741256204,0.016917272223972497
-0.00012580063829787234,0.9408958680616999,0.01691727222397265
-0.00012578063829787235,0.944582275857857,0.017256711813803036
-0.00012576063829787234,0.934193308432318,0.016917272223972497
-0.00012574063829787235,0.9392202281543526,0.016917272223972497
-0.00012572063829787233,0.930842028617639,0.016577832634141802
-0.00012570063829787234,0.9469281717281384,0.01657783263414165
-0.00012568063829787235,0.9375445882470069,0.01623839304431111
-0.00012566063829787233,0.9137505015627158,0.016577832634141802
-0.00012564063829787234,0.93251766852497,0.016577832634141802
-0.00012562063829787233,0.9114046056924118,0.015898953454480415
-0.00012560063829787234,0.9080533258777276,0.015898953454480724
-0.00012558063829787235,0.91710178137739,0.016577832634141802
-0.00012556063829787233,0.9328527965064233,0.01691727222397219
-0.00012554063829787234,0.9154261414700353,0.01657783263414165
-0.00012552063829787235,0.8956535905633656,0.01623839304431111
-0.00012550063829787234,0.8892861589154486,0.016238393044311263
-0.00012548063829787235,0.8815782153416621,0.016577832634141802
-0.00012546063829787233,0.8876105190080812,0.016238393044310184
-0.00012544063829787234,0.8597948965461648,0.015220074274819183
-0.00012542063829787235,0.8514166970094403,0.015559513864649722
-0.00012540063829787233,0.8678379681014082,0.014541195095158877
-0.00012538063829787234,0.8463897772874034,0.015898953454480415
-0.00012536063829787235,0.853092336916783,0.015559513864649877
-0.00012534063829787234,0.8256118424363137,0.015898953454479954
-0.00012532063829787235,0.8179038988625273,0.014880634684988335
-0.00012530063829787233,0.8078500594184451,0.014541195095158568
-0.00012528063829787234,0.7988016039187829,0.015559513864649413
-0.00012526063829787235,0.7900882764005894,0.014880634684988335
-0.00012524063829787233,0.7847262286970845,0.01454119509515795
-0.00012522063829787235,0.7874072525488364,0.015220074274819029
-0.00012520063829787233,0.772996749345662,0.015220074274817794
-0.00012518063829787234,0.7709859814568424,0.013862315915496255
-0.00012516063829787235,0.7562403502722073,0.013862315915496255
-0.00012514063829787233,0.7589213741239551,0.01420175550532664
-0.00012512063829787234,0.7532241984389788,0.013862315915495946
-0.00012510063829787235,0.739483951198757,0.013183436735835177
-0.00012508063829787234,0.7207167842364778,0.012504557556173943
-0.00012506063829787235,0.717030376440319,0.013522876325665562
-0.00012504063829787233,0.7130088406626879,0.01318343673583456
-0.00012502063829787234,0.7113332007553415,0.012843997146004019
-0.00012500063829787235,0.7063062810333067,0.01250455755617348
-0.00012498063829787233,0.7009442333297918,0.01352287632566371
-0.00012496063829787234,0.6912255218671959,0.0114862387866814
-0.00012494063829787235,0.6674314351828984,0.012504557556173017
-0.00012492063829787234,0.6479940122576773,0.011486238786681091
-0.00012490063829787235,0.6463183723503324,0.010807359607020013
-0.00012488063829787233,0.630232229239812,0.010467920017190246
-0.00012486063829787234,0.6278863333695172,0.011486238786680628
-0.00012484063829787235,0.5994004549446541,0.009789040837527933
-0.00012482063829787234,0.6134758301663482,0.01046792001718932
-0.00012480063829787235,0.5930330232967406,0.01046792001718932
-0.00012478063829787233,0.5749361122973846,0.0080918428883757
-0.00012476063829787234,0.5498015136872194,0.009449601247696776
-0.00012474063829787235,0.5424286980949019,0.008431282478205158
-0.00012472063829787233,0.5377369063543291,0.008431282478205775
-0.00012470063829787234,0.5323748586508166,0.009110161657865927
-0.00012468063829787235,0.5075753880221237,0.007752403298544389
-0.00012466063829787234,0.5089158999479851,0.008091842888373692
-0.00012464063829787235,0.5008728283927296,0.006394644939220997
-0.00012462063829787233,0.478754381615753,0.0077524032985431535
-0.00012460063829787234,0.46333849446817543,0.007073524118881767
-0.00012458063829787235,0.4378687678765331,0.00571576575955961
-0.00012456063829787233,0.4459118394317773,0.006055205349390149
-0.00012454063829787235,0.41306929724781744,0.00571576575955961
-0.00012452063829787233,0.3919562344152634,0.006055205349389686
-0.00012450063829787234,0.3932967463411355,0.005376326169729225
-0.00012448063829787235,0.386259058730287,0.006055205349390303
-0.00012446063829787233,0.3845834188229148,0.004697446990068455
-0.00012444063829787234,0.3554272844351239,0.005715765759558838
-0.00012442063829787235,0.3487247248057474,0.004018567810406914
-0.00012440063829787234,0.3416870371948862,0.004358007400236218
-0.00012438063829787235,0.3276116619731891,0.0030002490409140616
-0.00012436063829787233,0.31554705464028393,0.004018567810405525
-0.00012434063829787234,0.2974501436409632,0.0033396886307446006
-0.00012432063829787235,0.2884016881413008,0.0030002490409140616
-0.00012430063829787233,0.255559145957337,0.0016424906815919048
-0.00012428063829787234,0.2676237532902147,0.0023213698612526744
-0.00012426063829787235,0.24986197027235885,0.001642490681591596
-0.00012424063829787234,0.23679197899504975,0.0030002490409132897
-0.00012422063829787235,0.22606788358804247,0.0013030510917605939
-0.00012420063829787233,0.20931148451456763,0.000624171912100133
-0.00012418063829787234,0.18920380562643277,0.0016424906815917506
-0.00012416063829787235,0.17747432627501852,0.0026608094510833682
-0.00012414063829787234,0.1701015106826885,0.001303051091760285
-0.00012412063829787235,0.1499938317945498,0.0006241719120992069
-0.00012410063829787233,0.11380000979585779,0.0009636115019292829
-0.00012408063829787234,0.08531413137100681,0.00028473232226805024
-0.00012406063829787235,0.08363849146366192,-0.0007335864472235673
-0.00012404063829787233,0.09804899466681323,-0.0007335864472235673
-0.00012402063829787234,0.07459003596399465,-0.0007335864472237216
-0.00012400063829787235,0.0729143960566505,-0.0010730260370541065
-0.00012398063829787234,0.04342313368736091,-0.0010730260370544152
-0.00012396063829787235,0.031693654335946675,-0.0014124656268849544
-0.00012394063829787233,0.02633160663240888,-0.001073026037056113
-0.00012392063829787234,-0.008521703440355412,-0.0031096635760378046
-0.00012390063829787235,-0.0225970786620525,-0.0017519052167156478
-0.00012388063829787233,-0.03734270984668968,-0.0027702239862077284
-0.00012386063829787234,-0.03231579012465729,-0.0027702239862077284
-0.00012384063829787233,-0.061807052493962435,-0.002430784396377035
-0.00012382063829787234,-0.085601139178248,-0.0024307843963773438
-0.00012380063829787235,-0.08325524330796516,-0.003109663576038422
-0.00012378063829787233,-0.11140599375137367,-0.002770223986206802
-0.00012376063829787234,-0.11308163365872693,-0.001751905216716574
-0.00012374063829787235,-0.13318931254686564,-0.003788542755699809
-0.00012372063829787234,-0.14324315199094384,-0.0031096635760393485
-0.00012370063829787235,-0.15262673547207523,-0.005146301115022583
-0.00012368063829787233,-0.16569672674937405,-0.005485740704852968
-0.00012366063829787234,-0.16871287858260323,-0.005146301115023201
-0.00012364063829787235,-0.19016106939661787,-0.006504059474345358
-0.00012362063829787233,-0.22601976341383373,-0.005825180294684588
-0.00012360063829787234,-0.24679769826490094,-0.006504059474345358
-0.00012358063829787235,-0.2256846354323553,-0.006504059474345358
-0.00012356063829787234,-0.23942488267259163,-0.005485740704854049
-0.00012354063829787235,-0.26489460926423397,-0.007182938654006744
-0.00012352063829787233,-0.26321896935691486,-0.006843499064176051
-0.00012350063829787234,-0.2923751037447115,-0.006843499064176205
-0.00012348063829787235,-0.31181252666991227,-0.007182938654006744
-0.00012346063829787234,-0.3034343271331897,-0.007182938654007053
-0.00012344063829787235,-0.3158340624475418,-0.007861817833668131
-0.00012342063829787233,-0.34431994087243656,-0.008201257423498207
-0.00012340063829787234,-0.3647627477420424,-0.007522378243838055
-0.00012338063829787235,-0.3811840188340223,-0.008880136603160213
-0.00012336063829787233,-0.40698887340716067,-0.00888013660316083
-0.00012334063829787234,-0.4237452724806068,-0.009559015782821291
-0.00012332063829787235,-0.4344693678876092,-0.008880136603160522
-0.00012330063829787234,-0.41570220092534915,-0.008880136603160676
-0.00012328063829787235,-0.42977757614704626,-0.009898455372652293
-0.00012326063829787233,-0.42843706422120387,-0.010237894962482678
-0.00012324063829787234,-0.46597139814571786,-0.009898455372652756
-0.00012322063829787235,-0.4780360054786011,-0.010916774142144373
-0.00012320063829787233,-0.4924465086817798,-0.010916774142143756
-0.00012318063829787234,-0.4991490683111563,-0.010237894962482987
-0.00012316063829787235,-0.4991490683111563,-0.009898455372652448
-0.00012314063829787234,-0.500154452255578,-0.011256213731975375
-0.00012312063829787235,-0.5313213545321929,-0.011935092911636453
-0.00012310063829787233,-0.5584667210312113,-0.011595653321806995
-0.00012308063829787234,-0.5792446558822766,-0.012953411681128072
-0.00012306063829787235,-0.5748879921231799,-0.011935092911636453
-0.00012304063829787234,-0.5644990246976498,-0.010916774142145145
-0.00012302063829787235,-0.592984903122513,-0.012613972091297842
