samples/acq3444.csv

#Digilent WaveForms Oscilloscope Acquisition
#Device Name: Discovery2
#Serial Number: SN:210321AD996C
#Date Time: 2025-12-07 12:58:41.463
#Sample rate: 5e+07Hz
#Samples: 8192
#Trigger: Source: Channel 1 Type: Edge Condition: Rising Level: 0 V Hyst.: Auto HoldOff: 0 s
#Channel 1: Range: 500 mV/div Offset: 0 V Sample Mode: Average
#Channel 2: Range: 500 mV/div Offset: 0 V Sample Mode: Average
#Wavegen Channel 1: Running
#Mode: Custom
#Type: noisy
#Frequency: 117 kHz
#Period: 8.547008547 us
#Amplitude: 1 V
#Offset: 0 V
#Phase: 0 °

Time (s),Channel 1 (V),Channel 2 (V)
-0.00012899894736842106,-0.5132244435328598,0.0002847323222685133
-0.00012897894736842104,-0.5051813719775918,0.00028473232226789585
-0.00012895894736842105,-0.49546266051499954,-0.0003941468573919476
-0.00012893894736842106,-0.5035057320702514,0.001642490681590361
-0.00012891894736842107,-0.474684725663936,-5.47072675606366e-05
-0.00012889894736842105,-0.4609444784236754,0.0013030510917605939
-0.00012887894736842104,-0.4525662788869566,0.0009636115019289743
-0.00012885894736842105,-0.46295524631248164,-5.470726756218023e-05
-0.00012883894736842106,-0.44418807935021887,-5.470726756218023e-05
-0.00012881894736842107,-0.41838322477710754,0.0009636115019294371
-0.00012879894736842105,-0.41871835275856495,0.0009636115019299004
-0.00012877894736842104,-0.4039727215739046,0.0019819302714213635
-0.00012875894736842105,-0.38352991470429393,0.001303051091760285
-0.00012873894736842106,-0.35638454820530663,0.0006241719120992069
-0.00012871894736842107,-0.3523630124276789,0.0016424906815908243
-0.00012869894736842105,-0.3520278844461975,0.00198193027142229
-0.00012867894736842106,-0.32890405372484843,0.0026608094510830595
-0.00012865894736842104,-0.31683944639194295,0.002321369861252983
-0.00012863894736842105,-0.30309919915171485,0.0030002490409140616
-0.00012861894736842106,-0.2866779280597349,0.004358007400236218
-0.00012859894736842107,-0.28031049641181977,0.0036791282205760664
-0.00012857894736842106,-0.27796460054153005,0.003679128220575449
-0.00012855894736842104,-0.25953256156070686,0.0036791282205757576
-0.00012853894736842105,-0.2364087308393579,0.004018567810406142
-0.00012851894736842106,-0.2256846354323506,0.004358007400236681
-0.00012849894736842107,-0.19786901297043313,0.005715765759558375
-0.00012847894736842106,-0.1767559501378526,0.003679128220575449
-0.00012845894736842104,-0.1801072299525226,0.005036886579898841
-0.00012843894736842105,-0.15664827124969702,0.005715765759559147
-0.00012841894736842106,-0.13955674419477912,0.004697446990067529
-0.00012839894736842107,-0.1264867529174949,0.005376326169728299
-0.00012837894736842105,-0.10838984191814996,0.006734084529051691
-0.00012835894736842104,-0.08392549927088849,0.007412963708712151
-0.00012833894736842105,-0.06750422817892333,0.006394644939220842
-0.00012831894736842106,-0.08359037128943428,0.006055205349390303
-0.00012829894736842107,-0.07621755569711677,0.006734084529051382
-0.00012827894736842105,-0.0688447401047753,0.006734084529051845
-0.00012825894736842106,-0.030975278198797987,0.00707352411888223
-0.00012823894736842104,-0.0259483584767275,0.008431282478204695
-0.00012821894736842105,0.009910335540453176,0.007412963708713078
-0.00012819894736842107,0.027336990576840046,0.008770722068035234
-0.00012817894736842108,0.026666734613910323,0.008431282478205467
-0.00012815894736842106,0.04878518139087234,0.008431282478205158
-0.00012813894736842104,0.05046082129823292,0.008091842888376008
-0.00012811894736842105,0.0668820923902054,0.009789040837527933
-0.00012809894736842106,0.08196285155630942,0.009449601247697394
-0.00012807894736842107,0.08162772357484746,0.008431282478206084
-0.00012805894736842106,0.12083769740673544,0.008770722068035851
-0.00012803894736842104,0.1329023047396165,0.009110161657868088
-0.00012801894736842105,0.12452410520289708,0.010807359607019859
-0.00012799894736842106,0.12720512905464892,0.01046792001718932
-0.00012797894736842107,0.15837203133124972,0.01046792001718932
-0.00012795894736842105,0.1566963914239324,0.00944960124769724
-0.00012793894736842104,0.1747933024232871,0.00978904083752886
-0.00012791894736842105,0.19858738910758184,0.010807359607020168
-0.00012789894736842106,0.21634917212543767,0.011146799196850707
-0.00012787894736842107,0.24885658632792856,0.011486238786681245
-0.00012785894736842105,0.26192657760523946,0.012165117966342787
-0.00012783894736842106,0.24584043449472848,0.01114679919685117
-0.00012781894736842105,0.2572347858646907,0.012165117966342632
-0.00012779894736842106,0.299125783548313,0.011825678376512093
-0.00012777894736842107,0.3162173106032309,0.010807359607020476
-0.00012775894736842105,0.32157935830674045,0.011486238786681709
-0.00012773894736842106,0.31219577482560906,0.012165117966342787
-0.00012771894736842104,0.3229198702326345,0.011486238786682017
-0.00012769894736842105,0.35207600462043565,0.012843997146004173
-0.00012767894736842106,0.37218368350857434,0.012843997146004173
-0.00012765894736842107,0.3745295793788653,0.012504557556173789
-0.00012763894736842106,0.38894008258204,0.012843997146004173
-0.00012761894736842104,0.4194367288957172,0.013522876325664636
-0.00012759894736842105,0.4043559697296275,0.012504557556173789
-0.00012757894736842106,0.42077724082159995,0.01318343673583456
-0.00012755894736842107,0.4579764467646471,0.014880634684986791
-0.00012753894736842105,0.47875438161576706,0.014201755505326949
-0.00012751894736842104,0.46300336648672613,0.01420175550532664
-0.00012749894736842105,0.4720518219863928,0.013862315915496718
-0.00012747894736842106,0.4904838609671866,0.014880634684988335
-0.00012745894736842107,0.5012079563741939,0.015220074274818874
-0.00012743894736842105,0.5119320517812109,0.014880634684988335
-0.00012741894736842106,0.5169589715032455,0.015220074274818874
-0.00012739894736842105,0.5253371710399951,0.01555951386465034
-0.00012737894736842106,0.5668930407421484,0.016917272223972497
-0.00012735894736842107,0.5846548237600042,0.017256711813803036
-0.00012733894736842105,0.5719199604641952,0.016577832634141802
-0.00012731894736842106,0.5937032792596788,0.016577832634141802
-0.00012729894736842104,0.5880061035747028,0.016577832634141802
-0.00012727894736842105,0.586330463667358,0.016577832634141802
-0.00012725894736842106,0.6258755654806974,0.01725671181380288
-0.00012723894736842107,0.6469886283132514,0.017596151403633575
-0.00012721894736842106,0.6446427324429868,0.016917272223972497
-0.00012719894736842104,0.6503399081279632,0.01963278894261619
-0.00012717894736842105,0.6516804200538532,0.0175961514036345
-0.00012715894736842106,0.6841878342563293,0.01895390976295604
-0.00012713894736842107,0.6892147539783765,0.018614470173126275
-0.00012711894736842106,0.6949119296633564,0.01827503058329527
-0.00012709894736842104,0.7183708883661954,0.019293349352787044
-0.00012707894736842105,0.718370888366198,0.018953909762956658
-0.00012705894736842106,0.7240680640511707,0.018953909762956658
-0.00012703894736842107,0.7230626801067642,0.019293349352787044
-0.00012701894736842105,0.7545647103648616,0.01997222853244874
-0.00012699894736842104,0.7545647103648452,0.018275030583294962
-0.00012697894736842105,0.7364677993655462,0.017935590993465193
-0.00012695894736842106,0.7753426452159476,0.019293349352787353
-0.00012693894736842107,0.7803695649379824,0.02031166812227897
-0.00012691894736842105,0.7803695649379946,0.020990547301940356
-0.00012689894736842106,0.8021528837334683,0.019972228532449204
-0.00012687894736842104,0.7847262286970862,0.01895390976295681
-0.00012685894736842105,0.7910936603449968,0.019293349352787353
-0.00012683894736842106,0.7947800681411556,0.01963278894261789
-0.00012681894736842107,0.8014826277705338,0.0206511077121092
-0.00012679894736842106,0.8158931309737125,0.02031166812227943
-0.00012677894736842104,0.8189092828069532,0.021329986891771822
-0.00012675894736842105,0.8393520896765516,0.021669426481602205
-0.00012673894736842106,0.834325169954517,0.020990547301941127
-0.00012671894736842107,0.8544328488426443,0.021669426481601587
-0.00012669894736842106,0.8561084887500082,0.021669426481602205
-0.00012667894736842104,0.8644866882867688,0.02132998689177213
-0.00012665894736842105,0.9000102543224607,0.0220088660714329
-0.00012663894736842106,0.8923023107486743,0.0220088660714329
-0.00012661894736842107,0.9114046056923975,0.02132998689177213
-0.00012659894736842105,0.8906266708413286,0.022348305661263595
-0.00012657894736842104,0.900010254322461,0.021669426481602822
-0.00012655894736842105,0.8963238465263154,0.022348305661263904
-0.00012653894736842106,0.9214584451364887,0.02302718484092498
-0.00012651894736842107,0.9053723020259777,0.02268774525109444
-0.00012649894736842105,0.9073830699147889,0.022348305661263595
-0.00012647894736842106,0.9154261414700406,0.022348305661263595
-0.00012645894736842104,0.931512284580567,0.023027184840925134
-0.00012643894736842105,0.9412309960431674,0.023366624430755673
-0.00012641894736842107,0.9553063712648644,0.022687745251094595
-0.00012639894736842108,0.9231340850438636,0.022008866071433517
-0.00012637894736842106,0.942906635950513,0.022687745251094286
-0.00012635894736842104,0.9519550914501825,0.0220088660714329
-0.00012633894736842105,0.9553063712648708,0.0220088660714329
-0.00012631894736842106,0.9502794515428362,0.0220088660714329
-0.00012629894736842107,0.9593279070424923,0.02268774525109367
-0.00012627894736842106,0.9509497075057721,0.022348305661263595
-0.00012625894736842104,0.9452525318208183,0.0220088660714329
-0.00012623894736842105,0.968711490523635,0.022008866071432747
-0.00012621894736842106,0.9663655946533533,0.021669426481602357
-0.00012619894736842107,0.9469281717281602,0.022348305661262977
-0.00012617894736842105,0.9321825405435008,0.022348305661263595
-0.00012615894736842104,0.9382148442099653,0.02268774525109336
-0.00012613894736842105,0.9603332909869087,0.021669426481602357
-0.00012611894736842106,0.9623440588757226,0.0220088660714329
-0.00012609894736842107,0.9670358506162884,0.022348305661263442
-0.00012607894736842105,0.9623440588757226,0.021329986891771513
-0.00012605894736842106,0.9546361153019362,0.022348305661263133
-0.00012603894736842105,0.9563117552092775,0.02132998689177136
-0.00012601894736842106,0.9546361153019326,0.020990547301940818
-0.00012599894736842107,0.9536307313575256,0.020990547301940818
-0.00012597894736842105,0.9606684189683724,0.02200886607143259
-0.00012595894736842106,0.9506145795243031,0.021329986891771513
-0.00012593894736842104,0.942571507969039,0.020651107712110126
-0.00012591894736842105,0.9318474125620317,0.020651107712110126
-0.00012589894736842106,0.9378797162284733,0.020990547301940665
-0.00012587894736842107,0.9382148442099448,0.021329986891771204
-0.00012585894736842106,0.9442471478763895,0.019293349352787353
-0.00012583894736842104,0.9563117552092765,0.020311668122280357
-0.00012581894736842105,0.9543009873204665,0.021329986891771513
-0.00012579894736842106,0.9610035469498431,0.021329986891771513
-0.00012577894736842107,0.9241394689882753,0.020651107712110744
-0.00012575894736842105,0.9308420286176243,0.020651107712110126
-0.00012573894736842104,0.9372094602655333,0.02132998689177213
-0.00012571894736842105,0.9321825405434903,0.022008866071431973
-0.00012569894736842106,0.9090587098221309,0.01997222853244874
-0.00012567894736842107,0.9194476772476691,0.02031166812227928
-0.00012565894736842105,0.8996751263409952,0.021669426481602205
-0.00012563894736842104,0.9244745969696978,0.02166942648160066
-0.00012561894736842105,0.9100640937665364,0.019972228532449357
-0.00012559894736842106,0.9060425579889086,0.021329986891771513
-0.00012557894736842107,0.9120748616553502,0.02099054730194097
-0.00012555894736842105,0.910734349729468,0.02099054730194097
-0.00012553894736842106,0.8919671827672052,0.021329986891771513
-0.00012551894736842104,0.8939779506560127,0.021329986891771204
-0.00012549894736842105,0.8782269355269708,0.020651107712110126
-0.00012547894736842106,0.8795674474528468,0.020990547301940665
-0.00012545894736842107,0.8728648878234708,0.020651107712110435
-0.00012543894736842106,0.8597948965461686,0.020651107712110126
-0.00012541894736842104,0.8504113130650024,0.0209905473019402
-0.00012539894736842105,0.8168985149181199,0.02031166812227943
-0.00012537894736842106,0.8232659465660305,0.019972228532448892
-0.00012535894736842107,0.8189092828069386,0.021329986891770278
-0.00012533894736842106,0.811871595196083,0.020651107712110126
-0.00012531894736842104,0.8195795387698566,0.019972228532449048
-0.00012529894736842105,0.8014826277705308,0.02031166812227974
-0.00012527894736842106,0.781374948882392,0.020990547301940818
-0.00012525894736842107,0.7726616213642026,0.019293349352788897
-0.00012523894736842105,0.8021528837334782,0.020651107712110126
-0.00012521894736842104,0.7910936603449865,0.019972228532449357
-0.00012519894736842105,0.7796993089750354,0.020651107712109817
-0.00012517894736842106,0.755570094309269,0.01997222853244874
-0.00012515894736842107,0.7492026626613584,0.02031166812227928
-0.00012513894736842105,0.7515485585316342,0.020990547301940356
-0.00012511894736842106,0.7401542071616942,0.019972228532449204
-0.00012509894736842104,0.7411595911060874,0.019632788942617583
-0.00012507894736842105,0.7213870401994177,0.018614470173125966
-0.00012505894736842106,0.7267490879029213,0.019972228532448122
-0.00012503894736842108,0.7056360250703877,0.0186144701731272
-0.00012501894736842106,0.709657560847998,0.017596151403633884
-0.00012499894736842104,0.701614489292725,0.018614470173126584
-0.00012497894736842105,0.6861986021451589,0.019293349352787353
-0.00012495894736842106,0.6771501466454966,0.01895390976295681
-0.00012493894736842107,0.6473237562947669,0.01827503058329589
-0.00012491894736842106,0.6382753007950732,0.017935590993464576
-0.00012489894736842104,0.6319078691471525,0.018275030583294653
-0.00012487894736842105,0.6238647975918933,0.017596151403633423
-0.00012485894736842106,0.6077786544813824,0.016577832634141802
-0.00012483894736842107,0.6141460861292901,0.01691727222397219
-0.00012481894736842105,0.6000707109075923,0.01623839304431111
-0.00012479894736842104,0.5866655916487906,0.016238393044310493
-0.00012477894736842105,0.5464502338725309,0.015559513864650031
-0.00012475894736842106,0.5451097219466549,0.01623839304431111
-0.00012473894736842107,0.5333802425952406,0.014880634684988953
-0.00012471894736842105,0.5079105160035798,0.01420175550532772
-0.00012469894736842106,0.5045592361888916,0.015898953454479645
-0.00012467894736842104,0.5012079563741946,0.014201755505326949
-0.00012465894736842105,0.49182437289306313,0.014201755505326949
-0.00012463894736842107,0.47171669400492444,0.01386231591549641
-0.00012461894736842108,0.44825773530209745,0.01352287632566587
-0.00012459894736842106,0.4532846550241131,0.01250455755617348
-0.00012457894736842104,0.4492631192464735,0.013522876325665253
-0.00012455894736842105,0.4271446724695209,0.012843997146004173
-0.00012453894736842106,0.3926264903782162,0.011825678376512556
-0.00012451894736842107,0.3688324036939138,0.011486238786681709
-0.00012449894736842106,0.3691675316753613,0.012165117966342787
-0.00012447894736842104,0.36045420415715873,0.011146799196850707
-0.00012445894736842105,0.3547570284721836,0.011146799196850707
-0.00012443894736842106,0.3436978050837124,0.011146799196850707
-0.00012441894736842107,0.30817423904801183,0.010807359607020322
-0.00012439894736842105,0.30214193538153516,0.009789040837527933
-0.00012437894736842104,0.2954393757521385,0.00978904083752855
-0.00012435894736842105,0.28002348860456966,0.010467920017188702
-0.00012433894736842106,0.27365605695665907,0.009110161657866545
-0.00012431894736842107,0.26460760145699663,0.009110161657866545
-0.00012429894736842105,0.2451701785317829,0.010128480427358626
-0.00012427894736842106,0.22874890743980297,0.008770722068036469
-0.00012425894736842105,0.24416479458735632,0.009449601247696776
-0.00012423894736842106,0.20193866892226506,0.008431282478205158
-0.00012421894736842107,0.18049047810825045,0.009110161657866236
-0.00012419894736842105,0.19054431755230058,0.008770722068035851
-0.00012417894736842106,0.1597125432571546,0.008770722068035851
-0.00012415894736842104,0.15535587949805876,0.00809184288837431
-0.00012413894736842105,0.16172331114596938,0.007752403298543771
-0.00012411894736842106,0.13323743272110622,0.00809184288837431
-0.00012409894736842107,0.1285456409805297,0.008091842888374464
-0.00012407894736842106,0.10575693824062454,0.008431282478205158
-0.00012405894736842104,0.07961695568603083,0.007752403298542536
-0.00012403894736842105,0.07794131577867269,0.006394644939220842
-0.00012401894736842106,0.0471095414835407,0.006055205349390458
-0.00012399894736842107,0.031358526354491864,0.006734084529051073
-0.00012397894736842105,0.0156075112254284,0.006394644939220997
-0.00012395894736842104,0.013931871318057142,0.0063946449392213054
-0.00012393894736842105,-0.014218879125331547,0.006734084529051073
-0.00012391894736842106,-0.030305022235842506,0.0053763261697289165
-0.00012389894736842107,-0.024942974532338853,0.0057157657595594555
-0.00012387894736842105,-0.04270475755020034,0.0053763261697289165
-0.00012385894736842104,-0.06917986808625984,0.004697446990067529
-0.00012383894736842105,-0.06716910019744977,0.004697446990066911
-0.00012381894736842106,-0.07353653184536035,0.003339688630744755
-0.00012379894736842107,-0.10436830614050638,0.005036886579897451
-0.00012377894736842105,-0.12112470521397585,0.0040185678104062966
-0.00012375894736842106,-0.118778809343693,0.0043580074002368355
-0.00012373894736842104,-0.12849752080630497,0.004018567810405679
-0.00012371894736842105,-0.14424853593534695,0.0030002490409140616
-0.00012369894736842106,-0.16938313454552031,0.004018567810405679
-0.00012367894736842107,-0.1791018460081277,0.0036791282205757576
-0.00012365894736842106,-0.2005500368221609,0.003339688630744755
-0.00012363894736842104,-0.21328490011800127,0.003000249040914988
-0.00012361894736842105,-0.22803053130262962,0.004018567810406142
-0.00012359894736842106,-0.24277616248726466,0.0026608094510839854
-0.00012357894736842107,-0.27394306476387215,0.0019819302714225986
-0.00012355894736842106,-0.2739430647639005,0.0013030510917605939
-0.00012353894736842104,-0.28701305604120175,0.0009636115019295917
-0.00012351894736842105,-0.29271023172618493,0.0006241719120995156
-0.00012349894736842106,-0.32153123813251705,0.0013030510917605939
-0.00012347894736842107,-0.331249949595113,-0.0003941468573913302
-0.00012345894736842105,-0.33594174133568966,-0.00039414685739287377
-0.00012343894736842104,-0.3674437715937849,0.00028473232226789585
-0.00012341894736842105,-0.36409249177910774,-0.00039414685739287377
-0.00012339894736842106,-0.3885568344263432,-0.00039414685739287377
-0.00012337894736842107,-0.3768273550749289,-5.470726756233457e-05
-0.00012335894736842105,-0.3808488908525605,-0.0010730260370545696
-0.00012333894736842106,-0.3969350339630641,-0.001751905216715339
-0.00012331894736842104,-0.41771296881416514,-0.0003941468573934912
-0.00012329894736842105,-0.4344693678876141,-0.0017519052167156478
-0.00012327894736842106,-0.4562526866830977,-0.0017519052167156478
-0.00012325894736842108,-0.44720423118344926,-0.0017519052167156478
-0.00012323894736842106,-0.45792832659045324,-0.003109663576038422
-0.00012321894736842104,-0.48205754125624106,-0.0020913448065463416
-0.00012319894736842105,-0.4934518926261811,-0.0020913448065463416
-0.00012317894736842106,-0.5212675150881063,-0.0024307843963768806
-0.00012315894736842107,-0.5272998187545579,-0.003449103165868189
-0.00012313894736842106,-0.5313213545321929,-0.003788542755699809
-0.00012311894736842104,-0.5189216192178662,-0.002430784396377035
-0.00012309894736842105,-0.5531046733276954,-0.0024307843963773438
-0.00012307894736842106,-0.5732123522158342,-0.003109663576038422
-0.00012305894736842107,-0.5822608077154925,-0.0037885427556991914
-0.00012303894736842105,-0.5923146471595746,-0.0044674219353611965
-0.00012301894736842104,-0.6167789898068233,-0.004127982345530502
