samples/acq3506.csv

#Digilent WaveForms Oscilloscope Acquisition
#Device Name: Discovery2
#Serial Number: SN:210321AD996C
#Date Time: 2025-12-07 12:58:46.671
#Sample rate: 5e+07Hz
#Samples: 8192
#Trigger: Source: Channel 1 Type: Edge Condition: Rising Level: 0 V Hyst.: Auto HoldOff: 0 s
#Channel 1: Range: 500 mV/div Offset: 0 V Sample Mode: Average
#Channel 2: Range: 500 mV/div Offset: 0 V Sample Mode: Average
#Wavegen Channel 1: Running
#Mode: Custom
#Type: noisy
#Frequency: 117 kHz
#Period: 8.547008547 us
#Amplitude: 1 V
#Offset: 0 V
#Phase: 0 °

Time (s),Channel 1 (V),Channel 2 (V)
-0.0001289895035460993,-0.542045449939205,-0.0027702239862077284
-0.00012896950354609929,-0.5175811072919533,-0.002770223986208346
-0.0001289495035460993,-0.5118839316069754,-0.003449103165868498
-0.0001289295035460993,-0.4944572765705964,-0.0020913448065469587
-0.0001289095035460993,-0.47501985364537097,-0.0014124656268846457
-0.0001288895035460993,-0.4575931986089841,-0.0007335864472235673
-0.00012886950354609928,-0.4478744871463714,-0.0010730260370545696
-0.0001288495035460993,-0.4391611596281703,-0.0014124656268849544
-0.0001288295035460993,-0.413691433036528,-0.0014124656268849544
-0.0001288095035460993,-0.41804809679561744,-0.0014124656268848
-0.0001287895035460993,-0.39760528992600974,-0.0010730260370542608
-0.00012876950354609928,-0.4002863137777463,-0.0010730260370527172
-0.0001287495035460993,-0.3821894027784175,0.0006241719120995156
-0.0001287295035460993,-0.35537916426089927,0.0013030510917605939
-0.00012870950354609928,-0.3436496849094559,-5.470726756125408e-05
-0.0001286895035460993,-0.3175097023548974,0.0009636115019295917
-0.0001286695035460993,-0.3392930211503711,0.000284732322268822
-0.0001286495035460993,-0.31181252666989856,0.0006241719120990525
-0.0001286295035460993,-0.2816510083376905,0.0002847323222685133
-0.00012860950354609928,-0.2796402404488751,0.0006241719121004418
-0.0001285895035460993,-0.27896998448592497,0.0019819302714221354
-0.0001285695035460993,-0.2514894900054687,0.0023213698612526744
-0.00012854950354609929,-0.24880846615368676,0.0013030510917612112
-0.0001285295035460993,-0.21697130791414831,0.001981930271421981
-0.0001285095035460993,-0.21060387626623772,0.0030002490409135984
-0.0001284895035460993,-0.19016106939661528,0.003339688630744755
-0.0001284695035460993,-0.18446389371164262,0.003339688630744755
-0.00012844950354609928,-0.18077748591547246,0.0026608094510849117
-0.0001284295035460993,-0.17005339050847626,0.004358007400236372
-0.0001284095035460993,-0.18379363774870436,0.003339688630744755
-0.0001283895035460993,-0.13486495245420596,0.0040185678104062966
-0.0001283695035460993,-0.12313547310279171,0.0043580074002368355
-0.00012834950354609928,-0.09330908275205219,0.004697446990066911
-0.0001283295035460993,-0.10771958595521261,0.00401856781040676
-0.0001283095035460993,-0.10973035384402649,0.0053763261697289165
-0.00012828950354609929,-0.0926388267890807,0.004697446990068455
-0.0001282695035460993,-0.07052038001212783,0.005715765759559764
-0.0001282495035460993,-0.04773167727224767,0.006055205349390149
-0.0001282295035460993,-0.0457209093834114,0.005376326169728762
-0.0001282095035460993,-0.02125656673617598,0.005036886579898223
-0.00012818950354609928,0.011250847466350732,0.007073524118882384
-0.0001281695035460993,0.034374678187696364,0.007073524118881921
-0.0001281495035460993,0.02700186259537884,0.006055205349390303
-0.0001281295035460993,0.04442851763178675,0.007752403298543771
-0.0001281095035460993,0.05883902083494626,0.007752403298543771
-0.00012808950354609928,0.0786115717416457,0.007412963708713695
-0.0001280695035460993,0.1014002744815222,0.008091842888374619
-0.0001280495035460993,0.09335720292626673,0.008431282478205158
-0.00012802950354609928,0.129886152906412,0.008091842888375082
-0.0001280095035460993,0.1409453762948848,0.00877072206803616
-0.0001279895035460993,0.14429665610957457,0.00944960124769724
-0.0001279695035460993,0.15535587949805876,0.008770722068035697
-0.0001279495035460993,0.16172331114596938,0.008431282478205158
-0.00012792950354609928,0.1680907427939115,0.008770722068036469
-0.0001279095035460993,0.19959277305198908,0.009449601247697085
-0.0001278895035460993,0.21701942808837593,0.009110161657866545
-0.00012786950354609929,0.24349453862444276,0.01046792001718932
-0.0001278495035460993,0.24952684229088162,0.01046792001718932
-0.0001278295035460993,0.26460760145698564,0.009789040837528242
-0.0001278095035460993,0.26393734549406356,0.00978904083752886
-0.0001277895035460993,0.28438015236367126,0.011825678376512093
-0.00012776950354609928,0.2937637358448084,0.011146799196850707
-0.0001277495035460993,0.29543937575216384,0.011146799196851015
-0.0001277295035460993,0.3202388463808682,0.011825678376512093
-0.0001277095035460993,0.34068165325049465,0.012165117966343404
-0.0001276895035460993,0.3614595881015713,0.013522876325665562
-0.00012766950354609928,0.3731890674529823,0.012165117966342478
-0.0001276495035460993,0.3638054839718616,0.011825678376512402
-0.0001276295035460993,0.3778808591935587,0.01250455755617348
-0.00012760950354609929,0.4010046899149619,0.011825678376513637
-0.0001275895035460993,0.43753363989506255,0.013522876325664944
-0.0001275695035460993,0.43451748806184315,0.012165117966343404
-0.0001275495035460993,0.4365282559506598,0.013183436735834405
-0.0001275295035460993,0.4435659435615083,0.012165117966342787
-0.00012750950354609928,0.4586467027276442,0.013522876325664944
-0.0001274895035460993,0.4861271972080928,0.012843997146004173
-0.0001274695035460993,0.4968512926151001,0.012843997146004173
-0.0001274495035460993,0.5015430843556746,0.014201755505327875
-0.0001274295035460993,0.5089158999479888,0.015220074274819029
-0.0001274095035460993,0.5236615311326239,0.014201755505327412
-0.0001273895035460993,0.5333802425952379,0.014541195095157642
-0.0001273695035460993,0.5390774182802106,0.014541195095157642
-0.00012734950354609928,0.5595202251498306,0.014201755505327257
-0.0001273295035460993,0.5628715049645212,0.01454119509515795
-0.0001273095035460993,0.5678984246865558,0.015220074274819029
-0.0001272895035460993,0.5947086632040982,0.015898953454480263
-0.0001272695035460993,0.6211837737401475,0.015559513864649722
-0.00012724950354609928,0.6376050448321414,0.016238393044312346
-0.0001272295035460993,0.6446427324429859,0.017596151403633423
-0.0001272095035460993,0.6426319645541719,0.016577832634141802
-0.00012718950354609929,0.6500047801465132,0.016577832634141493
-0.0001271695035460993,0.6724583549049278,0.01623839304431142
-0.0001271495035460993,0.6794960425157731,0.01691727222397219
-0.0001271295035460993,0.69223090581161,0.01725671181380288
-0.0001271095035460993,0.7069765369962451,0.016577832634141802
-0.00012708950354609928,0.7022847452556726,0.017596151403633884
-0.0001270695035460993,0.697257825533643,0.01759615140363373
-0.0001270495035460993,0.7032901292000846,0.01725671181380319
-0.0001270295035460993,0.7120034567182919,0.016238393044311572
-0.0001270095035460993,0.7337867755137755,0.01725671181380319
-0.00012698950354609928,0.7595916300868794,0.01895390976295604
-0.0001269695035460993,0.7384785672543586,0.018275030583295424
-0.0001269495035460993,0.7719913654012563,0.018614470173125966
-0.00012692950354609928,0.7746723892530399,0.018275030583294962
-0.0001269095035460993,0.8081851873999245,0.017935590993465037
-0.0001268895035460993,0.8125418511590192,0.018953909762956196
-0.0001268695035460993,0.8041636516222999,0.018275030583295118
-0.0001268495035460993,0.8192444107884038,0.017935590993464576
-0.00012682950354609928,0.8172336428995722,0.017935590993465193
-0.0001268095035460993,0.798801603918804,0.018614470173125966
-0.0001267895035460993,0.8363359378433295,0.018614470173125966
-0.00012676950354609929,0.8282928662880853,0.018614470173126275
-0.0001267495035460993,0.8447141373800577,0.018953909762956658
-0.0001267295035460993,0.8651569442496654,0.0192933493527872
-0.0001267095035460993,0.8554382327870735,0.01861447017312612
-0.0001266895035460993,0.8631461763608599,0.018953909762956658
-0.00012666950354609928,0.8906266708413259,0.01997222853244874
-0.0001266495035460993,0.8876105190081127,0.01997222853244843
-0.0001266295035460993,0.9013507662483409,0.019293349352787353
-0.0001266095035460993,0.8872753910266344,0.01963278894261789
-0.0001265895035460993,0.8809079593787239,0.019293349352787353
-0.00012656950354609928,0.8892861589154551,0.01827503058329589
-0.0001265495035460993,0.8926374387301516,0.018953909762957275
-0.0001265295035460993,0.9103992217480074,0.02031166812227943
-0.00012650950354609929,0.9368743322840739,0.019293349352787353
-0.0001264895035460993,0.9425715079690477,0.01929334935278766
-0.0001264695035460993,0.9509497075057683,0.01997222853244843
-0.0001264495035460993,0.9576522671351549,0.019972228532449048
-0.0001264295035460993,0.9579873951166239,0.020651107712110126
-0.00012640950354609928,0.9305069006361412,0.019632788942618662
-0.0001263895035460993,0.9150910134885772,0.020311668122279122
-0.0001263695035460993,0.9194476772476738,0.019632788942618044
-0.0001263495035460993,0.9395553561358169,0.019972228532449357
-0.0001263295035460993,0.9341933084323156,0.020651107712110126
-0.00012630950354609928,0.9408958680616811,0.01929334935278797
-0.0001262895035460993,0.9221287010994307,0.019972228532448892
-0.0001262695035460993,0.9305069006361552,0.02031166812227943
-0.00012624950354609928,0.9489389396169529,0.02132998689176997
-0.0001262295035460993,0.9439120198949302,0.019632788942618353
-0.0001262095035460993,0.9653602107089351,0.020311668122279122
-0.0001261895035460993,0.9526253474131281,0.019972228532449048
-0.0001261695035460993,0.9750789221715496,0.020651107712110126
-0.00012614950354609928,0.9539658593389858,0.020311668122280357
-0.0001261295035460993,0.9445822758578731,0.02132998689177105
-0.0001261095035460993,0.9764194340974262,0.02031166812227943
-0.00012608950354609929,0.9821166097823959,0.02099054730193989
-0.0001260695035460993,0.976084306115957,0.01997222853244874
-0.0001260495035460993,0.9613386749313219,0.020651107712109817
-0.0001260295035460993,0.9620089308942515,0.020651107712109665
-0.0001260095035460993,0.9576522671351548,0.019632788942618044
-0.00012598950354609928,0.9603332909869096,0.01997222853244874
-0.0001259695035460993,0.9623440588757197,0.01997222853244874
-0.0001259495035460993,0.9559766272278092,0.01997222853244874
-0.0001259295035460993,0.9522902194316576,0.02031166812227943
-0.0001259095035460993,0.9717276423568583,0.02031166812227943
-0.00012588950354609928,0.9827868657453371,0.02031166812228005
-0.0001258695035460993,0.9801058418935739,0.02099054730194051
-0.0001258495035460993,0.9522902194316487,0.02031166812227943
-0.00012582950354609929,0.9526253474131282,0.019972228532449048
-0.0001258095035460993,0.9640196987830617,0.02031166812227897
-0.0001257895035460993,0.9496091955799022,0.019293349352787814
-0.0001257695035460993,0.9633494428201144,0.01997222853244843
-0.0001257495035460993,0.9288312607288095,0.019293349352787353
-0.00012572950354609928,0.9160963974329838,0.019632788942617427
-0.0001257095035460993,0.9174369093588561,0.018953909762956505
-0.0001256895035460993,0.9107343497294765,0.018614470173125966
-0.0001256695035460993,0.9251448529326509,0.020311668122278196
-0.0001256495035460993,0.9271556208214639,0.018953909762956658
-0.00012562950354609928,0.9090587098221407,0.0189539097629582
-0.0001256095035460993,0.9197828052291357,0.020651107712109665
-0.0001255895035460993,0.9036966621186248,0.019632788942618044
-0.00012556950354609928,0.8990048703780694,0.019632788942617736
-0.0001255495035460993,0.9127451176182909,0.019293349352787353
-0.0001255295035460993,0.912074861655353,0.019293349352787353
-0.0001255095035460993,0.9000102543224573,0.019972228532448587
-0.0001254895035460993,0.8845943671748843,0.019632788942618044
-0.00012546950354609928,0.8765512956196173,0.020311668122277887
-0.0001254495035460993,0.8678379681014249,0.018614470173125966
-0.0001254295035460993,0.8614705364535142,0.018614470173125966
-0.00012540950354609929,0.858454384620297,0.01759615140363481
-0.0001253895035460993,0.8638164323237982,0.018614470173125966
-0.0001253695035460993,0.8460546493059424,0.018614470173125966
-0.0001253495035460993,0.8380115777506619,0.017935590993464267
-0.0001253295035460993,0.8088554433628607,0.01725671181380319
-0.00012530950354609928,0.8048339075852248,0.017596151403633884
-0.0001252895035460993,0.7977962199743837,0.017596151403633884
-0.0001252695035460993,0.8071798034555151,0.017596151403633884
-0.0001252495035460993,0.8085203153813828,0.01725671181380334
-0.0001252295035460993,0.789082892456182,0.017596151403633884
-0.00012520950354609928,0.7934395562152645,0.01725671181380319
-0.0001251895035460993,0.775677773197406,0.017256711813803498
-0.0001251695035460993,0.7518836865131086,0.017935590993464576
-0.00012514950354609928,0.73579754340259,0.01623839304431111
-0.0001251295035460993,0.7354624154211243,0.016238393044310958
-0.0001251095035460993,0.7425001030319697,0.015898953454480568
-0.0001250895035460993,0.747862150735465,0.01691727222397188
-0.0001250695035460993,0.717030376440319,0.015559513864649722
-0.00012504950354609928,0.7109980727738596,0.015898953454480415
-0.0001250295035460993,0.6945768016818824,0.015898953454479798
-0.0001250095035460993,0.6841878342563441,0.014541195095157642
-0.0001249895035460993,0.6774852746269477,0.015559513864648796
-0.0001249695035460993,0.6624045154608507,0.014541195095157642
-0.0001249495035460993,0.641626580609774,0.01522007427481872
-0.0001249295035460993,0.6446427324429855,0.01522007427481872
-0.0001249095035460993,0.6419617085912337,0.014541195095157642
-0.00012488950354609928,0.6268809494251076,0.014541195095157024
-0.0001248695035460993,0.6101245503516569,0.01386231591549641
-0.0001248495035460993,0.5896817434820493,0.014201755505326949
-0.0001248295035460993,0.5990653269631735,0.013862315915496255
-0.0001248095035460993,0.5739307283530002,0.013862315915496255
-0.00012478950354609928,0.5813035439453198,0.01352287632566618
-0.0001247695035460993,0.5799630320194319,0.014201755505326485
-0.0001247495035460993,0.5521474095575066,0.013183436735834868
-0.00012472950354609929,0.5414233141504701,0.01386231591549502
-0.0001247095035460993,0.5146130756329635,0.012504557556174098
-0.0001246895035460993,0.513607691688557,0.013862315915495638
-0.0001246695035460993,0.5216507632437982,0.013183436735834714
-0.0001246495035460993,0.4831110453748657,0.012843997146004173
-0.00012462950354609928,0.484116429319271,0.013522876325664018
-0.0001246095035460993,0.481770533448986,0.011825678376512556
-0.0001245895035460993,0.47473284583813746,0.012843997146004173
-0.0001245695035460993,0.45596567887586587,0.0114862387866814
-0.0001245495035460993,0.4552954229129279,0.0114862387866814
-0.00012452950354609928,0.43250672017298064,0.00809184288836829
-0.0001245095035460993,0.38156726698972554,0.0013030510917562718
-0.0001244895035460993,0.39564264221142265,-0.008201257423498825
-0.00012446950354609928,0.3919562344152509,-0.012953411681126374
-0.0001244495035460993,0.3795564991008984,-0.010577334552312445
-0.0001244295035460993,0.3664865078236142,-0.007861817833669366
-0.0001244095035460993,0.34905985278719626,-0.005825180294684588
-0.0001243895035460993,0.3111903908812017,-0.007182938654006744
-0.00012436950354609928,0.3041527032703475,-0.007861817833670293
-0.0001243495035460993,0.301471679418599,-0.010237894962483604
-0.0001243295035460993,0.3061634711591647,-0.01159565332180576
-0.00012430950354609929,0.2749965688825274,-0.009559015782821909
-0.0001242895035460993,0.26594811338286906,-0.009898455372652293
-0.0001242695035460993,0.22037070790308796,-0.01091677414214391
-0.0001242495035460993,0.2146735322180905,-0.010916774142144219
-0.0001242295035460993,0.21132225240340072,-0.01057733455231368
-0.00012420950354609928,0.22137609184745452,-0.010577334552315533
-0.0001241895035460993,0.19925764507050364,-0.012613972091297533
-0.0001241695035460993,0.18082560608970982,-0.011935092911636453
-0.0001241495035460993,0.16809074279387828,-0.012953411681128535
-0.0001241295035460993,0.15803690334980894,-0.012953411681128535
-0.00012410950354609928,0.11078385796264993,-0.013971730450619689
-0.0001240895035460993,0.09804899466683212,-0.012953411681128226
-0.0001240695035460993,0.09268694696332846,-0.012274532501467147
-0.00012404950354609929,0.08799515522274844,-0.01261397209129815
-0.0001240295035460993,0.07459003596398764,-0.01295341168113008
-0.0001240095035460993,0.057498508909077505,-0.016347807579433927
-0.0001239895035460993,0.040742109835603904,-0.014990049220112541
-0.0001239695035460993,0.02029930296599623,-0.014650609630282002
-0.00012394950354609928,0.021304686910365217,-0.014990049220112696
-0.0001239295035460993,-0.020921438754699533,-0.01499004922011285
-0.0001239095035460993,-0.004835295644188574,-0.015329488809943389
-0.0001238895035460993,-0.03131040618025508,-0.016347807579434853
-0.0001238695035460993,-0.03700758186522512,-0.015668928399774084
-0.00012384950354609928,-0.06884474010478886,-0.014990049220113313
-0.0001238295035460993,-0.06482320432716082,-0.015668928399774084
-0.0001238095035460993,-0.060131412586595136,-0.015668928399774084
-0.00012378950354609928,-0.07588242771566134,-0.01600836798960354
-0.0001237695035460993,-0.09464959467791559,-0.014650609630282774
-0.0001237495035460993,-0.09464959467791559,-0.01634780757943547
-0.0001237295035460993,-0.13654059236155877,-0.01770556593875809
-0.0001237095035460993,-0.1405621281391865,-0.01736612634892755
-0.00012368950354609928,-0.14592417584272063,-0.016687247169267398
-0.0001236695035460993,-0.1767559501378578,-0.018045005528589092
-0.0001236495035460993,-0.18815030150780307,-0.01838444511841963
-0.00012362950354609929,-0.2186469478215095,-0.018045005528589557
-0.0001236095035460993,-0.23573847487641963,-0.018723884708250326
-0.0001235895035460993,-0.22769540332116414,-0.020081643067572482
-0.0001235695035460993,-0.25081923404254786,-0.019402763887911866
-0.0001235495035460993,-0.28902382393001136,-0.019742203477742404
-0.00012352950354609928,-0.2883535679670954,-0.020081643067571864
-0.0001235095035460993,-0.31281791061432046,-0.01872388470825048
-0.0001234895035460993,-0.31449355052166533,-0.019063324298081018
-0.0001234695035460993,-0.33594174133569726,-0.019402763887912483
-0.0001234495035460993,-0.3526981404091462,-0.021099961837065178
-0.00012342950354609928,-0.33158507757659433,-0.02042108265740441
-0.0001234095035460993,-0.3352714853727668,-0.02109996183706564
-0.0001233895035460993,-0.3691194115011336,-0.02211828060655726
-0.00012336950354609929,-0.39626477800013993,-0.021778841016726877
-0.0001233495035460993,-0.40363759359245727,-0.02211828060655695
-0.0001233295035460993,-0.4106752812033026,-0.021439401426896182
-0.0001233095035460993,-0.4287721922026452,-0.021439401426896026
-0.0001232895035460993,-0.4425124394428732,-0.021778841016726568
-0.00012326950354609928,-0.4354747518320477,-0.02177884101672626
-0.0001232495035460993,-0.46429575823836644,-0.021439401426896026
-0.0001232295035460993,-0.4636255022754285,-0.021778841016726568
-0.0001232095035460993,-0.48205754125623096,-0.022457720196387337
-0.0001231895035460993,-0.4823926692376998,-0.021778841016726568
-0.0001231695035460993,-0.5058516279405283,-0.023476038965879263
-0.0001231495035460993,-0.5125541875699268,-0.022797159786218955
-0.0001231295035460993,-0.523948538939872,-0.023476038965880033
-0.00012310950354609928,-0.5618180008458722,-0.02381547855571042
-0.0001230895035460993,-0.5490831375500596,-0.02347603896587988
-0.0001230695035460993,-0.5551154412165011,-0.02313659937604934
-0.0001230495035460993,-0.5618180008459009,-0.022797159786219417
-0.0001230295035460993,-0.5996874627518956,-0.024494357735372115
-0.00012300950354609928,-0.6053846384368808,-0.02483379732520219
-0.0001229895035460993,-0.616443861825354,-0.02415491814554111
-0.0001229695035460993,-0.6208005255844508,-0.023476038965880033
-0.00012294950354609929,-0.6365515407135109,-0.02551267650486358
-0.0001229295035460993,-0.6486161480463926,-0.024833797325202807
