samples/acq9999.csv

#Digilent WaveForms Oscilloscope Acquisition
#Device Name: Discovery2
#Serial Number: SN:210321AD996C
#Date Time: 2025-12-08 12:15:27.967
#Sample rate: 5e+07Hz
#Samples: 8192
#Trigger: Source: Channel 1 Type: Edge Condition: Rising Level: 0 V Hyst.: Auto HoldOff: 0 s
#Channel 1: Range: 500 mV/div Offset: 0 V Sample Mode: Average
#Channel 2: Range: 500 mV/div Offset: 0 V Sample Mode: Average
#Wavegen Channel 1: Running
#Mode: Custom
#Type: noisy
#Frequency: 100 kHz
#Period: 10 us
#Amplitude: 1 V
#Offset: 0 V
#Phase: 0 °

Time (s),Channel 1 (V),Channel 2 (V)
-0.00012899945454545456,0.5625363769830497,0.0006241719120992069
-0.00012897945454545454,0.5611958650571967,0.0019819302714210547
-0.00012895945454545455,0.587000719630295,0.000963611501929746
-0.00012893945454545456,0.5843196957785444,0.0006241719120993613
-0.00012891945454545454,0.6020814787964031,0.0013030510917605939
-0.00012889945454545455,0.5930330232967406,0.0013030510917605939
-0.00012887945454545454,0.628556589332477,0.000963611501930209
-0.00012885945454545455,0.6379401728135965,0.0013030510917605939
-0.00012883945454545456,0.6211837737401475,0.0013030510917605939
-0.00012881945454545454,0.6211837737401565,0.001642490681590207
-0.00012879945454545455,0.6409563246468263,-0.0007335864472235673
-0.00012877945454545453,0.6577127237203053,-0.00039414685739102147
-0.00012875945454545454,0.6825121943489996,0.0016424906815905157
-0.00012873945454545455,0.6848580902192825,-5.470726756218023e-05
-0.00012871945454545454,0.7029550012186236,0.0006241719121004418
-0.00012869945454545455,0.7120034567182821,0.001981930271421518
-0.00012867945454545456,0.712338584699751,0.0009636115019303637
-0.00012865945454545454,0.7066414090147788,0.0023213698612522113
-0.00012863945454545455,0.7130088406626894,0.0013030510917605939
-0.00012861945454545454,0.7233978080882403,0.00130305109176152
-0.00012859945454545455,0.7321111356064381,0.002321369861252829
-0.00012857945454545456,0.7505431745872321,0.0026608094510833682
-0.00012855945454545454,0.7421649750505074,0.001981930271421981
-0.00012853945454545455,0.7461865108281334,0.001981930271421981
-0.00012851945454545456,0.7582511181610165,0.001981930271421981
-0.00012849945454545454,0.7679698296236337,0.0030002490409140616
-0.00012847945454545455,0.7830505887897377,0.0030002490409140616
-0.00012845945454545454,0.8115364672146028,0.002321369861253909
-0.00012843945454545455,0.7994718598817299,0.0036791282205748312
-0.00012841945454545456,0.8098608273072682,0.0023213698612526744
-0.00012839945454545454,0.7971259640114432,0.003000249040913753
-0.00012837945454545455,0.8014826277705399,0.0023213698612526744
-0.00012835945454545453,0.815222875010778,0.002321369861252983
-0.00012833945454545454,0.8192444107884079,0.0026608094510827507
-0.00012831945454545456,0.8282928662880703,0.0013030510917605939
-0.00012829945454545454,0.8433736254541767,0.0036791282205739053
-0.00012827945454545455,0.8383467057321495,0.0019819302714225986
-0.00012825945454545456,0.8497410571020895,0.003339688630744138
-0.00012823945454545454,0.8651569442496738,0.004018567810405525
-0.00012821945454545455,0.8631461763608599,0.0026608094510833682
-0.00012819945454545454,0.864151560305267,0.003000249040914679
-0.00012817945454545455,0.8638164323238043,0.0036791282205752944
-0.00012815945454545456,0.8772215515825634,0.003339688630744755
-0.00012813945454545454,0.9087235818406383,0.004018567810404907
-0.00012811945454545455,0.8829187272675386,0.0026608094510833682
-0.00012809945454545453,0.8866051350637129,0.003000249040914988
-0.00012807945454545454,0.9016858942298139,0.004018567810405679
-0.00012805945454545455,0.9103992217480074,0.0030002490409140616
-0.00012803945454545454,0.9144207575256308,0.0019819302714232157
-0.00012801945454545455,0.9077181978962569,0.0033396886307449094
-0.00012799945454545456,0.9134153735812296,0.003679128220575449
-0.00012797945454545454,0.9137505015626982,0.0046974469900673745
-0.00012795945454545455,0.9127451176182912,0.0043580074002368355
-0.00012793945454545454,0.9271556208214883,0.004018567810406451
-0.00012791945454545455,0.9539658593389931,0.00435800740023699
-0.00012789945454545456,0.9512848354872413,0.004697446990067529
-0.00012787945454545454,0.9462579157651799,0.004018567810405833
-0.00012785945454545455,0.9194476772476738,0.003679128220575449
-0.00012783945454545456,0.9284961327473363,0.0033396886307449094
-0.00012781945454545454,0.965025082727474,0.004697446990067683
-0.00012779945454545455,0.9613386749313152,0.005036886579898223
-0.00012777945454545454,0.9308420286176301,0.003679128220576375
-0.00012775945454545455,0.9372094602655481,0.00469744699006722
-0.00012773945454545456,0.9596630350239695,0.004018567810406142
-0.00012771945454545454,0.9512848354872434,0.003339688630745218
-0.00012769945454545455,0.9559766272278092,0.0043580074002368355
-0.00012767945454545453,0.9720627703383232,0.0036791282205757576
-0.00012765945454545454,0.9673709785977548,0.004018567810405988
-0.00012763945454545455,0.9569820111722165,0.003679128220575449
-0.00012761945454545454,0.9663655946533543,0.00401856781040676
-0.00012759945454545455,0.968711490523632,0.00469744699006722
-0.00012757945454545456,0.9596630350239737,0.004018567810406451
-0.00012755945454545454,0.9563117552092869,0.0043580074002368355
-0.00012753945454545455,0.9754140501530187,0.0043580074002368355
-0.00012751945454545454,0.9737384102456798,0.005036886579897297
-0.00012749945454545455,0.9811112258379842,0.004018567810405833
-0.00012747945454545456,0.9596630350239695,0.003339688630744755
-0.00012745945454545454,0.9747437941900546,0.0043580074002356
-0.00012743945454545455,0.9462579157652043,0.0030002490409140616
-0.00012741945454545456,0.9596630350239634,0.004358007400236218
-0.00012739945454545454,0.9502794515428388,0.004358007400237144
-0.00012737945454545455,0.9610035469498461,0.005036886579898223
-0.00012735945454545454,0.9506145795242839,0.004018567810405833
-0.00012733945454545455,0.9295015166917483,0.003679128220575449
-0.00012731945454545456,0.9305069006361552,0.003679128220575449
-0.00012729945454545454,0.9539658593389927,0.004697446990066911
-0.00012727945454545455,0.9502794515428339,0.003339688630744755
-0.00012725945454545453,0.9462579157651937,0.002660809451083986
-0.00012723945454545455,0.9345284364137897,0.003339688630744755
-0.00012721945454545456,0.9452525318207969,0.003339688630744755
-0.00012719945454545454,0.9429066359505228,0.004018567810405833
-0.00012717945454545455,0.9536307313575324,0.003679128220575912
-0.00012715945454545456,0.9693817464865672,0.004697446990067066
-0.00012713945454545454,0.9579873951166207,0.004358007400236527
-0.00012711945454545455,0.9509497075057721,0.003679128220575449
-0.00012709945454545454,0.9311771565990858,0.005036886579897914
-0.00012707945454545455,0.922798957062361,0.00469744699006722
-0.00012705945454545456,0.9137505015626987,0.004018567810406142
-0.00012703945454545454,0.9110694777109497,0.0030002490409145248
-0.00012701945454545455,0.9201179332106122,0.004018567810406142
-0.00012699945454545453,0.9070479419333131,0.004358007400235909
-0.00012697945454545454,0.903696662118626,0.0033396886307449094
-0.00012695945454545455,0.9063776859703778,0.003679128220575449
-0.00012693945454545454,0.909393837803596,0.004018567810406451
-0.00012691945454545455,0.9050371740445032,0.004358007400236372
-0.00012689945454545456,0.909393837803598,0.003339688630745218
-0.00012687945454545454,0.9006805102854041,0.003679128220575603
-0.00012685945454545455,0.9040317901000939,0.004018567810406142
-0.00012683945454545454,0.8819133433231263,0.002660809451083986
-0.00012681945454545455,0.8765512956196246,0.0033396886307449094
-0.00012679945454545456,0.8752107836937486,0.003679128220575449
-0.00012677945454545454,0.8534274648982655,0.002321369861253909
-0.00012675945454545455,0.8648218162682055,0.003679128220575449
-0.00012673945454545456,0.8698487359902403,0.0026608094510838314
-0.00012671945454545454,0.8718595038790384,0.0030002490409140616
-0.00012669945454545455,0.8303036341768851,0.0030002490409140616
-0.00012667945454545454,0.8524220809538368,0.00367912822057514
-0.00012665945454545455,0.8403574736209487,0.0033396886307441374
-0.00012663945454545456,0.8175687708810582,0.001981930271421981
-0.00012661945454545454,0.8313090181212851,0.0019819302714224442
-0.00012659945454545455,0.8148877470293051,0.0030002490409140616
-0.00012657945454545453,0.7947800681411494,0.0016424906815919048
-0.00012655945454545454,0.7860667406229549,0.002321369861252983
-0.00012653945454545456,0.7750075172344786,0.0030002490409140616
-0.00012651945454545454,0.7843911007156085,0.00198193027142229
-0.00012649945454545455,0.7780236690676999,0.0023213698612526744
-0.00012647945454545456,0.7763480291603558,0.0023213698612526744
-0.00012645945454545454,0.7461865108281408,0.00198193027142229
-0.00012643945454545455,0.7626077819201207,0.0026608094510833682
-0.00012641945454545454,0.7535593264204667,0.0026608094510827507
-0.00012639945454545455,0.7672995736606829,0.0019819302714218267
-0.00012637945454545456,0.7548998383463307,0.0016424906815912875
-0.00012635945454545454,0.74551625486518,0.0036791282205739053
-0.00012633945454545455,0.7290949837732077,0.001981930271421981
-0.00012631945454545453,0.7277544718473161,0.0013030510917621376
-0.00012629945454545454,0.7113332007553365,0.003000249040913907
-0.00012627945454545455,0.6952470576448254,0.0026608094510833682
-0.00012625945454545454,0.7066414090147551,0.002660809451082442
-0.00012623945454545455,0.6838527062748672,0.0016424906815908243
-0.00012621945454545456,0.6664260512384881,0.0006241719120996701
-0.00012619945454545454,0.6597234916090869,0.0016424906815917506
-0.00012617945454545455,0.6362645329062585,0.0026608094510833682
-0.00012615945454545454,0.6252053095177821,0.0019819302714232157
-0.00012613945454545455,0.6305673572212862,0.0033396886307441374
-0.00012611945454545456,0.6372699168506658,0.001981930271421981
-0.00012609945454545454,0.6054327586110957,0.0013030510917599765
-0.00012607945454545455,0.6024166067778762,0.0006241719120992069
-0.00012605945454545456,0.6158217260366354,0.0016424906815908243
-0.00012603945454545454,0.5963843031114302,0.0016424906815909787
-0.00012601945454545455,0.5926978953152715,0.0009636115019299004
-0.00012599945454545454,0.5947086632040604,0.0016424906815915962
-0.00012597945454545455,0.566222784779205,0.0019819302714218267
-0.00012595945454545456,0.5548284334092597,0.0016424906815912875
-0.00012593945454545454,0.5504717696501494,0.0019819302714209007
-0.00012591945454545455,0.5250020430585071,-0.00039414685739287377
-0.00012589945454545453,0.4978566765595157,-0.001073026037051791
-0.00012587945454545454,0.5069051320591683,0.001642490681591133
-0.00012585945454545455,0.4945053967448162,0.0013030510917605939
-0.00012583945454545454,0.4787543816157494,-0.0003941468573922563
-0.00012581945454545455,0.4593169586905529,0.00028473232226882203
-0.00012579945454545456,0.4492631192464881,0.0009636115019295917
-0.00012577945454545454,0.4502685031908967,0.0006241719120990525
-0.00012575945454545455,0.4630033664867179,0.0002847323222685133
-0.00012573945454545454,0.43820389585798974,0.0002847323222685133
-0.00012571945454545455,0.42446364861776054,0.00028473232226882203
-0.00012569945454545456,0.4083775055072496,0.0009636115019299004
-0.00012567945454545454,0.4010046899149074,0.0009636115019295917
-0.00012565945454545455,0.37754573121208956,0.0006241719120992069
-0.00012563945454545453,0.37184855552711404,0.0009636115019292829
-0.00012561945454545454,0.37151342754563166,0.00028473232226835897
-0.00012559945454545455,0.3416870371948926,-5.470726756218023e-05
-0.00012557945454545454,0.338670885361671,-0.0017519052167147217
-0.00012555945454545455,0.3393411413245977,-0.0007335864472240303
-0.00012553945454545456,0.31521192665883124,-0.0017519052167156478
-0.00012551945454545454,0.30750398308503973,-0.0007335864472234129
-0.00012549945454545455,0.30415270327034993,-0.00039414685739287377
-0.00012547945454545453,0.30214193538152206,0.0002847323222675871
-0.00012545945454545455,0.28773143217834657,-0.0007335864472234129
-0.00012543945454545456,0.2525429941241038,-0.00039414685739287377
-0.00012541945454545454,0.2582401698090629,-0.0007335864472238759
-0.00012539945454545455,0.24047838679121508,-0.0010730260370542608
-0.00012537945454545456,0.2321001872544906,-0.0007335864472237216
-0.00012535945454545454,0.21903019597718615,-0.0007335864472238759
-0.00012533945454545455,0.2089763565331168,-0.0014124656268849544
-0.00012531945454545454,0.18250124599705547,-0.001412465626884337
-0.00012529945454545455,0.182501245997057,-0.0007335864472237216
-0.00012527945454545456,0.18585252581174677,-0.0010730260370542608
-0.00012525945454545454,0.17780945425647987,-0.00039414685739364556
-0.00012523945454545455,0.16071792720156197,-0.0020913448065463416
-0.00012521945454545453,0.11949718548083331,-0.0007335864472232586
-0.00012519945454545454,0.09134643503745742,-0.00039414685739333683
-0.00012517945454545455,0.10341104237034063,-0.0014124656268849544
-0.00012515945454545454,0.07123875614930895,-0.0017519052167159566
-0.00012513945454545455,0.07660080385280348,-0.0020913448065458785
-0.00012511945454545456,0.06185517266817514,-0.001073026037054724
-0.00012509945454545454,0.0585038928534756,-0.0024307843963768806
-0.00012507945454545455,0.05515261303878582,-0.0020913448065463416
-0.00012505945454545454,0.028677502502704684,-0.002770223986206802
-0.00012503945454545455,0.006894183707218656,-0.0017519052167159566
-0.00012501945454545456,-0.020251182791768584,-0.002430784396377035
-0.00012499945454545454,-0.038012965809636166,-0.0027702239862077284
-0.00012497945454545455,-0.04203450158726208,-0.0027702239862077284
-0.00012495945454545456,-0.029969894254378862,-0.0027702239862077284
-0.00012493945454545454,-0.03365630205054692,-0.002430784396377498
-0.00012491945454545455,-0.06247730845687905,-0.0034491031658691156
-0.00012489945454545454,-0.06247730845687265,-0.002430784396377035
-0.00012487945454545455,-0.055439620846027764,-0.0024307843963773438
-0.00012485945454545456,-0.0564450047904347,-0.003109663576038422
-0.00012483945454545454,-0.080909347437691,-0.003449103165868961
-0.00012481945454545455,-0.1023575382517056,-0.003109663576038422
-0.00012479945454545453,-0.10068189834438739,-0.003109663576038731
-0.00012477945454545454,-0.13084341667658128,-0.0034491031658691156
-0.00012475945454545456,-0.12983803273217434,-0.0034491031658691156
-0.00012473945454545454,-0.13821623226893062,-0.004127982345529267
-0.00012471945454545455,-0.1690480065640733,-0.002770223986208037
-0.00012469945454545456,-0.19250696526689112,-0.0034491031658688068
-0.00012467945454545454,-0.2122795161735849,-0.00514630111502212
-0.00012465945454545455,-0.22199822763618526,-0.004127982345530502
-0.00012463945454545454,-0.2380843707466877,-0.004127982345529576
-0.00012461945454545455,-0.22065771571030887,-0.0031096635760385766
-0.00012459945454545456,-0.22099284369177788,-0.0034491031658691156
-0.00012457945454545454,-0.2451220583575693,-0.004806861525191427
-0.00012455945454545455,-0.2759538326527153,-0.003788542755699809
-0.00012453945454545453,-0.2658999932086694,-0.004127982345529576
-0.00012451945454545454,-0.29673176750381325,-0.0031096635760388854
-0.00012449945454545455,-0.3228717500583936,-0.004127982345530502
-0.00012447945454545454,-0.30242894318880403,-0.0037885427557007353
-0.00012445945454545455,-0.3325904615210031,-0.004806861525191581
-0.00012443945454545456,-0.3429794289465367,-0.004127982345530811
-0.00012441945454545454,-0.3664383876493789,-0.004806861525191427
-0.00012439945454545455,-0.3627519798532201,-0.003788542755699809
-0.00012437945454545454,-0.369119411501147,-0.004467421935360888
-0.00012435945454545455,-0.3838650426857799,-0.004127982345530657
-0.00012433945454545456,-0.39391888212984927,-0.0044674219353611965
-0.00012431945454545454,-0.40564836148128686,-0.00480686152519189
-0.00012429945454545455,-0.42542091238794755,-0.00480686152519189
-0.00012427945454545456,-0.4264262963323545,-0.005146301115022429
-0.00012425945454545454,-0.4291073201841115,-0.005146301115021966
-0.00012423945454545455,-0.43681526375789803,-0.003788542755699809
-0.00012421945454545454,-0.4411719275170131,-0.005485740704852659
-0.00012419945454545455,-0.45926883851633543,-0.00480686152519189
-0.00012417945454545456,-0.4716685738306876,-0.00480686152519189
-0.00012415945454545454,-0.5051813719776059,-0.005146301115022583
-0.00012413945454545455,-0.5165757233475511,-0.005146301115022583
-0.00012411945454545453,-0.5068570118849565,-0.004127982345531737
-0.00012409945454545454,-0.5179162352734356,-0.0054857407048535855
-0.00012407945454545456,-0.5353428903098224,-0.006164619884514664
-0.00012405945454545454,-0.5299808426063466,-0.004806861525192816
-0.00012403945454545455,-0.5631585127717645,-0.0058251802946841244
-0.00012401945454545456,-0.5725420962528918,-0.00616461988451451
-0.00012399945454545454,-0.5913092632151612,-0.006504059474344586
-0.00012397945454545455,-0.577904143956402,-0.00480686152519189
-0.00012395945454545454,-0.5836013196413956,-0.005146301115024127
-0.00012393945454545455,-0.6037089985295223,-0.0068434990641754335
-0.00012391945454545456,-0.5976766948630807,-0.005485740704853277
-0.00012389945454545454,-0.6164438618253734,-0.005146301115023818
-0.00012387945454545455,-0.6399028205281913,-0.006504059474345358
-0.00012385945454545453,-0.6311894930100139,-0.005146301115022892
-0.00012383945454545454,-0.6533079397869552,-0.005485740704853431
-0.00012381945454545455,-0.6506269159352034,-0.00582518029468397
-0.00012379945454545454,-0.6466053801575848,-0.00514630111502351
-0.00012377945454545455,-0.658669987490476,-0.00616461988451451
-0.00012375945454545456,-0.688161249859746,-0.00582518029468397
-0.00012373945454545454,-0.6884963778412263,-0.005485740704853277
-0.00012371945454545455,-0.7129607204884617,-0.005485740704853277
-0.00012369945454545453,-0.691847657655918,-0.005146301115023201
-0.00012367945454545455,-0.7045825209517472,-0.005825180294684433
-0.00012365945454545456,-0.7347440392839552,-0.006843499064176051
-0.00012363945454545454,-0.734408911302476,-0.00650405947434474
-0.00012361945454545455,-0.7233496879140048,-0.00582518029468397
-0.00012359945454545456,-0.7347440392839499,-0.00582518029468397
-0.00012357945454545454,-0.7300522475434043,-0.006164619884514664
-0.00012355945454545455,-0.7672514534864608,-0.006164619884514664
-0.00012353945454545454,-0.7779755488934829,-0.0054857407048535855
-0.00012351945454545455,-0.7886996443004823,-0.00582518029468397
-0.00012349945454545456,-0.7823322126525718,-0.00582518029468397
-0.00012347945454545454,-0.7907104121893006,-0.006164619884514664
-0.00012345945454545455,-0.7920509241151765,-0.006164619884514664
-0.00012343945454545453,-0.7799863167823009,-0.00582518029468397
-0.00012341945454545454,-0.7943968199854732,-0.005825180294684279
-0.00012339945454545455,-0.8225475704288674,-0.006504059474345358
-0.00012337945454545454,-0.8131639869477387,-0.007182938654005818
-0.00012335945454545455,-0.8208719305215193,-0.0061646198845151275
-0.00012333945454545456,-0.8155098828180182,-0.007182938654006281
-0.00012331945454545454,-0.8413147373911454,-0.007182938654006281
-0.00012329945454545455,-0.8560603685757805,-0.006164619884514664
-0.00012327945454545454,-0.8506983208722966,-0.00582518029468397
-0.00012325945454545455,-0.875162663519521,-0.005825180294684742
-0.00012323945454545456,-0.875162663519521,-0.007522378243837438
-0.00012321945454545454,-0.8708059997604211,-0.005825180294684896
-0.00012319945454545455,-0.8694654878345457,-0.006843499064176051
-0.00012317945454545456,-0.8758329194824563,-0.006164619884514973
-0.00012315945454545454,-0.8835408630562517,-0.006843499064175279
-0.00012313945454545455,-0.8889029107597554,-0.005146301115022583
-0.00012311945454545454,-0.8832057350747792,-0.005825180294684588
-0.00012309945454545455,-0.8822003511303808,-0.006504059474345203
-0.00012307945454545456,-0.8999621341482367,-0.006164619884514664
